Name,OutCode,Time,Mem
glucose_onlysym.sh+001-80-12.cnf.brk+b90d49f0,0,0.0,1480,nosym
glucose_onlysym.sh+002-23-96.cnf.brk+8648c244,0,3697.41,164476
glucose_onlysym.sh+002-80-12.cnf.brk+12e8b431,0,0.0,1476,nosym
glucose_onlysym.sh+002-80-4.cnf.brk+6e1d7c98,0,0.0,1480,nosym
glucose_onlysym.sh+002-80-8.cnf.brk+bf2f389c,0,0.0,1476,nosym
glucose_onlysym.sh+003-23-80.cnf.brk+72402160,0,3698.05,162824
glucose_onlysym.sh+003-80-8.cnf.brk+a10d023b,0,0.0,1480,nosym
glucose_onlysym.sh+004-22-144.cnf.brk+4a73925b,0,3698.11,169276
glucose_onlysym.sh+004-22-160.cnf.brk+e1f4b895,0,3698.24,168396
glucose_onlysym.sh+004-80-8.cnf.brk+82eacbda,0,0.0,1480,nosym
glucose_onlysym.sh+005-22-160.cnf.brk+c3869674,0,3698.16,167644
glucose_onlysym.sh+005-80-12.cnf.brk+207af2f4,0,0.0,1476,nosym
glucose_onlysym.sh+006-22-144.cnf.brk+d974e19,0,3696.77,165156
glucose_onlysym.sh+006-22-160.cnf.brk+a5187453,0,3697.32,167516
glucose_onlysym.sh+006-23-80.cnf.brk+7fd26023,0,3698.41,165316
glucose_onlysym.sh+006-23-96.cnf.brk+edb66b48,0,3697.72,163068
glucose_onlysym.sh+006-80-4.cnf.brk+f594a314,0,0.0,1480,nosym
glucose_onlysym.sh+007-80-12.cnf.brk+d431c776,0,0.0,1476,nosym
glucose_onlysym.sh+007-80-8.cnf.brk+288428b7,0,0.0,1480,nosym
glucose_onlysym.sh+008-80-12.cnf.brk+2e0d31b7,0,0.0,1480,nosym
glucose_onlysym.sh+008-80-4.cnf.brk+b9503652,0,0.0,1480,nosym
glucose_onlysym.sh+008-80-8.cnf.brk+a61f256,0,0.0,1476,nosym
glucose_onlysym.sh+009-23-64.cnf.brk+f5e378ac,0,3697.26,158988
glucose_onlysym.sh+009-80-4.cnf.brk+9b2dfff1,0,0.0,1480,nosym
glucose_onlysym.sh+009-80-8.cnf.brk+ec3fbbf5,0,0.0,1476,nosym
glucose_onlysym.sh+010-22-144.cnf.brk+14d5f8e0,0,3697.86,166140
glucose_onlysym.sh+010-22-160.cnf.brk+ac571f1a,0,3698.04,166444
glucose_onlysym.sh+010-23-80.cnf.brk+463fc07c,0,3698.05,159200
glucose_onlysym.sh+010-80-12.cnf.brk+40c3bd8e,0,0.0,1480,nosym
glucose_onlysym.sh+10pipe_q0_k.cnf.brk+2e2f8433,0,158.54,245532,3870,1293990,12389877,1566926506,UNSATISFIABLE,
glucose_onlysym.sh+11pipe_11_ooo.cnf.brk+e2d10ff7,0,3696.56,539876
glucose_onlysym.sh+11pipe_k.cnf.brk+57383f78,0,3695.96,843960
glucose_onlysym.sh+11pipe_q0_k.cnf.brk+f2c16652,0,627.54,403672,4683,4909453,29716457,6561298864,UNSATISFIABLE,
glucose_onlysym.sh+12pipe_q0_k.cnf.brk+b7534871,0,839.43,512212,7447,5653162,43979572,8478047888,UNSATISFIABLE,
glucose_onlysym.sh+13pipe_q0_k.cnf.brk+7be52a90,0,738.57,591560,7465,1967684,42200025,6149201260,UNSATISFIABLE,
glucose_onlysym.sh+14pipe_q0_k.cnf.brk+40770caf,0,1309.92,806600,10561,3236258,67053314,11588664791,UNSATISFIABLE,
glucose_onlysym.sh+15pipe_q0_k.cnf.brk+508eece,0,1744.64,1024428,13785,3176127,98956330,14271715987,UNSATISFIABLE,
glucose_onlysym.sh+289-unsat-6x30.cnf.brk+248e7f39,0,0.55,10884,241,29992,129957,3601077,SATISFIABLE,
glucose_onlysym.sh+5-SATISFIABLE.cnf.brk+5508d609,0,1086.31,191692,16057,3974221,6519514,3232237610,SATISFIABLE,
glucose_onlysym.sh+6s10.cnf.brk+e86ea91a,0,793.45,124284,19073,4419840,9631337,2031616068,UNSATISFIABLE,
glucose_onlysym.sh+6s11-opt.cnf.brk+641e0d01,0,264.08,95312,10625,2920725,7173684,597980495,UNSATISFIABLE,
glucose_onlysym.sh+6s12.cnf.brk+10f7871c,0,827.01,137280,20568,4617776,10604189,2206664085,UNSATISFIABLE,
glucose_onlysym.sh+6s123.cnf.brk+3c70bc8b,0,3698.19,699352
glucose_onlysym.sh+6s126-opt.cnf.brk+d61d0cf4,0,0.0,1480,nosym
glucose_onlysym.sh+6s13-opt.cnf.brk+41241a03,0,386.8,104860,15028,3647006,11550962,860545141,UNSATISFIABLE,
glucose_onlysym.sh+6s130-opt.cnf.brk+20e8af8d,0,259.99,102144,11587,3809734,14779544,682338932,UNSATISFIABLE,
glucose_onlysym.sh+6s131-opt.cnf.brk+f6bb60e,0,322.89,108584,11178,3918242,14291387,695660704,UNSATISFIABLE,
glucose_onlysym.sh+6s133.cnf.brk+30ba2daa,0,833.27,157072,23427,5807652,30194093,2721684786,UNSATISFIABLE,
glucose_onlysym.sh+6s137.cnf.brk+81cbe9ae,0,3698.3,610460
glucose_onlysym.sh+6s151.cnf.brk+f0c431e6,0,3698.63,189300
glucose_onlysym.sh+6s153.cnf.brk+194d0fe8,0,174.38,130692,9210,2219375,7836365,717163704,UNSATISFIABLE,
glucose_onlysym.sh+6s16-opt.cnf.brk+cad2d86,0,355.85,90344,12684,3304490,7390699,649925677,UNSATISFIABLE,
glucose_onlysym.sh+6s16.cnf.brk+62094320,0,559.3,118608,14779,3429188,7979247,1602754613,UNSATISFIABLE,
glucose_onlysym.sh+6s165-nonopt.cnf.brk+feb7487e,0,143.31,49668,3550,1593185,1948873,281940321,UNSATISFIABLE,
glucose_onlysym.sh+6s167-opt.cnf.brk+4c1739f1,0,55.56,32564,2099,1079336,1308122,74089333,UNSATISFIABLE,
glucose_onlysym.sh+6s168-opt.cnf.brk+3a9a4072,0,0.0,1480,nosym
glucose_onlysym.sh+6s169-opt.cnf.brk+291d46f3,0,113.02,51412,3266,2021880,2509456,190596885,UNSATISFIABLE,
glucose_onlysym.sh+6s17-opt.cnf.brk+fb303407,0,334.66,105876,12204,3322808,10706053,721294908,UNSATISFIABLE,
glucose_onlysym.sh+6s184.cnf.brk+8a6dd246,0,712.46,135352,19830,3941441,10906180,1866358343,UNSATISFIABLE,
glucose_onlysym.sh+6s9.cnf.brk+2a194b52,0,880.83,141144,21444,4747351,10941315,2176409507,UNSATISFIABLE,
glucose_onlysym.sh+7pipe_k.cnf.brk+f053f487,0,33.03,226968,1147,360550,2659834,233516687,UNSATISFIABLE,
glucose_onlysym.sh+8pipe_k.cnf.brk+4a2f5ec8,0,1859.72,803492,5793,10689294,32539352,7992639096,UNSATISFIABLE,
glucose_onlysym.sh+9dlx_vliw_at_b_iq3.cnf.brk+9fd85a33,0,103.58,159188,3588,945106,19382506,686808605,UNSATISFIABLE,
glucose_onlysym.sh+9dlx_vliw_at_b_iq4.cnf.brk+341cc934,0,193.73,191760,5193,1110274,30696608,1205108573,UNSATISFIABLE,
glucose_onlysym.sh+9dlx_vliw_at_b_iq6.used-as.sat04-347.cnf.brk+8b2e842f,0,548.19,415780,10231,1704292,64400077,3406921960,UNSATISFIABLE,
glucose_onlysym.sh+9dlx_vliw_at_b_iq7.cnf.brk+f0ea1637,0,822.32,626260,11539,1953785,90487086,5921615847,UNSATISFIABLE,
glucose_onlysym.sh+9dlx_vliw_at_b_iq8.used-as.sat04-718.cnf.brk+8cb8c59,0,1212.5,761192,16674,2114553,132227043,8548278010,UNSATISFIABLE,
glucose_onlysym.sh+9dlx_vliw_at_b_iq9.cnf.brk+1972f439,0,1744.25,984420,19642,2386192,166980883,11818654000,UNSATISFIABLE,
glucose_onlysym.sh+9vliw_m_9stages_iq3_C1_bug1.cnf.brk+92de674b,0,44.61,1260320,112,18217,3723888,328901832,SATISFIABLE,
glucose_onlysym.sh+9vliw_m_9stages_iq3_C1_bug10.cnf.brk+3a989539,0,43.03,1259404,148,24977,3818179,387665471,SATISFIABLE,
glucose_onlysym.sh+9vliw_m_9stages_iq3_C1_bug3.cnf.brk+bb67454d,0,19.3,1261728,24,8528,2215167,64188744,SATISFIABLE,
glucose_onlysym.sh+9vliw_m_9stages_iq3_C1_bug4.cnf.brk+4fabb44e,0,41.35,1259648,87,19417,3695882,281067119,SATISFIABLE,
glucose_onlysym.sh+9vliw_m_9stages_iq3_C1_bug7.cnf.brk+c790151,0,12.43,1261212,5,1449,1719714,16448622,SATISFIABLE,
glucose_onlysym.sh+9vliw_m_9stages_iq3_C1_bug8.cnf.brk+a0bd7052,0,69.9,1262460,251,39744,4685882,569644759,SATISFIABLE,
glucose_onlysym.sh+9vliw_m_9stages_iq3_C1_bug9.cnf.brk+3501df53,0,67.36,1259504,248,34044,3867289,564026415,SATISFIABLE,
glucose_onlysym.sh+ACG-15-10p0.cnf.brk+eaca3736,0,0.0,1480,nosym
glucose_onlysym.sh+ACG-15-10p1.cnf.brk+7f0ea637,0,0.0,1480,nosym
glucose_onlysym.sh+ACG-20-10p1.cnf.brk+6f95205d,0,0.0,1480,nosym
glucose_onlysym.sh+ACG-20-5p0.cnf.brk+79440d4c,0,0.0,1480,nosym
glucose_onlysym.sh+ACG-20-5p1.cnf.brk+d887c4d,0,0.0,1480,nosym
glucose_onlysym.sh+AProVE07-01.cnf.brk+71d62882,0,0.0,1476,nosym
glucose_onlysym.sh+AProVE07-03.cnf.brk+9a5f0684,0,0.0,1480,nosym
glucose_onlysym.sh+AProVE07-08.cnf.brk+7fb53189,0,0.0,1480,nosym
glucose_onlysym.sh+AProVE07-27.cnf.brk+d403a4c6,0,497.24,80268,6741,2721062,3374494,1035319290,UNSATISFIABLE,
glucose_onlysym.sh+AProVE09-06.cnf.brk+668f9e45,0,547.75,129284,1900,834873,1326714,3013291073,SATISFIABLE,
glucose_onlysym.sh+Chvatal-k5.cnf.brk+874f3be8,0,0.04,5148,3,318,1680,40123,SATISFIABLE,
glucose_onlysym.sh+Composite-024BitPrimes-1.used-as.sat04-861.cnf.brk+25da298f,0,355.71,51836,2236,2158143,2283409,493946529,SATISFIABLE,
glucose_onlysym.sh+Composite-024BitPrimes-1.used-as.sat04-861.cnf.brk+7ad834b7,0,353.26,54736,2236,2158143,2283409,493946529,SATISFIABLE,
glucose_onlysym.sh+E02F20.cnf.brk+484b2fdb,0,0.0,1480,nosym
glucose_onlysym.sh+E02F22.cnf.brk+70d40ddd,0,0.0,1480,nosym
glucose_onlysym.sh+EDP3-10000.cnf.brk+792fb6c6,0,3695.77,195396
glucose_onlysym.sh+EDP3-11000.cnf.brk+80e15c25,0,3697.85,220432
glucose_onlysym.sh+EDP3-12000.cnf.brk+88930184,0,3698.25,231260
glucose_onlysym.sh+EDP3-13000.cnf.brk+9044a6e3,0,3697.27,242360
glucose_onlysym.sh+EDP3-14000.cnf.brk+97f64c42,0,3697.72,262672
glucose_onlysym.sh+EDP3-15000.cnf.brk+9fa7f1a1,0,3697.43,255256
glucose_onlysym.sh+EDP3-16000.cnf.brk+a7599700,0,3697.49,229160
glucose_onlysym.sh+EDP3-17000.cnf.brk+af0b3c5f,0,3697.91,237524
glucose_onlysym.sh+EDP3-18000.cnf.brk+b6bce1be,0,3698.14,247096
glucose_onlysym.sh+EDP3-19000.cnf.brk+be6e871d,0,3698.11,260564
glucose_onlysym.sh+EDP3-20000.cnf.brk+67b2bd47,0,3696.88,267884
glucose_onlysym.sh+EDP3-30000.cnf.brk+5635c3c8,0,3697.88,355208
glucose_onlysym.sh+EDP3-40000.cnf.brk+44b8ca49,0,3700.51,478496
glucose_onlysym.sh+EDP3-50000.cnf.brk+333bd0ca,0,3697.11,599704
glucose_onlysym.sh+EDP3-60000.cnf.brk+21bed74b,0,3697.46,642204
glucose_onlysym.sh+EDP3-70000.cnf.brk+1041ddcc,0,3697.53,771964
glucose_onlysym.sh+EDP3-8000.cnf.brk+5721e5b7,0,16.81,70916,414,67794,1006871,74531046,SATISFIABLE,
glucose_onlysym.sh+EDP3-80000.cnf.brk+fec4e44d,0,3696.8,911700
glucose_onlysym.sh+EDP3-9000.cnf.brk+5ed38b16,0,232.06,113240,5821,994439,12968137,1219643512,SATISFIABLE,
glucose_onlysym.sh+EDP3-90000.cnf.brk+ed47eace,0,3696.97,1045364
glucose_onlysym.sh+FlowerSnark-k6.cnf.brk+45356c14,0,356.82,90908,7305,2101998,4905475,806019819,UNSATISFIABLE,
glucose_onlysym.sh+GreenTao_2-3-6_2071.cnf.brk+adab3aa,0,0.0,1480,nosym
glucose_onlysym.sh+GreenTao_2-4-4_511.cnf.brk+e7e75676,0,3698.08,203316
glucose_onlysym.sh+Hidoku_enu_6.cnf.brk+7f4fc45a,0,8.0,32356,1242,156305,576806,19755057,SATISFIABLE,
glucose_onlysym.sh+Hidoku_enu_7.cnf.brk+1394335b,0,1595.84,208500,46477,6399602,29178250,1178715356,SATISFIABLE,
glucose_onlysym.sh+IBM_FV_2004_rule_batch_1_31_1_SAT_dat.k40.debugged.cnf.brk+8e476cba,0,3696.14,172508
glucose_onlysym.sh+LABS_n038_goal002.cnf.brk+e36d4014,0,0.0,1480,nosym
glucose_onlysym.sh+LABS_n044_goal003.cnf.brk+f99c1930,0,720.56,69532,135,1621211,1759448,2841388939,SATISFIABLE,
glucose_onlysym.sh+LABS_n045_goal003.cnf.brk+4a45f731,0,3698.39,147576
glucose_onlysym.sh+LABS_n051_goal004.cnf.brk+6074d04d,0,2798.39,156236,94,4291905,4603043,10240956341,SATISFIABLE,
glucose_onlysym.sh+LABS_n052_goal004.cnf.brk+b11eae4e,0,427.63,66680,275,680879,763094,1745116754,SATISFIABLE,
glucose_onlysym.sh+LABS_n066_goal005.cnf.brk+4c9c7772,0,3701.32,178556
glucose_onlysym.sh+LABS_n078_goal006.cnf.brk+46c68494,0,3085.55,212752,9350,2239071,3170779,13599568679,SATISFIABLE,
glucose_onlysym.sh+LABS_n081_goal007.cnf.brk+6af7c3ad,0,441.71,174448,36,193565,210262,1328526092,SATISFIABLE,
glucose_onlysym.sh+LABS_n082_goal007.cnf.brk+bba1a1ae,0,3697.67,238136
glucose_onlysym.sh+LABS_n088_goal008.cnf.brk+33e144b5,0,3698.82,258848
glucose_onlysym.sh+MD5-27-4.cnf.brk+8a784bd9,0,0.0,1476,nosym
glucose_onlysym.sh+MD5-28-1.cnf.brk+628fb197,0,0.0,1476,nosym
glucose_onlysym.sh+MD5-28-2.cnf.brk+f6d42098,0,0.0,1480,nosym
glucose_onlysym.sh+MD5-28-3.cnf.brk+8b188f99,0,0.0,1480,nosym
glucose_onlysym.sh+MD5-28-4.cnf.brk+1f5cfe9a,0,0.0,1476,nosym
glucose_onlysym.sh+MD5-28-5.cnf.brk+b3a16d9b,0,0.0,1480,nosym
glucose_onlysym.sh+MD5-29-2.cnf.brk+8bb8d359,0,0.0,1480,nosym
glucose_onlysym.sh+MD5-29-3.cnf.brk+1ffd425a,0,0.0,1476,nosym
glucose_onlysym.sh+MD5-29-4.cnf.brk+b441b15b,0,0.0,1480,nosym
glucose_onlysym.sh+MD5-29-5.cnf.brk+4886205c,0,0.0,1480,nosym
glucose_onlysym.sh+MD5-30-1.cnf.brk+c31bc0ee,0,0.0,1480,nosym
glucose_onlysym.sh+MD5-30-2.cnf.brk+57602fef,0,0.0,1480,nosym
glucose_onlysym.sh+MD5-30-4.cnf.brk+7fe90df1,0,0.0,1480,nosym
glucose_onlysym.sh+MD5-30-5.cnf.brk+142d7cf2,0,0.0,1480,nosym
glucose_onlysym.sh+MD5-31-4.cnf.brk+14cdc0b2,0,0.0,1476,nosym
glucose_onlysym.sh+MD5-31-5.cnf.brk+a9122fb3,0,0.0,1480,nosym
glucose_onlysym.sh+MD5-32-1.cnf.brk+ece52670,0,0.0,1476,nosym
glucose_onlysym.sh+MD5-32-2.cnf.brk+81299571,0,0.0,1476,nosym
glucose_onlysym.sh+MD5-32-3.cnf.brk+156e0472,0,0.0,1480,nosym
glucose_onlysym.sh+MD5-32-4.cnf.brk+a9b27373,0,0.0,1480,nosym
glucose_onlysym.sh+MD5-32-5.cnf.brk+3df6e274,0,0.0,1476,nosym
glucose_onlysym.sh+Q32inK09.cnf.brk+538c6a38,0,0.73,4160,24,20894,22720,244407,UNSATISFIABLE,
glucose_onlysym.sh+Q32inK10.cnf.brk+116df44e,0,5.46,10136,9,17247,18699,230824,UNSATISFIABLE,
glucose_onlysym.sh+Q32inK11.cnf.brk+a5b2634f,0,90.11,32996,12,20450,22077,293713,UNSATISFIABLE,
glucose_onlysym.sh+Q3inK10.cnf.brk+26a6959e,0,19.72,17020,1,0,126,168,SATISFIABLE,
glucose_onlysym.sh+Q3inK11.cnf.brk+ebc703b8,0,488.18,57664,1,36,215,455,SATISFIABLE,
glucose_onlysym.sh+Robertson-k8.cnf.brk+31158bca,0,601.16,123352,10274,3262085,6649062,1077549856,UNSATISFIABLE,
glucose_onlysym.sh+SAT_dat.k100-24_1_rule_1.cnf.brk+2b4342c0,0,3697.33,877100
glucose_onlysym.sh+SAT_dat.k100-24_1_rule_2.cnf.brk+bf87b1c1,0,3697.83,881292
glucose_onlysym.sh+SAT_dat.k100-24_1_rule_3.cnf.brk+53cc20c2,0,3697.94,866380
glucose_onlysym.sh+SAT_dat.k30-30_rule.cnf.brk+7d76c5ff,0,2794.17,229892,38311,5559327,10868159,7055899128,SATISFIABLE,
glucose_onlysym.sh+SAT_dat.k35-31_2_rule_2.cnf.brk+98b2f483,0,3697.51,164580
glucose_onlysym.sh+SAT_dat.k70-24_1_rule_1.cnf.brk+7e020b36,0,2860.43,723996,16453,2285258,7810239,12442817333,UNSATISFIABLE,
glucose_onlysym.sh+SAT_dat.k70-24_1_rule_3.cnf.brk+a68ae938,0,2706.7,725380,18012,2355079,8223436,12435554032,UNSATISFIABLE,
glucose_onlysym.sh+SAT_dat.k75-24_1_rule_3.cnf.brk+e587b4bd,0,3697.58,773328
glucose_onlysym.sh+SAT_dat.k80-24_1_rule_1.cnf.brk+487c5d5,0,3698.28,697280
glucose_onlysym.sh+SAT_dat.k80-24_1_rule_2.cnf.brk+98cc34d6,0,3697.64,692124
glucose_onlysym.sh+SAT_dat.k85-24_1_rule_1.cnf.brk+4384915a,0,3698.17,742444
glucose_onlysym.sh+SAT_dat.k85-24_1_rule_2.cnf.brk+d7c9005b,0,3698.31,735572
glucose_onlysym.sh+SAT_dat.k85-24_1_rule_3.cnf.brk+6c0d6f5c,0,3697.77,743344
glucose_onlysym.sh+SAT_dat.k90.debugged.cnf.brk+c7e7204d,0,3694.79,791700
glucose_onlysym.sh+SAT_dat.k95-24_1_rule_1.cnf.brk+ca0a4bf9,0,3696.78,830840
glucose_onlysym.sh+SAT_dat.k95-24_1_rule_2.cnf.brk+5e4ebafa,0,3698.33,825628
glucose_onlysym.sh+SAT_dat.k95-24_1_rule_3.cnf.brk+f29329fb,0,3698.39,829388
glucose_onlysym.sh+SAT_instance_N=111.cnf.brk+6262e851,0,0.0,1480,nosym
glucose_onlysym.sh+SAT_instance_N=31.cnf.brk+3e230692,0,0.0,1480,nosym
glucose_onlysym.sh+SAT_instance_N=33.cnf.brk+66abe494,0,0.0,1480,nosym
glucose_onlysym.sh+SAT_instance_N=43.cnf.brk+5af555b3,0,0.0,1480,nosym
glucose_onlysym.sh+SAT_instance_N=49.cnf.brk+d48fefb9,0,0.0,1476,nosym
glucose_onlysym.sh+SAT_instance_N=55.cnf.brk+77c7a4d4,0,0.0,1476,nosym
glucose_onlysym.sh+SAT_instance_N=63.cnf.brk+438837f1,0,0.0,1480,nosym
glucose_onlysym.sh+SAT_instance_N=69.cnf.brk+bd22d1f7,0,0.0,1480,nosym
glucose_onlysym.sh+SAT_instance_N=72.cnf.brk+a38d3a0f,0,0.0,1480,nosym
glucose_onlysym.sh+SAT_instance_N=75.cnf.brk+605a8712,0,0.0,1480,nosym
glucose_onlysym.sh+SAT_instance_N=77.cnf.brk+88e36514,0,0.0,1476,nosym
glucose_onlysym.sh+SAT_instance_N=85.cnf.brk+54a3f831,0,0.0,1480,nosym
glucose_onlysym.sh+SAT_instance_N=93.cnf.brk+20648b4e,0,0.0,1480,nosym
glucose_onlysym.sh+SAT_instance_N=99.cnf.brk+99ff2554,0,0.0,1480,nosym
glucose_onlysym.sh+UCG-15-10p0.cnf.brk+fc19da4a,0,0.0,1476,nosym
glucose_onlysym.sh+UCG-15-10p1.cnf.brk+905e494b,0,0.0,1476,nosym
glucose_onlysym.sh+UCG-20-10p0.cnf.brk+eca05470,0,0.0,1476,nosym
glucose_onlysym.sh+UCG-20-10p1.cnf.brk+80e4c371,0,0.0,1480,nosym
glucose_onlysym.sh+UCG-20-5p0.cnf.brk+d4a9b7b8,0,0.0,1476,nosym
glucose_onlysym.sh+UCG-20-5p1.cnf.brk+68ee26b9,0,0.0,1476,nosym
glucose_onlysym.sh+UR-15-10p0.cnf.brk+1d9a3b36,0,0.0,1476,nosym
glucose_onlysym.sh+UR-15-10p1.cnf.brk+b1deaa37,0,0.0,1480,nosym
glucose_onlysym.sh+UR-20-10p0.cnf.brk+e20b55c,0,0.0,1480,nosym
glucose_onlysym.sh+UR-20-10p1.cnf.brk+a265245d,0,0.0,1480,nosym
glucose_onlysym.sh+UR-20-5p0.cnf.brk+6a63894c,0,0.0,1480,nosym
glucose_onlysym.sh+UTI-20-10p0.cnf.brk+9ba41481,0,0.0,1476,nosym
glucose_onlysym.sh+UTI-20-10p1.cnf.brk+2fe88382,0,0.0,1480,nosym
glucose_onlysym.sh+UTI-20-5p1.cnf.brk+8759a088,0,0.0,1480,nosym
glucose_onlysym.sh+Urq3_5.cnf.brk+2e36e0b4,0,0.0,1472,1,127,160,602,UNSATISFIABLE,
glucose_onlysym.sh+Urq4_5.cnf.brk+c31b9375,0,0.01,1472,1,3080,3878,18924,UNSATISFIABLE,
glucose_onlysym.sh+Urq5_5.cnf.brk+58004636,0,1.53,8344,2,209063,262722,990511,UNSATISFIABLE,
glucose_onlysym.sh+Urq6_5.cnf.brk+ece4f8f7,0,3698.03,267660
glucose_onlysym.sh+Urq7_5.cnf.brk+81c9abb8,0,3698.01,242136
glucose_onlysym.sh+Urq8_5.cnf.brk+16ae5e79,0,3697.55,271296
glucose_onlysym.sh+VanDerWaerden_pd_2-3-20_388.cnf.brk+266d9c0f,0,0.0,1476,nosym
glucose_onlysym.sh+aaai10-planning-ipc5-TPP-21-step11.cnf.brk+31c87215,0,834.21,238748,2876,985143,2456326,5451059284,UNSATISFIABLE,
glucose_onlysym.sh+aaai10-planning-ipc5-TPP-30-step11.cnf.brk+a0e07237,0,48.64,308712,228,45680,1094994,415790716,SATISFIABLE,
glucose_onlysym.sh+aaai10-planning-ipc5-pathways-13-step17.cnf.brk+57bd7a99,0,0.0,1480,nosym
glucose_onlysym.sh+aaai10-planning-ipc5-pathways-17-step20.cnf.brk+c46f5a2d,0,0.0,1480,nosym
glucose_onlysym.sh+aaai10-planning-ipc5-pathways-17-step21.cnf.brk+58b3c92e,0,0.0,1476,nosym
glucose_onlysym.sh+aes_24_4_keyfind_4.cnf.brk+1d4c7a33,0,0.0,1480,nosym
glucose_onlysym.sh+aes_24_4_keyfind_5.cnf.brk+b190e934,0,0.0,1480,nosym
glucose_onlysym.sh+aes_32_2_keyfind_1.cnf.brk+327e394b,0,0.0,1480,nosym
glucose_onlysym.sh+aes_32_2_keyfind_3.cnf.brk+5b07174d,0,0.0,1476,nosym
glucose_onlysym.sh+aes_32_3_keyfind_1.cnf.brk+289b0c,0,0.0,1480,nosym
glucose_onlysym.sh+aes_64_1_keyfind_1.cnf.brk+1196f269,0,0.0,1480,nosym
glucose_onlysym.sh+aes_64_1_keyfind_1.cnf.brk+fb0eeb33,0,0.0,1476,nosym
glucose_onlysym.sh+atco_enc1_opt1_03_56.cnf.brk+e72b4442,0,147.21,101412,7185,2153849,4380609,670586579,SATISFIABLE,
glucose_onlysym.sh+atco_enc1_opt1_04_32.cnf.brk+b5384b5f,0,2446.38,167916,28086,6799264,11168501,7223358222,SATISFIABLE,
glucose_onlysym.sh+atco_enc1_opt1_05_21.cnf.brk+345c109e,0,38.83,99336,2020,230003,1984511,190628874,SATISFIABLE,
glucose_onlysym.sh+atco_enc1_opt1_10_15.cnf.brk+592f2729,0,708.04,110276,4217,2939445,4212997,2326061040,SATISFIABLE,
glucose_onlysym.sh+atco_enc1_opt1_10_21.cnf.brk+fc66dc44,0,281.73,118908,5208,2458035,3856041,996272822,SATISFIABLE,
glucose_onlysym.sh+atco_enc1_opt1_15_240.cnf.brk+878a3342,0,569.54,160416,14831,1534989,9975826,2025120765,SATISFIABLE,
glucose_onlysym.sh+atco_enc1_opt1_18_18.cnf.brk+53899f24,0,450.4,171696,10591,2154497,4449207,1906912749,SATISFIABLE,
glucose_onlysym.sh+atco_enc1_opt2_05_4.cnf.brk+7740e608,0,112.62,94756,2830,825028,1422184,261258737,UNSATISFIABLE,
glucose_onlysym.sh+atco_enc1_opt2_10_12.cnf.brk+f63d4467,0,200.31,66900,2945,1833492,2415556,405834915,UNSATISFIABLE,
glucose_onlysym.sh+atco_enc1_opt2_10_14.cnf.brk+1ec62269,0,172.99,66984,2088,1653301,2127208,328490405,UNSATISFIABLE,
glucose_onlysym.sh+atco_enc1_opt2_10_15.cnf.brk+b30a916a,0,181.66,62492,1667,1658295,2126786,331359956,UNSATISFIABLE,
glucose_onlysym.sh+atco_enc1_opt2_10_16.cnf.brk+474f006b,0,3635.67,154892,36994,15744022,21321069,3611588370,SATISFIABLE,
glucose_onlysym.sh+atco_enc1_opt2_20_12.cnf.brk+e4c04ae8,0,1021.33,708932,11936,3901984,5116716,2386176322,UNSATISFIABLE,
glucose_onlysym.sh+atco_enc2_opt1_05_21.cnf.brk+1bfde6fd,0,34.84,96664,1694,218466,1907799,141534508,SATISFIABLE,
glucose_onlysym.sh+atco_enc2_opt1_10_21.cnf.brk+e408b2a3,0,364.97,108096,6345,3389990,5174282,1070722801,SATISFIABLE,
glucose_onlysym.sh+atco_enc2_opt1_15_100.cnf.brk+2e18b186,0,91.31,94116,3396,256999,5305275,352471947,SATISFIABLE,
glucose_onlysym.sh+atco_enc2_opt1_20_11.cnf.brk+de424805,0,530.1,1136820,3780,1322451,1976704,1817216851,UNSATISFIABLE,
glucose_onlysym.sh+atco_enc2_opt2_05_4.cnf.brk+44eb47c9,0,236.85,100628,3911,1640207,2362980,521923825,UNSATISFIABLE,
glucose_onlysym.sh+atco_enc2_opt2_05_9.cnf.brk+2a4172ce,0,1809.54,233556,24201,6751564,11776198,1934427090,SATISFIABLE,
glucose_onlysym.sh+atco_enc2_opt2_10_21.cnf.brk+3de41ce4,0,1184.88,146820,30684,9443343,13365679,1723786304,SATISFIABLE,
glucose_onlysym.sh+atco_enc2_opt2_20_11.cnf.brk+381db246,0,296.78,698584,3925,1279356,1811267,810852735,UNSATISFIABLE,
glucose_onlysym.sh+atco_enc3_opt1_03_53.cnf.brk+f9a1a3fd,0,3698.22,702756
glucose_onlysym.sh+atco_enc3_opt1_04_50.cnf.brk+4485fc59,0,1192.14,879864,3097,331020,3730703,8245236197,SATISFIABLE,
glucose_onlysym.sh+atco_enc3_opt1_13_48.cnf.brk+d9316464,0,1443.92,955252,1981,264451,11522823,9231398956,SATISFIABLE,
glucose_onlysym.sh+atco_enc3_opt2_05_21.cnf.brk+5d7b279d,0,1159.05,812960,1908,316295,1723768,6630295964,SATISFIABLE,
glucose_onlysym.sh+atco_enc3_opt2_10_12.cnf.brk+c580f125,0,1152.59,678196,708,267454,409870,4585547749,UNSATISFIABLE,
glucose_onlysym.sh+atco_enc3_opt2_10_14.cnf.brk+ee09cf27,0,1032.91,676760,1424,467671,748959,5606136551,UNSATISFIABLE,
glucose_onlysym.sh+atco_enc3_opt2_18_44.cnf.brk+8734d7c,0,1537.9,723536,3119,415176,2717254,10863307318,SATISFIABLE,
glucose_onlysym.sh+beempgsol2b1.cnf.brk+df316e51,0,321.18,84244,1813,1327396,2196415,1300160983,UNSATISFIABLE,
glucose_onlysym.sh+beempgsol5b1.cnf.brk+9ddf8694,0,280.15,89236,1296,1237164,2015696,1218135480,UNSATISFIABLE,
glucose_onlysym.sh+bjrb07amba10andenv.cnf.brk+109eb03d,0,1453.51,233576,3870,1031125,3141424,6800467618,UNSATISFIABLE,
glucose_onlysym.sh+blocks-blocks-36-0.120-NOTKNOWN.cnf.brk+e2ac782c,0,0.0,1476,nosym
glucose_onlysym.sh+blocks-blocks-36-0.130-NOTKNOWN.cnf.brk+b056d9ed,0,0.0,1480,nosym
glucose_onlysym.sh+blocks-blocks-37-1.130-NOTKNOWN.cnf.brk+32de236b,0,0.0,1480,nosym
glucose_onlysym.sh+bob12m02-opt.cnf.brk+f99423fd,0,701.06,181948,56830,8713012,18987347,1345599202,UNSATISFIABLE,
glucose_onlysym.sh+bob12m02.cnf.brk+ade40d17,0,575.14,154372,26721,4968446,10865436,1974559517,UNSATISFIABLE,
glucose_onlysym.sh+bob12m04.cnf.brk+d66ceb19,0,2734.49,509252,1767,770263,1600962239,11303982252,UNSATISFIABLE,
glucose_onlysym.sh+bob12m09-opt.cnf.brk+7f295184,0,146.32,73688,3272,1159145,1844202,548920516,UNSATISFIABLE,
glucose_onlysym.sh+bob12s02.cnf.brk+2b403d9d,0,607.0,166412,30731,5726838,12389992,2061036392,UNSATISFIABLE,
glucose_onlysym.sh+bob12s09-opt.cnf.brk+9a4dcf0a,0,130.8,61996,3072,993758,1649168,501412846,UNSATISFIABLE,
glucose_onlysym.sh+bvadd_17322.cnf.brk+2f961aef,0,0.0,1480,nosym
glucose_onlysym.sh+bvadd_27079.cnf.brk+32b947cf,0,0.0,1480,nosym
glucose_onlysym.sh+bvadd_27966.cnf.brk+bdacd276,0,0.0,1480,nosym
glucose_onlysym.sh+bvadd_29740.cnf.brk+41193b6e,0,0.0,1480,nosym
glucose_onlysym.sh+bvashr_0710.cnf.brk+6e75dc49,0,0.0,1480,nosym
glucose_onlysym.sh+bvslt_13916.cnf.brk+412b2ff8,0,0.0,1480,nosym
glucose_onlysym.sh+bvslt_19860.cnf.brk+2644f906,0,0.0,1476,nosym
glucose_onlysym.sh+bvsub_06991.cnf.brk+c365cbcc,0,0.0,1480,nosym
glucose_onlysym.sh+bvult_16967.cnf.brk+534780b3,0,0.0,1480,nosym
glucose_onlysym.sh+c10bi_i.cnf.brk+709c08a9,0,104.52,104336,2262,680670,4635469,451161565,UNSATISFIABLE,
glucose_onlysym.sh+ccp-s10-facto1.cnf.brk+aedfb626,0,324.41,80348,12003,3295585,5026527,107739378,UNSATISFIABLE,
glucose_onlysym.sh+ccp-s10-facto2.cnf.brk+43242527,0,3697.18,345512
glucose_onlysym.sh+ccp-s10-facto3.cnf.brk+d7689428,0,3697.03,359856
glucose_onlysym.sh+ccp-s10-facto4.cnf.brk+6bad0329,0,3697.38,339308
glucose_onlysym.sh+ccp-s5-facto2.cnf.brk+4b654531,0,12.88,21192,652,699212,988810,20241867,UNSATISFIABLE,
glucose_onlysym.sh+ccp-s5-facto3.cnf.brk+dfa9b432,0,408.81,100768,12666,11241258,25596567,391628084,UNSATISFIABLE,
glucose_onlysym.sh+ccp-s5-facto4.cnf.brk+73ee2333,0,3698.32,170304
glucose_onlysym.sh+ccp-s6-facto2.cnf.brk+2cf72310,0,3696.61,158252
glucose_onlysym.sh+ccp-s6-facto3.cnf.brk+c13b9211,0,3698.3,246996
glucose_onlysym.sh+ccp-s6-facto4.cnf.brk+55800112,0,3697.36,269476
glucose_onlysym.sh+ccp-s7-facto2.cnf.brk+e8900ef,0,3697.09,231384
glucose_onlysym.sh+ccp-s7-facto3.cnf.brk+a2cd6ff0,0,3696.5,276452
glucose_onlysym.sh+ccp-s7-facto4.cnf.brk+3711def1,0,3697.21,319176
glucose_onlysym.sh+ccp-s8-facto1.cnf.brk+5bd66fcd,0,8.85,21532,1074,262585,372716,7174448,UNSATISFIABLE,
glucose_onlysym.sh+ccp-s8-facto2.cnf.brk+f01adece,0,3694.09,251540
glucose_onlysym.sh+ccp-s8-facto3.cnf.brk+845f4dcf,0,3696.09,294184
glucose_onlysym.sh+ccp-s8-facto4.cnf.brk+18a3bcd0,0,3697.83,288196
glucose_onlysym.sh+ccp-s9-facto1.cnf.brk+3d684dac,0,815.3,117932,22278,5508504,8360304,142393950,UNSATISFIABLE,
glucose_onlysym.sh+ccp-s9-facto2.cnf.brk+d1acbcad,0,3696.84,307532
glucose_onlysym.sh+ccp-s9-facto3.cnf.brk+65f12bae,0,3697.02,280544
glucose_onlysym.sh+ccp-s9-facto4.cnf.brk+fa359aaf,0,3697.24,468844
glucose_onlysym.sh+chnl10_11.cnf.brk+6adf0a19,0,3.2,10328,283,104865,124621,1836090,UNSATISFIABLE,
glucose_onlysym.sh+chnl10_12.cnf.brk+ff23791a,0,3.57,11092,365,122307,153286,2090304,UNSATISFIABLE,
glucose_onlysym.sh+chnl10_13.cnf.brk+9367e81b,0,3.3,9040,354,103829,130342,2130217,UNSATISFIABLE,
glucose_onlysym.sh+chnl11_12.cnf.brk+6d51e79,0,13.1,19104,952,338872,422342,6660276,UNSATISFIABLE,
glucose_onlysym.sh+chnl11_13.cnf.brk+9b198d7a,0,7.7,16084,883,236116,309455,5183704,UNSATISFIABLE,
glucose_onlysym.sh+chnl11_20.cnf.brk+d295b196,0,1.77,7700,120,56501,72852,1782224,UNSATISFIABLE,
glucose_onlysym.sh+complete-300-0.1-18-98765432130018.cnf.brk+cc9b7ca1,0,0.0,1480,nosym
glucose_onlysym.sh+complete-300-0.1-4-9876543213004.cnf.brk+bb1cc73,0,0.0,1476,nosym
glucose_onlysym.sh+complete-300-0.1-7-9876543213007.cnf.brk+a713e539,0,0.0,1480,nosym
glucose_onlysym.sh+complete-300-0.1-8-9876543213008.cnf.brk+8589ed7b,0,0.0,1476,nosym
glucose_onlysym.sh+complete-400-0.1-12-98765432140012.cnf.brk+d7524be3,0,0.0,1476,nosym
glucose_onlysym.sh+complete-400-0.1-16-98765432140016.cnf.brk+186a4363,0,0.0,1480,nosym
glucose_onlysym.sh+complete-400-0.1-3-9876543214003.cnf.brk+49d631d1,0,0.0,1480,nosym
glucose_onlysym.sh+complete-400-0.1-7-9876543214007.cnf.brk+c3ae52d9,0,0.0,1476,nosym
glucose_onlysym.sh+complete-500-0.1-1-9876543215001.cnf.brk+a9848eed,0,0.0,1480,nosym
glucose_onlysym.sh+complete-500-0.1-15-98765432150015.cnf.brk+f47f0805,0,0.0,1476,nosym
glucose_onlysym.sh+complete-500-0.1-17-98765432150017.cnf.brk+150b03c5,0,0.0,1476,nosym
glucose_onlysym.sh+complete-500-0.1-7-9876543215007.cnf.brk+e048c079,0,0.0,1476,nosym
glucose_onlysym.sh+complete-500-0.1-8-9876543215008.cnf.brk+bebec8bb,0,0.0,1476,nosym
glucose_onlysym.sh+connm-ue-csp-sat-n1200-d0.02-s1099787414.sat05-542.reshuffled-07.cnf.brk+ed9b7d92,0,0.0,1476,nosym
glucose_onlysym.sh+contest02-ezfact64_10.sat05-449.reshuffled-07.cnf.brk+855d93cd,0,0.0,1480,nosym
glucose_onlysym.sh+countbitssrl032.cnf.brk+7d8289cd,0,0.0,1476,nosym
glucose_onlysym.sh+crafted_n10_d6_c2_num13.cnf.brk+2488f2c7,0,40.69,449064,23,2974,655195,12879514,UNSATISFIABLE,
glucose_onlysym.sh+crafted_n10_d6_c2_num16.cnf.brk+e1563fca,0,38.25,434620,18,3117,607568,9792116,UNSATISFIABLE,
glucose_onlysym.sh+crafted_n10_d6_c2_num17.cnf.brk+759aaecb,0,39.48,426300,16,2492,207260,7756835,UNSATISFIABLE,
glucose_onlysym.sh+crafted_n10_d6_c2_num2.cnf.brk+62660861,0,48.0,469012,33,3037,218095,17175752,UNSATISFIABLE,
glucose_onlysym.sh+crafted_n10_d6_c2_num4.cnf.brk+8aeee663,0,43.98,475468,29,2968,70223,11891187,UNSATISFIABLE,
glucose_onlysym.sh+crafted_n10_d6_c2_num5.cnf.brk+1f335564,0,46.53,452364,24,2844,104633,14996255,UNSATISFIABLE,
glucose_onlysym.sh+crafted_n10_d6_c2_num6.cnf.brk+b377c465,0,38.94,426776,16,2567,94170,9188979,UNSATISFIABLE,
glucose_onlysym.sh+crafted_n10_d6_c2_num9.cnf.brk+70451168,0,55.2,477572,59,6119,1076884,52764717,UNSATISFIABLE,
glucose_onlysym.sh+crafted_n10_d6_c3_num1.cnf.brk+afff62ff,0,42.9,752364,114,14348,200608,150219914,UNSATISFIABLE,
glucose_onlysym.sh+crafted_n10_d6_c3_num18.cnf.brk+63ba880d,0,24.69,759888,96,10333,166582,87082225,UNSATISFIABLE,
glucose_onlysym.sh+crafted_n10_d6_c3_num5.cnf.brk+1111f03,0,10.79,739480,47,6184,120983,33629755,UNSATISFIABLE,
glucose_onlysym.sh+crafted_n10_d6_c4_num3.cnf.brk+ba660aa0,0,0.0,1468,1,0,1,0,SATISFIABLE,
glucose_onlysym.sh+crafted_n10_d6_c4_num8.cnf.brk+9fbc35a5,0,12.97,1174844,93,16028,237866,40280411,UNSATISFIABLE,
glucose_onlysym.sh+crafted_n10_d6_c4_num9.cnf.brk+3400a4a6,0,20.56,1156440,72,12146,217551,62515384,UNSATISFIABLE,
glucose_onlysym.sh+crafted_n11_d6_c3_num17.cnf.brk+dc0f0e8d,0,12.2,818384,39,5645,122457,33941262,UNSATISFIABLE,
glucose_onlysym.sh+crafted_n11_d6_c4_num1.cnf.brk+797f02fd,0,14.93,1355156,51,7023,161545,33857773,UNSATISFIABLE,
glucose_onlysym.sh+crafted_n11_d6_c4_num18.cnf.brk+ca2ee7cf,0,18.12,1345220,62,8715,186544,48427114,UNSATISFIABLE,
glucose_onlysym.sh+crafted_n11_d6_c4_num19.cnf.brk+5e7356d0,0,18.15,1368356,91,16725,302582,62738243,UNSATISFIABLE,
glucose_onlysym.sh+crafted_n11_d6_c4_num21.cnf.brk+b0994fe7,0,28.27,1384208,89,13560,360176,90572786,UNSATISFIABLE,
glucose_onlysym.sh+crafted_n12_d5_c4_num6.cnf.brk+f5cd2660,0,0.0,1464,1,0,1,0,SATISFIABLE,
glucose_onlysym.sh+crafted_n12_d6_c3_num10.cnf.brk+dac8fb07,0,55.86,1019884,107,12182,179561,191503663,UNSATISFIABLE,
glucose_onlysym.sh+crafted_n12_d6_c3_num16.cnf.brk+5463950d,0,25.27,1027420,49,6697,222940,72090533,UNSATISFIABLE,
glucose_onlysym.sh+crafted_n12_d6_c4_num11.cnf.brk+c8e8d449,0,47.31,1717840,95,19438,377330,131740340,UNSATISFIABLE,
glucose_onlysym.sh+crafted_n12_d6_c4_num18.cnf.brk+d6c7dd50,0,76.73,1742592,92,21141,378684,259100796,UNSATISFIABLE,
glucose_onlysym.sh+crafted_n12_d6_c4_num20.cnf.brk+28edd667,0,95.69,1697680,118,21980,353441,317972240,UNSATISFIABLE,
glucose_onlysym.sh+crafted_n12_d6_c4_num22.cnf.brk+5176b469,0,0.0,1468,1,0,1,0,SATISFIABLE,
glucose_onlysym.sh+crafted_n12_d6_c4_num23.cnf.brk+e5bb236a,0,31.29,1717756,75,11562,379958,84454837,UNSATISFIABLE,
glucose_onlysym.sh+crafted_n12_d6_c4_num4.cnf.brk+1dee265f,0,32.78,1691084,120,19716,358283,99090970,UNSATISFIABLE,
glucose_onlysym.sh+crafted_n12_d6_c4_num6.cnf.brk+46770461,0,35.31,1711092,123,19087,341469,107978615,UNSATISFIABLE,
glucose_onlysym.sh+crafted_n12_d6_c4_num9.cnf.brk+3445164,0,37.92,1754172,133,18859,351690,113534424,UNSATISFIABLE,
glucose_onlysym.sh+crn_20_361_s.cnf.brk+dcf14121,0,0.0,1480,nosym
glucose_onlysym.sh+ctl_3082_415_unsat_pre.cnf.brk+49a69c6e,0,0.0,1480,nosym
glucose_onlysym.sh+ctl_3791_556_unsat_pre.cnf.brk+9b8da07,0,920.08,188600,7106,11962446,13835886,1545895912,UNSATISFIABLE,
glucose_onlysym.sh+ctl_4291_567_5_unsat_pre.cnf.brk+e4c95d37,0,3698.03,283232
glucose_onlysym.sh+dated-10-11-u.cnf.brk+242aab15,0,0.0,1480,nosym
glucose_onlysym.sh+dated-10-13-u.cnf.brk+4df41097,0,0.0,1476,nosym
glucose_onlysym.sh+dated-10-17-u.cnf.brk+a186db9b,0,0.0,1476,nosym
glucose_onlysym.sh+dated-5-13-u.cnf.brk+f4ea8f97,0,0.0,1480,nosym
glucose_onlysym.sh+dimacs.cnf.brk+c75ab847,0,0.0,1480,nosym
glucose_onlysym.sh+edges-024-4-10183999-1-00.cnf.brk+d543e326,0,0.0,1476,nosym
glucose_onlysym.sh+edges-024-4-1208111-1-00.cnf.brk+58c7e2c,0,0.0,1480,nosym
glucose_onlysym.sh+edges-024-4-5613555-1-00.cnf.brk+812a31c2,0,0.0,1480,nosym
glucose_onlysym.sh+edges-024-4-5667555-1-00.cnf.brk+9aab1461,0,0.0,1476,nosym
glucose_onlysym.sh+edges-024-4-7787777-1-00.cnf.brk+fb530a9c,0,0.0,1476,nosym
glucose_onlysym.sh+edges-024-4-7880777-1-00.cnf.brk+94585a56,0,0.0,1476,nosym
glucose_onlysym.sh+edges-025-4-10062999-1-00.cnf.brk+b1fc2c27,0,0.0,1480,nosym
glucose_onlysym.sh+edges-025-4-10106999-1-00.cnf.brk+26e2b932,0,0.0,1480,nosym
glucose_onlysym.sh+edges-025-4-10169999-1-00.cnf.brk+b44b9fef,0,0.0,1476,nosym
glucose_onlysym.sh+edges-025-4-1237111-1-00.cnf.brk+fe99d567,0,0.0,1480,nosym
glucose_onlysym.sh+edges-025-4-3369333-1-00.cnf.brk+c52769c3,0,0.0,1480,nosym
glucose_onlysym.sh+edges-025-4-5714555-1-00.cnf.brk+9b800063,0,0.0,1480,nosym
glucose_onlysym.sh+edges-025-4-7780777-1-00.cnf.brk+c2af8774,0,0.0,1480,nosym
glucose_onlysym.sh+edges-025-4-7932777-1-00.cnf.brk+287e9c5d,0,0.0,1480,nosym
glucose_onlysym.sh+edges-025-4-7957777-1-00.cnf.brk+44f3b6a0,0,0.0,1480,nosym
glucose_onlysym.sh+edges-070-3-10037999-34.cnf.brk+e781c0e9,0,2077.3,159188,5172,13283944,14697530,232678842,UNSATISFIABLE,
glucose_onlysym.sh+edges-070-3-10062999-36.cnf.brk+f3772543,0,1065.93,90412,3825,8127884,9157737,139758325,UNSATISFIABLE,
glucose_onlysym.sh+edges-070-3-10122999-15.cnf.brk+41023a89,0,3698.42,159892
glucose_onlysym.sh+edges-070-3-1226111-26.cnf.brk+507a117a,0,2520.31,154668,7528,16867088,18798520,306326327,UNSATISFIABLE,
glucose_onlysym.sh+edges-070-3-1250111-33.cnf.brk+118751ad,0,2871.18,163120,5801,16025655,17940340,282263309,UNSATISFIABLE,
glucose_onlysym.sh+edges-070-3-3470333-15.cnf.brk+ef3d746d,0,882.18,91896,2399,7059949,7840686,122542392,UNSATISFIABLE,
glucose_onlysym.sh+edges-070-3-7857777-1.cnf.brk+528f0a17,0,2489.4,160384,7338,15858574,17842539,267022531,UNSATISFIABLE,
glucose_onlysym.sh+edges-072-3-1124111-35.cnf.brk+b929d653,0,2964.83,169664,6146,17245140,19130935,300360313,UNSATISFIABLE,
glucose_onlysym.sh+edges-072-3-1131111-37.cnf.brk+b5b25371,0,3698.61,182964
glucose_onlysym.sh+edges-072-3-1161111-15.cnf.brk+494c2cce,0,2157.55,151116,6025,14136464,16135180,242249012,UNSATISFIABLE,
glucose_onlysym.sh+edges-072-3-5729555-15.cnf.brk+e86c99d8,0,3697.92,195300
glucose_onlysym.sh+edges-072-3-5749555-14.cnf.brk+174be695,0,3698.57,152744
glucose_onlysym.sh+edges-072-3-7902777-18.cnf.brk+47b2ae94,0,977.79,89872,5193,7438047,8268099,117635007,UNSATISFIABLE,
glucose_onlysym.sh+edges-072-3-7923777-13.cnf.brk+7f5ba98e,0,3698.67,168556
glucose_onlysym.sh+edges-072-3-7925777-19.cnf.brk+acad1816,0,2104.92,163792,4086,14839276,16526455,268618419,UNSATISFIABLE,
glucose_onlysym.sh+em_14_7_3_cmp.cnf.brk+7b0162a1,0,3697.55,581300
glucose_onlysym.sh+em_7_3_6_cmp.cnf.brk+f7deb032,0,1285.55,152260,30251,4738515,9892540,630628390,SATISFIABLE,
glucose_onlysym.sh+em_7_4_8_cmp.cnf.brk+2ec02775,0,110.03,64112,2479,723582,1313697,114608893,SATISFIABLE,
glucose_onlysym.sh+em_7_4_8_fbc.cnf.brk+e6ccc056,0,701.11,95000,4386,2246338,3012645,458589972,SATISFIABLE,
glucose_onlysym.sh+em_7_4_9_all.cnf.brk+ae1e9b51,0,4.24,15988,316,68997,139940,10163036,SATISFIABLE,
glucose_onlysym.sh+em_7_4_9_fbc.cnf.brk+d54fc6d7,0,4.15,14856,282,71142,145610,11062444,SATISFIABLE,
glucose_onlysym.sh+esawn_uw3.debugged.cnf.brk+ca338d63,0,0.0,1468,1,0,1,0,SATISFIABLE,
glucose_onlysym.sh+ezfact64_3.sat05-450.reshuffled-07.cnf.brk+aa74bdba,0,0.0,1480,nosym
glucose_onlysym.sh+ezfact64_4.sat05-451.reshuffled-07.cnf.brk+727e12fc,0,0.0,1480,nosym
glucose_onlysym.sh+ezfact64_5.sat05-452.reshuffled-07.cnf.brk+3a87683e,0,0.0,1480,nosym
glucose_onlysym.sh+fpga10_11_uns_rcr.cnf.brk+217e97d6,0,1.18,6320,144,48681,60291,1143091,UNSATISFIABLE,
glucose_onlysym.sh+fpga10_12_uns_rcr.cnf.brk+722875d7,0,0.54,4068,68,27544,35822,696462,UNSATISFIABLE,
glucose_onlysym.sh+fpga10_13_uns_rcr.cnf.brk+c2d253d8,0,0.59,4516,65,27020,34049,751900,UNSATISFIABLE,
glucose_onlysym.sh+fpga10_15_uns_rcr.cnf.brk+64260fda,0,0.29,3720,31,16529,21899,457105,UNSATISFIABLE,
glucose_onlysym.sh+fpga10_20_uns_rcr.cnf.brk+95669bf4,0,0.09,4372,10,6127,8669,217437,UNSATISFIABLE,
glucose_onlysym.sh+fpga10_8_sat.cnf.brk+8c1622da,0,0.0,1468,3,156,501,3002,SATISFIABLE,
glucose_onlysym.sh+fpga10_9_sat.cnf.brk+7a99295b,0,0.0,1472,1,161,507,3470,SATISFIABLE,
glucose_onlysym.sh+fpga11_12_uns_rcr.cnf.brk+59ca4c36,0,8.88,15644,906,227827,292437,6450875,UNSATISFIABLE,
glucose_onlysym.sh+fpga11_13_uns_rcr.cnf.brk+aa742a37,0,11.7,21488,880,223021,294394,6276261,UNSATISFIABLE,
glucose_onlysym.sh+fpga11_14_uns_rcr.cnf.brk+fb1e0838,0,7.05,13960,655,199389,257613,5715848,UNSATISFIABLE,
glucose_onlysym.sh+fpga11_15_uns_rcr.cnf.brk+4bc7e639,0,3.95,11880,317,115260,145233,3509562,UNSATISFIABLE,
glucose_onlysym.sh+fpga11_20_uns_rcr.cnf.brk+7d087253,0,2.39,9672,248,74257,100331,2614596,UNSATISFIABLE,
glucose_onlysym.sh+fpga12_11_sat.cnf.brk+41ce15de,0,0.01,1472,2,1895,2981,30413,SATISFIABLE,
glucose_onlysym.sh+fpga12_12_sat.cnf.brk+30511c5f,0,0.0,1472,6,821,1779,17973,SATISFIABLE,
glucose_onlysym.sh+fpga12_8_sat.cnf.brk+3fccf75c,0,0.0,1472,1,117,492,3159,SATISFIABLE,
glucose_onlysym.sh+fpga12_9_sat.cnf.brk+2e4ffddd,0,0.0,1468,1,635,1246,10119,SATISFIABLE,
glucose_onlysym.sh+fpga13_10_sat.cnf.brk+34dced3c,0,0.0,1472,2,1352,2222,26931,SATISFIABLE,
glucose_onlysym.sh+fpga13_12_sat.cnf.brk+11e2fa3e,0,0.0,1468,2,562,1407,15275,SATISFIABLE,
glucose_onlysym.sh+fpga13_9_sat.cnf.brk+882b681e,0,0.0,1468,3,627,1274,9077,SATISFIABLE,
glucose_onlysym.sh+frb45-21-1.used-as.sat04-883.cnf.brk+2de7a96f,0,0.0,1476,nosym
glucose_onlysym.sh+frb80-14-2.used-as.sat04-880.cnf.brk+741c1fba,0,0.0,1480,nosym
glucose_onlysym.sh+fsf-300-354-2-2-3-2.58.opt.cnf.brk+70132a5d,0,0.0,1480,nosym
glucose_onlysym.sh+fsf-300-354-2-2-3-2.89.opt.cnf.brk+42f8dbb,0,0.0,1476,nosym
glucose_onlysym.sh+fsf-300-354-2-2-3-2.94.opt.cnf.brk+3d7e36d5,0,0.0,1480,nosym
glucose_onlysym.sh+fsf-300-354-2-2-3-2.95.opt.cnf.brk+2c013d56,0,0.0,1476,nosym
glucose_onlysym.sh+grid-strips-grid-y-3.035-NOTKNOWN.cnf.brk+ad85772c,0,0.0,1480,nosym
glucose_onlysym.sh+grid-strips-grid-y-3.055-NOTKNOWN.cnf.brk+48da3aae,0,0.0,1476,nosym
glucose_onlysym.sh+grid-strips-grid-y-3.065-SAT.cnf.brk+1a8698bb,0,0.0,1480,nosym
glucose_onlysym.sh+grieu-vmpc-31.cnf.brk+2b9c60d8,0,0.0,1480,nosym
glucose_onlysym.sh+gss-18-s100.cnf.brk+4e8fb234,0,0.0,1476,nosym
glucose_onlysym.sh+gss-19-s100.cnf.brk+306d7bd3,0,0.0,1480,nosym
glucose_onlysym.sh+gss-20-s100.cnf.brk+997ccf7d,0,0.0,1480,nosym
glucose_onlysym.sh+gss-22-s100.cnf.brk+5d3862bb,0,0.0,1476,nosym
glucose_onlysym.sh+gss-23-s100.cnf.brk+3f162c5a,0,0.0,1476,nosym
glucose_onlysym.sh+gss-24-s100.cnf.brk+20f3f5f9,0,0.0,1480,nosym
glucose_onlysym.sh+gss-25-s100.cnf.brk+2d1bf98,0,0.0,1476,nosym
glucose_onlysym.sh+gus-md5-04.cnf.brk+1b2df5fc,0,3.08,58212,1,428,184578,8271171,UNSATISFIABLE,
glucose_onlysym.sh+gus-md5-05.cnf.brk+af7264fd,0,10.43,57592,4,1701,152946,33122881,UNSATISFIABLE,
glucose_onlysym.sh+gus-md5-06.cnf.brk+43b6d3fe,0,33.3,57964,13,5840,226213,104900819,UNSATISFIABLE,
glucose_onlysym.sh+gus-md5-07.cnf.brk+d7fb42ff,0,113.39,73064,31,22973,223453,360888562,UNSATISFIABLE,
glucose_onlysym.sh+gus-md5-09.cnf.brk+842101,0,1256.84,125360,800,329848,557749,4551789199,UNSATISFIABLE,
glucose_onlysym.sh+gus-md5-10.cnf.brk+be65ab17,0,3602.3,148668,2386,1242069,1568681,12632005777,UNSATISFIABLE,
glucose_onlysym.sh+gus-md5-11.cnf.brk+52aa1a18,0,3697.59,166132
glucose_onlysym.sh+gus-md5-12.cnf.brk+e6ee8919,0,3699.03,187332
glucose_onlysym.sh+gus-md5-14.cnf.brk+f77671b,0,3698.99,185604
glucose_onlysym.sh+gus-md5-15.cnf.brk+a3bbd61c,0,3698.69,188152
glucose_onlysym.sh+gus-md5-16.cnf.brk+3800451d,0,3694.95,166040
glucose_onlysym.sh+hid-uns-enc-6-1-0-0-0-0-19851.cnf.brk+13e55489,0,0.0,1480,nosym
glucose_onlysym.sh+hid-uns-enc-6-1-0-0-0-0-26462.cnf.brk+204e8009,0,0.0,1480,nosym
glucose_onlysym.sh+hid-uns-enc-6-1-0-0-0-0-26808.cnf.brk+33c33e59,0,0.0,1480,nosym
glucose_onlysym.sh+hid-uns-enc-6-1-0-0-0-0-2907.cnf.brk+8e624b85,0,0.0,1480,nosym
glucose_onlysym.sh+hid-uns-enc-6-1-0-0-0-0-31380.cnf.brk+137e9d2a,0,0.0,1480,nosym
glucose_onlysym.sh+hid-uns-enc-6-1-0-0-0-0-3191.cnf.brk+be8baed,0,0.0,1476,nosym
glucose_onlysym.sh+hid-uns-enc-6-1-0-0-0-0-3251.cnf.brk+cfa7a932,0,0.0,1476,nosym
glucose_onlysym.sh+hid-uns-enc-7-1-0-0-0-0-11545.cnf.brk+f8a2a934,0,0.0,1480,nosym
glucose_onlysym.sh+hid-uns-enc-7-1-0-0-0-0-3557.cnf.brk+3f1ea5a,0,0.0,1476,nosym
glucose_onlysym.sh+hid-uns-enc-9-1-0-0-0-0-24642.cnf.brk+deb29f92,0,0.0,1480,nosym
glucose_onlysym.sh+hitag2-10-60-0-0x0ffdbe60727f161-57.cnf.brk+a70730f2,0,3698.89,142908
glucose_onlysym.sh+hitag2-10-60-0-0x8edc44db7837bbf-65.cnf.brk+a0659c69,0,3698.03,149088
glucose_onlysym.sh+hitag2-10-60-0-0xe14721bd199894a-99.cnf.brk+a1dc252,0,3697.68,139656
glucose_onlysym.sh+hitag2-10-60-0-0xe6754daf48162bf-46.cnf.brk+d1646d7a,0,3698.15,158696
glucose_onlysym.sh+hitag2-10-60-0-0xfee9637399d85a2-78.cnf.brk+2b1f085c,0,3695.01,157000
glucose_onlysym.sh+hitag2-7-60-0-0xe8fa35372ed37e2-80.cnf.brk+6770a3a3,0,3698.48,133552
glucose_onlysym.sh+hitag2-8-60-0-0x1eb82244d7f1c3c-47.cnf.brk+92a2d452,0,3697.2,142628
glucose_onlysym.sh+hitag2-8-60-0-0xdcdbc8bf368ee73-37.cnf.brk+c232eda3,0,3697.78,131320
glucose_onlysym.sh+hitag2-8-60-0-0xfba1a41b5dfd7f7-52.cnf.brk+da5aca6c,0,3698.56,144560
glucose_onlysym.sh+hole002.cnf.brk+558666e1,0,0.0,1472,0,0,0,0,UNSATISFIABLE,
glucose_onlysym.sh+hole003.cnf.brk+e9cad5e2,0,0.0,1472,0,0,0,2,UNSATISFIABLE,
glucose_onlysym.sh+hole004.cnf.brk+7e0f44e3,0,0.0,1472,1,5,9,18,UNSATISFIABLE,
glucose_onlysym.sh+hole005.cnf.brk+1253b3e4,0,0.0,2308,1,25,34,195,UNSATISFIABLE,
glucose_onlysym.sh+hole006.cnf.brk+a69822e5,0,0.0,1472,1,52,91,604,UNSATISFIABLE,
glucose_onlysym.sh+hole007.cnf.brk+3adc91e6,0,0.0,1472,1,378,505,4424,UNSATISFIABLE,
glucose_onlysym.sh+hole008.cnf.brk+cf2100e7,0,0.01,1472,5,1705,2230,25673,UNSATISFIABLE,
glucose_onlysym.sh+hole009.cnf.brk+63656fe8,0,0.03,1472,12,3946,4980,61633,UNSATISFIABLE,
glucose_onlysym.sh+hole010.cnf.brk+2146f9fe,0,2.28,8664,267,85446,103484,1479705,UNSATISFIABLE,
glucose_onlysym.sh+hole010_shuffled.cnf.brk+f291f53e,0,0.44,3400,39,22575,27887,606091,UNSATISFIABLE,
glucose_onlysym.sh+hole011.cnf.brk+b58b68ff,0,9.32,15884,877,247006,315987,4955264,UNSATISFIABLE,
glucose_onlysym.sh+hole011_shuffled.cnf.brk+b723d75d,0,14.74,20312,1236,340240,429700,9406642,UNSATISFIABLE,
glucose_onlysym.sh+hole012.cnf.brk+49cfd800,0,728.61,127512,19961,5568302,6967369,105651019,UNSATISFIABLE,
glucose_onlysym.sh+hole012_shuffled.cnf.brk+7bb5b97c,0,209.73,69916,8802,2407538,3141846,66297616,UNSATISFIABLE,
glucose_onlysym.sh+hole013.cnf.brk+de144701,0,1585.6,141760,32720,9085283,12021935,224100864,UNSATISFIABLE,
glucose_onlysym.sh+hole013_shuffled.cnf.brk+40479b9b,0,3664.93,166448,59930,19332800,24783715,588889582,UNSATISFIABLE,
glucose_onlysym.sh+hole014.cnf.brk+7258b602,0,3698.71,224092
glucose_onlysym.sh+hole014_shuffled.cnf.brk+4d97dba,0,3697.6,214172
glucose_onlysym.sh+hole015.cnf.brk+69d2503,0,3697.46,238148
glucose_onlysym.sh+hole015_shuffled.cnf.brk+c96b5fd9,0,3698.52,221272
glucose_onlysym.sh+hole016_shuffled.cnf.brk+8dfd41f8,0,3697.9,247444
glucose_onlysym.sh+hole017_shuffled.cnf.brk+528f2417,0,3697.74,282940
glucose_onlysym.sh+hole018_shuffled.cnf.brk+17210636,0,3697.26,315712
glucose_onlysym.sh+hole019_shuffled.cnf.brk+dbb2e855,0,3696.2,324936
glucose_onlysym.sh+hole020.cnf.brk+15906b1d,0,3696.56,358960
glucose_onlysym.sh+hole020_shuffled.cnf.brk+c03c56ff,0,3697.79,373728
glucose_onlysym.sh+hole030.cnf.brk+9d9dc3c,0,3697.28,542692
glucose_onlysym.sh+hole030_shuffled.cnf.brk+8de6b8c0,0,3696.8,504908
glucose_onlysym.sh+hwmcc10-timeframe-expansion-k45-pdtpmsgoodbakery-tseitin.cnf.brk+730145c6,0,157.38,105960,4646,716387,2020503,593893010,UNSATISFIABLE,
glucose_onlysym.sh+hwmcc10-timeframe-expansion-k45-pdtvisns3p02-tseitin.cnf.brk+4a913917,0,2737.82,230572,26414,6517806,13007234,5879006893,UNSATISFIABLE,
glucose_onlysym.sh+hwmcc10-timeframe-expansion-k50-pdtpmsns2-tseitin.cnf.brk+378257c4,0,355.54,150308,7004,1218067,3305758,1068128060,UNSATISFIABLE,
glucose_onlysym.sh+hwmcc10-timeframe-expansion-k50-pdtvisns3p00-tseitin.cnf.brk+bac6eb3b,0,3698.5,266252
glucose_onlysym.sh+instance_n8_i8_pp_ci_ce.cnf.brk+afcff5f5,0,14.72,54596,832,204670,680024,64191742,SATISFIABLE,
glucose_onlysym.sh+instance_n8_i9_pp.cnf.brk+4b70fcb8,0,1430.35,228816,25167,6671828,15471528,2544915165,SATISFIABLE,
glucose_onlysym.sh+itox_vc1130.cnf.brk+8b61dc6b,0,1.41,86852,2,1909,73809,979010,SATISFIABLE,
glucose_onlysym.sh+jkkk-one-one-10-34-sat.cnf.brk+263e108e,0,0.0,1480,nosym
glucose_onlysym.sh+jkkk-random-132906006148277-10-10-34-SUM-sat.cnf.brk+47c60e9f,0,0.0,1476,nosym
glucose_onlysym.sh+jkkk-random-132906006427000-10-10-35-OR-sat.cnf.brk+b7b90fae,0,0.0,1480,nosym
glucose_onlysym.sh+jkkk-random-132906006427000-10-10-36-SUM-sat.cnf.brk+7d601dc7,0,0.0,1480,nosym
glucose_onlysym.sh+jkkk-random-132906006493326-10-10-35-OR-sat.cnf.brk+de6bd840,0,0.0,1476,nosym
glucose_onlysym.sh+k2fix_gr_rcs_w9.shuffled.cnf.brk+17a5ab35,0,23.86,85144,271,283354,422838,40937824,UNSATISFIABLE,
glucose_onlysym.sh+korf-17.cnf.brk+cf928af1,0,0.0,1480,nosym
glucose_onlysym.sh+korf-18.cnf.brk+63d6f9f2,0,0.0,1480,nosym
glucose_onlysym.sh+logistics.a.cnf.brk+705c9d1c,0,0.0,1560,1,138,992,6920,SATISFIABLE,
glucose_onlysym.sh+logistics.b.cnf.brk+4a10c1d,0,0.0,1552,1,70,1598,6136,SATISFIABLE,
glucose_onlysym.sh+logistics.c.cnf.brk+98e57b1e,0,0.0,1800,1,346,2719,21932,SATISFIABLE,
glucose_onlysym.sh+logistics.d.cnf.brk+2d29ea1f,0,0.03,4868,1,77,2076,30081,SATISFIABLE,
glucose_onlysym.sh+manol-pipe-c10nid_i.cnf.brk+f8a13250,0,164.96,182684,3229,1019372,8562809,675366950,UNSATISFIABLE,
glucose_onlysym.sh+manol-pipe-c10nidw.cnf.brk+a899b5c5,0,301.4,284496,4438,1235099,14264138,1290983971,UNSATISFIABLE,
glucose_onlysym.sh+manol-pipe-c10nidw_s.cnf.brk+c5aa8ef9,0,10.48,258276,214,59412,1152028,32371859,UNSATISFIABLE,
glucose_onlysym.sh+manol-pipe-c8nidw.cnf.brk+958657a2,0,85.56,163948,1907,563631,5047701,344148044,UNSATISFIABLE,
glucose_onlysym.sh+manol-pipe-g10bid_i.cnf.brk+50c45bc0,0,179.44,175668,3673,1038116,9810450,785142257,UNSATISFIABLE,
glucose_onlysym.sh+maxxor032.cnf.brk+177b342e,0,0.0,1476,nosym
glucose_onlysym.sh+minandmaxor128.cnf.brk+4b8aa113,0,0.0,1480,nosym
glucose_onlysym.sh+minxor128.cnf.brk+bbadd844,0,0.0,1480,nosym
glucose_onlysym.sh+minxorminand064.cnf.brk+318ba456,0,0.0,1476,nosym
glucose_onlysym.sh+mod2-rand3bip-sat-230-2.sat05-2189.reshuffled-07.cnf.brk+51208ea0,0,0.0,1468,1,0,1,0,SATISFIABLE,
glucose_onlysym.sh+mod2-rand3bip-sat-230-2.sat05-2189.reshuffled-07.cnf.brk+77f3716b,0,0.0,1464,1,0,1,0,SATISFIABLE,
glucose_onlysym.sh+mod2-rand3bip-sat-270-1.sat05-2248.reshuffled-07.cnf.brk+ac9890c9,0,0.0,1468,1,0,1,0,SATISFIABLE,
glucose_onlysym.sh+mod2-rand3bip-sat-270-1.shuffled-as.sat05-2248.cnf.brk+634c19fb,0,0.0,1468,1,0,1,0,SATISFIABLE,
glucose_onlysym.sh+mod2-rand3bip-sat-270-2.sat05-2249.reshuffled-07.cnf.brk+33e9ee29,0,0.0,1468,1,0,1,0,SATISFIABLE,
glucose_onlysym.sh+mod2-rand3bip-sat-280-1.sat05-2263.reshuffled-07.cnf.brk+454b83c3,0,0.0,1464,1,0,1,0,SATISFIABLE,
glucose_onlysym.sh+mod2c-rand3bip-sat-240-3.shuffled-as.sat05-2520.cnf.brk+7310fa3f,0,2116.8,161844,1603,10132536,10408396,777966681,SATISFIABLE,
glucose_onlysym.sh+mod2c-rand3bip-sat-240-3.shuffled-as.sat05-2520.cnf.brk+b3e0e26a,0,2373.09,161584,1603,10132536,10408396,777966681,SATISFIABLE,
glucose_onlysym.sh+mod2c-rand3bip-sat-250-1.shuffled-as.sat05-2533.cnf.brk+bb6fe08f,0,194.7,56480,26,1843044,1894428,136437173,SATISFIABLE,
glucose_onlysym.sh+mod2c-rand3bip-sat-250-3.shuffled-as.sat05-2535.cnf.brk+f4593e4f,0,268.12,58900,33,2336154,2394718,160846984,SATISFIABLE,
glucose_onlysym.sh+mrpp_4x4#4_24.cnf.brk+6415740e,0,0.12,8372,21,6597,101382,494873,SATISFIABLE,
glucose_onlysym.sh+mrpp_4x4#6_12.cnf.brk+56a66fab,0,0.08,3364,22,8328,47576,314621,SATISFIABLE,
glucose_onlysym.sh+mrpp_4x4#6_20.cnf.brk+226702c8,0,0.31,6236,88,26440,229237,1360937,SATISFIABLE,
glucose_onlysym.sh+mrpp_4x4#6_6.cnf.brk+dae647e0,0,0.01,1548,3,934,2911,22834,SATISFIABLE,
glucose_onlysym.sh+mrpp_4x4#8_12.cnf.brk+6609ba69,0,0.13,5168,57,12835,61165,562471,SATISFIABLE,
glucose_onlysym.sh+mrpp_4x4#8_16.cnf+f86eaf40,0,0.23,6936,68,20218,127450,1029691,SATISFIABLE,
glucose_onlysym.sh+mrpp_4x4#8_24.cnf.brk+82dc098a,0,0.68,9924,177,46494,402247,2974146,SATISFIABLE,
glucose_onlysym.sh+mrpp_4x4#8_7.cnf.brk+98f41c63,0,0.08,2612,37,7333,16932,292504,SATISFIABLE,
glucose_onlysym.sh+mrpp_6x6#10_10.cnf.brk+ff7e59f6,0,0.24,7432,58,18689,133680,944688,SATISFIABLE,
glucose_onlysym.sh+mrpp_6x6#10_12.cnf.brk+280737f8,0,0.83,10716,257,57242,468228,3465271,SATISFIABLE,
glucose_onlysym.sh+mrpp_6x6#10_20.cnf.brk+f3c7cb15,0,8.13,24576,1813,325341,4091584,31206601,SATISFIABLE,
glucose_onlysym.sh+mrpp_6x6#12_20.cnf.brk+32b15d3,0,15.8,30136,3409,564277,6007812,50312660,SATISFIABLE,
glucose_onlysym.sh+mrpp_6x6#12_9.cnf.brk+7deb7478,0,0.27,7292,89,22057,96352,980543,SATISFIABLE,
glucose_onlysym.sh+mrpp_6x6#14_12.cnf.brk+46cdcd74,0,2.02,12332,678,121042,675424,6769626,SATISFIABLE,
glucose_onlysym.sh+mrpp_6x6#16_16.cnf.brk+a742d436,0,31.14,49864,5515,912842,5112799,71208791,SATISFIABLE,
glucose_onlysym.sh+mrpp_6x6#18_12.cnf.brk+659462f0,0,10.69,29548,2646,371416,1475374,25121238,SATISFIABLE,
glucose_onlysym.sh+mrpp_8x8#10_9.cnf.brk+db015df2,0,0.36,11476,88,20921,186822,1316975,SATISFIABLE,
glucose_onlysym.sh+mrpp_8x8#16_10.cnf.brk+82b2cab4,0,1.27,12592,382,60987,322849,4139606,SATISFIABLE,
glucose_onlysym.sh+mrpp_8x8#16_11.cnf.brk+16f739b5,0,1.61,18452,474,75987,512543,5581642,SATISFIABLE,
glucose_onlysym.sh+mrpp_8x8#16_12.cnf.brk+ab3ba8b6,0,5.24,25876,1417,217978,1543150,17491871,SATISFIABLE,
glucose_onlysym.sh+mrpp_8x8#16_16.cnf.brk+fc4d64ba,0,43.68,68284,6877,1170501,8133494,103929797,SATISFIABLE,
glucose_onlysym.sh+mrpp_8x8#18_14.cnf.brk+e327d176,0,58.74,58416,8730,1318915,6798351,110841065,SATISFIABLE,
glucose_onlysym.sh+mrpp_8x8#20_24.cnf.brk+88671e1e,0,3696.16,285096
glucose_onlysym.sh+mrpp_8x8#22_11.cnf.brk+e6b3aaba,0,63.27,50900,6835,985086,2211899,85111013,SATISFIABLE,
glucose_onlysym.sh+mrpp_8x8#22_20.cnf.brk+46b8acd8,0,669.73,165928,51548,8513641,51981044,820556954,SATISFIABLE,
glucose_onlysym.sh+mrpp_8x8#22_24.cnf.brk+97ca68dc,0,3698.13,281616
glucose_onlysym.sh+mrpp_8x8#24_11.cnf.brk+f616f578,0,1.27,15184,375,64701,242691,3934091,UNSATISFIABLE,
glucose_onlysym.sh+mrpp_8x8#24_12.cnf.brk+8a5b6479,0,249.64,115248,18490,2991165,8254604,252246424,SATISFIABLE,
glucose_onlysym.sh+mrpp_8x8#24_14.cnf.brk+b2e4427b,0,123.98,79596,15214,2115189,10321728,178776268,SATISFIABLE,
glucose_onlysym.sh+mrpp_8x8#24_20.cnf.brk+561bf796,0,2385.39,249468,110839,17937725,92981833,1715421923,SATISFIABLE,
glucose_onlysym.sh+ndist.b.20499.cnf.brk+302cda84,0,0.0,1476,nosym
glucose_onlysym.sh+ndist.b.20998.cnf.brk+845fe948,0,0.0,1480,nosym
glucose_onlysym.sh+ndist.b.22495.cnf.brk+ee7e693e,0,0.0,1480,nosym
glucose_onlysym.sh+ndist.b.22994.cnf.brk+42b17802,0,0.0,1480,nosym
glucose_onlysym.sh+ndist.b.23992.cnf.brk+21da3f5f,0,0.0,1476,nosym
glucose_onlysym.sh+ndist.b.24491.cnf.brk+accff7f8,0,0.0,1480,nosym
glucose_onlysym.sh+ndist.b.25489.cnf.brk+625ba440,0,0.0,1480,nosym
glucose_onlysym.sh+ndist.b.26487.cnf.brk+41846b9d,0,0.0,1476,nosym
glucose_onlysym.sh+ndist.b.27485.cnf.brk+20ad32fa,0,0.0,1480,nosym
glucose_onlysym.sh+ndist.b.29481.cnf.brk+defec1b4,0,0.0,1476,nosym
glucose_onlysym.sh+openstacks-p30_3.085-SAT.cnf.brk+fabe459f,0,12.06,208012,16,4786,53124,4202908,SATISFIABLE,
glucose_onlysym.sh+openstacks-sequencedstrips-nonadl-nonnegated-os-sequencedstrips-p30_1.025-NOTKNOWN.cnf.brk+88129121,0,3697.62,740804
glucose_onlysym.sh+openstacks-sequencedstrips-nonadl-nonnegated-os-sequencedstrips-p30_3.025-NOTKNOWN.cnf.brk+951e065f,0,3697.95,721952
glucose_onlysym.sh+openstacks-sequencedstrips-nonadl-nonnegated-os-sequencedstrips-p30_3.085-SAT.cnf.brk+5a817285,0,12.16,211664,16,4786,53124,4202908,SATISFIABLE,
glucose_onlysym.sh+partial-10-11-s.cnf.brk+2009731e,0,0.0,1480,nosym
glucose_onlysym.sh+partial-10-17-s.cnf.brk+9d65a3a4,0,0.0,1480,nosym
glucose_onlysym.sh+partial-5-15-s.cnf.brk+9c8103ac,0,0.0,1480,nosym
glucose_onlysym.sh+partial-5-17-s.cnf.brk+c64a692e,0,0.0,1480,nosym
glucose_onlysym.sh+pb_300_10_lb_07.cnf.brk+10eef53f,0,0.0,1480,nosym
glucose_onlysym.sh+pb_300_10_lb_08.cnf.brk+a5336440,0,0.0,1480,nosym
glucose_onlysym.sh+post-c32s-ss-8.cnf.brk+de92dcf8,0,0.0,1476,nosym
glucose_onlysym.sh+post-cbmc-aes-d-r2-noholes.cnf.brk+126c6175,0,87.12,220612,5926,1735395,4359077,98329487,UNSATISFIABLE,
glucose_onlysym.sh+post-cbmc-aes-d-r2.cnf.brk+e86802b0,0,97.01,215360,6863,1948806,4754862,106762717,UNSATISFIABLE,
glucose_onlysym.sh+post-cbmc-aes-ee-r2-noholes.cnf.brk+5078863f,0,92.19,207400,6446,1912596,3959543,89649686,UNSATISFIABLE,
glucose_onlysym.sh+post-cbmc-zfcp-2.8-u2.cnf.brk+4d7d226d,0,0.0,1464,1,0,1,0,SATISFIABLE,
glucose_onlysym.sh+prime2209-98.cnf.brk+abb02624,0,22.13,132992,84,34674,13831439,112982516,SATISFIABLE,
glucose_onlysym.sh+q_query_3_L100_coli.sat.cnf.brk+dc0cb8e0,0,37.61,211864,1646,334293,613954,147710917,UNSATISFIABLE,
glucose_onlysym.sh+q_query_3_L150_coli.sat.cnf.brk+e060a1a5,0,65.46,350396,2665,447605,868081,243863447,UNSATISFIABLE,
glucose_onlysym.sh+q_query_3_L200_coli.sat.cnf.brk+c3ae8f3f,0,67.2,487832,1538,383454,786882,210495647,UNSATISFIABLE,
glucose_onlysym.sh+q_query_3_L80_coli.sat.cnf.brk+ea27922b,0,63.12,167976,2525,557639,942372,278050402,UNSATISFIABLE,
glucose_onlysym.sh+q_query_3_L90_coli.sat.cnf.brk+b7d1f3ec,0,35.57,189944,1771,323059,589189,142829114,UNSATISFIABLE,
glucose_onlysym.sh+q_query_3_l45_lambda.cnf.brk+4f07f5c8,0,126.06,52820,4869,1174839,1721221,233768140,UNSATISFIABLE,
glucose_onlysym.sh+q_query_3_l46_lambda.cnf.brk+3099d3a7,0,106.94,53640,4228,1076100,1585313,215734768,UNSATISFIABLE,
glucose_onlysym.sh+q_query_3_l48_lambda.cnf.brk+f3bd8f65,0,103.75,52592,3166,1101012,1575552,218046157,UNSATISFIABLE,
glucose_onlysym.sh+rbcl_xits_08_UNSAT.cnf.brk+786b2ddd,0,1656.23,179208,29875,14926489,19592628,1270404897,UNSATISFIABLE,
glucose_onlysym.sh+rbcl_xits_14_SAT.cnf.brk+66d32731,0,1.84,31516,125,42359,65173,2489329,SATISFIABLE,
glucose_onlysym.sh+rbsat-v1150c84314gyes10.cnf.brk+a6ea1704,0,0.0,1476,nosym
glucose_onlysym.sh+rbsat-v1150c84314gyes4.cnf.brk+df8d4d23,0,0.0,1480,nosym
glucose_onlysym.sh+rbsat-v1150c84314gyes5.cnf.brk+73d1bc24,0,0.0,1480,nosym
glucose_onlysym.sh+rbsat-v1150c84314gyes7.cnf.brk+9c5a9a26,0,0.0,1480,nosym
glucose_onlysym.sh+rbsat-v945c61409g10.cnf.brk+6cfac5c0,0,0.0,1480,nosym
glucose_onlysym.sh+rbsat-v945c61409gyes5.cnf.brk+2081050f,0,0.0,1476,nosym
glucose_onlysym.sh+reg_s_2_unknown.cnf.brk+7d865fbc,0,1389.93,290104,6088,3614343,4839944,4824131664,UNSATISFIABLE,
glucose_onlysym.sh+rnd-v25-e13-k3.cnf.brk+462281a7,0,0.83,50612,2,403,13536,338293,SATISFIABLE,
glucose_onlysym.sh+rnd-v25-e178-k13.cnf.brk+a9fb51c6,0,3203.74,303332,27481,7123056,23516542,4148005855,SATISFIABLE,
glucose_onlysym.sh+rnd-v25-e212-k9.cnf.brk+b23d18e8,0,680.08,244016,6930,2695989,7644707,1516758683,UNSATISFIABLE,
glucose_onlysym.sh+rnd-v25-e81-k9.cnf.brk+35eefe76,0,413.57,140252,4699,1619689,5935389,1017351686,SATISFIABLE,
glucose_onlysym.sh+rook-40-0-0.cnf.brk+1807e38a,0,0.0,1480,nosym
glucose_onlysym.sh+rook-40-0-1.cnf.brk+ac4c528b,0,0.0,1476,nosym
glucose_onlysym.sh+rook-42-0-0.cnf.brk+f50df08c,0,0.0,1480,nosym
glucose_onlysym.sh+rook-42-0-1.cnf.brk+89525f8d,0,0.0,1480,nosym
glucose_onlysym.sh+rook-42-1-1.cnf.brk+1e37124e,0,0.0,1476,nosym
glucose_onlysym.sh+rook-44-0-1.cnf.brk+66586c8f,0,0.0,1480,nosym
glucose_onlysym.sh+rook-44-1-1.cnf.brk+fb3d1f50,0,0.0,1476,nosym
glucose_onlysym.sh+rook-46-1-1.cnf.brk+d8432c52,0,0.0,1480,nosym
glucose_onlysym.sh+rook-47-0-1.cnf.brk+31e18012,0,0.0,1476,nosym
glucose_onlysym.sh+rook-47-1-1.cnf.brk+c6c632d3,0,0.0,1480,nosym
glucose_onlysym.sh+rook-48-0-1.cnf.brk+20648693,0,0.0,1480,nosym
glucose_onlysym.sh+rook-49-1-1.cnf.brk+a3cc3fd5,0,0.0,1476,nosym
glucose_onlysym.sh+rook-50-0-0.cnf.brk+f9e5ad29,0,0.0,1480,nosym
glucose_onlysym.sh+rook-51-0-0.cnf.brk+e868b3aa,0,0.0,1476,nosym
glucose_onlysym.sh+rook-52-0-1.cnf.brk+6b30292c,0,0.0,1480,nosym
glucose_onlysym.sh+rook-54-0-0.cnf.brk+b3f1c72d,0,0.0,1476,nosym
glucose_onlysym.sh+rook-54-1-1.cnf.brk+dd1ae8ef,0,0.0,1476,nosym
glucose_onlysym.sh+rook-55-0-1.cnf.brk+36b93caf,0,0.0,1480,nosym
glucose_onlysym.sh+rook-56-0-0.cnf.brk+90f7d42f,0,0.0,1480,nosym
glucose_onlysym.sh+rook-56-1-1.cnf.brk+ba20f5f1,0,0.0,1476,nosym
glucose_onlysym.sh+rook-57-1-1.cnf.brk+a8a3fc72,0,0.0,1480,nosym
glucose_onlysym.sh+rook-58-1-1.cnf.brk+972702f3,0,0.0,1476,nosym
glucose_onlysym.sh+rook-59-1-1.cnf.brk+85aa0974,0,0.0,1476,nosym
glucose_onlysym.sh+rook-60-0-1.cnf.brk+7007e5c9,0,0.0,1476,nosym
glucose_onlysym.sh+rook-61-1-1.cnf.brk+f36f9f0b,0,0.0,1476,nosym
glucose_onlysym.sh+rook-63-1-1.cnf.brk+d075ac0d,0,0.0,1476,nosym
glucose_onlysym.sh+rook-65-1-1.cnf.brk+ad7bb90f,0,0.0,1476,nosym
glucose_onlysym.sh+rook-68-1-1.cnf.brk+7904cc92,0,0.0,1476,nosym
glucose_onlysym.sh+rook-72-1-1.cnf.brk+c3d06f2b,0,0.0,1476,nosym
glucose_onlysym.sh+rook-76-1-1.cnf.brk+7ddc892f,0,0.0,1480,nosym
glucose_onlysym.sh+rpoc_xits_15_SAT.cnf.brk+40f0ad2b,0,4.82,51776,67,93706,115683,5869519,SATISFIABLE,
glucose_onlysym.sh+rpoc_xits_15_SAT.cnf.brk+d0c45075,0,4.56,51508,67,93706,115683,5869519,SATISFIABLE,
glucose_onlysym.sh+sat-grid-pbl-0200.sat05-1339.reshuffled-07.cnf.brk+344b92ab,0,0.44,31600,1,0,1,950,SATISFIABLE,
glucose_onlysym.sh+sgen1-sat-230-100.cnf.brk+59bd467,0,0.0,1480,nosym
glucose_onlysym.sh+sgen1-sat-240-100.cnf.brk+e7799e06,0,0.0,1476,nosym
glucose_onlysym.sh+sgen1-sat-250-100.cnf.brk+c95767a5,0,0.0,1480,nosym
glucose_onlysym.sh+sgen1-sat-270-100.cnf.brk+8d12fae3,0,0.0,1480,nosym
glucose_onlysym.sh+sgen3-n200-s39840374-sat.cnf.brk+ca3925bc,0,0.0,1480,nosym
glucose_onlysym.sh+sgen3-n220-s24359701-sat.cnf.brk+ad0bd6bb,0,0.0,1480,nosym
glucose_onlysym.sh+sgen3-n240-s78945233-sat.cnf.brk+e7b1f92f,0,0.0,1480,nosym
glucose_onlysym.sh+sgen4-sat-160-8.cnf.brk+a362558d,0,0.0,1480,nosym
glucose_onlysym.sh+sgen4-sat-200-8.cnf.brk+63bb7bd4,0,0.0,1480,nosym
glucose_onlysym.sh+sgen4-sat-220-8.cnf.brk+731ec692,0,0.0,1476,nosym
glucose_onlysym.sh+sgen6-1080-5-1.cnf.brk+e8091277,0,0.0,1480,nosym
glucose_onlysym.sh+sgen6-1200-5-1.cnf.brk+8cd19a01,0,0.0,1480,nosym
glucose_onlysym.sh+sgen6-1320-5-1.cnf.brk+aa689780,0,0.0,1480,nosym
glucose_onlysym.sh+sgen6-1440-5-1.cnf.brk+c7ff94ff,0,0.0,1476,nosym
glucose_onlysym.sh+sgen6-840-5-1.cnf.brk+c63ed0a0,0,0.0,1480,nosym
glucose_onlysym.sh+sgen6-960-5-1.cnf.brk+e3d5ce1f,0,0.0,1476,nosym
glucose_onlysym.sh+shift1add.10000.cnf.brk+e5974a29,0,57.82,98672,522,56522,106902365,228000275,UNSATISFIABLE,
glucose_onlysym.sh+shift1add.13988.cnf.brk+7d25840f,0,105.9,137680,743,74357,182229920,377450855,UNSATISFIABLE,
glucose_onlysym.sh+shift1add.15982.cnf.brk+12ee34c7,0,125.03,155684,853,89279,238846953,500435363,UNSATISFIABLE,
glucose_onlysym.sh+shift1add.18973.cnf.brk+c9fe22c6,0,105.44,194632,798,104473,150340887,374641313,UNSATISFIABLE,
glucose_onlysym.sh+shift1add.21964.cnf.brk+22a0a190,0,243.98,234748,1050,118636,402935246,885495091,UNSATISFIABLE,
glucose_onlysym.sh+shift1add.24955.cnf.brk+d9b08f8f,0,179.39,238216,1123,137449,242001194,540075389,UNSATISFIABLE,
glucose_onlysym.sh+shift1add.25952.cnf.brk+2494e7eb,0,267.97,249724,1266,142595,488852608,1058699138,UNSATISFIABLE,
glucose_onlysym.sh+shift1add.29940.cnf.brk+26892e46,0,267.34,285184,1299,160040,308157675,947685743,UNSATISFIABLE,
glucose_onlysym.sh+slp-synthesis-aes-top28.cnf.brk+9ccddc4,0,0.0,1480,nosym
glucose_onlysym.sh+slp-synthesis-aes-top29.cnf.brk+9e114cc5,0,0.0,1476,nosym
glucose_onlysym.sh+smtlib-qfbv-aigs-ext_con_032_008_0256-tseitin.cnf.brk+9627c80b,0,3697.25,264156
glucose_onlysym.sh+smtlib-qfbv-aigs-lfsr_004_127_112-tseitin.cnf.brk+7fab9fae,0,4.57,178116,130,34715,206566,10603906,UNSATISFIABLE,
glucose_onlysym.sh+stable-300-0.1-20-98765432130020.cnf.brk+e7d49e43,0,0.0,1480,nosym
glucose_onlysym.sh+stable-400-0.1-11-98765432140011.cnf.brk+6bfba085,0,0.0,1476,nosym
glucose_onlysym.sh+stable-400-0.1-12-98765432140012.cnf.brk+fc419e65,0,0.0,1480,nosym
glucose_onlysym.sh+stable-400-0.1-2-9876543214002.cnf.brk+9a63491,0,0.0,1480,nosym
glucose_onlysym.sh+stable-400-0.1-4-9876543214004.cnf.brk+c6924515,0,0.0,1476,nosym
glucose_onlysym.sh+stable-400-0.1-5-9876543214005.cnf.brk+a5084d57,0,0.0,1476,nosym
glucose_onlysym.sh+stable-400-0.1-7-9876543214007.cnf.brk+61f45ddb,0,0.0,1480,nosym
glucose_onlysym.sh+total-10-13-u.cnf.brk+35648965,0,0.0,1476,nosym
glucose_onlysym.sh+toughsat_factoring_155s.cnf.brk+12232316,0,0.0,1476,nosym
glucose_onlysym.sh+toughsat_factoring_426s.cnf.brk+5ed36c0f,0,0.0,1476,nosym
glucose_onlysym.sh+toughsat_factoring_958s.cnf.brk+2c8ca16b,0,0.0,1480,nosym
glucose_onlysym.sh+toughsat_factoring_inf.cnf.brk+a897f4c1,0,0.0,1480,nosym
glucose_onlysym.sh+tph17.cnf.brk+a3cc9d26,0,3695.5,368216
glucose_onlysym.sh+transport-transport-city-sequential-25nodes-1000size-3degree-100mindistance-3trucks-10packages-2008seed.020-NOTKNOWN.cnf.brk+16f96258,0,0.0,1476,nosym
glucose_onlysym.sh+transport-transport-city-sequential-25nodes-1000size-3degree-100mindistance-3trucks-10packages-2008seed.030-NOTKNOWN.cnf.brk+e4a3c419,0,0.0,1476,nosym
glucose_onlysym.sh+transport-transport-city-sequential-25nodes-1000size-3degree-100mindistance-3trucks-10packages-2008seed.040-NOTKNOWN.cnf.brk+b24e25da,0,0.0,1472,nosym
glucose_onlysym.sh+transport-transport-city-sequential-25nodes-1000size-3degree-100mindistance-3trucks-10packages-2008seed.050-NOTKNOWN.cnf.brk+7ff8879b,0,0.0,1476,nosym
glucose_onlysym.sh+transport-transport-city-sequential-35nodes-1000size-4degree-100mindistance-4trucks-14packages-2008seed.040-NOTKNOWN.cnf.brk+55a36edd,0,0.0,1472,nosym
glucose_onlysym.sh+velev-vliw-uns-2.0-uq5.cnf.brk+7437e3a1,0,292.68,284896,6978,1234941,40079657,1809718980,UNSATISFIABLE,
glucose_onlysym.sh+velev-vliw-uns-4.0-9-i1.cnf.brk+205f8b26,0,476.93,375712,10801,2245458,50581802,3329592946,UNSATISFIABLE,
glucose_onlysym.sh+velev-vliw-uns-4.0-9.cnf.brk+372d4f43,0,109.95,210528,3282,623442,13972376,650981327,UNSATISFIABLE,
glucose_onlysym.sh+vmpc_29.cnf.brk+25a6c432,0,0.0,1480,nosym
glucose_onlysym.sh+vmpc_32.renamed-as.sat05-1919.cnf.brk+7ac7ece3,0,0.0,1480,nosym
glucose_onlysym.sh+vmpc_33.cnf.brk+a0559b4b,0,0.0,1476,nosym
glucose_onlysym.sh+x1_40.shuffled.cnf.brk+b31c130c,0,0.0,1472,1,560,725,3410,UNSATISFIABLE,
glucose_onlysym.sh+x1_80.shuffled.cnf.brk+e9c59a10,0,0.35,4088,1,63744,78558,407179,UNSATISFIABLE,
glucose_onlysym.sh+zfcp-2.8-u2-nh.cnf.brk+bb77a0a3,0,0.0,1468,1,0,1,0,SATISFIABLE,
