Name,OutCode,Time,Mem
breakid_run.sh+001-80-12.cnf+8cd93d9f,0,1.41,179160,0,0,0,0,0,0,0,0,0,
breakid_run.sh+002-23-96.cnf+eda5fff3,0,0.41,49544,63,1,1,2016,0,0,63,63,0,
breakid_run.sh+002-80-12.cnf+21bdf060,0,1.42,179156,0,0,0,0,0,0,0,0,0,
breakid_run.sh+002-80-4.cnf+4350660f,0,1.42,177112,0,0,0,0,0,0,0,0,0,
breakid_run.sh+002-80-8.cnf+4388c413,0,1.39,177116,0,0,0,0,0,0,0,0,0,
breakid_run.sh+003-23-80.cnf+80814d0f,0,0.39,49540,63,1,1,2016,0,0,63,63,0,
breakid_run.sh+003-80-8.cnf+37d23532,0,1.37,179156,0,0,0,0,0,0,0,0,0,
breakid_run.sh+004-22-144.cnf+97d99c52,0,0.37,47736,63,1,1,2016,0,0,63,63,0,
breakid_run.sh+004-22-160.cnf+9b0aef8c,0,0.39,47732,63,1,1,2016,0,0,63,63,0,
breakid_run.sh+004-80-8.cnf+2c1ba651,0,1.39,177112,0,0,0,0,0,0,0,0,0,
breakid_run.sh+005-22-160.cnf+a2bc94eb,0,0.39,47732,63,1,1,2016,0,0,63,63,0,
breakid_run.sh+005-80-12.cnf+e06c08a3,0,1.37,177300,0,0,0,0,0,0,0,0,0,
breakid_run.sh+006-22-144.cnf+a73ce710,0,0.36,47728,63,1,1,2016,0,0,63,63,0,
breakid_run.sh+006-22-160.cnf+aa6e3a4a,0,0.38,47732,63,1,1,2016,0,0,63,63,0,
breakid_run.sh+006-23-80.cnf+3f2f6552,0,0.4,50068,63,1,1,2016,0,0,63,63,0,
breakid_run.sh+006-23-96.cnf+4138caf7,0,0.39,49544,63,1,1,2016,0,0,63,63,0,
breakid_run.sh+006-80-4.cnf+14762a8b,0,1.39,177112,0,0,0,0,0,0,0,0,0,
breakid_run.sh+007-80-12.cnf+a356e25,0,1.42,177112,0,0,0,0,0,0,0,0,0,
breakid_run.sh+007-80-8.cnf+8f7f9ae,0,1.41,177308,0,0,0,0,0,0,0,0,0,
breakid_run.sh+008-80-12.cnf+9f1a20e6,0,1.39,177116,0,0,0,0,0,0,0,0,0,
breakid_run.sh+008-80-4.cnf+fd090cc9,0,1.34,177112,0,0,0,0,0,0,0,0,0,
breakid_run.sh+008-80-8.cnf+fd416acd,0,1.36,177308,0,0,0,0,0,0,0,0,0,
breakid_run.sh+009-23-64.cnf+faac2a5b,0,0.39,49536,63,1,1,2016,0,0,63,63,0,
breakid_run.sh+009-80-4.cnf+f1527de8,0,1.4,179156,0,0,0,0,0,0,0,0,0,
breakid_run.sh+009-80-8.cnf+f18adbec,0,1.38,177112,0,0,0,0,0,0,0,0,0,
breakid_run.sh+010-22-144.cnf+67960d57,0,0.38,47732,63,1,1,2016,0,0,63,63,0,
breakid_run.sh+010-22-160.cnf+6ac76091,0,0.38,47732,63,1,1,2016,0,0,63,63,0,
breakid_run.sh+010-23-80.cnf+c984da2b,0,0.38,49540,63,1,1,2016,0,0,63,63,0,
breakid_run.sh+010-80-12.cnf+ffa6303d,0,1.39,177112,0,0,0,0,0,0,0,0,0,
breakid_run.sh+10pipe_q0_k.cnf+92462a62,0,5.52,678644,20,20,0,0,20,3000,0,3020,1000,
breakid_run.sh+11pipe_11_ooo.cnf+bfef1126,0,20.02,1446132,23,1,0,0,23,1200,0,1223,400,
breakid_run.sh+11pipe_k.cnf+ceff98ef,0,28.79,1928920,25,1,0,0,25,1656,0,1681,552,
breakid_run.sh+11pipe_q0_k.cnf+7423f401,0,7.83,978992,22,22,0,0,22,3300,0,3322,1100,
breakid_run.sh+12pipe_q0_k.cnf+5601bda0,0,11.17,1372784,24,24,0,0,24,3600,0,3624,1200,
breakid_run.sh+13pipe_q0_k.cnf+37df873f,0,15.72,1870384,26,26,0,0,26,3900,0,3926,1300,
breakid_run.sh+14pipe_q0_k.cnf+19bd50de,0,23.09,2494124,28,28,0,0,28,4200,0,4228,1400,
breakid_run.sh+15pipe_q0_k.cnf+fb9b1a7d,0,28.17,3261980,30,30,0,0,30,4500,0,4530,1500,
breakid_run.sh+289-unsat-6x30.cnf+9b0f4430,0,0.5,12784,30,1,1,435,0,906,2030,2936,967,
breakid_run.sh+5-SATISFIABLE.cnf+4afa238,0,2.71,347160,1,1,0,0,1,150,0,151,50,
breakid_run.sh+6s10.cnf+5c375591,0,0.39,46824,29,24,1,3,26,205,2,233,68,
breakid_run.sh+6s11-opt.cnf+c9f392f8,0,0.23,38688,22,20,1,3,19,56,2,77,18,
breakid_run.sh+6s12.cnf+5c538493,0,0.43,46956,29,22,1,3,26,206,2,234,68,
breakid_run.sh+6s123.cnf+2e4b43ba,0,25.74,1119936,1505,359,1,458403,547,6236,957,7740,2078,
breakid_run.sh+6s126-opt.cnf+9f2b22a3,0,4.83,678132,0,0,0,0,0,0,0,0,0,
breakid_run.sh+6s13-opt.cnf+f27c70fa,0,0.37,60744,11,2,1,45,1,4,9,14,1,
breakid_run.sh+6s130-opt.cnf+19d9f9bc,0,0.35,57220,44,2,1,903,1,5,42,48,1,
breakid_run.sh+6s131-opt.cnf+ae1e68bd,0,0.34,57152,44,2,1,903,1,5,42,48,1,
breakid_run.sh+6s133.cnf+30001c59,0,0.6,66156,60,16,1,903,17,629,42,688,209,
breakid_run.sh+6s137.cnf+30387a5d,0,11.71,968148,957,957,0,0,957,29805,0,30762,9935,
breakid_run.sh+6s151.cnf+334d9e95,0,0.29,47580,1,1,0,0,1,150,0,151,50,
breakid_run.sh+6s153.cnf+3369cd97,0,29.89,115844,518,34,0,0,762,5214,0,5976,1738,
breakid_run.sh+6s16-opt.cnf+af49bdfd,0,0.22,35860,25,23,1,3,22,62,2,86,20,
breakid_run.sh+6s16.cnf+5c8be297,0,0.36,42524,32,25,1,3,29,211,2,242,70,
breakid_run.sh+6s165-nonopt.cnf+dc19e2f5,0,0.02,4632,20,20,0,0,20,606,0,626,202,
breakid_run.sh+6s167-opt.cnf+4955620,0,0.02,5796,3,1,1,3,0,1,2,3,0,
breakid_run.sh+6s168-opt.cnf+98d9c521,0,0.02,6920,0,0,0,0,0,0,0,0,0,
breakid_run.sh+6s169-opt.cnf+2d1e3422,0,0.03,7524,19,3,1,136,2,37,16,55,12,
breakid_run.sh+6s17-opt.cnf+438e2cfe,0,0.32,55208,14,4,1,55,3,14,10,27,4,
breakid_run.sh+6s184.cnf+38966ef5,0,0.38,46224,26,22,1,3,23,209,2,234,69,
breakid_run.sh+6s9.cnf+2cb47501,0,0.46,47320,32,24,1,3,29,80,2,111,26,
breakid_run.sh+7pipe_k.cnf+c0fb72b6,0,3.04,270520,17,1,0,0,17,1506,0,1523,502,
breakid_run.sh+8pipe_k.cnf+55e02577,0,5.66,476620,19,1,0,0,19,1056,0,1075,352,
breakid_run.sh+9dlx_vliw_at_b_iq3.cnf+3621ac2a,0,2.03,329664,11,11,0,0,11,501,0,512,167,
breakid_run.sh+9dlx_vliw_at_b_iq4.cnf+362fc3ab,0,3.62,534520,11,11,0,0,11,540,0,551,180,
breakid_run.sh+9dlx_vliw_at_b_iq6.used-as.sat04-347.cnf+fea47326,0,8.06,1209644,11,11,0,0,11,567,0,578,189,
breakid_run.sh+9dlx_vliw_at_b_iq7.cnf+365a0a2e,0,13.77,2008988,11,11,0,0,11,585,0,596,195,
breakid_run.sh+9dlx_vliw_at_b_iq8.used-as.sat04-718.cnf+61902050,0,15.77,2370904,11,11,0,0,11,585,0,596,195,
breakid_run.sh+9dlx_vliw_at_b_iq9.cnf+36763930,0,23.34,3192804,11,11,0,0,11,597,0,608,199,
breakid_run.sh+9vliw_m_9stages_iq3_C1_bug1.cnf+5fea217a,0,31.68,4354432,2,2,0,0,2,300,0,302,100,
breakid_run.sh+9vliw_m_9stages_iq3_C1_bug10.cnf+9d5dfd30,0,32.56,4354188,2,2,0,0,2,300,0,302,100,
breakid_run.sh+9vliw_m_9stages_iq3_C1_bug3.cnf+6006507c,0,29.49,4353268,2,2,0,0,2,300,0,302,100,
breakid_run.sh+9vliw_m_9stages_iq3_C1_bug4.cnf+601467fd,0,30.56,4346948,2,2,0,0,2,300,0,302,100,
breakid_run.sh+9vliw_m_9stages_iq3_C1_bug7.cnf+603eae80,0,32.56,4356788,2,2,0,0,2,300,0,302,100,
breakid_run.sh+9vliw_m_9stages_iq3_C1_bug8.cnf+604cc601,0,32.12,4354392,2,2,0,0,2,300,0,302,100,
breakid_run.sh+9vliw_m_9stages_iq3_C1_bug9.cnf+605add82,0,32.03,4357484,2,2,0,0,2,300,0,302,100,
breakid_run.sh+ACG-15-10p0.cnf+ace0d6e5,0,2.79,400072,0,0,0,0,0,0,0,0,0,
breakid_run.sh+ACG-15-10p1.cnf+aceeee66,0,2.74,403324,0,0,0,0,0,0,0,0,0,
breakid_run.sh+ACG-20-10p1.cnf+7c646b8c,0,3.98,581520,0,0,0,0,0,0,0,0,0,
breakid_run.sh+ACG-20-5p0.cnf+eeb737c3,0,3.29,495068,0,0,0,0,0,0,0,0,0,
breakid_run.sh+ACG-20-5p1.cnf+eec54f44,0,3.58,506576,0,0,0,0,0,0,0,0,0,
breakid_run.sh+AProVE07-01.cnf+1ad14e31,0,0.05,11128,0,0,0,0,0,0,0,0,0,
breakid_run.sh+AProVE07-03.cnf+1aed7d33,0,0.01,4672,0,0,0,0,0,0,0,0,0,
breakid_run.sh+AProVE07-08.cnf+1b33f2b8,0,0.03,6816,0,0,0,0,0,0,0,0,0,
breakid_run.sh+AProVE07-27.cnf+1e8f8c75,0,0.04,11252,2,2,0,0,2,6,0,8,2,
breakid_run.sh+AProVE09-06.cnf+eada1d74,0,1.13,115700,2,1,0,0,2,300,0,302,100,
breakid_run.sh+Chvatal-k5.cnf+d110625f,0,0.28,11816,1008,1,1,507528,0,1,1007,1008,0,
breakid_run.sh+Composite-024BitPrimes-1.used-as.sat04-861.cnf+31634ce6,0,0.02,4376,1,1,0,0,1,0,0,1,0,
breakid_run.sh+Composite-024BitPrimes-1.used-as.sat04-861.cnf+cc80ab86,0,0.02,4376,1,1,0,0,1,0,0,1,0,
breakid_run.sh+E02F20.cnf+a5aeabd2,0,1.1,147228,0,0,0,0,0,0,0,0,0,
breakid_run.sh+E02F22.cnf+a5cadad4,0,4.3,507212,0,0,0,0,0,0,0,0,0,
breakid_run.sh+EDP3-10000.cnf+78acfc3d,0,1.86,230752,1,1,0,0,1,150,0,151,50,
breakid_run.sh+EDP3-11000.cnf+e08e291c,0,2.1,250236,1,1,0,0,1,150,0,151,50,
breakid_run.sh+EDP3-12000.cnf+486f55fb,0,2.5,279812,1,1,0,0,1,150,0,151,50,
breakid_run.sh+EDP3-13000.cnf+b05082da,0,2.57,299336,1,1,0,0,1,150,0,151,50,
breakid_run.sh+EDP3-14000.cnf+1831afb9,0,3.06,329812,1,1,0,0,1,150,0,151,50,
breakid_run.sh+EDP3-15000.cnf+8012dc98,0,3.48,355632,1,1,0,0,1,150,0,151,50,
breakid_run.sh+EDP3-16000.cnf+e7f40977,0,3.39,387324,1,1,0,0,1,150,0,151,50,
breakid_run.sh+EDP3-17000.cnf+4fd53656,0,3.88,412404,1,1,0,0,1,150,0,151,50,
breakid_run.sh+EDP3-18000.cnf+b7b66335,0,4.33,439240,1,1,0,0,1,150,0,151,50,
breakid_run.sh+EDP3-19000.cnf+1f979014,0,4.15,466848,1,1,0,0,1,150,0,151,50,
breakid_run.sh+EDP3-20000.cnf+cf16b3e,0,4.81,493668,1,1,0,0,1,150,0,151,50,
breakid_run.sh+EDP3-30000.cnf+a135da3f,0,7.7,784076,1,1,0,0,1,150,0,151,50,
breakid_run.sh+EDP3-40000.cnf+357a4940,0,10.74,1057664,1,1,0,0,1,150,0,151,50,
breakid_run.sh+EDP3-50000.cnf+c9beb841,0,12.84,1374584,1,1,0,0,1,150,0,151,50,
breakid_run.sh+EDP3-60000.cnf+5e032742,0,16.21,1694416,1,1,0,0,1,150,0,151,50,
breakid_run.sh+EDP3-70000.cnf+f2479643,0,20.74,1974876,1,1,0,0,1,150,0,151,50,
breakid_run.sh+EDP3-8000.cnf+eb90c6e6,0,1.52,178752,1,1,0,0,1,150,0,151,50,
breakid_run.sh+EDP3-80000.cnf+868c0544,0,22.67,2284908,1,1,0,0,1,150,0,151,50,
breakid_run.sh+EDP3-9000.cnf+5371f3c5,0,1.78,199096,1,1,0,0,1,150,0,151,50,
breakid_run.sh+EDP3-90000.cnf+1ad07445,0,27.12,2600504,1,1,0,0,1,150,0,151,50,
breakid_run.sh+FlowerSnark-k6.cnf+53ccd68b,0,2.63,71996,3000,1,1,4498500,0,1,2999,3000,0,
breakid_run.sh+GreenTao_2-3-6_2071.cnf+fe690359,0,0.28,50708,0,0,0,0,0,0,0,0,0,
breakid_run.sh+GreenTao_2-4-4_511.cnf+462f8fed,0,0.01,2156,2,2,0,0,2,0,0,2,0,
breakid_run.sh+Hidoku_enu_6.cnf+dfdd7ad1,0,0.04,5000,316,1,1,49770,0,1,315,316,0,
breakid_run.sh+Hidoku_enu_7.cnf+dfeb9252,0,0.08,8804,433,1,1,93528,0,2,432,434,0,
breakid_run.sh+IBM_FV_2004_rule_batch_1_31_1_SAT_dat.k40.debugged.cnf+33538a31,0,0.67,80668,13,8,5,15,3,12,10,25,4,
breakid_run.sh+LABS_n038_goal002.cnf+d12ebbc3,0,0.11,26740,0,0,0,0,0,0,0,0,0,
breakid_run.sh+LABS_n044_goal003.cnf+f90e82df,0,0.22,40620,2,2,0,0,2,0,0,2,0,
breakid_run.sh+LABS_n045_goal003.cnf+e7918960,0,0.23,43592,2,2,0,0,2,0,0,2,0,
breakid_run.sh+LABS_n051_goal004.cnf+f71507c,0,0.37,61956,2,2,0,0,2,0,0,2,0,
breakid_run.sh+LABS_n052_goal004.cnf+fdf456fd,0,0.41,65504,2,2,0,0,2,0,0,2,0,
breakid_run.sh+LABS_n066_goal005.cnf+99ec5221,0,0.86,129984,2,2,0,0,2,0,0,2,0,
breakid_run.sh+LABS_n078_goal006.cnf+58de4043,0,1.31,213408,6,6,0,0,6,0,0,6,0,
breakid_run.sh+LABS_n081_goal007.cnf+b534f3dc,0,1.89,268076,23,7,1,136,6,1,16,23,0,
breakid_run.sh+LABS_n082_goal007.cnf+a3b7fa5d,0,2.26,299568,313,7,1,46971,6,1,306,313,0,
breakid_run.sh+LABS_n088_goal008.cnf+3ad838e4,0,5.06,408736,1765,7,1,1546161,6,1,1758,1765,0,
breakid_run.sh+MD5-27-4.cnf+a42efdd0,0,0.11,21900,0,0,0,0,0,0,0,0,0,
breakid_run.sh+MD5-28-1.cnf+d8eaf28e,0,0.13,23208,0,0,0,0,0,0,0,0,0,
breakid_run.sh+MD5-28-2.cnf+d8f90a0f,0,0.11,23208,0,0,0,0,0,0,0,0,0,
breakid_run.sh+MD5-28-3.cnf+d9072190,0,0.13,23192,0,0,0,0,0,0,0,0,0,
breakid_run.sh+MD5-28-4.cnf+d9153911,0,0.12,22676,0,0,0,0,0,0,0,0,0,
breakid_run.sh+MD5-28-5.cnf+d9235092,0,0.14,23196,0,0,0,0,0,0,0,0,0,
breakid_run.sh+MD5-29-2.cnf+ddf4550,0,0.15,23924,0,0,0,0,0,0,0,0,0,
breakid_run.sh+MD5-29-3.cnf+ded5cd1,0,0.15,23660,0,0,0,0,0,0,0,0,0,
breakid_run.sh+MD5-29-4.cnf+dfb7452,0,0.14,23660,0,0,0,0,0,0,0,0,0,
breakid_run.sh+MD5-29-5.cnf+e098bd3,0,0.13,23656,0,0,0,0,0,0,0,0,0,
breakid_run.sh+MD5-30-1.cnf+999a4565,0,0.15,24692,0,0,0,0,0,0,0,0,0,
breakid_run.sh+MD5-30-2.cnf+99a85ce6,0,0.15,24684,0,0,0,0,0,0,0,0,0,
breakid_run.sh+MD5-30-4.cnf+99c48be8,0,0.13,24692,0,0,0,0,0,0,0,0,0,
breakid_run.sh+MD5-30-5.cnf+99d2a369,0,0.16,24952,0,0,0,0,0,0,0,0,0,
breakid_run.sh+MD5-31-4.cnf+ceaac729,0,0.14,25672,0,0,0,0,0,0,0,0,0,
breakid_run.sh+MD5-31-5.cnf+ceb8deaa,0,0.15,26212,0,0,0,0,0,0,0,0,0,
breakid_run.sh+MD5-32-1.cnf+366bbe7,0,0.16,26700,0,0,0,0,0,0,0,0,0,
breakid_run.sh+MD5-32-2.cnf+374d368,0,0.15,26692,0,0,0,0,0,0,0,0,0,
breakid_run.sh+MD5-32-3.cnf+382eae9,0,0.15,26964,0,0,0,0,0,0,0,0,0,
breakid_run.sh+MD5-32-4.cnf+391026a,0,0.16,26700,0,0,0,0,0,0,0,0,0,
breakid_run.sh+MD5-32-5.cnf+39f19eb,0,0.13,26708,0,0,0,0,0,0,0,0,0,
breakid_run.sh+Q32inK09.cnf+60e8f1af,0,0.06,4848,7,1,0,0,68,207,0,275,69,
breakid_run.sh+Q32inK10.cnf+621ef6c5,0,0.42,21044,9,1,0,0,96,435,0,531,145,
breakid_run.sh+Q32inK11.cnf+622d0e46,0,2.11,74928,9,1,0,0,127,555,0,682,185,
breakid_run.sh+Q3inK10.cnf+f93ca94d,0,1.12,41300,10,1,1,3,126,375,44,545,139,
breakid_run.sh+Q3inK11.cnf+e5ac3467,0,6.88,147904,11,1,1,3,169,531,50,750,193,
breakid_run.sh+Robertson-k8.cnf+6b107a41,0,3.44,65012,3610,1,1,6514245,0,2,3609,3611,0,
breakid_run.sh+SAT_dat.k100-24_1_rule_1.cnf+f91cb837,0,1310.87,2336904,56396,113,2,1173451656,111,945,82113,83169,8924,
breakid_run.sh+SAT_dat.k100-24_1_rule_2.cnf+f92acfb8,0,1407.22,2337796,56396,113,2,1173451656,111,944,82113,83168,8924,
breakid_run.sh+SAT_dat.k100-24_1_rule_3.cnf+f938e739,0,1361.73,2339784,56396,113,2,1173451656,111,944,82113,83168,8924,
breakid_run.sh+SAT_dat.k30-30_rule.cnf+120c162e,0,0.86,111196,161,4,2,8593,2,9,247,258,32,
breakid_run.sh+SAT_dat.k35-31_2_rule_2.cnf+95ad98b2,0,0.73,82704,457,4,2,69085,2,4,735,741,94,
breakid_run.sh+SAT_dat.k70-24_1_rule_1.cnf+58a200e5,0,605.24,1631624,39686,83,2,580124436,81,945,57873,58899,6404,
breakid_run.sh+SAT_dat.k70-24_1_rule_3.cnf+58be2fe7,0,636.19,1655140,39686,83,2,580124436,81,943,57873,58897,6403,
breakid_run.sh+SAT_dat.k75-24_1_rule_3.cnf+ec0f85ec,0,767.48,1779604,42471,88,2,664647306,86,934,61913,62933,6820,
breakid_run.sh+SAT_dat.k80-24_1_rule_1.cnf+1d33e304,0,916.75,1864948,45256,93,2,754916176,91,946,65953,66990,7244,
breakid_run.sh+SAT_dat.k80-24_1_rule_2.cnf+1d41fa85,0,877.6,1894236,45256,93,2,754916176,91,942,65953,66986,7243,
breakid_run.sh+SAT_dat.k85-24_1_rule_1.cnf+b0853909,0,927.36,1983588,48041,98,2,850931046,96,935,69993,71024,7661,
breakid_run.sh+SAT_dat.k85-24_1_rule_2.cnf+b093508a,0,1013.15,2014520,48041,98,2,850931046,96,933,69993,71022,7660,
breakid_run.sh+SAT_dat.k85-24_1_rule_3.cnf+b0a1680b,0,1007.6,2012312,48041,98,2,850931046,96,934,69993,71023,7660,
breakid_run.sh+SAT_dat.k90.debugged.cnf+6b329644,0,1099.81,2101816,50826,103,2,952691916,101,940,74033,75074,8082,
breakid_run.sh+SAT_dat.k95-24_1_rule_1.cnf+75171b28,0,1180.53,2254700,53611,108,2,1060198786,106,937,78073,79116,8501,
breakid_run.sh+SAT_dat.k95-24_1_rule_2.cnf+752532a9,0,1269.12,2220980,53611,108,2,1060198786,106,936,78073,79115,8501,
breakid_run.sh+SAT_dat.k95-24_1_rule_3.cnf+75334a2a,0,1266.51,2255492,53611,108,2,1060198786,106,937,78073,79116,8501,
breakid_run.sh+SAT_instance_N=111.cnf+dedc4748,0,0.81,125672,0,0,0,0,0,0,0,0,0,
breakid_run.sh+SAT_instance_N=31.cnf+2577141,0,0.05,10592,0,0,0,0,0,0,0,0,0,
breakid_run.sh+SAT_instance_N=33.cnf+273a043,0,0.05,11672,0,0,0,0,0,0,0,0,0,
breakid_run.sh+SAT_instance_N=43.cnf+42878e2,0,0.1,19560,0,0,0,0,0,0,0,0,0,
breakid_run.sh+SAT_instance_N=49.cnf+47d05e8,0,0.13,25324,0,0,0,0,0,0,0,0,0,
breakid_run.sh+SAT_instance_N=55.cnf+5f98083,0,0.18,31592,0,0,0,0,0,0,0,0,0,
breakid_run.sh+SAT_instance_N=63.cnf+7922a20,0,0.19,40836,0,0,0,0,0,0,0,0,0,
breakid_run.sh+SAT_instance_N=69.cnf+7e6b726,0,0.28,49368,0,0,0,0,0,0,0,0,0,
breakid_run.sh+SAT_instance_N=72.cnf+938eb3e,0,0.31,52592,0,0,0,0,0,0,0,0,0,
breakid_run.sh+SAT_instance_N=75.cnf+96331c1,0,0.31,58596,0,0,0,0,0,0,0,0,0,
breakid_run.sh+SAT_instance_N=77.cnf+97f60c3,0,0.32,61356,0,0,0,0,0,0,0,0,0,
breakid_run.sh+SAT_instance_N=85.cnf+b180a60,0,0.46,74692,0,0,0,0,0,0,0,0,0,
breakid_run.sh+SAT_instance_N=93.cnf+cb0b3fd,0,0.5,89056,0,0,0,0,0,0,0,0,0,
breakid_run.sh+SAT_instance_N=99.cnf+d054103,0,0.57,101348,0,0,0,0,0,0,0,0,0,
breakid_run.sh+UCG-15-10p0.cnf+b20523f9,0,2.35,346344,0,0,0,0,0,0,0,0,0,
breakid_run.sh+UCG-15-10p1.cnf+b2133b7a,0,2.24,349600,0,0,0,0,0,0,0,0,0,
breakid_run.sh+UCG-20-10p0.cnf+817aa11f,0,3.05,464244,0,0,0,0,0,0,0,0,0,
breakid_run.sh+UCG-20-10p1.cnf+8188b8a0,0,3.28,469032,0,0,0,0,0,0,0,0,0,
breakid_run.sh+UCG-20-5p0.cnf+940af82f,0,2.7,403016,0,0,0,0,0,0,0,0,0,
breakid_run.sh+UCG-20-5p1.cnf+94190fb0,0,2.83,400608,0,0,0,0,0,0,0,0,0,
breakid_run.sh+UR-15-10p0.cnf+d054eaad,0,2.31,345020,0,0,0,0,0,0,0,0,0,
breakid_run.sh+UR-15-10p1.cnf+d063022e,0,2.44,345820,0,0,0,0,0,0,0,0,0,
breakid_run.sh+UR-20-10p0.cnf+9fca67d3,0,3.34,464504,0,0,0,0,0,0,0,0,0,
breakid_run.sh+UR-20-10p1.cnf+9fd87f54,0,3.16,469408,0,0,0,0,0,0,0,0,0,
breakid_run.sh+UR-20-5p0.cnf+b60d8afb,0,2.8,402996,0,0,0,0,0,0,0,0,0,
breakid_run.sh+UTI-20-10p0.cnf+5e3b11b0,0,3.2,465032,0,0,0,0,0,0,0,0,0,
breakid_run.sh+UTI-20-10p1.cnf+5e492931,0,3.14,477700,0,0,0,0,0,0,0,0,0,
breakid_run.sh+UTI-20-5p1.cnf+7a2fc8ff,0,2.83,402212,0,0,0,0,0,0,0,0,0,
breakid_run.sh+Urq3_5.cnf+9f24d42b,0,0.0,1720,29,1,0,0,29,0,0,29,0,
breakid_run.sh+Urq4_5.cnf+d40b0f6c,0,0.01,1724,43,1,0,0,43,0,0,43,0,
breakid_run.sh+Urq5_5.cnf+8f14aad,0,0.04,1720,72,1,0,0,72,0,0,72,0,
breakid_run.sh+Urq6_5.cnf+3dd785ee,0,0.12,2124,109,1,0,0,109,0,0,109,0,
breakid_run.sh+Urq7_5.cnf+72bdc12f,0,0.25,2808,143,1,0,0,143,0,0,143,0,
breakid_run.sh+Urq8_5.cnf+a7a3fc70,0,0.63,4256,200,1,0,0,200,0,0,200,0,
breakid_run.sh+VanDerWaerden_pd_2-3-20_388.cnf+3149ca3e,0,0.03,7576,0,0,0,0,0,0,0,0,0,
breakid_run.sh+aaai10-planning-ipc5-TPP-21-step11.cnf+d9a43d0c,0,1.51,266604,2,2,0,0,2,0,0,2,0,
breakid_run.sh+aaai10-planning-ipc5-TPP-30-step11.cnf+c0759e2e,0,5.91,966060,12,12,0,0,12,0,0,12,0,
breakid_run.sh+aaai10-planning-ipc5-pathways-13-step17.cnf+791661c8,0,0.26,50908,0,0,0,0,0,0,0,0,0,
breakid_run.sh+aaai10-planning-ipc5-pathways-17-step20.cnf+992f2b5c,0,0.52,99152,0,0,0,0,0,0,0,0,0,
breakid_run.sh+aaai10-planning-ipc5-pathways-17-step21.cnf+993d42dd,0,0.63,108348,0,0,0,0,0,0,0,0,0,
breakid_run.sh+aes_24_4_keyfind_4.cnf+d2a5cc2a,0,0.01,2796,0,0,0,0,0,0,0,0,0,
breakid_run.sh+aes_24_4_keyfind_5.cnf+d2b3e3ab,0,0.01,2792,0,0,0,0,0,0,0,0,0,
breakid_run.sh+aes_32_2_keyfind_1.cnf+4202d742,0,0.01,2420,0,0,0,0,0,0,0,0,0,
breakid_run.sh+aes_32_2_keyfind_3.cnf+421f0644,0,0.01,2420,0,0,0,0,0,0,0,0,0,
breakid_run.sh+aes_32_3_keyfind_1.cnf+9bde4183,0,0.0,1720,0,0,0,0,0,0,0,0,0,
breakid_run.sh+aes_64_1_keyfind_1.cnf+b74ef562,0,0.0,1720,0,0,0,0,0,0,0,0,0,
breakid_run.sh+aes_64_1_keyfind_1.cnf+d730cf60,0,0.0,1720,0,0,0,0,0,0,0,0,0,
breakid_run.sh+atco_enc1_opt1_03_56.cnf+11a8fcb9,0,0.66,100536,46,46,0,0,46,0,0,46,0,
breakid_run.sh+atco_enc1_opt1_04_32.cnf+75e81a56,0,1.46,202440,30,30,0,0,30,0,0,30,0,
breakid_run.sh+atco_enc1_opt1_05_21.cnf+dc065715,0,1.43,197928,17,17,0,0,17,0,0,17,0,
breakid_run.sh+atco_enc1_opt1_10_15.cnf+67686b20,0,0.69,96536,35,34,1,3,33,150,2,185,50,
breakid_run.sh+atco_enc1_opt1_10_21.cnf+68e4e5bb,0,0.75,99616,35,34,1,3,33,150,2,185,50,
breakid_run.sh+atco_enc1_opt1_15_240.cnf+9e3075f1,0,1.62,226600,35,35,0,0,35,150,0,185,50,
breakid_run.sh+atco_enc1_opt1_18_18.cnf+a69c189b,0,1.6,231808,3,3,0,0,3,150,0,153,50,
breakid_run.sh+atco_enc1_opt2_05_4.cnf+c9f1a2b7,0,0.97,130728,33,18,1,136,17,0,64,81,16,
breakid_run.sh+atco_enc1_opt2_10_12.cnf+fc22d75e,0,0.43,52208,41,38,3,9,35,156,12,203,54,
breakid_run.sh+atco_enc1_opt2_10_14.cnf+fc3f0660,0,0.43,52860,41,38,3,9,35,156,12,203,54,
breakid_run.sh+atco_enc1_opt2_10_15.cnf+fc4d1de1,0,0.43,53168,41,38,3,9,35,156,12,203,54,
breakid_run.sh+atco_enc1_opt2_10_16.cnf+fc5b3562,0,0.44,53776,41,38,3,9,35,156,12,203,54,
breakid_run.sh+atco_enc1_opt2_20_12.cnf+9067465f,0,27.06,2178304,11,6,3,9,5,300,113604,113909,37966,
breakid_run.sh+atco_enc2_opt1_05_21.cnf+bd9834f4,0,1.27,190820,17,17,0,0,17,0,0,17,0,
breakid_run.sh+atco_enc2_opt1_10_21.cnf+4a76c39a,0,0.67,89900,35,34,1,3,33,150,2,185,50,
breakid_run.sh+atco_enc2_opt1_15_100.cnf+b320b635,0,1.48,206792,35,35,0,0,35,150,0,185,50,
breakid_run.sh+atco_enc2_opt1_20_11.cnf+dd0659fc,0,46.06,3275024,8,5,3,9,2,0,275604,275606,91866,
breakid_run.sh+atco_enc2_opt2_05_4.cnf+23cd0cf8,0,0.98,130788,34,18,1,153,17,0,68,85,17,
breakid_run.sh+atco_enc2_opt2_05_9.cnf+2413827d,0,0.98,132080,34,18,1,153,17,0,68,85,17,
breakid_run.sh+atco_enc2_opt2_10_21.cnf+df5b765b,0,0.51,56140,43,35,3,21,34,453,24,511,156,
breakid_run.sh+atco_enc2_opt2_20_11.cnf+71eb0cbd,0,30.32,2143884,13,6,3,15,5,450,147152,147607,49198,
breakid_run.sh+atco_enc3_opt1_03_53.cnf+d4a271f4,0,13.24,1894516,1,1,0,0,1,0,0,1,0,
breakid_run.sh+atco_enc3_opt1_04_50.cnf+3c595850,0,17.5,2356200,1,1,0,0,1,0,0,1,0,
breakid_run.sh+atco_enc3_opt1_13_48.cnf+67787ddb,0,19.62,2406004,2,2,0,0,2,150,0,152,50,
breakid_run.sh+atco_enc3_opt2_05_21.cnf+340ec594,0,16.57,2160044,1,1,0,0,1,0,0,1,0,
breakid_run.sh+atco_enc3_opt2_10_12.cnf+bf46931c,0,12.7,1808860,1,1,0,0,1,0,0,1,0,
breakid_run.sh+atco_enc3_opt2_10_14.cnf+bf62c21e,0,12.72,1814676,1,1,0,0,1,0,0,1,0,
breakid_run.sh+atco_enc3_opt2_18_44.cnf+38ab2f3,0,14.29,1936732,1,1,0,0,1,0,0,1,0,
breakid_run.sh+beempgsol2b1.cnf+975dea48,0,0.7,37020,51,1,0,0,51,3195,0,3246,1065,
breakid_run.sh+beempgsol5b1.cnf+36109c0b,0,0.8,37844,51,1,0,0,51,3708,0,3759,1236,
breakid_run.sh+bjrb07amba10andenv.cnf+f9c89734,0,2.23,257960,13,8,1,15,7,544,5,556,181,
breakid_run.sh+blocks-blocks-36-0.120-NOTKNOWN.cnf+a7ed3cdb,0,16.63,2825580,0,0,0,0,0,0,0,0,0,
breakid_run.sh+blocks-blocks-36-0.130-NOTKNOWN.cnf+1c8a71c,0,18.14,3060784,0,0,0,0,0,0,0,0,0,
breakid_run.sh+blocks-blocks-37-1.130-NOTKNOWN.cnf+adfc5f9a,0,19.92,3285376,0,0,0,0,0,0,0,0,0,
breakid_run.sh+bob12m02-opt.cnf+107655f4,0,0.14,31012,20,20,0,0,20,309,0,329,103,
breakid_run.sh+bob12m02.cnf+b7b90e0e,0,0.24,34488,21,21,0,0,21,459,0,480,153,
breakid_run.sh+bob12m04.cnf+b7d53d10,0,118.07,725552,18251,18251,0,0,18251,463149,0,481400,154383,
breakid_run.sh+bob12m09-opt.cnf+1e555efb,0,0.33,60236,4,4,0,0,4,12,0,16,4,
breakid_run.sh+bob12s02.cnf+f51e7194,0,0.2,34208,4,4,0,0,4,306,0,310,102,
breakid_run.sh+bob12s09-opt.cnf+9bb18f81,0,0.3,59980,4,4,0,0,4,12,0,16,4,
breakid_run.sh+bvadd_17322.cnf+27d0f11e,0,4.28,602852,0,0,0,0,0,0,0,0,0,
breakid_run.sh+bvadd_27079.cnf+264d8dfe,0,6.38,942128,0,0,0,0,0,0,0,0,0,
breakid_run.sh+bvadd_27966.cnf+868425,0,7.24,979100,0,0,0,0,0,0,0,0,0,
breakid_run.sh+bvadd_29740.cnf+62be291d,0,7.82,1036100,0,0,0,0,0,0,0,0,0,
breakid_run.sh+bvashr_0710.cnf+af2b6f78,0,3.35,490392,0,0,0,0,0,0,0,0,0,
breakid_run.sh+bvslt_13916.cnf+1543f2a7,0,6.09,855860,0,0,0,0,0,0,0,0,0,
breakid_run.sh+bvslt_19860.cnf+57d872b5,0,10.96,1626500,0,0,0,0,0,0,0,0,0,
breakid_run.sh+bvsub_06991.cnf+932d987b,0,2.64,400872,0,0,0,0,0,0,0,0,0,
breakid_run.sh+bvult_16967.cnf+3283d8e2,0,11.93,1596500,0,0,0,0,0,0,0,0,0,
breakid_run.sh+c10bi_i.cnf+5c26e7d8,0,0.98,156672,3,3,0,0,3,450,0,453,150,
breakid_run.sh+ccp-s10-facto1.cnf+fa42f99d,0,0.03,3244,28,2,2,81,185,1652,233,2070,622,
breakid_run.sh+ccp-s10-facto2.cnf+fa51111e,0,0.21,10580,48,2,2,226,804,3152,483,4439,1202,
breakid_run.sh+ccp-s10-facto3.cnf+fa5f289f,0,0.72,23500,68,2,2,471,2405,4652,733,7790,1782,
breakid_run.sh+ccp-s10-facto4.cnf+fa6d4020,0,2.04,42596,88,2,2,816,2262,6151,983,9396,2362,
breakid_run.sh+ccp-s5-facto2.cnf+99b1e560,0,0.01,1720,23,2,2,51,117,1546,93,1756,542,
breakid_run.sh+ccp-s5-facto3.cnf+99bffce1,0,0.03,2540,33,2,2,111,106,2396,143,2645,840,
breakid_run.sh+ccp-s5-facto4.cnf+99ce1462,0,0.04,4080,43,2,2,196,804,3152,193,4149,1107,
breakid_run.sh+ccp-s6-facto2.cnf+a1638abf,0,0.02,2220,28,2,2,76,248,1897,147,2292,676,
breakid_run.sh+ccp-s6-facto3.cnf+a171a240,0,0.05,4336,40,2,2,163,425,2852,225,3502,1018,
breakid_run.sh+ccp-s6-facto4.cnf+a17fb9c1,0,0.11,7024,52,2,2,286,1754,3752,303,5809,1342,
breakid_run.sh+ccp-s7-facto2.cnf+a915301e,0,0.03,3416,32,2,2,106,357,2101,213,2671,765,
breakid_run.sh+ccp-s7-facto3.cnf+a923479f,0,0.11,6816,47,2,2,225,844,3302,325,4471,1200,
breakid_run.sh+ccp-s7-facto4.cnf+a9315f20,0,0.26,11960,61,2,2,393,1080,4352,437,5869,1585,
breakid_run.sh+ccp-s8-facto1.cnf+b0b8bdfc,0,0.01,1788,22,2,2,49,70,1306,139,1515,477,
breakid_run.sh+ccp-s8-facto2.cnf+b0c6d57d,0,0.06,5140,38,2,2,141,330,2552,291,3173,940,
breakid_run.sh+ccp-s8-facto3.cnf+b0d4ecfe,0,0.21,10680,54,2,2,297,782,3751,443,4976,1388,
breakid_run.sh+ccp-s8-facto4.cnf+b0e3047f,0,0.56,18904,70,2,2,517,1426,4952,595,6973,1836,
breakid_run.sh+ccp-s9-facto1.cnf+b86a635b,0,0.02,2384,24,2,2,64,92,1337,183,1612,501,
breakid_run.sh+ccp-s9-facto2.cnf+b8787adc,0,0.12,7516,42,2,2,181,767,2702,381,3850,1019,
breakid_run.sh+ccp-s9-facto3.cnf+b886925d,0,0.37,15908,60,2,2,379,1001,4051,579,5631,1532,
breakid_run.sh+ccp-s9-facto4.cnf+b894a9de,0,0.87,28364,78,2,2,658,631,5401,777,6809,2045,
breakid_run.sh+chnl10_11.cnf+50740548,0,0.02,2168,22,1,4,200,0,3524,1114,4638,1525,
breakid_run.sh+chnl10_12.cnf+50821cc9,0,0.02,2320,22,1,4,222,0,3863,1222,5085,1675,
breakid_run.sh+chnl10_13.cnf+5090344a,0,0.02,2536,24,1,4,246,0,4354,1335,5689,1873,
breakid_run.sh+chnl11_12.cnf+b86349a8,0,0.02,2488,24,1,4,242,0,4269,1357,5626,1853,
breakid_run.sh+chnl11_13.cnf+b8716129,0,0.03,2688,24,1,4,266,0,4645,1481,6126,2019,
breakid_run.sh+chnl11_20.cnf+b9fbf345,0,0.08,3960,38,1,4,490,0,6034,2334,8368,2760,
breakid_run.sh+complete-300-0.1-18-98765432130018.cnf+935a6d98,0,0.09,12936,0,0,0,0,0,0,0,0,0,
breakid_run.sh+complete-300-0.1-4-9876543213004.cnf+9b36af6a,0,0.1,13048,0,0,0,0,0,0,0,0,0,
breakid_run.sh+complete-300-0.1-7-9876543213007.cnf+4601b30,0,0.11,13180,0,0,0,0,0,0,0,0,0,
breakid_run.sh+complete-300-0.1-8-9876543213008.cnf+d2189472,0,0.1,12784,0,0,0,0,0,0,0,0,0,
breakid_run.sh+complete-400-0.1-12-98765432140012.cnf+e2cf2dda,0,0.24,26000,0,0,0,0,0,0,0,0,0,
breakid_run.sh+complete-400-0.1-16-98765432140016.cnf+818ee55a,0,0.22,25740,0,0,0,0,0,0,0,0,0,
breakid_run.sh+complete-400-0.1-3-9876543214003.cnf+6eb073c8,0,0.22,25872,0,0,0,0,0,0,0,0,0,
breakid_run.sh+complete-400-0.1-7-9876543214007.cnf+a59258d0,0,0.22,25804,0,0,0,0,0,0,0,0,0,
breakid_run.sh+complete-500-0.1-1-9876543215001.cnf+7471bee4,0,0.41,43692,0,0,0,0,0,0,0,0,0,
breakid_run.sh+complete-500-0.1-15-98765432150015.cnf+57734afc,0,0.43,44768,0,0,0,0,0,0,0,0,0,
breakid_run.sh+complete-500-0.1-17-98765432150017.cnf+26d326bc,0,0.45,45252,0,0,0,0,0,0,0,0,0,
breakid_run.sh+complete-500-0.1-7-9876543215007.cnf+46c49670,0,0.41,44976,0,0,0,0,0,0,0,0,0,
breakid_run.sh+complete-500-0.1-8-9876543215008.cnf+147d0fb2,0,0.42,44608,0,0,0,0,0,0,0,0,0,
breakid_run.sh+connm-ue-csp-sat-n1200-d0.02-s1099787414.sat05-542.reshuffled-07.cnf+b7f60609,0,54.28,5248,0,0,0,0,0,0,0,0,0,
breakid_run.sh+contest02-ezfact64_10.sat05-449.reshuffled-07.cnf+e2571fc,0,0.04,7656,0,0,0,0,0,0,0,0,0,
breakid_run.sh+countbitssrl032.cnf+57937efc,0,0.1,21992,0,0,0,0,0,0,0,0,0,
breakid_run.sh+crafted_n10_d6_c2_num13.cnf+3ebdcaf6,0,141.55,1044420,42,1,0,0,43,6300,0,6343,2100,
breakid_run.sh+crafted_n10_d6_c2_num16.cnf+3ee81179,0,134.63,1040716,42,1,0,0,45,6300,0,6345,2100,
breakid_run.sh+crafted_n10_d6_c2_num17.cnf+3ef628fa,0,131.96,1039464,42,1,0,0,43,6300,0,6343,2100,
breakid_run.sh+crafted_n10_d6_c2_num2.cnf+44233d58,0,115.15,1043568,41,1,0,0,2056,6150,0,8206,2050,
breakid_run.sh+crafted_n10_d6_c2_num4.cnf+443f6c5a,0,146.41,1049120,43,1,0,0,74,6450,0,6524,2150,
breakid_run.sh+crafted_n10_d6_c2_num5.cnf+444d83db,0,123.86,1041120,43,1,0,0,46,6450,0,6496,2150,
breakid_run.sh+crafted_n10_d6_c2_num6.cnf+445b9b5c,0,128.86,1035960,42,1,0,0,43,6300,0,6343,2100,
breakid_run.sh+crafted_n10_d6_c2_num9.cnf+4485e1df,0,1378.45,1045860,42,1,0,0,41,6300,0,6341,2100,
breakid_run.sh+crafted_n10_d6_c3_num1.cnf+385e96f6,0,329.29,2247868,41,1,0,0,8202,6150,0,14352,2050,
breakid_run.sh+crafted_n10_d6_c3_num18.cnf+d3e8f33c,0,361.59,2248844,44,1,0,0,71,6600,0,6671,2200,
breakid_run.sh+crafted_n10_d6_c3_num5.cnf+3896f4fa,0,459.54,2251176,42,1,0,0,43,6300,0,6343,2100,
breakid_run.sh+crafted_n10_d6_c4_num3.cnf+2cc43717,0,3643.56,3761152,42,1,0,0,57,6300,0,6357,2100,
breakid_run.sh+crafted_n10_d6_c4_num8.cnf+2d0aac9c,0,612.23,3765848,42,1,0,0,44,6300,0,6344,2100,
breakid_run.sh+crafted_n10_d6_c4_num9.cnf+2d18c41d,0,571.3,3758764,42,1,0,0,43,6300,0,6343,2100,
breakid_run.sh+crafted_n11_d6_c3_num17.cnf+2484b9bc,0,449.66,2451480,46,1,0,0,47,6900,0,6947,2300,
breakid_run.sh+crafted_n11_d6_c4_num1.cnf+e39e5f4,0,717.72,4312680,46,1,0,0,46,6900,0,6946,2300,
breakid_run.sh+crafted_n11_d6_c4_num18.cnf+b97783fe,0,784.03,4309576,46,1,0,0,47,6900,0,6947,2300,
breakid_run.sh+crafted_n11_d6_c4_num19.cnf+b9859b7f,0,994.67,4318904,46,1,0,0,47,6900,0,6947,2300,
breakid_run.sh+crafted_n11_d6_c4_num21.cnf+bac9b816,0,1363.69,4328280,46,1,0,0,47,6900,0,6947,2300,
breakid_run.sh+crafted_n12_d5_c4_num6.cnf+18f32d7,0,3701.19,895488
breakid_run.sh+crafted_n12_d6_c3_num10.cnf+74cbf336,0,2133.95,3009596,50,1,0,0,54,7500,0,7554,2500,
breakid_run.sh+crafted_n12_d6_c3_num16.cnf+7520803c,0,571.32,3009032,50,1,0,0,50,7500,0,7550,2500,
breakid_run.sh+crafted_n12_d6_c4_num11.cnf+9bebd78,0,1664.74,5375496,50,1,0,0,52,7500,0,7552,2500,
breakid_run.sh+crafted_n12_d6_c4_num18.cnf+a2161ff,0,2259.53,5390156,50,1,0,0,55,7500,0,7555,2500,
breakid_run.sh+crafted_n12_d6_c4_num20.cnf+b657e96,0,2208.48,5368188,50,1,0,0,51,7500,0,7551,2500,
breakid_run.sh+crafted_n12_d6_c4_num22.cnf+b81ad98,0,3700.35,4891648
breakid_run.sh+crafted_n12_d6_c4_num23.cnf+b8fc519,0,1063.14,5373680,50,1,0,0,54,7500,0,7554,2500,
breakid_run.sh+crafted_n12_d6_c4_num4.cnf+eff60a56,0,1380.71,5364896,50,1,0,0,51,7500,0,7551,2500,
breakid_run.sh+crafted_n12_d6_c4_num6.cnf+f0123958,0,1478.58,5390264,50,1,0,0,51,7500,0,7551,2500,
breakid_run.sh+crafted_n12_d6_c4_num9.cnf+f03c7fdb,0,3292.09,5386708,52,1,0,0,51,7800,0,7851,2600,
breakid_run.sh+crn_20_361_s.cnf+2cd27318,0,0.03,7132,0,0,0,0,0,0,0,0,0,
breakid_run.sh+ctl_3082_415_unsat_pre.cnf+83efee1d,0,0.16,33972,0,0,0,0,0,0,0,0,0,
breakid_run.sh+ctl_3791_556_unsat_pre.cnf+6e2b83fe,0,0.3,32296,20,11,1,3,26,3150,710,3886,1286,
breakid_run.sh+ctl_4291_567_5_unsat_pre.cnf+66c8a62e,0,0.26,47216,1,1,0,0,1,150,0,151,50,
breakid_run.sh+dated-10-11-u.cnf+2f1eeb44,0,1.5,228540,0,0,0,0,0,0,0,0,0,
breakid_run.sh+dated-10-13-u.cnf+98eb61c6,0,1.87,293988,0,0,0,0,0,0,0,0,0,
breakid_run.sh+dated-10-17-u.cnf+6c844eca,0,2.62,383548,0,0,0,0,0,0,0,0,0,
breakid_run.sh+dated-5-13-u.cnf+2cb69e8e,0,1.49,226672,0,0,0,0,0,0,0,0,0,
breakid_run.sh+dimacs.cnf+1a4b4a3e,0,0.01,4140,0,0,0,0,0,0,0,0,0,
breakid_run.sh+edges-024-4-10183999-1-00.cnf+f7369bd5,0,0.0,1720,0,0,0,0,0,0,0,0,0,
breakid_run.sh+edges-024-4-1208111-1-00.cnf+fbba57a3,0,0.0,1736,0,0,0,0,0,0,0,0,0,
breakid_run.sh+edges-024-4-5613555-1-00.cnf+663d4639,0,0.0,1720,0,0,0,0,0,0,0,0,0,
breakid_run.sh+edges-024-4-5667555-1-00.cnf+899e5058,0,0.0,1736,0,0,0,0,0,0,0,0,0,
breakid_run.sh+edges-024-4-7787777-1-00.cnf+8c189c13,0,0.0,1720,0,0,0,0,0,0,0,0,0,
breakid_run.sh+edges-024-4-7880777-1-00.cnf+605ed8cd,0,0.0,1720,0,0,0,0,0,0,0,0,0,
breakid_run.sh+edges-025-4-10062999-1-00.cnf+f7b58d56,0,0.0,1740,0,0,0,0,0,0,0,0,0,
breakid_run.sh+edges-025-4-10106999-1-00.cnf+c06a57e1,0,0.0,1720,0,0,0,0,0,0,0,0,0,
breakid_run.sh+edges-025-4-10169999-1-00.cnf+d726251e,0,0.0,1736,0,0,0,0,0,0,0,0,0,
breakid_run.sh+edges-025-4-1237111-1-00.cnf+9a72845e,0,0.0,1740,0,0,0,0,0,0,0,0,0,
breakid_run.sh+edges-025-4-3369333-1-00.cnf+5bd0a6ba,0,0.0,1736,0,0,0,0,0,0,0,0,0,
breakid_run.sh+edges-025-4-5714555-1-00.cnf+963d8d5a,0,0.0,1736,0,0,0,0,0,0,0,0,0,
breakid_run.sh+edges-025-4-7780777-1-00.cnf+ee2544eb,0,0.0,1720,0,0,0,0,0,0,0,0,0,
breakid_run.sh+edges-025-4-7932777-1-00.cnf+158d3654,0,0.0,1740,0,0,0,0,0,0,0,0,0,
breakid_run.sh+edges-025-4-7957777-1-00.cnf+81d7ea17,0,0.0,1720,0,0,0,0,0,0,0,0,0,
breakid_run.sh+edges-070-3-10037999-34.cnf+3606fa18,0,0.0,1736,3,1,1,3,0,2,2,4,0,
breakid_run.sh+edges-070-3-10062999-36.cnf+64c09b72,0,0.0,1736,3,1,1,3,0,2,2,4,0,
breakid_run.sh+edges-070-3-10122999-15.cnf+310543b8,0,0.0,1736,3,1,1,3,0,2,2,4,0,
breakid_run.sh+edges-070-3-1226111-26.cnf+8f51baf1,0,0.0,1720,3,1,1,3,0,1,2,3,0,
breakid_run.sh+edges-070-3-1250111-33.cnf+2a950ca4,0,0.0,1720,3,1,1,3,0,1,2,3,0,
breakid_run.sh+edges-070-3-3470333-15.cnf+b84a8f64,0,0.0,1720,3,1,1,3,0,1,2,3,0,
breakid_run.sh+edges-070-3-7857777-1.cnf+8200f146,0,0.0,1744,3,1,1,3,0,2,2,4,0,
breakid_run.sh+edges-072-3-1124111-35.cnf+1cfd44a,0,0.0,1720,3,1,1,3,0,1,2,3,0,
breakid_run.sh+edges-072-3-1131111-37.cnf+4aef9068,0,0.0,1720,3,1,1,3,0,1,2,3,0,
breakid_run.sh+edges-072-3-1161111-15.cnf+5e7ea045,0,0.0,1724,3,1,1,3,0,2,2,4,0,
breakid_run.sh+edges-072-3-5729555-15.cnf+c723224f,0,0.0,1720,3,1,1,3,0,2,2,4,0,
breakid_run.sh+edges-072-3-5749555-14.cnf+d678558c,0,0.0,1732,3,1,1,3,0,2,2,4,0,
breakid_run.sh+edges-072-3-7902777-18.cnf+2748f50b,0,0.0,1720,3,1,1,3,0,1,2,3,0,
breakid_run.sh+edges-072-3-7923777-13.cnf+cb4a7d05,0,0.0,1732,3,1,1,3,0,1,2,3,0,
breakid_run.sh+edges-072-3-7925777-19.cnf+f5686f8d,0,0.0,1720,3,1,1,3,0,2,2,4,0,
breakid_run.sh+em_14_7_3_cmp.cnf+87563ad0,0,14.16,178396,130,1,20,455,13,30288,50740,81041,26970,
breakid_run.sh+em_7_3_6_cmp.cnf+93ac12a9,0,0.03,5752,10,1,2,6,8,1050,136,1194,394,
breakid_run.sh+em_7_4_8_cmp.cnf+5119a36c,0,0.02,5544,1,1,0,0,3,150,0,153,50,
breakid_run.sh+em_7_4_8_fbc.cnf+dc4fd4cd,0,0.05,9232,1,1,0,0,3,150,0,153,50,
breakid_run.sh+em_7_4_9_all.cnf+79a46548,0,0.08,14616,2,1,0,0,4,207,0,211,69,
breakid_run.sh+em_7_4_9_fbc.cnf+709443ce,0,0.04,10644,2,1,0,0,4,207,0,211,69,
breakid_run.sh+esawn_uw3.debugged.cnf+c6f5f75a,0,87.62,14359040
breakid_run.sh+ezfact64_3.sat05-450.reshuffled-07.cnf+8f367131,0,0.03,7720,0,0,0,0,0,0,0,0,0,
breakid_run.sh+ezfact64_4.sat05-451.reshuffled-07.cnf+8630b773,0,0.03,7724,0,0,0,0,0,0,0,0,0,
breakid_run.sh+ezfact64_5.sat05-452.reshuffled-07.cnf+7d2afdb5,0,0.04,7724,0,0,0,0,0,0,0,0,0,
breakid_run.sh+fpga10_11_uns_rcr.cnf+4c9ddd85,0,0.02,2260,22,1,4,200,0,3917,1116,5033,1656,
breakid_run.sh+fpga10_12_uns_rcr.cnf+3b20e406,0,0.02,2440,22,1,4,222,0,4336,1223,5559,1830,
breakid_run.sh+fpga10_13_uns_rcr.cnf+29a3ea87,0,0.02,2608,24,1,4,246,0,4599,1333,5932,1954,
breakid_run.sh+fpga10_15_uns_rcr.cnf+6a9f789,0,0.04,2964,28,1,4,300,0,5017,1558,6575,2166,
breakid_run.sh+fpga10_20_uns_rcr.cnf+3ff8a0a3,0,0.08,3696,38,1,4,470,0,5433,2105,7538,2484,
breakid_run.sh+fpga10_8_sat.cnf+bc73e051,0,0.0,1720,16,1,3,40,0,1306,273,1579,518,
breakid_run.sh+fpga10_9_sat.cnf+50b84f52,0,0.0,1720,19,1,3,52,0,1438,314,1752,575,
breakid_run.sh+fpga11_12_uns_rcr.cnf+1cb2c1e5,0,0.02,2680,24,1,4,242,0,4964,1360,6324,2084,
breakid_run.sh+fpga11_13_uns_rcr.cnf+b35c866,0,0.03,2856,24,1,4,266,0,5142,1482,6624,2183,
breakid_run.sh+fpga11_14_uns_rcr.cnf+f9b8cee7,0,0.04,3056,26,1,4,292,0,5467,1603,7070,2330,
breakid_run.sh+fpga11_15_uns_rcr.cnf+e83bd568,0,0.04,3256,28,1,4,320,0,5630,1725,7355,2425,
breakid_run.sh+fpga11_20_uns_rcr.cnf+218a7e82,0,0.09,4220,38,1,4,490,0,6036,2337,8373,2760,
breakid_run.sh+fpga12_11_sat.cnf+d0c2d8d,0,0.01,1720,24,1,3,80,0,2242,484,2726,897,
breakid_run.sh+fpga12_12_sat.cnf+a1509c8e,0,0.01,1744,25,1,3,96,0,2291,533,2824,930,
breakid_run.sh+fpga12_8_sat.cnf+e63d45d3,0,0.01,1720,18,1,3,40,0,1838,333,2171,715,
breakid_run.sh+fpga12_9_sat.cnf+7a81b4d4,0,0.01,1720,20,1,3,52,0,2057,382,2439,804,
breakid_run.sh+fpga13_10_sat.cnf+807963eb,0,0.01,1724,22,1,3,65,0,2502,472,2974,980,
breakid_run.sh+fpga13_12_sat.cnf+a90241ed,0,0.02,1924,26,1,3,96,0,2728,582,3310,1091,
breakid_run.sh+fpga13_9_sat.cnf+f666795,0,0.01,1724,20,1,3,52,0,2247,419,2666,879,
breakid_run.sh+frb45-21-1.used-as.sat04-883.cnf+8bfa6a66,0,0.08,17620,0,0,0,0,0,0,0,0,0,
breakid_run.sh+frb80-14-2.used-as.sat04-880.cnf+51e3be31,0,0.06,13616,0,0,0,0,0,0,0,0,0,
breakid_run.sh+fsf-300-354-2-2-3-2.58.opt.cnf+fe830b54,0,0.01,4172,0,0,0,0,0,0,0,0,0,
breakid_run.sh+fsf-300-354-2-2-3-2.89.opt.cnf+6fa3cdb2,0,0.01,4176,0,0,0,0,0,0,0,0,0,
breakid_run.sh+fsf-300-354-2-2-3-2.94.opt.cnf+7e9713cc,0,0.01,4240,0,0,0,0,0,0,0,0,0,
breakid_run.sh+fsf-300-354-2-2-3-2.95.opt.cnf+12db82cd,0,0.01,4176,0,0,0,0,0,0,0,0,0,
breakid_run.sh+grid-strips-grid-y-3.035-NOTKNOWN.cnf+183a14db,0,4.6,725476,0,0,0,0,0,0,0,0,0,
breakid_run.sh+grid-strips-grid-y-3.055-NOTKNOWN.cnf+cbf0e95d,0,7.21,1140100,0,0,0,0,0,0,0,0,0,
breakid_run.sh+grid-strips-grid-y-3.065-SAT.cnf+544e11b2,0,8.56,1347008,0,0,0,0,0,0,0,0,0,
breakid_run.sh+grieu-vmpc-31.cnf+b7fffa87,0,0.21,37856,0,0,0,0,0,0,0,0,0,
breakid_run.sh+gss-18-s100.cnf+c82780e3,0,0.19,36688,0,0,0,0,0,0,0,0,0,
breakid_run.sh+gss-19-s100.cnf+bc70f202,0,0.21,37500,0,0,0,0,0,0,0,0,0,
breakid_run.sh+gss-20-s100.cnf+bac0aaac,0,0.19,37052,0,0,0,0,0,0,0,0,0,
breakid_run.sh+gss-22-s100.cnf+a3538cea,0,0.19,37632,0,0,0,0,0,0,0,0,0,
breakid_run.sh+gss-23-s100.cnf+979cfe09,0,0.19,37328,0,0,0,0,0,0,0,0,0,
breakid_run.sh+gss-24-s100.cnf+8be66f28,0,0.2,37464,0,0,0,0,0,0,0,0,0,
breakid_run.sh+gss-25-s100.cnf+802fe047,0,0.19,37864,0,0,0,0,0,0,0,0,0,
breakid_run.sh+gus-md5-04.cnf+b42cccab,0,0.78,97464,1,1,0,0,1,150,0,151,50,
breakid_run.sh+gus-md5-05.cnf+b43ae42c,0,0.78,97556,1,1,0,0,1,150,0,151,50,
breakid_run.sh+gus-md5-06.cnf+b448fbad,0,0.78,97804,1,1,0,0,1,150,0,151,50,
breakid_run.sh+gus-md5-07.cnf+b457132e,0,0.77,97884,1,1,0,0,1,150,0,151,50,
breakid_run.sh+gus-md5-09.cnf+b4734230,0,0.81,98468,1,1,0,0,1,150,0,151,50,
breakid_run.sh+gus-md5-10.cnf+b5a94746,0,0.8,98484,1,1,0,0,1,150,0,151,50,
breakid_run.sh+gus-md5-11.cnf+b5b75ec7,0,0.79,98524,1,1,0,0,1,150,0,151,50,
breakid_run.sh+gus-md5-12.cnf+b5c57648,0,0.8,98516,1,1,0,0,1,150,0,151,50,
breakid_run.sh+gus-md5-14.cnf+b5e1a54a,0,0.81,98564,1,1,0,0,1,150,0,151,50,
breakid_run.sh+gus-md5-15.cnf+b5efbccb,0,0.76,98604,1,1,0,0,1,150,0,151,50,
breakid_run.sh+gus-md5-16.cnf+b5fdd44c,0,0.81,99232,1,1,0,0,1,150,0,151,50,
breakid_run.sh+hid-uns-enc-6-1-0-0-0-0-19851.cnf+3a3128b8,0,0.01,2984,0,0,0,0,0,0,0,0,0,
breakid_run.sh+hid-uns-enc-6-1-0-0-0-0-26462.cnf+c4fc1438,0,0.01,2976,0,0,0,0,0,0,0,0,0,
breakid_run.sh+hid-uns-enc-6-1-0-0-0-0-26808.cnf+8eac7a88,0,0.01,2976,0,0,0,0,0,0,0,0,0,
breakid_run.sh+hid-uns-enc-6-1-0-0-0-0-2907.cnf+d815877c,0,0.01,2972,0,0,0,0,0,0,0,0,0,
breakid_run.sh+hid-uns-enc-6-1-0-0-0-0-31380.cnf+2041e9d9,0,0.01,2976,0,0,0,0,0,0,0,0,0,
breakid_run.sh+hid-uns-enc-6-1-0-0-0-0-3191.cnf+a7cbeae4,0,0.01,2984,0,0,0,0,0,0,0,0,0,
breakid_run.sh+hid-uns-enc-6-1-0-0-0-0-3251.cnf+d5dec3a9,0,0.01,2972,0,0,0,0,0,0,0,0,0,
breakid_run.sh+hid-uns-enc-7-1-0-0-0-0-11545.cnf+67918ae3,0,0.02,5432,0,0,0,0,0,0,0,0,0,
breakid_run.sh+hid-uns-enc-7-1-0-0-0-0-3557.cnf+5c87d8d1,0,0.01,5432,0,0,0,0,0,0,0,0,0,
breakid_run.sh+hid-uns-enc-9-1-0-0-0-0-24642.cnf+81676041,0,0.06,13872,0,0,0,0,0,0,0,0,0,
breakid_run.sh+hitag2-10-60-0-0x0ffdbe60727f161-57.cnf+8fe5baa1,0,0.07,11736,79,2,2,2584,0,1,78,79,0,
breakid_run.sh+hitag2-10-60-0-0x8edc44db7837bbf-65.cnf+503a7998,0,0.07,11996,77,2,2,2571,0,2,76,78,0,
breakid_run.sh+hitag2-10-60-0-0xe14721bd199894a-99.cnf+b4bbfc01,0,0.08,12016,78,2,2,2451,0,2,77,79,0,
breakid_run.sh+hitag2-10-60-0-0xe6754daf48162bf-46.cnf+c1267b29,0,0.08,12216,80,2,2,2722,0,1,79,80,0,
breakid_run.sh+hitag2-10-60-0-0xfee9637399d85a2-78.cnf+db95d70b,0,0.09,11984,76,2,2,2500,0,2,75,77,0,
breakid_run.sh+hitag2-7-60-0-0xe8fa35372ed37e2-80.cnf+a14f659a,0,0.08,11804,74,2,2,2299,0,2,73,75,0,
breakid_run.sh+hitag2-8-60-0-0x1eb82244d7f1c3c-47.cnf+32db45c9,0,0.09,11972,72,2,2,2288,0,2,71,73,0,
breakid_run.sh+hitag2-8-60-0-0xdcdbc8bf368ee73-37.cnf+7cc6af9a,0,0.09,12060,80,2,2,2356,0,2,79,81,0,
breakid_run.sh+hitag2-8-60-0-0xfba1a41b5dfd7f7-52.cnf+6ae658e3,0,0.1,12236,79,2,2,2460,0,2,78,80,0,
breakid_run.sh+hole002.cnf+7a437810,0,0.0,1720,3,1,1,3,0,7,8,15,4,
breakid_run.sh+hole003.cnf+7a518f91,0,0.0,1720,4,1,2,9,0,26,41,67,20,
breakid_run.sh+hole004.cnf+7a5fa712,0,0.0,1720,5,1,2,16,0,63,78,141,44,
breakid_run.sh+hole005.cnf+7a6dbe93,0,0.0,1720,6,1,2,25,0,100,128,228,72,
breakid_run.sh+hole006.cnf+7a7bd614,0,0.0,1720,7,1,2,36,0,211,190,401,129,
breakid_run.sh+hole007.cnf+7a89ed95,0,0.0,1720,8,1,2,49,0,312,264,576,186,
breakid_run.sh+hole008.cnf+7a980516,0,0.0,1720,9,1,2,64,0,490,350,840,273,
breakid_run.sh+hole009.cnf+7aa61c97,0,0.0,1720,10,1,2,81,0,601,447,1048,342,
breakid_run.sh+hole010.cnf+7bdc21ad,0,0.0,1720,11,1,2,100,0,930,558,1488,488,
breakid_run.sh+hole010_shuffled.cnf+23fe5ded,0,0.0,1720,11,1,2,100,0,1020,559,1579,517,
breakid_run.sh+hole011.cnf+7bea392e,0,0.0,1720,12,1,2,121,0,995,679,1674,549,
breakid_run.sh+hole011_shuffled.cnf+5dc278c,0,0.0,1720,12,1,2,121,0,1245,680,1925,632,
breakid_run.sh+hole012.cnf+7bf850af,0,0.01,1724,13,1,2,144,0,1309,813,2122,698,
breakid_run.sh+hole012_shuffled.cnf+e7b9f12b,0,0.0,1724,13,1,2,144,0,1324,813,2137,702,
breakid_run.sh+hole013.cnf+7c066830,0,0.01,1716,14,1,2,169,0,1603,960,2563,844,
breakid_run.sh+hole013_shuffled.cnf+c997baca,0,0.01,1720,14,1,2,169,0,1562,960,2522,829,
breakid_run.sh+hole014.cnf+7c147fb1,0,0.01,1792,15,1,2,196,0,1698,1119,2817,927,
breakid_run.sh+hole014_shuffled.cnf+ab758469,0,0.01,1836,15,1,2,196,0,1743,1118,2861,941,
breakid_run.sh+hole015.cnf+7c229732,0,0.01,1996,16,1,2,225,0,1898,1287,3185,1049,
breakid_run.sh+hole015_shuffled.cnf+8d534e08,0,0.02,2028,16,1,2,225,0,1893,1288,3181,1048,
breakid_run.sh+hole016_shuffled.cnf+6f3117a7,0,0.03,2300,17,1,2,256,0,2166,1469,3635,1198,
breakid_run.sh+hole017_shuffled.cnf+510ee146,0,0.03,2564,18,1,2,289,0,2300,1665,3965,1306,
breakid_run.sh+hole018_shuffled.cnf+32ecaae5,0,0.04,2868,19,1,2,324,0,2469,1870,4339,1430,
breakid_run.sh+hole019_shuffled.cnf+14ca7484,0,0.05,3180,20,1,2,361,0,2673,2089,4762,1570,
breakid_run.sh+hole020.cnf+7d90fa4c,0,0.05,3460,21,1,2,400,0,2792,2318,5110,1686,
breakid_run.sh+hole020_shuffled.cnf+7dd9c82e,0,0.06,3532,21,1,2,400,0,2830,2319,5149,1698,
breakid_run.sh+hole030.cnf+7f45d2eb,0,0.3,9428,31,1,2,900,0,4373,5278,9651,3190,
breakid_run.sh+hole030_shuffled.cnf+d7b5326f,0,0.33,9872,31,1,2,900,0,4376,5278,9654,3190,
breakid_run.sh+hwmcc10-timeframe-expansion-k45-pdtpmsgoodbakery-tseitin.cnf+cadb9e3d,0,0.68,115988,45,45,0,0,45,0,0,45,0,
breakid_run.sh+hwmcc10-timeframe-expansion-k45-pdtvisns3p02-tseitin.cnf+9e6f140e,0,1.17,193512,1,1,0,0,1,0,0,1,0,
breakid_run.sh+hwmcc10-timeframe-expansion-k50-pdtpmsns2-tseitin.cnf+f540c973,0,0.6,103160,2,2,0,0,2,0,0,2,0,
breakid_run.sh+hwmcc10-timeframe-expansion-k50-pdtvisns3p00-tseitin.cnf+f17b7832,0,1.3,216180,1,1,0,0,1,0,0,1,0,
breakid_run.sh+instance_n8_i8_pp_ci_ce.cnf+ba719524,0,0.54,85484,7,7,0,0,7,0,0,7,0,
breakid_run.sh+instance_n8_i9_pp.cnf+95b26a67,0,0.59,96620,7,7,0,0,7,0,0,7,0,
breakid_run.sh+itox_vc1130.cnf+531d5e9a,0,25.88,249316,9044,28,31,34779308,5,379,11160,11544,828,
breakid_run.sh+jkkk-one-one-10-34-sat.cnf+99786405,0,0.11,26548,0,0,0,0,0,0,0,0,0,
breakid_run.sh+jkkk-random-132906006148277-10-10-34-SUM-sat.cnf+d5501f96,0,0.42,79088,0,0,0,0,0,0,0,0,0,
breakid_run.sh+jkkk-random-132906006427000-10-10-35-OR-sat.cnf+1b49ad5d,0,0.45,76828,0,0,0,0,0,0,0,0,0,
breakid_run.sh+jkkk-random-132906006427000-10-10-36-SUM-sat.cnf+296002be,0,0.54,98584,0,0,0,0,0,0,0,0,0,
breakid_run.sh+jkkk-random-132906006493326-10-10-35-OR-sat.cnf+ffcb8eef,0,0.41,77964,0,0,0,0,0,0,0,0,0,
breakid_run.sh+k2fix_gr_rcs_w9.shuffled.cnf+3b87a32c,0,8.33,131984,115,2,3,42,140,21741,108,21989,7279,
breakid_run.sh+korf-17.cnf+4f09ce20,0,0.18,32776,0,0,0,0,0,0,0,0,0,
breakid_run.sh+korf-18.cnf+4f17e5a1,0,0.46,70500,0,0,0,0,0,0,0,0,0,
breakid_run.sh+logistics.a.cnf+e025dccb,0,0.01,2996,2,1,0,0,2,300,0,302,100,
breakid_run.sh+logistics.b.cnf+e033f44c,0,0.01,3444,14,2,8,45,2,319,108,429,136,
breakid_run.sh+logistics.c.cnf+e0420bcd,0,0.01,4280,3,1,0,0,3,150,0,153,50,
breakid_run.sh+logistics.d.cnf+e050234e,0,0.03,8696,1,1,0,0,1,150,0,151,50,
breakid_run.sh+manol-pipe-c10nid_i.cnf+5fb352ff,0,1.94,295072,2,2,0,0,2,300,0,302,100,
breakid_run.sh+manol-pipe-c10nidw.cnf+98f3a0bc,0,3.49,507296,2,2,0,0,2,300,0,302,100,
breakid_run.sh+manol-pipe-c10nidw_s.cnf+7ef03af0,0,3.44,472736,2,2,0,0,2,300,0,302,100,
breakid_run.sh+manol-pipe-c8nidw.cnf+9ed7d851,0,2.03,316304,1,1,0,0,1,150,0,151,50,
breakid_run.sh+manol-pipe-g10bid_i.cnf+8b44b46f,0,2.06,312792,3,3,0,0,3,450,0,453,150,
breakid_run.sh+maxxor032.cnf+fce1f6dd,0,0.07,15616,0,0,0,0,0,0,0,0,0,
breakid_run.sh+minandmaxor128.cnf+c8b150a,0,1.83,287856,0,0,0,0,0,0,0,0,0,
breakid_run.sh+minxor128.cnf+9d0615f3,0,0.31,61768,0,0,0,0,0,0,0,0,0,
breakid_run.sh+minxorminand064.cnf+81594605,0,0.26,46464,0,0,0,0,0,0,0,0,0,
breakid_run.sh+mod2-rand3bip-sat-230-2.sat05-2189.reshuffled-07.cnf+3d07dd62,0,3698.56,1400
breakid_run.sh+mod2-rand3bip-sat-230-2.sat05-2189.reshuffled-07.cnf+b5109617,0,3699.84,1404
breakid_run.sh+mod2-rand3bip-sat-270-1.sat05-2248.reshuffled-07.cnf+4c2a14c0,0,3699.0,1404
breakid_run.sh+mod2-rand3bip-sat-270-1.shuffled-as.sat05-2248.cnf+787afff2,0,3698.45,1404
breakid_run.sh+mod2-rand3bip-sat-270-2.sat05-2249.reshuffled-07.cnf+1a812220,0,3699.66,1400
breakid_run.sh+mod2-rand3bip-sat-280-1.sat05-2263.reshuffled-07.cnf+94f194ba,0,3700.62,1404
breakid_run.sh+mod2c-rand3bip-sat-240-3.shuffled-as.sat05-2520.cnf+7442b019,0,0.01,1732,99,51,0,0,99,207,0,306,69,
breakid_run.sh+mod2c-rand3bip-sat-240-3.shuffled-as.sat05-2520.cnf+a1efd36e,0,0.01,1732,99,51,0,0,99,207,0,306,69,
breakid_run.sh+mod2c-rand3bip-sat-250-1.shuffled-as.sat05-2533.cnf+a96888be,0,0.01,1720,99,65,0,0,99,150,0,249,50,
breakid_run.sh+mod2c-rand3bip-sat-250-3.shuffled-as.sat05-2535.cnf+8b26c67e,0,0.01,1764,102,59,0,0,102,165,0,267,55,
breakid_run.sh+mrpp_4x4#4_24.cnf+99de0abd,0,0.05,10548,124,1,1,7626,0,1,123,124,0,
breakid_run.sh+mrpp_4x4#6_12.cnf+67cf5cda,0,0.02,5236,88,1,1,3828,0,1,87,88,0,
breakid_run.sh+mrpp_4x4#6_20.cnf+69680677,0,0.03,8540,112,1,1,6216,0,2,111,113,0,
breakid_run.sh+mrpp_4x4#6_6.cnf+39eb157,0,0.01,2820,70,1,1,2415,0,2,69,71,0,
breakid_run.sh+mrpp_4x4#8_12.cnf+3791b698,0,0.03,6428,100,1,1,4950,0,2,99,101,0,
breakid_run.sh+mrpp_4x4#8_16.cnf+37ca149c,0,0.04,8768,116,1,1,6670,0,1,115,116,0,
breakid_run.sh+mrpp_4x4#8_24.cnf+3962be39,0,0.07,12776,148,1,1,10878,0,1,147,148,0,
breakid_run.sh+mrpp_4x4#8_7.cnf+6d793f5a,0,0.02,3796,80,1,1,3160,0,2,79,81,0,
breakid_run.sh+mrpp_6x6#10_10.cnf+20ec056d,0,0.06,11960,156,1,1,12090,0,1,155,156,0,
breakid_run.sh+mrpp_6x6#10_12.cnf+2108346f,0,0.07,14184,164,1,1,13366,0,1,163,164,0,
breakid_run.sh+mrpp_6x6#10_20.cnf+22a0de0c,0,0.14,23736,196,1,1,19110,0,1,195,196,0,
breakid_run.sh+mrpp_6x6#12_20.cnf+f26337ca,0,0.12,23252,196,1,1,19110,0,1,195,196,0,
breakid_run.sh+mrpp_6x6#12_9.cnf+5ac8d027,0,0.06,10528,152,1,1,11476,0,2,151,153,0,
breakid_run.sh+mrpp_6x6#14_12.cnf+c08ce7eb,0,0.07,13980,164,1,1,13366,0,2,163,165,0,
breakid_run.sh+mrpp_6x6#16_16.cnf+90879fad,0,0.17,24272,196,1,1,19110,0,1,195,196,0,
breakid_run.sh+mrpp_6x6#18_12.cnf+60119b67,0,0.09,18072,176,1,1,15400,0,2,175,177,0,
breakid_run.sh+mrpp_8x8#10_9.cnf+e8f286a1,0,0.1,18336,235,1,1,27495,0,1,234,235,0,
breakid_run.sh+mrpp_8x8#16_10.cnf+9702852b,0,0.15,26132,249,1,1,30876,0,2,248,250,0,
breakid_run.sh+mrpp_8x8#16_11.cnf+97109cac,0,0.18,28820,254,1,1,32131,0,2,253,255,0,
breakid_run.sh+mrpp_8x8#16_12.cnf+971eb42d,0,0.22,31228,259,1,1,33411,0,2,258,260,0,
breakid_run.sh+mrpp_8x8#16_16.cnf+97571231,0,0.27,41816,279,1,1,38781,0,1,278,279,0,
breakid_run.sh+mrpp_8x8#18_14.cnf+66fd3ced,0,0.27,36352,269,1,1,36046,0,1,268,269,0,
breakid_run.sh+mrpp_8x8#20_24.cnf+bded1d95,0,0.46,60504,319,1,1,50721,0,2,318,320,0,
breakid_run.sh+mrpp_8x8#22_11.cnf+8bd05831,0,0.21,28432,254,1,1,32131,0,2,253,255,0,
breakid_run.sh+mrpp_8x8#22_20.cnf+8d77194f,0,0.37,50184,299,1,1,44551,0,2,298,300,0,
breakid_run.sh+mrpp_8x8#22_24.cnf+8daf7753,0,0.42,59660,319,1,1,50721,0,1,318,319,0,
breakid_run.sh+mrpp_8x8#24_11.cnf+5b92b1ef,0,0.17,28080,254,1,1,32131,0,1,253,254,0,
breakid_run.sh+mrpp_8x8#24_12.cnf+5ba0c970,0,0.21,30656,259,1,1,33411,0,2,258,260,0,
breakid_run.sh+mrpp_8x8#24_14.cnf+5bbcf872,0,0.26,35476,269,1,1,36046,0,2,268,270,0,
breakid_run.sh+mrpp_8x8#24_20.cnf+5d39730d,0,0.33,49616,299,1,1,44551,0,2,298,300,0,
breakid_run.sh+ndist.b.20499.cnf+dc671c33,0,1.02,184632,0,0,0,0,0,0,0,0,0,
breakid_run.sh+ndist.b.20998.cnf+e4d82cf7,0,1.15,184524,0,0,0,0,0,0,0,0,0,
breakid_run.sh+ndist.b.22495.cnf+abf117ed,0,1.22,192780,0,0,0,0,0,0,0,0,0,
breakid_run.sh+ndist.b.22994.cnf+b46228b1,0,1.17,196712,0,0,0,0,0,0,0,0,0,
breakid_run.sh+ndist.b.23992.cnf+1c27268e,0,1.22,204844,0,0,0,0,0,0,0,0,0,
breakid_run.sh+ndist.b.24491.cnf+7b7b13a7,0,1.29,209904,0,0,0,0,0,0,0,0,0,
breakid_run.sh+ndist.b.25489.cnf+e21823ef,0,1.32,217552,0,0,0,0,0,0,0,0,0,
breakid_run.sh+ndist.b.26487.cnf+49dd21cc,0,1.4,227768,0,0,0,0,0,0,0,0,0,
breakid_run.sh+ndist.b.27485.cnf+b1a21fa9,0,1.43,235024,0,0,0,0,0,0,0,0,0,
breakid_run.sh+ndist.b.29481.cnf+812c1b63,0,1.62,256252,0,0,0,0,0,0,0,0,0,
breakid_run.sh+openstacks-p30_3.085-SAT.cnf+b3120296,0,3.97,584868,3,2,1,3,1,150,1538,1689,562,
breakid_run.sh+openstacks-sequencedstrips-nonadl-nonnegated-os-sequencedstrips-p30_1.025-NOTKNOWN.cnf+3b56a18,0,1.11,172544,4,3,1,3,2,300,458,760,252,
breakid_run.sh+openstacks-sequencedstrips-nonadl-nonnegated-os-sequencedstrips-p30_3.025-NOTKNOWN.cnf+8cd92e56,0,1.08,177212,3,2,1,3,1,150,458,609,202,
breakid_run.sh+openstacks-sequencedstrips-nonadl-nonnegated-os-sequencedstrips-p30_3.085-SAT.cnf+431a0ab4,0,3.88,584964,3,2,1,3,1,150,1538,1689,562,
breakid_run.sh+partial-10-11-s.cnf+405db8cd,0,1.98,303952,0,0,0,0,0,0,0,0,0,
breakid_run.sh+partial-10-17-s.cnf+7dc31c53,0,3.72,501292,0,0,0,0,0,0,0,0,0,
breakid_run.sh+partial-5-15-s.cnf+d0c4ac23,0,2.58,366872,0,0,0,0,0,0,0,0,0,
breakid_run.sh+partial-5-17-s.cnf+3a9122a5,0,2.97,423156,0,0,0,0,0,0,0,0,0,
breakid_run.sh+pb_300_10_lb_07.cnf+add3736e,0,1.31,222064,0,0,0,0,0,0,0,0,0,
breakid_run.sh+pb_300_10_lb_08.cnf+ade18aef,0,1.36,226092,0,0,0,0,0,0,0,0,0,
breakid_run.sh+post-c32s-ss-8.cnf+f8ef0b6f,0,0.34,59612,0,0,0,0,0,0,0,0,0,
breakid_run.sh+post-cbmc-aes-d-r2-noholes.cnf+bc9406c,0,6.69,576060,333,8,7,26637,935,7341,14700,22976,7259,
breakid_run.sh+post-cbmc-aes-d-r2.cnf+f2b1b27,0,11.06,581132,2557,9,8,2498613,897,7300,16923,25120,7245,
breakid_run.sh+post-cbmc-aes-ee-r2-noholes.cnf+aab1da6e,0,6.24,564356,241,4,3,25890,12,36,7919,7967,2574,
breakid_run.sh+post-cbmc-zfcp-2.8-u2.cnf+a8b7b29c,0,2721.77,12527220
breakid_run.sh+prime2209-98.cnf+677a519b,0,9.68,216792,97,1,1,4753,0,0,351625,351625,117176,
breakid_run.sh+q_query_3_L100_coli.sat.cnf+73aa138f,0,9.97,547812,853,26,0,0,982,5130,0,6112,1710,
breakid_run.sh+q_query_3_L150_coli.sat.cnf+34f326d4,0,16.74,876848,846,26,0,0,983,5178,0,6161,1726,
breakid_run.sh+q_query_3_L200_coli.sat.cnf+553bf16e,0,22.84,1250676,853,26,0,0,978,5130,0,6108,1710,
breakid_run.sh+q_query_3_L80_coli.sat.cnf+92e3ee22,0,7.83,432200,845,26,0,0,969,5196,0,6165,1732,
breakid_run.sh+q_query_3_L90_coli.sat.cnf+ecbf5863,0,8.9,493976,852,26,0,0,967,5130,0,6097,1710,
breakid_run.sh+q_query_3_l45_lambda.cnf+c7f7613f,0,2.13,95876,137,64,0,0,201,1248,0,1449,416,
breakid_run.sh+q_query_3_l46_lambda.cnf+cfa9069e,0,2.19,114012,136,64,0,0,200,1248,0,1448,416,
breakid_run.sh+q_query_3_l48_lambda.cnf+df0c515c,0,2.28,117952,138,64,0,0,202,1248,0,1450,416,
breakid_run.sh+rbcl_xits_08_UNSAT.cnf+f1b4e4d4,0,0.11,22464,1,1,0,0,1,150,0,151,50,
breakid_run.sh+rbcl_xits_14_SAT.cnf+3339e128,0,0.24,47960,1,1,0,0,1,150,0,151,50,
breakid_run.sh+rbsat-v1150c84314gyes10.cnf+7f2c95b3,0,0.11,25580,0,0,0,0,0,0,0,0,0,
breakid_run.sh+rbsat-v1150c84314gyes4.cnf+6f9f331a,0,0.12,25604,0,0,0,0,0,0,0,0,0,
breakid_run.sh+rbsat-v1150c84314gyes5.cnf+6fad4a9b,0,0.09,26648,0,0,0,0,0,0,0,0,0,
breakid_run.sh+rbsat-v1150c84314gyes7.cnf+6fc9799d,0,0.11,25488,0,0,0,0,0,0,0,0,0,
breakid_run.sh+rbsat-v945c61409g10.cnf+5861906f,0,0.09,19524,0,0,0,0,0,0,0,0,0,
breakid_run.sh+rbsat-v945c61409gyes5.cnf+6457283e,0,0.06,19532,0,0,0,0,0,0,0,0,0,
breakid_run.sh+reg_s_2_unknown.cnf+d915a46b,0,5.54,599328,15,11,0,0,15,2250,0,2265,750,
breakid_run.sh+rnd-v25-e13-k3.cnf+2ff1ad9e,0,2.41,145592,2200,1,1,2418900,0,1,2199,2200,0,
breakid_run.sh+rnd-v25-e178-k13.cnf+96846c3d,0,43.42,300324,12575,1,1,79059025,0,1,12574,12575,0,
breakid_run.sh+rnd-v25-e212-k9.cnf+31ba4597,0,33.47,304376,10925,1,1,59672350,0,2,10924,10926,0,
breakid_run.sh+rnd-v25-e81-k9.cnf+6e62e9ed,0,16.48,199524,7650,1,1,29257425,0,2,7649,7651,0,
breakid_run.sh+rook-40-0-0.cnf+899d3f39,0,0.53,96436,0,0,0,0,0,0,0,0,0,
breakid_run.sh+rook-40-0-1.cnf+89ab56ba,0,0.52,94872,0,0,0,0,0,0,0,0,0,
breakid_run.sh+rook-42-0-0.cnf+b2261d3b,0,0.63,110996,0,0,0,0,0,0,0,0,0,
breakid_run.sh+rook-42-0-1.cnf+b23434bc,0,0.7,109536,0,0,0,0,0,0,0,0,0,
breakid_run.sh+rook-42-1-1.cnf+e71a6ffd,0,0.7,102980,0,0,0,0,0,0,0,0,0,
breakid_run.sh+rook-44-0-1.cnf+dabd12be,0,0.81,128820,0,0,0,0,0,0,0,0,0,
breakid_run.sh+rook-44-1-1.cnf+fa34dff,0,0.81,128612,0,0,0,0,0,0,0,0,0,
breakid_run.sh+rook-46-1-1.cnf+382c2c01,0,0.83,148964,0,0,0,0,0,0,0,0,0,
breakid_run.sh+rook-47-0-1.cnf+978a5fc1,0,0.96,156268,0,0,0,0,0,0,0,0,0,
breakid_run.sh+rook-47-1-1.cnf+cc709b02,0,0.91,156920,0,0,0,0,0,0,0,0,0,
breakid_run.sh+rook-48-0-1.cnf+2bcecec2,0,0.97,163708,0,0,0,0,0,0,0,0,0,
breakid_run.sh+rook-49-1-1.cnf+f4f97904,0,1.04,179556,0,0,0,0,0,0,0,0,0,
breakid_run.sh+rook-50-0-0.cnf+7de6b058,0,1.16,187740,0,0,0,0,0,0,0,0,0,
breakid_run.sh+rook-51-0-0.cnf+122b1f59,0,1.17,198132,0,0,0,0,0,0,0,0,0,
breakid_run.sh+rook-52-0-1.cnf+a67da5db,0,1.28,208492,0,0,0,0,0,0,0,0,0,
breakid_run.sh+rook-54-0-0.cnf+cef86c5c,0,1.59,238640,0,0,0,0,0,0,0,0,0,
breakid_run.sh+rook-54-1-1.cnf+3ecbf1e,0,1.43,236296,0,0,0,0,0,0,0,0,0,
breakid_run.sh+rook-55-0-1.cnf+634af2de,0,1.51,244076,0,0,0,0,0,0,0,0,0,
breakid_run.sh+rook-56-0-0.cnf+f7814a5e,0,1.6,263856,0,0,0,0,0,0,0,0,0,
breakid_run.sh+rook-56-1-1.cnf+2c759d20,0,1.59,242980,0,0,0,0,0,0,0,0,0,
breakid_run.sh+rook-57-1-1.cnf+c0ba0c21,0,1.79,257756,0,0,0,0,0,0,0,0,0,
breakid_run.sh+rook-58-1-1.cnf+54fe7b22,0,1.78,276256,0,0,0,0,0,0,0,0,0,
breakid_run.sh+rook-59-1-1.cnf+e942ea23,0,1.87,308868,0,0,0,0,0,0,0,0,0,
breakid_run.sh+rook-60-0-1.cnf+723e38f8,0,2.12,325924,0,0,0,0,0,0,0,0,0,
breakid_run.sh+rook-61-1-1.cnf+3b68e33a,0,2.06,315212,0,0,0,0,0,0,0,0,0,
breakid_run.sh+rook-63-1-1.cnf+63f1c13c,0,2.5,349124,0,0,0,0,0,0,0,0,0,
breakid_run.sh+rook-65-1-1.cnf+8c7a9f3e,0,2.75,384680,0,0,0,0,0,0,0,0,0,
breakid_run.sh+rook-68-1-1.cnf+4947ec41,0,3.14,436060,0,0,0,0,0,0,0,0,0,
breakid_run.sh+rook-72-1-1.cnf+c3f6c35a,0,3.8,558992,0,0,0,0,0,0,0,0,0,
breakid_run.sh+rook-76-1-1.cnf+15087f5e,0,4.21,601760,0,0,0,0,0,0,0,0,0,
breakid_run.sh+rpoc_xits_15_SAT.cnf+67ad7422,0,0.33,57748,2,2,0,0,2,243,0,245,81,
breakid_run.sh+rpoc_xits_15_SAT.cnf+7dc132a4,0,0.34,57748,2,2,0,0,2,243,0,245,81,
breakid_run.sh+sat-grid-pbl-0200.sat05-1339.reshuffled-07.cnf+146b02a2,0,62.84,4424300,20098,5082,0,0,20098,73053,0,93151,24351,
breakid_run.sh+sgen1-sat-230-100.cnf+e2a27196,0,0.0,1720,0,0,0,0,0,0,0,0,0,
breakid_run.sh+sgen1-sat-240-100.cnf+d6ebe2b5,0,0.0,1720,0,0,0,0,0,0,0,0,0,
breakid_run.sh+sgen1-sat-250-100.cnf+cb3553d4,0,0.0,1720,0,0,0,0,0,0,0,0,0,
breakid_run.sh+sgen1-sat-270-100.cnf+b3c83612,0,0.0,1720,0,0,0,0,0,0,0,0,0,
breakid_run.sh+sgen3-n200-s39840374-sat.cnf+27894733,0,0.0,1720,0,0,0,0,0,0,0,0,0,
breakid_run.sh+sgen3-n220-s24359701-sat.cnf+7224fb2,0,0.0,1720,0,0,0,0,0,0,0,0,0,
breakid_run.sh+sgen3-n240-s78945233-sat.cnf+83cc26,0,0.0,1724,0,0,0,0,0,0,0,0,0,
breakid_run.sh+sgen4-sat-160-8.cnf+be599cbc,0,0.0,1736,0,0,0,0,0,0,0,0,0,
breakid_run.sh+sgen4-sat-200-8.cnf+e356fe83,0,0.0,1720,0,0,0,0,0,0,0,0,0,
breakid_run.sh+sgen4-sat-220-8.cnf+b3195841,0,0.0,1720,0,0,0,0,0,0,0,0,0,
breakid_run.sh+sgen6-1080-5-1.cnf+3ae1266e,0,0.0,1720,0,0,0,0,0,0,0,0,0,
breakid_run.sh+sgen6-1200-5-1.cnf+c25f02f8,0,0.0,1736,0,0,0,0,0,0,0,0,0,
breakid_run.sh+sgen6-1320-5-1.cnf+3fd697f7,0,0.0,1720,0,0,0,0,0,0,0,0,0,
breakid_run.sh+sgen6-1440-5-1.cnf+bd4e2cf6,0,0.0,1720,0,0,0,0,0,0,0,0,0,
breakid_run.sh+sgen6-840-5-1.cnf+8440804f,0,0.0,1740,0,0,0,0,0,0,0,0,0,
breakid_run.sh+sgen6-960-5-1.cnf+1b8154e,0,0.0,1736,0,0,0,0,0,0,0,0,0,
breakid_run.sh+shift1add.10000.cnf+44993f58,0,1.07,181096,2,1,0,0,2,9,0,11,3,
breakid_run.sh+shift1add.13988.cnf+666c5c3e,0,1.63,244476,2,1,0,0,2,9,0,11,3,
breakid_run.sh+shift1add.15982.cnf+35da28f6,0,1.91,281264,2,1,0,0,2,9,0,11,3,
breakid_run.sh+shift1add.18973.cnf+6bd6ee75,0,2.19,331324,2,1,0,0,2,6,0,8,2,
breakid_run.sh+shift1add.21964.cnf+274c623f,0,2.71,383632,2,1,0,0,2,6,0,8,2,
breakid_run.sh+shift1add.24955.cnf+5d4927be,0,3.15,435420,2,1,0,0,2,9,0,11,3,
breakid_run.sh+shift1add.25952.cnf+c5000e1a,0,3.04,453040,2,1,0,0,2,6,0,8,2,
breakid_run.sh+shift1add.29940.cnf+62b3b9f5,0,3.78,522852,2,1,0,0,2,6,0,8,2,
breakid_run.sh+slp-synthesis-aes-top28.cnf+6ae84a73,0,0.65,105880,0,0,0,0,0,0,0,0,0,
breakid_run.sh+slp-synthesis-aes-top29.cnf+6af661f4,0,0.67,113580,0,0,0,0,0,0,0,0,0,
breakid_run.sh+smtlib-qfbv-aigs-ext_con_032_008_0256-tseitin.cnf+7ae8833a,0,0.54,36156,69,7,0,0,71,5859,0,5930,1953,
breakid_run.sh+smtlib-qfbv-aigs-lfsr_004_127_112-tseitin.cnf+857b25d,0,2.36,360764,1,1,0,0,1,150,0,151,50,
breakid_run.sh+stable-300-0.1-20-98765432130020.cnf+22aae93a,0,0.08,10456,0,0,0,0,0,0,0,0,0,
breakid_run.sh+stable-400-0.1-11-98765432140011.cnf+b9a15c7c,0,0.2,21252,0,0,0,0,0,0,0,0,0,
breakid_run.sh+stable-400-0.1-12-98765432140012.cnf+a1514a5c,0,0.2,21264,0,0,0,0,0,0,0,0,0,
breakid_run.sh+stable-400-0.1-2-9876543214002.cnf+d2fb4f88,0,0.19,21256,0,0,0,0,0,0,0,0,0,
breakid_run.sh+stable-400-0.1-4-9876543214004.cnf+6e6c420c,0,0.18,21172,0,0,0,0,0,0,0,0,0,
breakid_run.sh+stable-400-0.1-5-9876543214005.cnf+3c24bb4e,0,0.19,20984,0,0,0,0,0,0,0,0,0,
breakid_run.sh+stable-400-0.1-7-9876543214007.cnf+d795add2,0,0.19,20972,0,0,0,0,0,0,0,0,0,
breakid_run.sh+total-10-13-u.cnf+e6247194,0,2.48,366180,0,0,0,0,0,0,0,0,0,
breakid_run.sh+toughsat_factoring_155s.cnf+30e27ac5,0,0.01,4176,0,0,0,0,0,0,0,0,0,
breakid_run.sh+toughsat_factoring_426s.cnf+cb88283e,0,0.02,4464,0,0,0,0,0,0,0,0,0,
breakid_run.sh+toughsat_factoring_958s.cnf+750a6b9a,0,0.01,3932,0,0,0,0,0,0,0,0,0,
breakid_run.sh+toughsat_factoring_inf.cnf+bdfa59b8,0,0.03,6216,0,0,0,0,0,0,0,0,0,
breakid_run.sh+tph17.cnf+a27e9bd5,0,2.87,45304,34,1,2,731,0,2416,3314,5730,1888,
breakid_run.sh+transport-transport-city-sequential-25nodes-1000size-3degree-100mindistance-3trucks-10packages-2008seed.020-NOTKNOWN.cnf+aa9ce5cf,0,2.98,456164,0,0,0,0,0,0,0,0,0,
breakid_run.sh+transport-transport-city-sequential-25nodes-1000size-3degree-100mindistance-3trucks-10packages-2008seed.030-NOTKNOWN.cnf+4785010,0,4.37,683996,0,0,0,0,0,0,0,0,0,
breakid_run.sh+transport-transport-city-sequential-25nodes-1000size-3degree-100mindistance-3trucks-10packages-2008seed.040-NOTKNOWN.cnf+5e53ba51,0,5.85,925876,0,0,0,0,0,0,0,0,0,
breakid_run.sh+transport-transport-city-sequential-25nodes-1000size-3degree-100mindistance-3trucks-10packages-2008seed.050-NOTKNOWN.cnf+b82f2492,0,7.28,1139936,0,0,0,0,0,0,0,0,0,
breakid_run.sh+transport-transport-city-sequential-35nodes-1000size-4degree-100mindistance-4trucks-14packages-2008seed.040-NOTKNOWN.cnf+e063fcd4,0,15.34,2393908,0,0,0,0,0,0,0,0,0,
breakid_run.sh+velev-vliw-uns-2.0-uq5.cnf+b2936a98,0,5.43,814720,11,11,0,0,11,543,0,554,181,
breakid_run.sh+velev-vliw-uns-4.0-9-i1.cnf+a21cf8d5,0,7.2,1059216,2,2,0,0,2,300,0,302,100,
breakid_run.sh+velev-vliw-uns-4.0-9.cnf+a4a2b03a,0,4.19,597332,2,2,0,0,2,300,0,302,100,
breakid_run.sh+vmpc_29.cnf+c2e6cfe1,0,0.18,31060,0,0,0,0,0,0,0,0,0,
breakid_run.sh+vmpc_32.renamed-as.sat05-1919.cnf+5f170c12,0,0.24,39196,0,0,0,0,0,0,0,0,0,
breakid_run.sh+vmpc_33.cnf+c4471b7a,0,0.26,45548,0,0,0,0,0,0,0,0,0,
breakid_run.sh+x1_40.shuffled.cnf+57218e83,0,0.01,1720,41,1,0,0,42,0,0,42,0,
breakid_run.sh+x1_80.shuffled.cnf+be8f3787,0,0.06,1724,80,1,0,0,80,0,0,80,0,
breakid_run.sh+zfcp-2.8-u2-nh.cnf+81865c9a,0,2700.06,12567968
