Name,OutCode,Time,Mem
breakid_run.sh+001-80-12.cnf+8cd93d9f,0,1.39,177112,0,0,0,0,0,0,0,0,0,
breakid_run.sh+002-23-96.cnf+eda5fff3,0,0.35,49544,63,1,0,0,0,63,0,63,0,
breakid_run.sh+002-80-12.cnf+21bdf060,0,1.41,177044,0,0,0,0,0,0,0,0,0,
breakid_run.sh+002-80-4.cnf+4350660f,0,1.37,179160,0,0,0,0,0,0,0,0,0,
breakid_run.sh+002-80-8.cnf+4388c413,0,1.44,177116,0,0,0,0,0,0,0,0,0,
breakid_run.sh+003-23-80.cnf+80814d0f,0,0.37,49540,63,1,0,0,0,63,0,63,0,
breakid_run.sh+003-80-8.cnf+37d23532,0,1.36,179152,0,0,0,0,0,0,0,0,0,
breakid_run.sh+004-22-144.cnf+97d99c52,0,0.35,47732,63,1,0,0,0,63,0,63,0,
breakid_run.sh+004-22-160.cnf+9b0aef8c,0,0.34,47732,63,1,0,0,0,63,0,63,0,
breakid_run.sh+004-80-8.cnf+2c1ba651,0,1.4,177044,0,0,0,0,0,0,0,0,0,
breakid_run.sh+005-22-160.cnf+a2bc94eb,0,0.34,47736,63,1,0,0,0,63,0,63,0,
breakid_run.sh+005-80-12.cnf+e06c08a3,0,1.43,177312,0,0,0,0,0,0,0,0,0,
breakid_run.sh+006-22-144.cnf+a73ce710,0,0.36,47728,63,1,0,0,0,63,0,63,0,
breakid_run.sh+006-22-160.cnf+aa6e3a4a,0,0.36,47732,63,1,0,0,0,63,0,63,0,
breakid_run.sh+006-23-80.cnf+3f2f6552,0,0.37,50068,63,1,0,0,0,63,0,63,0,
breakid_run.sh+006-23-96.cnf+4138caf7,0,0.36,49544,63,1,0,0,0,63,0,63,0,
breakid_run.sh+006-80-4.cnf+14762a8b,0,1.4,177112,0,0,0,0,0,0,0,0,0,
breakid_run.sh+007-80-12.cnf+a356e25,0,1.34,179156,0,0,0,0,0,0,0,0,0,
breakid_run.sh+007-80-8.cnf+8f7f9ae,0,1.41,179160,0,0,0,0,0,0,0,0,0,
breakid_run.sh+008-80-12.cnf+9f1a20e6,0,1.38,177112,0,0,0,0,0,0,0,0,0,
breakid_run.sh+008-80-4.cnf+fd090cc9,0,1.31,179156,0,0,0,0,0,0,0,0,0,
breakid_run.sh+008-80-8.cnf+fd416acd,0,1.33,177116,0,0,0,0,0,0,0,0,0,
breakid_run.sh+009-23-64.cnf+faac2a5b,0,0.36,49536,63,1,0,0,0,63,0,63,0,
breakid_run.sh+009-80-4.cnf+f1527de8,0,1.39,177112,0,0,0,0,0,0,0,0,0,
breakid_run.sh+009-80-8.cnf+f18adbec,0,1.37,177044,0,0,0,0,0,0,0,0,0,
breakid_run.sh+010-22-144.cnf+67960d57,0,0.34,47732,63,1,0,0,0,63,0,63,0,
breakid_run.sh+010-22-160.cnf+6ac76091,0,0.35,47732,63,1,0,0,0,63,0,63,0,
breakid_run.sh+010-23-80.cnf+c984da2b,0,0.36,49540,63,1,0,0,0,63,0,63,0,
breakid_run.sh+010-80-12.cnf+ffa6303d,0,1.4,177312,0,0,0,0,0,0,0,0,0,
breakid_run.sh+10pipe_q0_k.cnf+92462a62,0,5.56,678792,20,20,0,0,0,3020,0,3020,1000,
breakid_run.sh+11pipe_11_ooo.cnf+bfef1126,0,15.35,1404656,23,1,0,0,0,1223,0,1223,400,
breakid_run.sh+11pipe_k.cnf+ceff98ef,0,21.67,1870240,25,1,0,0,0,1681,0,1681,552,
breakid_run.sh+11pipe_q0_k.cnf+7423f401,0,7.4,980652,22,22,0,0,0,3322,0,3322,1100,
breakid_run.sh+12pipe_q0_k.cnf+5601bda0,0,10.96,1372540,24,24,0,0,0,3624,0,3624,1200,
breakid_run.sh+13pipe_q0_k.cnf+37df873f,0,15.61,1869888,26,26,0,0,0,3926,0,3926,1300,
breakid_run.sh+14pipe_q0_k.cnf+19bd50de,0,22.55,2493996,28,28,0,0,0,4228,0,4228,1400,
breakid_run.sh+15pipe_q0_k.cnf+fb9b1a7d,0,28.14,3262296,30,30,0,0,0,4530,0,4530,1500,
breakid_run.sh+289-unsat-6x30.cnf+9b0f4430,0,0.26,11132,30,1,0,0,0,4332,0,4332,1434,
breakid_run.sh+5-SATISFIABLE.cnf+4afa238,0,2.53,345688,1,1,0,0,0,151,0,151,50,
breakid_run.sh+6s10.cnf+5c375591,0,0.28,44376,29,24,0,0,0,233,0,233,68,
breakid_run.sh+6s11-opt.cnf+c9f392f8,0,0.2,38688,22,20,0,0,0,76,0,76,18,
breakid_run.sh+6s12.cnf+5c538493,0,0.28,44460,29,22,0,0,0,233,0,233,68,
breakid_run.sh+6s123.cnf+2e4b43ba,0,16.57,1116324,1505,359,0,0,0,7739,0,7739,2078,
breakid_run.sh+6s126-opt.cnf+9f2b22a3,0,4.99,678132,0,0,0,0,0,0,0,0,0,
breakid_run.sh+6s13-opt.cnf+f27c70fa,0,0.3,60744,11,2,0,0,0,14,0,14,1,
breakid_run.sh+6s130-opt.cnf+19d9f9bc,0,0.32,57220,44,2,0,0,0,47,0,47,1,
breakid_run.sh+6s131-opt.cnf+ae1e68bd,0,0.32,57152,44,2,0,0,0,47,0,47,1,
breakid_run.sh+6s133.cnf+30001c59,0,0.38,62148,60,16,0,0,0,687,0,687,209,
breakid_run.sh+6s137.cnf+30387a5d,0,11.21,968604,957,957,0,0,0,30762,0,30762,9935,
breakid_run.sh+6s151.cnf+334d9e95,0,0.31,47584,1,1,0,0,0,151,0,151,50,
breakid_run.sh+6s153.cnf+3369cd97,0,2.34,109696,518,34,0,0,0,5852,0,5852,1778,
breakid_run.sh+6s16-opt.cnf+af49bdfd,0,0.18,35860,25,23,0,0,0,85,0,85,20,
breakid_run.sh+6s16.cnf+5c8be297,0,0.27,40232,32,25,0,0,0,242,0,242,70,
breakid_run.sh+6s165-nonopt.cnf+dc19e2f5,0,0.01,4632,20,20,0,0,0,626,0,626,202,
breakid_run.sh+6s167-opt.cnf+4955620,0,0.01,5796,3,1,0,0,0,3,0,3,0,
breakid_run.sh+6s168-opt.cnf+98d9c521,0,0.02,6920,0,0,0,0,0,0,0,0,0,
breakid_run.sh+6s169-opt.cnf+2d1e3422,0,0.03,7520,19,3,0,0,0,55,0,55,12,
breakid_run.sh+6s17-opt.cnf+438e2cfe,0,0.32,55212,14,4,0,0,0,26,0,26,4,
breakid_run.sh+6s184.cnf+38966ef5,0,0.27,43708,26,22,0,0,0,233,0,233,69,
breakid_run.sh+6s9.cnf+2cb47501,0,0.26,44712,32,24,0,0,0,242,0,242,70,
breakid_run.sh+7pipe_k.cnf+c0fb72b6,0,2.52,257424,17,1,0,0,0,1523,0,1523,502,
breakid_run.sh+8pipe_k.cnf+55e02577,0,4.65,447768,19,1,0,0,0,1075,0,1075,352,
breakid_run.sh+9dlx_vliw_at_b_iq3.cnf+3621ac2a,0,2.02,329664,11,11,0,0,0,512,0,512,167,
breakid_run.sh+9dlx_vliw_at_b_iq4.cnf+362fc3ab,0,3.63,534484,11,11,0,0,0,551,0,551,180,
breakid_run.sh+9dlx_vliw_at_b_iq6.used-as.sat04-347.cnf+fea47326,0,8.17,1209644,11,11,0,0,0,578,0,578,189,
breakid_run.sh+9dlx_vliw_at_b_iq7.cnf+365a0a2e,0,13.93,2007208,11,11,0,0,0,596,0,596,195,
breakid_run.sh+9dlx_vliw_at_b_iq8.used-as.sat04-718.cnf+61902050,0,16.19,2372636,11,11,0,0,0,596,0,596,195,
breakid_run.sh+9dlx_vliw_at_b_iq9.cnf+36763930,0,23.15,3194432,11,11,0,0,0,608,0,608,199,
breakid_run.sh+9vliw_m_9stages_iq3_C1_bug1.cnf+5fea217a,0,34.04,4345280,2,2,0,0,0,302,0,302,100,
breakid_run.sh+9vliw_m_9stages_iq3_C1_bug10.cnf+9d5dfd30,0,32.17,4354228,2,2,0,0,0,302,0,302,100,
breakid_run.sh+9vliw_m_9stages_iq3_C1_bug3.cnf+6006507c,0,30.14,4353860,2,2,0,0,0,302,0,302,100,
breakid_run.sh+9vliw_m_9stages_iq3_C1_bug4.cnf+601467fd,0,34.11,4335296,2,2,0,0,0,302,0,302,100,
breakid_run.sh+9vliw_m_9stages_iq3_C1_bug7.cnf+603eae80,0,31.94,4353468,2,2,0,0,0,302,0,302,100,
breakid_run.sh+9vliw_m_9stages_iq3_C1_bug8.cnf+604cc601,0,33.94,4345052,2,2,0,0,0,302,0,302,100,
breakid_run.sh+9vliw_m_9stages_iq3_C1_bug9.cnf+605add82,0,30.16,4354460,2,2,0,0,0,302,0,302,100,
breakid_run.sh+ACG-15-10p0.cnf+ace0d6e5,0,2.6,399608,0,0,0,0,0,0,0,0,0,
breakid_run.sh+ACG-15-10p1.cnf+aceeee66,0,2.62,403096,0,0,0,0,0,0,0,0,0,
breakid_run.sh+ACG-20-10p1.cnf+7c646b8c,0,3.84,581720,0,0,0,0,0,0,0,0,0,
breakid_run.sh+ACG-20-5p0.cnf+eeb737c3,0,3.24,494776,0,0,0,0,0,0,0,0,0,
breakid_run.sh+ACG-20-5p1.cnf+eec54f44,0,3.5,504676,0,0,0,0,0,0,0,0,0,
breakid_run.sh+AProVE07-01.cnf+1ad14e31,0,0.05,11128,0,0,0,0,0,0,0,0,0,
breakid_run.sh+AProVE07-03.cnf+1aed7d33,0,0.01,4672,0,0,0,0,0,0,0,0,0,
breakid_run.sh+AProVE07-08.cnf+1b33f2b8,0,0.03,6812,0,0,0,0,0,0,0,0,0,
breakid_run.sh+AProVE07-27.cnf+1e8f8c75,0,0.05,11252,2,2,0,0,0,8,0,8,2,
breakid_run.sh+AProVE09-06.cnf+eada1d74,0,0.83,111240,2,1,0,0,0,302,0,302,100,
breakid_run.sh+Chvatal-k5.cnf+d110625f,0,0.12,11980,1008,1,0,0,0,1008,0,1008,0,
breakid_run.sh+Composite-024BitPrimes-1.used-as.sat04-861.cnf+31634ce6,0,0.02,4376,1,1,0,0,0,1,0,1,0,
breakid_run.sh+Composite-024BitPrimes-1.used-as.sat04-861.cnf+cc80ab86,0,0.02,4376,1,1,0,0,0,1,0,1,0,
breakid_run.sh+E02F20.cnf+a5aeabd2,0,1.07,147232,0,0,0,0,0,0,0,0,0,
breakid_run.sh+E02F22.cnf+a5cadad4,0,4.4,507212,0,0,0,0,0,0,0,0,0,
breakid_run.sh+EDP3-10000.cnf+78acfc3d,0,1.88,226672,1,1,0,0,0,151,0,151,50,
breakid_run.sh+EDP3-11000.cnf+e08e291c,0,2.22,248340,1,1,0,0,0,151,0,151,50,
breakid_run.sh+EDP3-12000.cnf+486f55fb,0,2.45,277572,1,1,0,0,0,151,0,151,50,
breakid_run.sh+EDP3-13000.cnf+b05082da,0,2.56,299336,1,1,0,0,0,151,0,151,50,
breakid_run.sh+EDP3-14000.cnf+1831afb9,0,3.05,329604,1,1,0,0,0,151,0,151,50,
breakid_run.sh+EDP3-15000.cnf+8012dc98,0,3.22,359536,1,1,0,0,0,151,0,151,50,
breakid_run.sh+EDP3-16000.cnf+e7f40977,0,3.31,387620,1,1,0,0,0,151,0,151,50,
breakid_run.sh+EDP3-17000.cnf+4fd53656,0,3.82,412508,1,1,0,0,0,151,0,151,50,
breakid_run.sh+EDP3-18000.cnf+b7b66335,0,4.01,439308,1,1,0,0,0,151,0,151,50,
breakid_run.sh+EDP3-19000.cnf+1f979014,0,4.04,466600,1,1,0,0,0,151,0,151,50,
breakid_run.sh+EDP3-20000.cnf+cf16b3e,0,4.73,493536,1,1,0,0,0,151,0,151,50,
breakid_run.sh+EDP3-30000.cnf+a135da3f,0,7.47,782248,1,1,0,0,0,151,0,151,50,
breakid_run.sh+EDP3-40000.cnf+357a4940,0,10.48,1057664,1,1,0,0,0,151,0,151,50,
breakid_run.sh+EDP3-50000.cnf+c9beb841,0,12.65,1373360,1,1,0,0,0,151,0,151,50,
breakid_run.sh+EDP3-60000.cnf+5e032742,0,15.9,1693208,1,1,0,0,0,151,0,151,50,
breakid_run.sh+EDP3-70000.cnf+f2479643,0,20.41,1973488,1,1,0,0,0,151,0,151,50,
breakid_run.sh+EDP3-8000.cnf+eb90c6e6,0,1.47,178880,1,1,0,0,0,151,0,151,50,
breakid_run.sh+EDP3-80000.cnf+868c0544,0,22.28,2287280,1,1,0,0,0,151,0,151,50,
breakid_run.sh+EDP3-9000.cnf+5371f3c5,0,1.76,198840,1,1,0,0,0,151,0,151,50,
breakid_run.sh+EDP3-90000.cnf+1ad07445,0,26.63,2600064,1,1,0,0,0,151,0,151,50,
breakid_run.sh+FlowerSnark-k6.cnf+53ccd68b,0,1.21,72000,3000,1,0,0,0,3000,0,3000,0,
breakid_run.sh+GreenTao_2-3-6_2071.cnf+fe690359,0,0.27,50704,0,0,0,0,0,0,0,0,0,
breakid_run.sh+GreenTao_2-4-4_511.cnf+462f8fed,0,0.0,2152,2,2,0,0,0,2,0,2,0,
breakid_run.sh+Hidoku_enu_6.cnf+dfdd7ad1,0,0.02,5000,316,1,0,0,0,316,0,316,0,
breakid_run.sh+Hidoku_enu_7.cnf+dfeb9252,0,0.05,8804,433,1,0,0,0,433,0,433,0,
breakid_run.sh+IBM_FV_2004_rule_batch_1_31_1_SAT_dat.k40.debugged.cnf+33538a31,0,0.49,80668,13,8,0,0,0,25,0,25,4,
breakid_run.sh+LABS_n038_goal002.cnf+d12ebbc3,0,0.11,26740,0,0,0,0,0,0,0,0,0,
breakid_run.sh+LABS_n044_goal003.cnf+f90e82df,0,0.23,40620,2,2,0,0,0,2,0,2,0,
breakid_run.sh+LABS_n045_goal003.cnf+e7918960,0,0.25,43592,2,2,0,0,0,2,0,2,0,
breakid_run.sh+LABS_n051_goal004.cnf+f71507c,0,0.36,61952,2,2,0,0,0,2,0,2,0,
breakid_run.sh+LABS_n052_goal004.cnf+fdf456fd,0,0.37,65504,2,2,0,0,0,2,0,2,0,
breakid_run.sh+LABS_n066_goal005.cnf+99ec5221,0,0.85,130640,2,2,0,0,0,2,0,2,0,
breakid_run.sh+LABS_n078_goal006.cnf+58de4043,0,1.3,215924,6,6,0,0,0,6,0,6,0,
breakid_run.sh+LABS_n081_goal007.cnf+b534f3dc,0,1.74,268180,23,7,0,0,0,23,0,23,0,
breakid_run.sh+LABS_n082_goal007.cnf+a3b7fa5d,0,2.0,300116,313,7,0,0,0,313,0,313,0,
breakid_run.sh+LABS_n088_goal008.cnf+3ad838e4,0,4.38,410380,1765,7,0,0,0,1765,0,1765,0,
breakid_run.sh+MD5-27-4.cnf+a42efdd0,0,0.11,21900,0,0,0,0,0,0,0,0,0,
breakid_run.sh+MD5-28-1.cnf+d8eaf28e,0,0.11,23208,0,0,0,0,0,0,0,0,0,
breakid_run.sh+MD5-28-2.cnf+d8f90a0f,0,0.11,23212,0,0,0,0,0,0,0,0,0,
breakid_run.sh+MD5-28-3.cnf+d9072190,0,0.11,23192,0,0,0,0,0,0,0,0,0,
breakid_run.sh+MD5-28-4.cnf+d9153911,0,0.13,22676,0,0,0,0,0,0,0,0,0,
breakid_run.sh+MD5-28-5.cnf+d9235092,0,0.14,23196,0,0,0,0,0,0,0,0,0,
breakid_run.sh+MD5-29-2.cnf+ddf4550,0,0.15,23924,0,0,0,0,0,0,0,0,0,
breakid_run.sh+MD5-29-3.cnf+ded5cd1,0,0.13,23660,0,0,0,0,0,0,0,0,0,
breakid_run.sh+MD5-29-4.cnf+dfb7452,0,0.14,23660,0,0,0,0,0,0,0,0,0,
breakid_run.sh+MD5-29-5.cnf+e098bd3,0,0.14,23656,0,0,0,0,0,0,0,0,0,
breakid_run.sh+MD5-30-1.cnf+999a4565,0,0.13,24696,0,0,0,0,0,0,0,0,0,
breakid_run.sh+MD5-30-2.cnf+99a85ce6,0,0.14,24684,0,0,0,0,0,0,0,0,0,
breakid_run.sh+MD5-30-4.cnf+99c48be8,0,0.14,24692,0,0,0,0,0,0,0,0,0,
breakid_run.sh+MD5-30-5.cnf+99d2a369,0,0.15,24952,0,0,0,0,0,0,0,0,0,
breakid_run.sh+MD5-31-4.cnf+ceaac729,0,0.15,25676,0,0,0,0,0,0,0,0,0,
breakid_run.sh+MD5-31-5.cnf+ceb8deaa,0,0.13,26208,0,0,0,0,0,0,0,0,0,
breakid_run.sh+MD5-32-1.cnf+366bbe7,0,0.14,26700,0,0,0,0,0,0,0,0,0,
breakid_run.sh+MD5-32-2.cnf+374d368,0,0.16,26696,0,0,0,0,0,0,0,0,0,
breakid_run.sh+MD5-32-3.cnf+382eae9,0,0.15,26964,0,0,0,0,0,0,0,0,0,
breakid_run.sh+MD5-32-4.cnf+391026a,0,0.14,26700,0,0,0,0,0,0,0,0,0,
breakid_run.sh+MD5-32-5.cnf+39f19eb,0,0.14,26708,0,0,0,0,0,0,0,0,0,
breakid_run.sh+Q32inK09.cnf+60e8f1af,0,0.06,4004,7,1,0,0,0,214,0,214,69,
breakid_run.sh+Q32inK10.cnf+621ef6c5,0,0.41,18008,9,1,0,0,0,444,0,444,145,
breakid_run.sh+Q32inK11.cnf+622d0e46,0,2.05,62868,9,1,0,0,0,564,0,564,185,
breakid_run.sh+Q3inK10.cnf+f93ca94d,0,1.07,34976,10,1,0,0,0,427,0,427,139,
breakid_run.sh+Q3inK11.cnf+e5ac3467,0,7.69,124460,11,1,0,0,0,590,0,590,193,
breakid_run.sh+Robertson-k8.cnf+6b107a41,0,1.3,65008,3610,1,0,0,0,3610,0,3610,0,
breakid_run.sh+SAT_dat.k100-24_1_rule_1.cnf+f91cb837,0,424.0,2336552,56396,113,0,0,0,83168,0,83168,8924,
breakid_run.sh+SAT_dat.k100-24_1_rule_2.cnf+f92acfb8,0,424.01,2335980,56396,113,0,0,0,83168,0,83168,8924,
breakid_run.sh+SAT_dat.k100-24_1_rule_3.cnf+f938e739,0,425.41,2336012,56396,113,0,0,0,83168,0,83168,8924,
breakid_run.sh+SAT_dat.k30-30_rule.cnf+120c162e,0,0.73,111192,161,4,0,0,0,257,0,257,32,
breakid_run.sh+SAT_dat.k35-31_2_rule_2.cnf+95ad98b2,0,0.57,82704,457,4,0,0,0,739,0,739,94,
breakid_run.sh+SAT_dat.k70-24_1_rule_1.cnf+58a200e5,0,213.95,1631676,39686,83,0,0,0,58898,0,58898,6404,
breakid_run.sh+SAT_dat.k70-24_1_rule_3.cnf+58be2fe7,0,211.68,1655344,39686,83,0,0,0,58895,0,58895,6403,
breakid_run.sh+SAT_dat.k75-24_1_rule_3.cnf+ec0f85ec,0,241.55,1775360,42471,88,0,0,0,62931,0,62931,6820,
breakid_run.sh+SAT_dat.k80-24_1_rule_1.cnf+1d33e304,0,274.07,1866832,45256,93,0,0,0,66988,0,66988,7244,
breakid_run.sh+SAT_dat.k80-24_1_rule_2.cnf+1d41fa85,0,274.01,1892380,45256,93,0,0,0,66985,0,66985,7243,
breakid_run.sh+SAT_dat.k85-24_1_rule_1.cnf+b0853909,0,308.4,1983628,48041,98,0,0,0,71024,0,71024,7661,
breakid_run.sh+SAT_dat.k85-24_1_rule_2.cnf+b093508a,0,308.24,2014328,48041,98,0,0,0,71021,0,71021,7660,
breakid_run.sh+SAT_dat.k85-24_1_rule_3.cnf+b0a1680b,0,307.93,2014656,48041,98,0,0,0,71021,0,71021,7660,
breakid_run.sh+SAT_dat.k90.debugged.cnf+6b329644,0,345.39,2105988,50826,103,0,0,0,75072,0,75072,8082,
breakid_run.sh+SAT_dat.k95-24_1_rule_1.cnf+75171b28,0,383.66,2253556,53611,108,0,0,0,79114,0,79114,8501,
breakid_run.sh+SAT_dat.k95-24_1_rule_2.cnf+752532a9,0,382.15,2222984,53611,108,0,0,0,79114,0,79114,8501,
breakid_run.sh+SAT_dat.k95-24_1_rule_3.cnf+75334a2a,0,382.32,2253436,53611,108,0,0,0,79114,0,79114,8501,
breakid_run.sh+SAT_instance_N=111.cnf+dedc4748,0,0.77,125672,0,0,0,0,0,0,0,0,0,
breakid_run.sh+SAT_instance_N=31.cnf+2577141,0,0.05,10592,0,0,0,0,0,0,0,0,0,
breakid_run.sh+SAT_instance_N=33.cnf+273a043,0,0.05,11676,0,0,0,0,0,0,0,0,0,
breakid_run.sh+SAT_instance_N=43.cnf+42878e2,0,0.09,19560,0,0,0,0,0,0,0,0,0,
breakid_run.sh+SAT_instance_N=49.cnf+47d05e8,0,0.14,25324,0,0,0,0,0,0,0,0,0,
breakid_run.sh+SAT_instance_N=55.cnf+5f98083,0,0.17,31592,0,0,0,0,0,0,0,0,0,
breakid_run.sh+SAT_instance_N=63.cnf+7922a20,0,0.2,40832,0,0,0,0,0,0,0,0,0,
breakid_run.sh+SAT_instance_N=69.cnf+7e6b726,0,0.28,49368,0,0,0,0,0,0,0,0,0,
breakid_run.sh+SAT_instance_N=72.cnf+938eb3e,0,0.3,52592,0,0,0,0,0,0,0,0,0,
breakid_run.sh+SAT_instance_N=75.cnf+96331c1,0,0.36,58596,0,0,0,0,0,0,0,0,0,
breakid_run.sh+SAT_instance_N=77.cnf+97f60c3,0,0.33,61356,0,0,0,0,0,0,0,0,0,
breakid_run.sh+SAT_instance_N=85.cnf+b180a60,0,0.43,74692,0,0,0,0,0,0,0,0,0,
breakid_run.sh+SAT_instance_N=93.cnf+cb0b3fd,0,0.49,89056,0,0,0,0,0,0,0,0,0,
breakid_run.sh+SAT_instance_N=99.cnf+d054103,0,0.57,101348,0,0,0,0,0,0,0,0,0,
breakid_run.sh+UCG-15-10p0.cnf+b20523f9,0,2.28,338848,0,0,0,0,0,0,0,0,0,
breakid_run.sh+UCG-15-10p1.cnf+b2133b7a,0,2.33,345688,0,0,0,0,0,0,0,0,0,
breakid_run.sh+UCG-20-10p0.cnf+817aa11f,0,2.98,464472,0,0,0,0,0,0,0,0,0,
breakid_run.sh+UCG-20-10p1.cnf+8188b8a0,0,3.22,469468,0,0,0,0,0,0,0,0,0,
breakid_run.sh+UCG-20-5p0.cnf+940af82f,0,2.56,403016,0,0,0,0,0,0,0,0,0,
breakid_run.sh+UCG-20-5p1.cnf+94190fb0,0,2.67,400604,0,0,0,0,0,0,0,0,0,
breakid_run.sh+UR-15-10p0.cnf+d054eaad,0,2.26,341076,0,0,0,0,0,0,0,0,0,
breakid_run.sh+UR-15-10p1.cnf+d063022e,0,2.43,343840,0,0,0,0,0,0,0,0,0,
breakid_run.sh+UR-20-10p0.cnf+9fca67d3,0,3.33,464232,0,0,0,0,0,0,0,0,0,
breakid_run.sh+UR-20-10p1.cnf+9fd87f54,0,3.28,469276,0,0,0,0,0,0,0,0,0,
breakid_run.sh+UR-20-5p0.cnf+b60d8afb,0,2.85,402608,0,0,0,0,0,0,0,0,0,
breakid_run.sh+UTI-20-10p0.cnf+5e3b11b0,0,3.08,465268,0,0,0,0,0,0,0,0,0,
breakid_run.sh+UTI-20-10p1.cnf+5e492931,0,3.08,477548,0,0,0,0,0,0,0,0,0,
breakid_run.sh+UTI-20-5p1.cnf+7a2fc8ff,0,2.85,401376,0,0,0,0,0,0,0,0,0,
breakid_run.sh+Urq3_5.cnf+9f24d42b,0,0.0,1752,29,1,0,0,0,20,0,20,0,
breakid_run.sh+Urq4_5.cnf+d40b0f6c,0,0.0,1752,43,1,0,0,0,26,0,26,0,
breakid_run.sh+Urq5_5.cnf+8f14aad,0,0.02,1752,72,1,0,0,0,37,0,37,0,
breakid_run.sh+Urq6_5.cnf+3dd785ee,0,0.05,1848,109,1,0,0,0,54,0,54,0,
breakid_run.sh+Urq7_5.cnf+72bdc12f,0,0.09,2640,143,1,0,0,0,58,0,58,0,
breakid_run.sh+Urq8_5.cnf+a7a3fc70,0,0.19,3960,200,1,0,0,0,80,0,80,0,
breakid_run.sh+VanDerWaerden_pd_2-3-20_388.cnf+3149ca3e,0,0.03,7576,0,0,0,0,0,0,0,0,0,
breakid_run.sh+aaai10-planning-ipc5-TPP-21-step11.cnf+d9a43d0c,0,1.48,268384,2,2,0,0,0,2,0,2,0,
breakid_run.sh+aaai10-planning-ipc5-TPP-30-step11.cnf+c0759e2e,0,6.0,966196,12,12,0,0,0,12,0,12,0,
breakid_run.sh+aaai10-planning-ipc5-pathways-13-step17.cnf+791661c8,0,0.27,50908,0,0,0,0,0,0,0,0,0,
breakid_run.sh+aaai10-planning-ipc5-pathways-17-step20.cnf+992f2b5c,0,0.53,99152,0,0,0,0,0,0,0,0,0,
breakid_run.sh+aaai10-planning-ipc5-pathways-17-step21.cnf+993d42dd,0,0.64,108348,0,0,0,0,0,0,0,0,0,
breakid_run.sh+aes_24_4_keyfind_4.cnf+d2a5cc2a,0,0.0,2796,0,0,0,0,0,0,0,0,0,
breakid_run.sh+aes_24_4_keyfind_5.cnf+d2b3e3ab,0,0.01,2792,0,0,0,0,0,0,0,0,0,
breakid_run.sh+aes_32_2_keyfind_1.cnf+4202d742,0,0.0,2420,0,0,0,0,0,0,0,0,0,
breakid_run.sh+aes_32_2_keyfind_3.cnf+421f0644,0,0.01,2420,0,0,0,0,0,0,0,0,0,
breakid_run.sh+aes_32_3_keyfind_1.cnf+9bde4183,0,0.0,1756,0,0,0,0,0,0,0,0,0,
breakid_run.sh+aes_64_1_keyfind_1.cnf+b74ef562,0,0.0,1752,0,0,0,0,0,0,0,0,0,
breakid_run.sh+aes_64_1_keyfind_1.cnf+d730cf60,0,0.0,1752,0,0,0,0,0,0,0,0,0,
breakid_run.sh+atco_enc1_opt1_03_56.cnf+11a8fcb9,0,0.62,100532,46,46,0,0,0,46,0,46,0,
breakid_run.sh+atco_enc1_opt1_04_32.cnf+75e81a56,0,1.4,202508,30,30,0,0,0,30,0,30,0,
breakid_run.sh+atco_enc1_opt1_05_21.cnf+dc065715,0,1.36,201944,17,17,0,0,0,17,0,17,0,
breakid_run.sh+atco_enc1_opt1_10_15.cnf+67686b20,0,0.6,96536,35,34,0,0,0,185,0,185,50,
breakid_run.sh+atco_enc1_opt1_10_21.cnf+68e4e5bb,0,0.69,99616,35,34,0,0,0,185,0,185,50,
breakid_run.sh+atco_enc1_opt1_15_240.cnf+9e3075f1,0,1.69,224816,35,35,0,0,0,185,0,185,50,
breakid_run.sh+atco_enc1_opt1_18_18.cnf+a69c189b,0,1.57,224616,3,3,0,0,0,153,0,153,50,
breakid_run.sh+atco_enc1_opt2_05_4.cnf+c9f1a2b7,0,0.89,130728,33,18,0,0,0,81,0,81,16,
breakid_run.sh+atco_enc1_opt2_10_12.cnf+fc22d75e,0,0.32,52208,41,38,0,0,0,203,0,203,54,
breakid_run.sh+atco_enc1_opt2_10_14.cnf+fc3f0660,0,0.36,52860,41,38,0,0,0,203,0,203,54,
breakid_run.sh+atco_enc1_opt2_10_15.cnf+fc4d1de1,0,0.33,53168,41,38,0,0,0,203,0,203,54,
breakid_run.sh+atco_enc1_opt2_10_16.cnf+fc5b3562,0,0.36,53776,41,38,0,0,0,203,0,203,54,
breakid_run.sh+atco_enc1_opt2_20_12.cnf+9067465f,0,17.77,2177180,11,6,0,0,0,1061,0,1061,350,
breakid_run.sh+atco_enc2_opt1_05_21.cnf+bd9834f4,0,1.2,187064,17,17,0,0,0,17,0,17,0,
breakid_run.sh+atco_enc2_opt1_10_21.cnf+4a76c39a,0,0.59,89900,35,34,0,0,0,185,0,185,50,
breakid_run.sh+atco_enc2_opt1_15_100.cnf+b320b635,0,1.54,204476,35,35,0,0,0,185,0,185,50,
breakid_run.sh+atco_enc2_opt1_20_11.cnf+dd0659fc,0,29.1,3275536,8,5,0,0,0,908,0,908,300,
breakid_run.sh+atco_enc2_opt2_05_4.cnf+23cd0cf8,0,0.88,130796,34,18,0,0,0,85,0,85,17,
breakid_run.sh+atco_enc2_opt2_05_9.cnf+2413827d,0,0.9,132080,34,18,0,0,0,85,0,85,17,
breakid_run.sh+atco_enc2_opt2_10_21.cnf+df5b765b,0,0.38,56140,43,35,0,0,0,211,0,211,56,
breakid_run.sh+atco_enc2_opt2_20_11.cnf+71eb0cbd,0,20.07,2143456,13,6,0,0,0,1362,0,1362,450,
breakid_run.sh+atco_enc3_opt1_03_53.cnf+d4a271f4,0,13.88,1893040,1,1,0,0,0,1,0,1,0,
breakid_run.sh+atco_enc3_opt1_04_50.cnf+3c595850,0,16.93,2356812,1,1,0,0,0,1,0,1,0,
breakid_run.sh+atco_enc3_opt1_13_48.cnf+67787ddb,0,19.23,2408928,2,2,0,0,0,152,0,152,50,
breakid_run.sh+atco_enc3_opt2_05_21.cnf+340ec594,0,16.47,2155656,1,1,0,0,0,1,0,1,0,
breakid_run.sh+atco_enc3_opt2_10_12.cnf+bf46931c,0,13.04,1808816,1,1,0,0,0,1,0,1,0,
breakid_run.sh+atco_enc3_opt2_10_14.cnf+bf62c21e,0,12.51,1814036,1,1,0,0,0,1,0,1,0,
breakid_run.sh+atco_enc3_opt2_18_44.cnf+38ab2f3,0,13.97,1930088,1,1,0,0,0,1,0,1,0,
breakid_run.sh+beempgsol2b1.cnf+975dea48,0,0.29,35188,51,1,0,0,0,3242,0,3242,1065,
breakid_run.sh+beempgsol5b1.cnf+36109c0b,0,0.28,35980,51,1,0,0,0,3753,0,3753,1236,
breakid_run.sh+bjrb07amba10andenv.cnf+f9c89734,0,1.9,256176,13,8,0,0,0,556,0,556,181,
breakid_run.sh+blocks-blocks-36-0.120-NOTKNOWN.cnf+a7ed3cdb,0,15.96,2825464,0,0,0,0,0,0,0,0,0,
breakid_run.sh+blocks-blocks-36-0.130-NOTKNOWN.cnf+1c8a71c,0,18.41,3060860,0,0,0,0,0,0,0,0,0,
breakid_run.sh+blocks-blocks-37-1.130-NOTKNOWN.cnf+adfc5f9a,0,19.97,3284816,0,0,0,0,0,0,0,0,0,
breakid_run.sh+bob12m02-opt.cnf+107655f4,0,0.14,31012,20,20,0,0,0,329,0,329,103,
breakid_run.sh+bob12m02.cnf+b7b90e0e,0,0.2,34488,21,21,0,0,0,480,0,480,153,
breakid_run.sh+bob12m04.cnf+b7d53d10,0,117.61,724472,18251,18251,0,0,0,481400,0,481400,154383,
breakid_run.sh+bob12m09-opt.cnf+1e555efb,0,0.33,60240,4,4,0,0,0,16,0,16,4,
breakid_run.sh+bob12s02.cnf+f51e7194,0,0.21,34208,4,4,0,0,0,310,0,310,102,
breakid_run.sh+bob12s09-opt.cnf+9bb18f81,0,0.33,59984,4,4,0,0,0,16,0,16,4,
breakid_run.sh+bvadd_17322.cnf+27d0f11e,0,4.27,602920,0,0,0,0,0,0,0,0,0,
breakid_run.sh+bvadd_27079.cnf+264d8dfe,0,6.37,942860,0,0,0,0,0,0,0,0,0,
breakid_run.sh+bvadd_27966.cnf+868425,0,7.21,978876,0,0,0,0,0,0,0,0,0,
breakid_run.sh+bvadd_29740.cnf+62be291d,0,7.69,1035860,0,0,0,0,0,0,0,0,0,
breakid_run.sh+bvashr_0710.cnf+af2b6f78,0,3.35,490272,0,0,0,0,0,0,0,0,0,
breakid_run.sh+bvslt_13916.cnf+1543f2a7,0,6.27,854784,0,0,0,0,0,0,0,0,0,
breakid_run.sh+bvslt_19860.cnf+57d872b5,0,11.2,1626504,0,0,0,0,0,0,0,0,0,
breakid_run.sh+bvsub_06991.cnf+932d987b,0,2.63,400932,0,0,0,0,0,0,0,0,0,
breakid_run.sh+bvult_16967.cnf+3283d8e2,0,12.02,1606224,0,0,0,0,0,0,0,0,0,
breakid_run.sh+c10bi_i.cnf+5c26e7d8,0,0.93,160736,3,3,0,0,0,453,0,453,150,
breakid_run.sh+ccp-s10-facto1.cnf+fa42f99d,0,0.02,2704,28,2,0,0,0,1744,0,1744,572,
breakid_run.sh+ccp-s10-facto2.cnf+fa51111e,0,0.15,8796,48,2,0,0,0,3503,0,3503,1152,
breakid_run.sh+ccp-s10-facto3.cnf+fa5f289f,0,0.55,19956,68,2,0,0,0,5261,0,5261,1732,
breakid_run.sh+ccp-s10-facto4.cnf+fa6d4020,0,1.7,36144,88,2,0,0,0,7019,0,7019,2312,
breakid_run.sh+ccp-s5-facto2.cnf+99b1e560,0,0.01,1752,23,2,0,0,0,1498,0,1498,492,
breakid_run.sh+ccp-s5-facto3.cnf+99bffce1,0,0.02,2220,33,2,0,0,0,2402,0,2402,790,
breakid_run.sh+ccp-s5-facto4.cnf+99ce1462,0,0.04,3328,43,2,0,0,0,3213,0,3213,1057,
breakid_run.sh+ccp-s6-facto2.cnf+a1638abf,0,0.01,1956,28,2,0,0,0,1905,0,1905,626,
breakid_run.sh+ccp-s6-facto3.cnf+a171a240,0,0.04,3524,40,2,0,0,0,2941,0,2941,968,
breakid_run.sh+ccp-s6-facto4.cnf+a17fb9c1,0,0.1,5752,52,2,0,0,0,3925,0,3925,1292,
breakid_run.sh+ccp-s7-facto2.cnf+a915301e,0,0.02,2852,32,2,0,0,0,2177,0,2177,715,
breakid_run.sh+ccp-s7-facto3.cnf+a923479f,0,0.08,5612,47,2,0,0,0,3495,0,3495,1150,
breakid_run.sh+ccp-s7-facto4.cnf+a9315f20,0,0.22,9980,61,2,0,0,0,4664,0,4664,1535,
breakid_run.sh+ccp-s8-facto1.cnf+b0b8bdfc,0,0.0,1752,22,2,0,0,0,1303,0,1303,427,
breakid_run.sh+ccp-s8-facto2.cnf+b0c6d57d,0,0.05,4080,38,2,0,0,0,2708,0,2708,890,
breakid_run.sh+ccp-s8-facto3.cnf+b0d4ecfe,0,0.17,8952,54,2,0,0,0,4066,0,4066,1338,
breakid_run.sh+ccp-s8-facto4.cnf+b0e3047f,0,0.43,16096,70,2,0,0,0,5424,0,5424,1786,
breakid_run.sh+ccp-s9-facto1.cnf+b86a635b,0,0.01,1840,24,2,0,0,0,1377,0,1377,451,
breakid_run.sh+ccp-s9-facto2.cnf+b8787adc,0,0.08,5996,42,2,0,0,0,2947,0,2947,969,
breakid_run.sh+ccp-s9-facto3.cnf+b886925d,0,0.27,13480,60,2,0,0,0,4504,0,4504,1482,
breakid_run.sh+ccp-s9-facto4.cnf+b894a9de,0,0.68,23976,78,2,0,0,0,6061,0,6061,1995,
breakid_run.sh+chnl10_11.cnf+50740548,0,0.0,1752,22,1,0,0,0,1909,0,1909,629,
breakid_run.sh+chnl10_12.cnf+50821cc9,0,0.0,1752,22,1,0,0,0,2029,0,2029,669,
breakid_run.sh+chnl10_13.cnf+5090344a,0,0.01,1756,24,1,0,0,0,2337,0,2337,771,
breakid_run.sh+chnl11_12.cnf+b86349a8,0,0.0,1752,24,1,0,0,0,2175,0,2175,717,
breakid_run.sh+chnl11_13.cnf+b8716129,0,0.0,1752,24,1,0,0,0,2493,0,2493,823,
breakid_run.sh+chnl11_20.cnf+b9fbf345,0,0.02,2740,38,1,0,0,0,4346,0,4346,1436,
breakid_run.sh+complete-300-0.1-18-98765432130018.cnf+935a6d98,0,0.11,12936,0,0,0,0,0,0,0,0,0,
breakid_run.sh+complete-300-0.1-4-9876543213004.cnf+9b36af6a,0,0.09,13048,0,0,0,0,0,0,0,0,0,
breakid_run.sh+complete-300-0.1-7-9876543213007.cnf+4601b30,0,0.1,13184,0,0,0,0,0,0,0,0,0,
breakid_run.sh+complete-300-0.1-8-9876543213008.cnf+d2189472,0,0.08,12784,0,0,0,0,0,0,0,0,0,
breakid_run.sh+complete-400-0.1-12-98765432140012.cnf+e2cf2dda,0,0.23,26000,0,0,0,0,0,0,0,0,0,
breakid_run.sh+complete-400-0.1-16-98765432140016.cnf+818ee55a,0,0.23,25736,0,0,0,0,0,0,0,0,0,
breakid_run.sh+complete-400-0.1-3-9876543214003.cnf+6eb073c8,0,0.22,25872,0,0,0,0,0,0,0,0,0,
breakid_run.sh+complete-400-0.1-7-9876543214007.cnf+a59258d0,0,0.24,25736,0,0,0,0,0,0,0,0,0,
breakid_run.sh+complete-500-0.1-1-9876543215001.cnf+7471bee4,0,0.4,43768,0,0,0,0,0,0,0,0,0,
breakid_run.sh+complete-500-0.1-15-98765432150015.cnf+57734afc,0,0.4,44704,0,0,0,0,0,0,0,0,0,
breakid_run.sh+complete-500-0.1-17-98765432150017.cnf+26d326bc,0,0.42,45252,0,0,0,0,0,0,0,0,0,
breakid_run.sh+complete-500-0.1-7-9876543215007.cnf+46c49670,0,0.4,44972,0,0,0,0,0,0,0,0,0,
breakid_run.sh+complete-500-0.1-8-9876543215008.cnf+147d0fb2,0,0.42,44608,0,0,0,0,0,0,0,0,0,
breakid_run.sh+connm-ue-csp-sat-n1200-d0.02-s1099787414.sat05-542.reshuffled-07.cnf+b7f60609,0,56.0,5236,0,0,0,0,0,0,0,0,0,
breakid_run.sh+contest02-ezfact64_10.sat05-449.reshuffled-07.cnf+e2571fc,0,0.03,7660,0,0,0,0,0,0,0,0,0,
breakid_run.sh+countbitssrl032.cnf+57937efc,0,0.11,21992,0,0,0,0,0,0,0,0,0,
breakid_run.sh+crafted_n10_d6_c2_num13.cnf+3ebdcaf6,0,135.83,976704,42,1,0,0,0,6328,0,6328,2100,
breakid_run.sh+crafted_n10_d6_c2_num16.cnf+3ee81179,0,130.98,972712,42,1,0,0,0,6331,0,6331,2100,
breakid_run.sh+crafted_n10_d6_c2_num17.cnf+3ef628fa,0,123.84,972796,42,1,0,0,0,6329,0,6329,2100,
breakid_run.sh+crafted_n10_d6_c2_num2.cnf+44233d58,0,114.43,980908,41,1,0,0,0,6178,0,6178,2050,
breakid_run.sh+crafted_n10_d6_c2_num4.cnf+443f6c5a,0,144.83,985372,43,1,0,0,0,6479,0,6479,2150,
breakid_run.sh+crafted_n10_d6_c2_num5.cnf+444d83db,0,139.27,975792,43,1,0,0,0,6472,0,6472,2150,
breakid_run.sh+crafted_n10_d6_c2_num6.cnf+445b9b5c,0,124.18,971444,42,1,0,0,0,6329,0,6329,2100,
breakid_run.sh+crafted_n10_d6_c2_num9.cnf+4485e1df,0,1429.46,1010100,42,1,0,0,0,6323,0,6323,2100,
breakid_run.sh+crafted_n10_d6_c3_num1.cnf+385e96f6,0,328.58,2084296,41,1,0,0,0,6182,0,6182,2050,
breakid_run.sh+crafted_n10_d6_c3_num18.cnf+d3e8f33c,0,387.99,2087868,44,1,0,0,0,6629,0,6629,2200,
breakid_run.sh+crafted_n10_d6_c3_num5.cnf+3896f4fa,0,451.7,2180068,42,1,0,0,0,6326,0,6326,2100,
breakid_run.sh+crafted_n10_d6_c4_num3.cnf+2cc43717,0,3576.6,3543448,42,1,0,0,0,6330,0,6330,2100,
breakid_run.sh+crafted_n10_d6_c4_num8.cnf+2d0aac9c,0,615.69,3527648,42,1,0,0,0,6328,0,6328,2100,
breakid_run.sh+crafted_n10_d6_c4_num9.cnf+2d18c41d,0,566.08,3523144,42,1,0,0,0,6325,0,6325,2100,
breakid_run.sh+crafted_n11_d6_c3_num17.cnf+2484b9bc,0,422.3,2276108,46,1,0,0,0,6929,0,6929,2300,
breakid_run.sh+crafted_n11_d6_c4_num1.cnf+e39e5f4,0,706.5,4030204,46,1,0,0,0,6931,0,6931,2300,
breakid_run.sh+crafted_n11_d6_c4_num18.cnf+b97783fe,0,759.56,4029544,46,1,0,0,0,6932,0,6932,2300,
breakid_run.sh+crafted_n11_d6_c4_num19.cnf+b9859b7f,0,983.35,4170976,46,1,0,0,0,6933,0,6933,2300,
breakid_run.sh+crafted_n11_d6_c4_num21.cnf+bac9b816,0,1146.93,4180296,46,1,0,0,0,6928,0,6928,2300,
breakid_run.sh+crafted_n12_d5_c4_num6.cnf+18f32d7,0,3701.37,901716
breakid_run.sh+crafted_n12_d6_c3_num10.cnf+74cbf336,0,2113.67,2809688,50,1,0,0,0,7528,0,7528,2500,
breakid_run.sh+crafted_n12_d6_c3_num16.cnf+7520803c,0,610.95,2788968,50,1,0,0,0,7534,0,7534,2500,
breakid_run.sh+crafted_n12_d6_c4_num11.cnf+9bebd78,0,1683.07,5029532,50,1,0,0,0,7533,0,7533,2500,
breakid_run.sh+crafted_n12_d6_c4_num18.cnf+a2161ff,0,1604.29,5199280,50,1,0,0,0,7531,0,7531,2500,
breakid_run.sh+crafted_n12_d6_c4_num20.cnf+b657e96,0,1069.91,5017192,50,1,0,0,0,7531,0,7531,2500,
breakid_run.sh+crafted_n12_d6_c4_num22.cnf+b81ad98,0,3699.88,4911940
breakid_run.sh+crafted_n12_d6_c4_num23.cnf+b8fc519,0,1006.84,5034840,50,1,0,0,0,7531,0,7531,2500,
breakid_run.sh+crafted_n12_d6_c4_num4.cnf+eff60a56,0,1367.65,5189560,50,1,0,0,0,7532,0,7532,2500,
breakid_run.sh+crafted_n12_d6_c4_num6.cnf+f0123958,0,1539.66,5195712,50,1,0,0,0,7528,0,7528,2500,
breakid_run.sh+crafted_n12_d6_c4_num9.cnf+f03c7fdb,0,3286.28,5056360,52,1,0,0,0,7833,0,7833,2600,
breakid_run.sh+crn_20_361_s.cnf+2cd27318,0,0.02,7128,0,0,0,0,0,0,0,0,0,
breakid_run.sh+ctl_3082_415_unsat_pre.cnf+83efee1d,0,0.17,33972,0,0,0,0,0,0,0,0,0,
breakid_run.sh+ctl_3791_556_unsat_pre.cnf+6e2b83fe,0,0.22,32296,20,11,0,0,0,3020,0,3020,1000,
breakid_run.sh+ctl_4291_567_5_unsat_pre.cnf+66c8a62e,0,0.26,47216,1,1,0,0,0,151,0,151,50,
breakid_run.sh+dated-10-11-u.cnf+2f1eeb44,0,1.51,226436,0,0,0,0,0,0,0,0,0,
breakid_run.sh+dated-10-13-u.cnf+98eb61c6,0,2.03,292112,0,0,0,0,0,0,0,0,0,
breakid_run.sh+dated-10-17-u.cnf+6c844eca,0,2.55,385528,0,0,0,0,0,0,0,0,0,
breakid_run.sh+dated-5-13-u.cnf+2cb69e8e,0,1.55,224820,0,0,0,0,0,0,0,0,0,
breakid_run.sh+dimacs.cnf+1a4b4a3e,0,0.01,4140,0,0,0,0,0,0,0,0,0,
breakid_run.sh+edges-024-4-10183999-1-00.cnf+f7369bd5,0,0.0,1764,0,0,0,0,0,0,0,0,0,
breakid_run.sh+edges-024-4-1208111-1-00.cnf+fbba57a3,0,0.0,1752,0,0,0,0,0,0,0,0,0,
breakid_run.sh+edges-024-4-5613555-1-00.cnf+663d4639,0,0.0,1756,0,0,0,0,0,0,0,0,0,
breakid_run.sh+edges-024-4-5667555-1-00.cnf+899e5058,0,0.0,1768,0,0,0,0,0,0,0,0,0,
breakid_run.sh+edges-024-4-7787777-1-00.cnf+8c189c13,0,0.0,1768,0,0,0,0,0,0,0,0,0,
breakid_run.sh+edges-024-4-7880777-1-00.cnf+605ed8cd,0,0.0,1768,0,0,0,0,0,0,0,0,0,
breakid_run.sh+edges-025-4-10062999-1-00.cnf+f7b58d56,0,0.0,1752,0,0,0,0,0,0,0,0,0,
breakid_run.sh+edges-025-4-10106999-1-00.cnf+c06a57e1,0,0.0,1756,0,0,0,0,0,0,0,0,0,
breakid_run.sh+edges-025-4-10169999-1-00.cnf+d726251e,0,0.0,1752,0,0,0,0,0,0,0,0,0,
breakid_run.sh+edges-025-4-1237111-1-00.cnf+9a72845e,0,0.0,1752,0,0,0,0,0,0,0,0,0,
breakid_run.sh+edges-025-4-3369333-1-00.cnf+5bd0a6ba,0,0.0,1752,0,0,0,0,0,0,0,0,0,
breakid_run.sh+edges-025-4-5714555-1-00.cnf+963d8d5a,0,0.0,1768,0,0,0,0,0,0,0,0,0,
breakid_run.sh+edges-025-4-7780777-1-00.cnf+ee2544eb,0,0.0,1752,0,0,0,0,0,0,0,0,0,
breakid_run.sh+edges-025-4-7932777-1-00.cnf+158d3654,0,0.0,1772,0,0,0,0,0,0,0,0,0,
breakid_run.sh+edges-025-4-7957777-1-00.cnf+81d7ea17,0,0.0,1752,0,0,0,0,0,0,0,0,0,
breakid_run.sh+edges-070-3-10037999-34.cnf+3606fa18,0,0.0,1752,3,1,0,0,0,3,0,3,0,
breakid_run.sh+edges-070-3-10062999-36.cnf+64c09b72,0,0.0,1752,3,1,0,0,0,3,0,3,0,
breakid_run.sh+edges-070-3-10122999-15.cnf+310543b8,0,0.0,1752,3,1,0,0,0,3,0,3,0,
breakid_run.sh+edges-070-3-1226111-26.cnf+8f51baf1,0,0.0,1752,3,1,0,0,0,3,0,3,0,
breakid_run.sh+edges-070-3-1250111-33.cnf+2a950ca4,0,0.0,1752,3,1,0,0,0,3,0,3,0,
breakid_run.sh+edges-070-3-3470333-15.cnf+b84a8f64,0,0.0,1752,3,1,0,0,0,3,0,3,0,
breakid_run.sh+edges-070-3-7857777-1.cnf+8200f146,0,0.0,1752,3,1,0,0,0,3,0,3,0,
breakid_run.sh+edges-072-3-1124111-35.cnf+1cfd44a,0,0.0,1752,3,1,0,0,0,3,0,3,0,
breakid_run.sh+edges-072-3-1131111-37.cnf+4aef9068,0,0.0,1752,3,1,0,0,0,3,0,3,0,
breakid_run.sh+edges-072-3-1161111-15.cnf+5e7ea045,0,0.0,1752,3,1,0,0,0,3,0,3,0,
breakid_run.sh+edges-072-3-5729555-15.cnf+c723224f,0,0.0,1756,3,1,0,0,0,3,0,3,0,
breakid_run.sh+edges-072-3-5749555-14.cnf+d678558c,0,0.0,1752,3,1,0,0,0,3,0,3,0,
breakid_run.sh+edges-072-3-7902777-18.cnf+2748f50b,0,0.0,1756,3,1,0,0,0,3,0,3,0,
breakid_run.sh+edges-072-3-7923777-13.cnf+cb4a7d05,0,0.0,1752,3,1,0,0,0,3,0,3,0,
breakid_run.sh+edges-072-3-7925777-19.cnf+f5686f8d,0,0.0,1752,3,1,0,0,0,3,0,3,0,
breakid_run.sh+em_14_7_3_cmp.cnf+87563ad0,0,1.54,115588,130,1,0,0,0,19552,0,19552,6476,
breakid_run.sh+em_7_3_6_cmp.cnf+93ac12a9,0,0.02,4824,10,1,0,0,0,592,0,592,194,
breakid_run.sh+em_7_4_8_cmp.cnf+5119a36c,0,0.02,5548,1,1,0,0,0,151,0,151,50,
breakid_run.sh+em_7_4_8_fbc.cnf+dc4fd4cd,0,0.05,9232,1,1,0,0,0,151,0,151,50,
breakid_run.sh+em_7_4_9_all.cnf+79a46548,0,0.07,13884,2,1,0,0,0,209,0,209,69,
breakid_run.sh+em_7_4_9_fbc.cnf+709443ce,0,0.05,10072,2,1,0,0,0,209,0,209,69,
breakid_run.sh+esawn_uw3.debugged.cnf+c6f5f75a,0,86.69,14359044
breakid_run.sh+ezfact64_3.sat05-450.reshuffled-07.cnf+8f367131,0,0.04,7720,0,0,0,0,0,0,0,0,0,
breakid_run.sh+ezfact64_4.sat05-451.reshuffled-07.cnf+8630b773,0,0.03,7724,0,0,0,0,0,0,0,0,0,
breakid_run.sh+ezfact64_5.sat05-452.reshuffled-07.cnf+7d2afdb5,0,0.04,7724,0,0,0,0,0,0,0,0,0,
breakid_run.sh+fpga10_11_uns_rcr.cnf+4c9ddd85,0,0.0,1752,22,1,0,0,0,2128,0,2128,702,
breakid_run.sh+fpga10_12_uns_rcr.cnf+3b20e406,0,0.0,1756,22,1,0,0,0,2296,0,2296,758,
breakid_run.sh+fpga10_13_uns_rcr.cnf+29a3ea87,0,0.0,1768,24,1,0,0,0,2450,0,2450,809,
breakid_run.sh+fpga10_15_uns_rcr.cnf+6a9f789,0,0.01,1816,28,1,0,0,0,2953,0,2953,975,
breakid_run.sh+fpga10_20_uns_rcr.cnf+3ff8a0a3,0,0.02,2580,38,1,0,0,0,4267,0,4267,1410,
breakid_run.sh+fpga10_8_sat.cnf+bc73e051,0,0.0,1752,16,1,0,0,0,888,0,888,291,
breakid_run.sh+fpga10_9_sat.cnf+50b84f52,0,0.0,1752,19,1,0,0,0,1109,0,1109,364,
breakid_run.sh+fpga11_12_uns_rcr.cnf+1cb2c1e5,0,0.0,1752,24,1,0,0,0,2628,0,2628,868,
breakid_run.sh+fpga11_13_uns_rcr.cnf+b35c866,0,0.01,1756,24,1,0,0,0,2688,0,2688,888,
breakid_run.sh+fpga11_14_uns_rcr.cnf+f9b8cee7,0,0.01,1804,26,1,0,0,0,2965,0,2965,980,
breakid_run.sh+fpga11_15_uns_rcr.cnf+e83bd568,0,0.01,1928,28,1,0,0,0,3151,0,3151,1041,
breakid_run.sh+fpga11_20_uns_rcr.cnf+218a7e82,0,0.02,2776,38,1,0,0,0,4325,0,4325,1429,
breakid_run.sh+fpga12_11_sat.cnf+d0c2d8d,0,0.0,1756,24,1,0,0,0,1842,0,1842,606,
breakid_run.sh+fpga12_12_sat.cnf+a1509c8e,0,0.0,1764,25,1,0,0,0,1908,0,1908,628,
breakid_run.sh+fpga12_8_sat.cnf+e63d45d3,0,0.0,1768,18,1,0,0,0,1241,0,1241,408,
breakid_run.sh+fpga12_9_sat.cnf+7a81b4d4,0,0.0,1756,20,1,0,0,0,1442,0,1442,474,
breakid_run.sh+fpga13_10_sat.cnf+807963eb,0,0.0,1752,22,1,0,0,0,1764,0,1764,581,
breakid_run.sh+fpga13_12_sat.cnf+a90241ed,0,0.0,1752,26,1,0,0,0,2153,0,2153,709,
breakid_run.sh+fpga13_9_sat.cnf+f666795,0,0.0,1752,20,1,0,0,0,1473,0,1473,485,
breakid_run.sh+frb45-21-1.used-as.sat04-883.cnf+8bfa6a66,0,0.08,17620,0,0,0,0,0,0,0,0,0,
breakid_run.sh+frb80-14-2.used-as.sat04-880.cnf+51e3be31,0,0.05,13616,0,0,0,0,0,0,0,0,0,
breakid_run.sh+fsf-300-354-2-2-3-2.58.opt.cnf+fe830b54,0,0.01,4172,0,0,0,0,0,0,0,0,0,
breakid_run.sh+fsf-300-354-2-2-3-2.89.opt.cnf+6fa3cdb2,0,0.01,4176,0,0,0,0,0,0,0,0,0,
breakid_run.sh+fsf-300-354-2-2-3-2.94.opt.cnf+7e9713cc,0,0.01,4240,0,0,0,0,0,0,0,0,0,
breakid_run.sh+fsf-300-354-2-2-3-2.95.opt.cnf+12db82cd,0,0.02,4176,0,0,0,0,0,0,0,0,0,
breakid_run.sh+grid-strips-grid-y-3.035-NOTKNOWN.cnf+183a14db,0,4.48,725404,0,0,0,0,0,0,0,0,0,
breakid_run.sh+grid-strips-grid-y-3.055-NOTKNOWN.cnf+cbf0e95d,0,6.88,1140300,0,0,0,0,0,0,0,0,0,
breakid_run.sh+grid-strips-grid-y-3.065-SAT.cnf+544e11b2,0,8.39,1347004,0,0,0,0,0,0,0,0,0,
breakid_run.sh+grieu-vmpc-31.cnf+b7fffa87,0,0.18,37856,0,0,0,0,0,0,0,0,0,
breakid_run.sh+gss-18-s100.cnf+c82780e3,0,0.19,36688,0,0,0,0,0,0,0,0,0,
breakid_run.sh+gss-19-s100.cnf+bc70f202,0,0.19,37496,0,0,0,0,0,0,0,0,0,
breakid_run.sh+gss-20-s100.cnf+bac0aaac,0,0.18,37052,0,0,0,0,0,0,0,0,0,
breakid_run.sh+gss-22-s100.cnf+a3538cea,0,0.18,37632,0,0,0,0,0,0,0,0,0,
breakid_run.sh+gss-23-s100.cnf+979cfe09,0,0.17,37328,0,0,0,0,0,0,0,0,0,
breakid_run.sh+gss-24-s100.cnf+8be66f28,0,0.19,37464,0,0,0,0,0,0,0,0,0,
breakid_run.sh+gss-25-s100.cnf+802fe047,0,0.18,37864,0,0,0,0,0,0,0,0,0,
breakid_run.sh+gus-md5-04.cnf+b42cccab,0,0.77,97464,1,1,0,0,0,151,0,151,50,
breakid_run.sh+gus-md5-05.cnf+b43ae42c,0,0.75,97560,1,1,0,0,0,151,0,151,50,
breakid_run.sh+gus-md5-06.cnf+b448fbad,0,0.74,97804,1,1,0,0,0,151,0,151,50,
breakid_run.sh+gus-md5-07.cnf+b457132e,0,0.8,97888,1,1,0,0,0,151,0,151,50,
breakid_run.sh+gus-md5-09.cnf+b4734230,0,0.79,98468,1,1,0,0,0,151,0,151,50,
breakid_run.sh+gus-md5-10.cnf+b5a94746,0,0.76,98484,1,1,0,0,0,151,0,151,50,
breakid_run.sh+gus-md5-11.cnf+b5b75ec7,0,0.78,98524,1,1,0,0,0,151,0,151,50,
breakid_run.sh+gus-md5-12.cnf+b5c57648,0,0.79,98452,1,1,0,0,0,151,0,151,50,
breakid_run.sh+gus-md5-14.cnf+b5e1a54a,0,0.76,98564,1,1,0,0,0,151,0,151,50,
breakid_run.sh+gus-md5-15.cnf+b5efbccb,0,0.76,98604,1,1,0,0,0,151,0,151,50,
breakid_run.sh+gus-md5-16.cnf+b5fdd44c,0,0.79,99228,1,1,0,0,0,151,0,151,50,
breakid_run.sh+hid-uns-enc-6-1-0-0-0-0-19851.cnf+3a3128b8,0,0.0,2984,0,0,0,0,0,0,0,0,0,
breakid_run.sh+hid-uns-enc-6-1-0-0-0-0-26462.cnf+c4fc1438,0,0.01,2972,0,0,0,0,0,0,0,0,0,
breakid_run.sh+hid-uns-enc-6-1-0-0-0-0-26808.cnf+8eac7a88,0,0.01,2972,0,0,0,0,0,0,0,0,0,
breakid_run.sh+hid-uns-enc-6-1-0-0-0-0-2907.cnf+d815877c,0,0.01,2972,0,0,0,0,0,0,0,0,0,
breakid_run.sh+hid-uns-enc-6-1-0-0-0-0-31380.cnf+2041e9d9,0,0.01,2972,0,0,0,0,0,0,0,0,0,
breakid_run.sh+hid-uns-enc-6-1-0-0-0-0-3191.cnf+a7cbeae4,0,0.01,2984,0,0,0,0,0,0,0,0,0,
breakid_run.sh+hid-uns-enc-6-1-0-0-0-0-3251.cnf+d5dec3a9,0,0.01,2972,0,0,0,0,0,0,0,0,0,
breakid_run.sh+hid-uns-enc-7-1-0-0-0-0-11545.cnf+67918ae3,0,0.02,5432,0,0,0,0,0,0,0,0,0,
breakid_run.sh+hid-uns-enc-7-1-0-0-0-0-3557.cnf+5c87d8d1,0,0.02,5432,0,0,0,0,0,0,0,0,0,
breakid_run.sh+hid-uns-enc-9-1-0-0-0-0-24642.cnf+81676041,0,0.07,13872,0,0,0,0,0,0,0,0,0,
breakid_run.sh+hitag2-10-60-0-0x0ffdbe60727f161-57.cnf+8fe5baa1,0,0.07,11732,79,2,0,0,0,79,0,79,0,
breakid_run.sh+hitag2-10-60-0-0x8edc44db7837bbf-65.cnf+503a7998,0,0.07,11992,77,2,0,0,0,77,0,77,0,
breakid_run.sh+hitag2-10-60-0-0xe14721bd199894a-99.cnf+b4bbfc01,0,0.07,12016,78,2,0,0,0,78,0,78,0,
breakid_run.sh+hitag2-10-60-0-0xe6754daf48162bf-46.cnf+c1267b29,0,0.07,12212,80,2,0,0,0,80,0,80,0,
breakid_run.sh+hitag2-10-60-0-0xfee9637399d85a2-78.cnf+db95d70b,0,0.08,11984,76,2,0,0,0,76,0,76,0,
breakid_run.sh+hitag2-7-60-0-0xe8fa35372ed37e2-80.cnf+a14f659a,0,0.07,11808,74,2,0,0,0,74,0,74,0,
breakid_run.sh+hitag2-8-60-0-0x1eb82244d7f1c3c-47.cnf+32db45c9,0,0.07,11972,72,2,0,0,0,72,0,72,0,
breakid_run.sh+hitag2-8-60-0-0xdcdbc8bf368ee73-37.cnf+7cc6af9a,0,0.07,12060,80,2,0,0,0,80,0,80,0,
breakid_run.sh+hitag2-8-60-0-0xfba1a41b5dfd7f7-52.cnf+6ae658e3,0,0.07,12236,79,2,0,0,0,79,0,79,0,
breakid_run.sh+hole002.cnf+7a437810,0,0.0,1752,3,1,0,0,0,15,0,15,4,
breakid_run.sh+hole003.cnf+7a518f91,0,0.0,1752,4,1,0,0,0,40,0,40,12,
breakid_run.sh+hole004.cnf+7a5fa712,0,0.0,1756,5,1,0,0,0,83,0,83,26,
breakid_run.sh+hole005.cnf+7a6dbe93,0,0.0,1752,6,1,0,0,0,126,0,126,40,
breakid_run.sh+hole006.cnf+7a7bd614,0,0.0,1756,7,1,0,0,0,244,0,244,79,
breakid_run.sh+hole007.cnf+7a89ed95,0,0.0,1752,8,1,0,0,0,350,0,350,114,
breakid_run.sh+hole008.cnf+7a980516,0,0.0,1768,9,1,0,0,0,534,0,534,175,
breakid_run.sh+hole009.cnf+7aa61c97,0,0.0,1752,10,1,0,0,0,652,0,652,214,
breakid_run.sh+hole010.cnf+7bdc21ad,0,0.0,1768,11,1,0,0,0,989,0,989,326,
breakid_run.sh+hole010_shuffled.cnf+23fe5ded,0,0.0,1752,11,1,0,0,0,1076,0,1076,355,
breakid_run.sh+hole011.cnf+7bea392e,0,0.0,1752,12,1,0,0,0,1059,0,1059,349,
breakid_run.sh+hole011_shuffled.cnf+5dc278c,0,0.0,1752,12,1,0,0,0,1308,0,1308,432,
breakid_run.sh+hole012.cnf+7bf850af,0,0.0,1752,13,1,0,0,0,1381,0,1381,456,
breakid_run.sh+hole012_shuffled.cnf+e7b9f12b,0,0.0,1752,13,1,0,0,0,1429,0,1429,472,
breakid_run.sh+hole013.cnf+7c066830,0,0.0,1752,14,1,0,0,0,1682,0,1682,556,
breakid_run.sh+hole013_shuffled.cnf+c997baca,0,0.0,1752,14,1,0,0,0,1636,0,1636,541,
breakid_run.sh+hole014.cnf+7c147fb1,0,0.0,1752,15,1,0,0,0,1824,0,1824,603,
breakid_run.sh+hole014_shuffled.cnf+ab758469,0,0.0,1752,15,1,0,0,0,1824,0,1824,603,
breakid_run.sh+hole015.cnf+7c229732,0,0.01,1752,16,1,0,0,0,1987,0,1987,657,
breakid_run.sh+hole015_shuffled.cnf+8d534e08,0,0.01,1752,16,1,0,0,0,2028,0,2028,671,
breakid_run.sh+hole016_shuffled.cnf+6f3117a7,0,0.01,1832,17,1,0,0,0,2261,0,2261,748,
breakid_run.sh+hole017_shuffled.cnf+510ee146,0,0.01,2016,18,1,0,0,0,2399,0,2399,794,
breakid_run.sh+hole018_shuffled.cnf+32ecaae5,0,0.02,2244,19,1,0,0,0,2575,0,2575,852,
breakid_run.sh+hole019_shuffled.cnf+14ca7484,0,0.02,2476,20,1,0,0,0,2786,0,2786,922,
breakid_run.sh+hole020.cnf+7d90fa4c,0,0.02,2612,21,1,0,0,0,2913,0,2913,964,
breakid_run.sh+hole020_shuffled.cnf+7dd9c82e,0,0.02,2696,21,1,0,0,0,2948,0,2948,976,
breakid_run.sh+hole030.cnf+7f45d2eb,0,0.12,6644,31,1,0,0,0,4555,0,4555,1508,
breakid_run.sh+hole030_shuffled.cnf+d7b5326f,0,0.13,7172,31,1,0,0,0,4555,0,4555,1508,
breakid_run.sh+hwmcc10-timeframe-expansion-k45-pdtpmsgoodbakery-tseitin.cnf+cadb9e3d,0,0.65,115988,45,45,0,0,0,45,0,45,0,
breakid_run.sh+hwmcc10-timeframe-expansion-k45-pdtvisns3p02-tseitin.cnf+9e6f140e,0,1.12,193532,1,1,0,0,0,1,0,1,0,
breakid_run.sh+hwmcc10-timeframe-expansion-k50-pdtpmsns2-tseitin.cnf+f540c973,0,0.58,103160,2,2,0,0,0,2,0,2,0,
breakid_run.sh+hwmcc10-timeframe-expansion-k50-pdtvisns3p00-tseitin.cnf+f17b7832,0,1.3,214424,1,1,0,0,0,1,0,1,0,
breakid_run.sh+instance_n8_i8_pp_ci_ce.cnf+ba719524,0,0.55,85488,7,7,0,0,0,7,0,7,0,
breakid_run.sh+instance_n8_i9_pp.cnf+95b26a67,0,0.61,96616,7,7,0,0,0,7,0,7,0,
breakid_run.sh+itox_vc1130.cnf+531d5e9a,0,7.74,179544,9044,28,0,0,0,11153,0,11153,703,
breakid_run.sh+jkkk-one-one-10-34-sat.cnf+99786405,0,0.12,26548,0,0,0,0,0,0,0,0,0,
breakid_run.sh+jkkk-random-132906006148277-10-10-34-SUM-sat.cnf+d5501f96,0,0.43,79088,0,0,0,0,0,0,0,0,0,
breakid_run.sh+jkkk-random-132906006427000-10-10-35-OR-sat.cnf+1b49ad5d,0,0.45,76824,0,0,0,0,0,0,0,0,0,
breakid_run.sh+jkkk-random-132906006427000-10-10-36-SUM-sat.cnf+296002be,0,0.53,98584,0,0,0,0,0,0,0,0,0,
breakid_run.sh+jkkk-random-132906006493326-10-10-35-OR-sat.cnf+ffcb8eef,0,0.41,77964,0,0,0,0,0,0,0,0,0,
breakid_run.sh+k2fix_gr_rcs_w9.shuffled.cnf+3b87a32c,0,2.67,104280,115,2,0,0,0,7974,0,7974,2629,
breakid_run.sh+korf-17.cnf+4f09ce20,0,0.17,32784,0,0,0,0,0,0,0,0,0,
breakid_run.sh+korf-18.cnf+4f17e5a1,0,0.46,70500,0,0,0,0,0,0,0,0,0,
breakid_run.sh+logistics.a.cnf+e025dccb,0,0.0,2892,2,1,0,0,0,302,0,302,100,
breakid_run.sh+logistics.b.cnf+e033f44c,0,0.01,3172,14,2,0,0,0,341,0,341,109,
breakid_run.sh+logistics.c.cnf+e0420bcd,0,0.01,4284,3,1,0,0,0,153,0,153,50,
breakid_run.sh+logistics.d.cnf+e050234e,0,0.03,8696,1,1,0,0,0,151,0,151,50,
breakid_run.sh+manol-pipe-c10nid_i.cnf+5fb352ff,0,1.79,296900,2,2,0,0,0,302,0,302,100,
breakid_run.sh+manol-pipe-c10nidw.cnf+98f3a0bc,0,3.25,507368,2,2,0,0,0,302,0,302,100,
breakid_run.sh+manol-pipe-c10nidw_s.cnf+7ef03af0,0,3.2,472932,2,2,0,0,0,302,0,302,100,
breakid_run.sh+manol-pipe-c8nidw.cnf+9ed7d851,0,1.94,316256,1,1,0,0,0,151,0,151,50,
breakid_run.sh+manol-pipe-g10bid_i.cnf+8b44b46f,0,2.06,310756,3,3,0,0,0,453,0,453,150,
breakid_run.sh+maxxor032.cnf+fce1f6dd,0,0.06,15616,0,0,0,0,0,0,0,0,0,
breakid_run.sh+minandmaxor128.cnf+c8b150a,0,1.74,287860,0,0,0,0,0,0,0,0,0,
breakid_run.sh+minxor128.cnf+9d0615f3,0,0.3,61768,0,0,0,0,0,0,0,0,0,
breakid_run.sh+minxorminand064.cnf+81594605,0,0.22,46460,0,0,0,0,0,0,0,0,0,
breakid_run.sh+mod2-rand3bip-sat-230-2.sat05-2189.reshuffled-07.cnf+3d07dd62,0,3698.52,1436
breakid_run.sh+mod2-rand3bip-sat-230-2.sat05-2189.reshuffled-07.cnf+b5109617,0,3699.7,1432
breakid_run.sh+mod2-rand3bip-sat-270-1.sat05-2248.reshuffled-07.cnf+4c2a14c0,0,3699.02,1436
breakid_run.sh+mod2-rand3bip-sat-270-1.shuffled-as.sat05-2248.cnf+787afff2,0,3698.81,1432
breakid_run.sh+mod2-rand3bip-sat-270-2.sat05-2249.reshuffled-07.cnf+1a812220,0,3699.57,1436
breakid_run.sh+mod2-rand3bip-sat-280-1.sat05-2263.reshuffled-07.cnf+94f194ba,0,3700.01,1436
breakid_run.sh+mod2c-rand3bip-sat-240-3.shuffled-as.sat05-2520.cnf+7442b019,0,0.0,1756,99,51,0,0,0,304,0,304,69,
breakid_run.sh+mod2c-rand3bip-sat-240-3.shuffled-as.sat05-2520.cnf+a1efd36e,0,0.0,1752,99,51,0,0,0,304,0,304,69,
breakid_run.sh+mod2c-rand3bip-sat-250-1.shuffled-as.sat05-2533.cnf+a96888be,0,0.0,1768,99,65,0,0,0,249,0,249,50,
breakid_run.sh+mod2c-rand3bip-sat-250-3.shuffled-as.sat05-2535.cnf+8b26c67e,0,0.0,1752,102,59,0,0,0,264,0,264,55,
breakid_run.sh+mrpp_4x4#4_24.cnf+99de0abd,0,0.04,10544,124,1,0,0,0,124,0,124,0,
breakid_run.sh+mrpp_4x4#6_12.cnf+67cf5cda,0,0.01,5236,88,1,0,0,0,88,0,88,0,
breakid_run.sh+mrpp_4x4#6_20.cnf+69680677,0,0.04,8540,112,1,0,0,0,112,0,112,0,
breakid_run.sh+mrpp_4x4#6_6.cnf+39eb157,0,0.01,2744,70,1,0,0,0,70,0,70,0,
breakid_run.sh+mrpp_4x4#8_12.cnf+3791b698,0,0.02,6428,100,1,0,0,0,100,0,100,0,
breakid_run.sh+mrpp_4x4#8_16.cnf+37ca149c,0,0.04,8764,116,1,0,0,0,116,0,116,0,
breakid_run.sh+mrpp_4x4#8_24.cnf+3962be39,0,0.06,12776,148,1,0,0,0,148,0,148,0,
breakid_run.sh+mrpp_4x4#8_7.cnf+6d793f5a,0,0.01,3792,80,1,0,0,0,80,0,80,0,
breakid_run.sh+mrpp_6x6#10_10.cnf+20ec056d,0,0.05,11960,156,1,0,0,0,156,0,156,0,
breakid_run.sh+mrpp_6x6#10_12.cnf+2108346f,0,0.06,14188,164,1,0,0,0,164,0,164,0,
breakid_run.sh+mrpp_6x6#10_20.cnf+22a0de0c,0,0.11,23740,196,1,0,0,0,196,0,196,0,
breakid_run.sh+mrpp_6x6#12_20.cnf+f26337ca,0,0.11,23252,196,1,0,0,0,196,0,196,0,
breakid_run.sh+mrpp_6x6#12_9.cnf+5ac8d027,0,0.05,10528,152,1,0,0,0,152,0,152,0,
breakid_run.sh+mrpp_6x6#14_12.cnf+c08ce7eb,0,0.06,13980,164,1,0,0,0,164,0,164,0,
breakid_run.sh+mrpp_6x6#16_16.cnf+90879fad,0,0.13,24272,196,1,0,0,0,196,0,196,0,
breakid_run.sh+mrpp_6x6#18_12.cnf+60119b67,0,0.09,18072,176,1,0,0,0,176,0,176,0,
breakid_run.sh+mrpp_8x8#10_9.cnf+e8f286a1,0,0.1,18336,235,1,0,0,0,235,0,235,0,
breakid_run.sh+mrpp_8x8#16_10.cnf+9702852b,0,0.14,26136,249,1,0,0,0,249,0,249,0,
breakid_run.sh+mrpp_8x8#16_11.cnf+97109cac,0,0.15,28820,254,1,0,0,0,254,0,254,0,
breakid_run.sh+mrpp_8x8#16_12.cnf+971eb42d,0,0.2,31228,259,1,0,0,0,259,0,259,0,
breakid_run.sh+mrpp_8x8#16_16.cnf+97571231,0,0.23,41816,279,1,0,0,0,279,0,279,0,
breakid_run.sh+mrpp_8x8#18_14.cnf+66fd3ced,0,0.24,36352,269,1,0,0,0,269,0,269,0,
breakid_run.sh+mrpp_8x8#20_24.cnf+bded1d95,0,0.41,60504,319,1,0,0,0,319,0,319,0,
breakid_run.sh+mrpp_8x8#22_11.cnf+8bd05831,0,0.18,28432,254,1,0,0,0,254,0,254,0,
breakid_run.sh+mrpp_8x8#22_20.cnf+8d77194f,0,0.32,50184,299,1,0,0,0,299,0,299,0,
breakid_run.sh+mrpp_8x8#22_24.cnf+8daf7753,0,0.35,59660,319,1,0,0,0,319,0,319,0,
breakid_run.sh+mrpp_8x8#24_11.cnf+5b92b1ef,0,0.15,28080,254,1,0,0,0,254,0,254,0,
breakid_run.sh+mrpp_8x8#24_12.cnf+5ba0c970,0,0.18,30656,259,1,0,0,0,259,0,259,0,
breakid_run.sh+mrpp_8x8#24_14.cnf+5bbcf872,0,0.19,35476,269,1,0,0,0,269,0,269,0,
breakid_run.sh+mrpp_8x8#24_20.cnf+5d39730d,0,0.32,49616,299,1,0,0,0,299,0,299,0,
breakid_run.sh+ndist.b.20499.cnf+dc671c33,0,1.05,180644,0,0,0,0,0,0,0,0,0,
breakid_run.sh+ndist.b.20998.cnf+e4d82cf7,0,1.14,182232,0,0,0,0,0,0,0,0,0,
breakid_run.sh+ndist.b.22495.cnf+abf117ed,0,1.3,196428,0,0,0,0,0,0,0,0,0,
breakid_run.sh+ndist.b.22994.cnf+b46228b1,0,1.16,199012,0,0,0,0,0,0,0,0,0,
breakid_run.sh+ndist.b.23992.cnf+1c27268e,0,1.25,204732,0,0,0,0,0,0,0,0,0,
breakid_run.sh+ndist.b.24491.cnf+7b7b13a7,0,1.38,211932,0,0,0,0,0,0,0,0,0,
breakid_run.sh+ndist.b.25489.cnf+e21823ef,0,1.31,219684,0,0,0,0,0,0,0,0,0,
breakid_run.sh+ndist.b.26487.cnf+49dd21cc,0,1.39,231316,0,0,0,0,0,0,0,0,0,
breakid_run.sh+ndist.b.27485.cnf+b1a21fa9,0,1.41,238180,0,0,0,0,0,0,0,0,0,
breakid_run.sh+ndist.b.29481.cnf+812c1b63,0,1.65,254440,0,0,0,0,0,0,0,0,0,
breakid_run.sh+openstacks-p30_3.085-SAT.cnf+b3120296,0,3.46,584732,3,2,0,0,0,453,0,453,150,
breakid_run.sh+openstacks-sequencedstrips-nonadl-nonnegated-os-sequencedstrips-p30_1.025-NOTKNOWN.cnf+3b56a18,0,0.98,170584,4,3,0,0,0,604,0,604,200,
breakid_run.sh+openstacks-sequencedstrips-nonadl-nonnegated-os-sequencedstrips-p30_3.025-NOTKNOWN.cnf+8cd92e56,0,0.98,173360,3,2,0,0,0,453,0,453,150,
breakid_run.sh+openstacks-sequencedstrips-nonadl-nonnegated-os-sequencedstrips-p30_3.085-SAT.cnf+431a0ab4,0,3.59,584868,3,2,0,0,0,453,0,453,150,
breakid_run.sh+partial-10-11-s.cnf+405db8cd,0,2.03,304260,0,0,0,0,0,0,0,0,0,
breakid_run.sh+partial-10-17-s.cnf+7dc31c53,0,3.65,501156,0,0,0,0,0,0,0,0,0,
breakid_run.sh+partial-5-15-s.cnf+d0c4ac23,0,2.39,367016,0,0,0,0,0,0,0,0,0,
breakid_run.sh+partial-5-17-s.cnf+3a9122a5,0,3.0,423072,0,0,0,0,0,0,0,0,0,
breakid_run.sh+pb_300_10_lb_07.cnf+add3736e,0,1.3,224780,0,0,0,0,0,0,0,0,0,
breakid_run.sh+pb_300_10_lb_08.cnf+ade18aef,0,1.39,226952,0,0,0,0,0,0,0,0,0,
breakid_run.sh+post-c32s-ss-8.cnf+f8ef0b6f,0,0.32,59612,0,0,0,0,0,0,0,0,0,
breakid_run.sh+post-cbmc-aes-d-r2-noholes.cnf+bc9406c,0,4.36,575932,333,8,0,0,0,10429,0,10429,3370,
breakid_run.sh+post-cbmc-aes-d-r2.cnf+f2b1b27,0,7.38,581132,2557,9,0,0,0,12552,0,12552,3336,
breakid_run.sh+post-cbmc-aes-ee-r2-noholes.cnf+aab1da6e,0,5.0,564424,241,4,0,0,0,1177,0,1177,312,
breakid_run.sh+post-cbmc-zfcp-2.8-u2.cnf+a8b7b29c,0,2704.61,12572876
breakid_run.sh+prime2209-98.cnf+677a519b,0,2.07,165140,97,1,0,0,0,14647,0,14647,4850,
breakid_run.sh+q_query_3_L100_coli.sat.cnf+73aa138f,0,4.94,548240,853,26,0,0,0,5983,0,5983,1710,
breakid_run.sh+q_query_3_L150_coli.sat.cnf+34f326d4,0,8.3,876320,846,26,0,0,0,6024,0,6024,1726,
breakid_run.sh+q_query_3_L200_coli.sat.cnf+553bf16e,0,11.35,1251288,853,26,0,0,0,5983,0,5983,1710,
breakid_run.sh+q_query_3_L80_coli.sat.cnf+92e3ee22,0,3.66,432220,845,26,0,0,0,6041,0,6041,1732,
breakid_run.sh+q_query_3_L90_coli.sat.cnf+ecbf5863,0,4.41,494044,852,26,0,0,0,5982,0,5982,1710,
breakid_run.sh+q_query_3_l45_lambda.cnf+c7f7613f,0,0.34,58612,137,64,0,0,0,1385,0,1385,416,
breakid_run.sh+q_query_3_l46_lambda.cnf+cfa9069e,0,0.36,60184,136,64,0,0,0,1384,0,1384,416,
breakid_run.sh+q_query_3_l48_lambda.cnf+df0c515c,0,0.38,63176,138,64,0,0,0,1386,0,1386,416,
breakid_run.sh+rbcl_xits_08_UNSAT.cnf+f1b4e4d4,0,0.1,22464,1,1,0,0,0,151,0,151,50,
breakid_run.sh+rbcl_xits_14_SAT.cnf+3339e128,0,0.25,47964,1,1,0,0,0,151,0,151,50,
breakid_run.sh+rbsat-v1150c84314gyes10.cnf+7f2c95b3,0,0.11,25580,0,0,0,0,0,0,0,0,0,
breakid_run.sh+rbsat-v1150c84314gyes4.cnf+6f9f331a,0,0.1,25604,0,0,0,0,0,0,0,0,0,
breakid_run.sh+rbsat-v1150c84314gyes5.cnf+6fad4a9b,0,0.11,26648,0,0,0,0,0,0,0,0,0,
breakid_run.sh+rbsat-v1150c84314gyes7.cnf+6fc9799d,0,0.11,25488,0,0,0,0,0,0,0,0,0,
breakid_run.sh+rbsat-v945c61409g10.cnf+5861906f,0,0.07,19524,0,0,0,0,0,0,0,0,0,
breakid_run.sh+rbsat-v945c61409gyes5.cnf+6457283e,0,0.08,19532,0,0,0,0,0,0,0,0,0,
breakid_run.sh+reg_s_2_unknown.cnf+d915a46b,0,4.16,597220,15,11,0,0,0,2265,0,2265,750,
breakid_run.sh+rnd-v25-e13-k3.cnf+2ff1ad9e,0,1.67,145592,2200,1,0,0,0,2200,0,2200,0,
breakid_run.sh+rnd-v25-e178-k13.cnf+96846c3d,0,15.46,298276,12575,1,0,0,0,12575,0,12575,0,
breakid_run.sh+rnd-v25-e212-k9.cnf+31ba4597,0,13.04,304476,10925,1,0,0,0,10925,0,10925,0,
breakid_run.sh+rnd-v25-e81-k9.cnf+6e62e9ed,0,6.46,199500,7650,1,0,0,0,7650,0,7650,0,
breakid_run.sh+rook-40-0-0.cnf+899d3f39,0,0.55,96436,0,0,0,0,0,0,0,0,0,
breakid_run.sh+rook-40-0-1.cnf+89ab56ba,0,0.51,94876,0,0,0,0,0,0,0,0,0,
breakid_run.sh+rook-42-0-0.cnf+b2261d3b,0,0.68,111000,0,0,0,0,0,0,0,0,0,
breakid_run.sh+rook-42-0-1.cnf+b23434bc,0,0.63,109536,0,0,0,0,0,0,0,0,0,
breakid_run.sh+rook-42-1-1.cnf+e71a6ffd,0,0.71,102980,0,0,0,0,0,0,0,0,0,
breakid_run.sh+rook-44-0-1.cnf+dabd12be,0,0.81,128820,0,0,0,0,0,0,0,0,0,
breakid_run.sh+rook-44-1-1.cnf+fa34dff,0,0.77,128616,0,0,0,0,0,0,0,0,0,
breakid_run.sh+rook-46-1-1.cnf+382c2c01,0,0.86,149356,0,0,0,0,0,0,0,0,0,
breakid_run.sh+rook-47-0-1.cnf+978a5fc1,0,0.95,157884,0,0,0,0,0,0,0,0,0,
breakid_run.sh+rook-47-1-1.cnf+cc709b02,0,0.89,160936,0,0,0,0,0,0,0,0,0,
breakid_run.sh+rook-48-0-1.cnf+2bcecec2,0,0.98,165936,0,0,0,0,0,0,0,0,0,
breakid_run.sh+rook-49-1-1.cnf+f4f97904,0,1.09,177448,0,0,0,0,0,0,0,0,0,
breakid_run.sh+rook-50-0-0.cnf+7de6b058,0,1.15,185500,0,0,0,0,0,0,0,0,0,
breakid_run.sh+rook-51-0-0.cnf+122b1f59,0,1.15,198884,0,0,0,0,0,0,0,0,0,
breakid_run.sh+rook-52-0-1.cnf+a67da5db,0,1.36,212312,0,0,0,0,0,0,0,0,0,
breakid_run.sh+rook-54-0-0.cnf+cef86c5c,0,1.49,238716,0,0,0,0,0,0,0,0,0,
breakid_run.sh+rook-54-1-1.cnf+3ecbf1e,0,1.41,235488,0,0,0,0,0,0,0,0,0,
breakid_run.sh+rook-55-0-1.cnf+634af2de,0,1.56,245464,0,0,0,0,0,0,0,0,0,
breakid_run.sh+rook-56-0-0.cnf+f7814a5e,0,1.68,263188,0,0,0,0,0,0,0,0,0,
breakid_run.sh+rook-56-1-1.cnf+2c759d20,0,1.59,249680,0,0,0,0,0,0,0,0,0,
breakid_run.sh+rook-57-1-1.cnf+c0ba0c21,0,1.8,261356,0,0,0,0,0,0,0,0,0,
breakid_run.sh+rook-58-1-1.cnf+54fe7b22,0,1.73,271964,0,0,0,0,0,0,0,0,0,
breakid_run.sh+rook-59-1-1.cnf+e942ea23,0,1.85,307800,0,0,0,0,0,0,0,0,0,
breakid_run.sh+rook-60-0-1.cnf+723e38f8,0,2.05,319900,0,0,0,0,0,0,0,0,0,
breakid_run.sh+rook-61-1-1.cnf+3b68e33a,0,2.05,317328,0,0,0,0,0,0,0,0,0,
breakid_run.sh+rook-63-1-1.cnf+63f1c13c,0,2.49,351212,0,0,0,0,0,0,0,0,0,
breakid_run.sh+rook-65-1-1.cnf+8c7a9f3e,0,2.76,386188,0,0,0,0,0,0,0,0,0,
breakid_run.sh+rook-68-1-1.cnf+4947ec41,0,3.13,438132,0,0,0,0,0,0,0,0,0,
breakid_run.sh+rook-72-1-1.cnf+c3f6c35a,0,3.71,557248,0,0,0,0,0,0,0,0,0,
breakid_run.sh+rook-76-1-1.cnf+15087f5e,0,4.14,604092,0,0,0,0,0,0,0,0,0,
breakid_run.sh+rpoc_xits_15_SAT.cnf+67ad7422,0,0.34,57748,2,2,0,0,0,245,0,245,81,
breakid_run.sh+rpoc_xits_15_SAT.cnf+7dc132a4,0,0.33,57748,2,2,0,0,0,245,0,245,81,
breakid_run.sh+sat-grid-pbl-0200.sat05-1339.reshuffled-07.cnf+146b02a2,0,10.22,53304,20098,5082,0,0,0,90331,0,90331,24351,
breakid_run.sh+sgen1-sat-230-100.cnf+e2a27196,0,0.0,1752,0,0,0,0,0,0,0,0,0,
breakid_run.sh+sgen1-sat-240-100.cnf+d6ebe2b5,0,0.0,1756,0,0,0,0,0,0,0,0,0,
breakid_run.sh+sgen1-sat-250-100.cnf+cb3553d4,0,0.0,1752,0,0,0,0,0,0,0,0,0,
breakid_run.sh+sgen1-sat-270-100.cnf+b3c83612,0,0.0,1752,0,0,0,0,0,0,0,0,0,
breakid_run.sh+sgen3-n200-s39840374-sat.cnf+27894733,0,0.0,1752,0,0,0,0,0,0,0,0,0,
breakid_run.sh+sgen3-n220-s24359701-sat.cnf+7224fb2,0,0.0,1756,0,0,0,0,0,0,0,0,0,
breakid_run.sh+sgen3-n240-s78945233-sat.cnf+83cc26,0,0.0,1752,0,0,0,0,0,0,0,0,0,
breakid_run.sh+sgen4-sat-160-8.cnf+be599cbc,0,0.0,1752,0,0,0,0,0,0,0,0,0,
breakid_run.sh+sgen4-sat-200-8.cnf+e356fe83,0,0.0,1752,0,0,0,0,0,0,0,0,0,
breakid_run.sh+sgen4-sat-220-8.cnf+b3195841,0,0.0,1752,0,0,0,0,0,0,0,0,0,
breakid_run.sh+sgen6-1080-5-1.cnf+3ae1266e,0,0.0,1752,0,0,0,0,0,0,0,0,0,
breakid_run.sh+sgen6-1200-5-1.cnf+c25f02f8,0,0.0,1752,0,0,0,0,0,0,0,0,0,
breakid_run.sh+sgen6-1320-5-1.cnf+3fd697f7,0,0.0,1752,0,0,0,0,0,0,0,0,0,
breakid_run.sh+sgen6-1440-5-1.cnf+bd4e2cf6,0,0.0,1752,0,0,0,0,0,0,0,0,0,
breakid_run.sh+sgen6-840-5-1.cnf+8440804f,0,0.0,1752,0,0,0,0,0,0,0,0,0,
breakid_run.sh+sgen6-960-5-1.cnf+1b8154e,0,0.0,1768,0,0,0,0,0,0,0,0,0,
breakid_run.sh+shift1add.10000.cnf+44993f58,0,0.97,174956,2,1,0,0,0,11,0,11,3,
breakid_run.sh+shift1add.13988.cnf+666c5c3e,0,1.51,244508,2,1,0,0,0,11,0,11,3,
breakid_run.sh+shift1add.15982.cnf+35da28f6,0,1.8,283292,2,1,0,0,0,11,0,11,3,
breakid_run.sh+shift1add.18973.cnf+6bd6ee75,0,2.08,331328,2,1,0,0,0,8,0,8,2,
breakid_run.sh+shift1add.21964.cnf+274c623f,0,2.49,383676,2,1,0,0,0,8,0,8,2,
breakid_run.sh+shift1add.24955.cnf+5d4927be,0,2.83,435436,2,1,0,0,0,11,0,11,3,
breakid_run.sh+shift1add.25952.cnf+c5000e1a,0,2.81,453076,2,1,0,0,0,8,0,8,2,
breakid_run.sh+shift1add.29940.cnf+62b3b9f5,0,3.44,522804,2,1,0,0,0,8,0,8,2,
breakid_run.sh+slp-synthesis-aes-top28.cnf+6ae84a73,0,0.63,105880,0,0,0,0,0,0,0,0,0,
breakid_run.sh+slp-synthesis-aes-top29.cnf+6af661f4,0,0.69,113580,0,0,0,0,0,0,0,0,0,
breakid_run.sh+smtlib-qfbv-aigs-ext_con_032_008_0256-tseitin.cnf+7ae8833a,0,0.26,33588,69,7,0,0,0,5865,0,5865,1932,
breakid_run.sh+smtlib-qfbv-aigs-lfsr_004_127_112-tseitin.cnf+857b25d,0,2.33,356632,1,1,0,0,0,151,0,151,50,
breakid_run.sh+stable-300-0.1-20-98765432130020.cnf+22aae93a,0,0.08,10460,0,0,0,0,0,0,0,0,0,
breakid_run.sh+stable-400-0.1-11-98765432140011.cnf+b9a15c7c,0,0.2,21252,0,0,0,0,0,0,0,0,0,
breakid_run.sh+stable-400-0.1-12-98765432140012.cnf+a1514a5c,0,0.18,21320,0,0,0,0,0,0,0,0,0,
breakid_run.sh+stable-400-0.1-2-9876543214002.cnf+d2fb4f88,0,0.2,21256,0,0,0,0,0,0,0,0,0,
breakid_run.sh+stable-400-0.1-4-9876543214004.cnf+6e6c420c,0,0.18,21108,0,0,0,0,0,0,0,0,0,
breakid_run.sh+stable-400-0.1-5-9876543214005.cnf+3c24bb4e,0,0.19,21052,0,0,0,0,0,0,0,0,0,
breakid_run.sh+stable-400-0.1-7-9876543214007.cnf+d795add2,0,0.19,20980,0,0,0,0,0,0,0,0,0,
breakid_run.sh+total-10-13-u.cnf+e6247194,0,2.5,365684,0,0,0,0,0,0,0,0,0,
breakid_run.sh+toughsat_factoring_155s.cnf+30e27ac5,0,0.01,4176,0,0,0,0,0,0,0,0,0,
breakid_run.sh+toughsat_factoring_426s.cnf+cb88283e,0,0.01,4464,0,0,0,0,0,0,0,0,0,
breakid_run.sh+toughsat_factoring_958s.cnf+750a6b9a,0,0.02,3932,0,0,0,0,0,0,0,0,0,
breakid_run.sh+toughsat_factoring_inf.cnf+bdfa59b8,0,0.03,6212,0,0,0,0,0,0,0,0,0,
breakid_run.sh+tph17.cnf+a27e9bd5,0,1.42,38040,34,1,0,0,0,4674,0,4674,1547,
breakid_run.sh+transport-transport-city-sequential-25nodes-1000size-3degree-100mindistance-3trucks-10packages-2008seed.020-NOTKNOWN.cnf+aa9ce5cf,0,2.85,455948,0,0,0,0,0,0,0,0,0,
breakid_run.sh+transport-transport-city-sequential-25nodes-1000size-3degree-100mindistance-3trucks-10packages-2008seed.030-NOTKNOWN.cnf+4785010,0,4.42,683996,0,0,0,0,0,0,0,0,0,
breakid_run.sh+transport-transport-city-sequential-25nodes-1000size-3degree-100mindistance-3trucks-10packages-2008seed.040-NOTKNOWN.cnf+5e53ba51,0,5.52,925748,0,0,0,0,0,0,0,0,0,
breakid_run.sh+transport-transport-city-sequential-25nodes-1000size-3degree-100mindistance-3trucks-10packages-2008seed.050-NOTKNOWN.cnf+b82f2492,0,7.01,1140012,0,0,0,0,0,0,0,0,0,
breakid_run.sh+transport-transport-city-sequential-35nodes-1000size-4degree-100mindistance-4trucks-14packages-2008seed.040-NOTKNOWN.cnf+e063fcd4,0,14.73,2393744,0,0,0,0,0,0,0,0,0,
breakid_run.sh+velev-vliw-uns-2.0-uq5.cnf+b2936a98,0,5.28,816632,11,11,0,0,0,554,0,554,181,
breakid_run.sh+velev-vliw-uns-4.0-9-i1.cnf+a21cf8d5,0,6.99,1057288,2,2,0,0,0,302,0,302,100,
breakid_run.sh+velev-vliw-uns-4.0-9.cnf+a4a2b03a,0,4.06,597332,2,2,0,0,0,302,0,302,100,
breakid_run.sh+vmpc_29.cnf+c2e6cfe1,0,0.17,31060,0,0,0,0,0,0,0,0,0,
breakid_run.sh+vmpc_32.renamed-as.sat05-1919.cnf+5f170c12,0,0.23,39196,0,0,0,0,0,0,0,0,0,
breakid_run.sh+vmpc_33.cnf+c4471b7a,0,0.26,45544,0,0,0,0,0,0,0,0,0,
breakid_run.sh+x1_40.shuffled.cnf+57218e83,0,0.0,1752,41,1,0,0,0,26,0,26,0,
breakid_run.sh+x1_80.shuffled.cnf+be8f3787,0,0.01,1752,80,1,0,0,0,52,0,52,0,
breakid_run.sh+zfcp-2.8-u2-nh.cnf+81865c9a,0,2651.96,13057448
