Name,OutCode,Time,Mem
breakid_run.sh+001-80-12.cnf+8cd93d9f,0,1.43,179152,0,0,0,0,0,0,0,0,0,
breakid_run.sh+002-23-96.cnf+eda5fff3,0,0.37,49540,63,1,0,0,0,63,0,63,0,
breakid_run.sh+002-80-12.cnf+21bdf060,0,1.47,179152,0,0,0,0,0,0,0,0,0,
breakid_run.sh+002-80-4.cnf+4350660f,0,1.38,177040,0,0,0,0,0,0,0,0,0,
breakid_run.sh+002-80-8.cnf+4388c413,0,1.48,177308,0,0,0,0,0,0,0,0,0,
breakid_run.sh+003-23-80.cnf+80814d0f,0,0.41,49540,63,1,0,0,0,63,0,63,0,
breakid_run.sh+003-80-8.cnf+37d23532,0,1.37,179148,0,0,0,0,0,0,0,0,0,
breakid_run.sh+004-22-144.cnf+97d99c52,0,0.36,47728,63,1,0,0,0,63,0,63,0,
breakid_run.sh+004-22-160.cnf+9b0aef8c,0,0.35,47728,63,1,0,0,0,63,0,63,0,
breakid_run.sh+004-80-8.cnf+2c1ba651,0,1.41,177108,0,0,0,0,0,0,0,0,0,
breakid_run.sh+005-22-160.cnf+a2bc94eb,0,0.38,47728,63,1,0,0,0,63,0,63,0,
breakid_run.sh+005-80-12.cnf+e06c08a3,0,1.45,179152,0,0,0,0,0,0,0,0,0,
breakid_run.sh+006-22-144.cnf+a73ce710,0,0.35,47724,63,1,0,0,0,63,0,63,0,
breakid_run.sh+006-22-160.cnf+aa6e3a4a,0,0.35,47728,63,1,0,0,0,63,0,63,0,
breakid_run.sh+006-23-80.cnf+3f2f6552,0,0.37,50064,63,1,0,0,0,63,0,63,0,
breakid_run.sh+006-23-96.cnf+4138caf7,0,0.37,49540,63,1,0,0,0,63,0,63,0,
breakid_run.sh+006-80-4.cnf+14762a8b,0,1.41,179152,0,0,0,0,0,0,0,0,0,
breakid_run.sh+007-80-12.cnf+a356e25,0,1.38,177108,0,0,0,0,0,0,0,0,0,
breakid_run.sh+007-80-8.cnf+8f7f9ae,0,1.38,177108,0,0,0,0,0,0,0,0,0,
breakid_run.sh+008-80-12.cnf+9f1a20e6,0,1.46,177040,0,0,0,0,0,0,0,0,0,
breakid_run.sh+008-80-4.cnf+fd090cc9,0,1.37,177304,0,0,0,0,0,0,0,0,0,
breakid_run.sh+008-80-8.cnf+fd416acd,0,1.35,177108,0,0,0,0,0,0,0,0,0,
breakid_run.sh+009-23-64.cnf+faac2a5b,0,0.39,49532,63,1,0,0,0,63,0,63,0,
breakid_run.sh+009-80-4.cnf+f1527de8,0,1.43,177040,0,0,0,0,0,0,0,0,0,
breakid_run.sh+009-80-8.cnf+f18adbec,0,1.44,177108,0,0,0,0,0,0,0,0,0,
breakid_run.sh+010-22-144.cnf+67960d57,0,0.35,47728,63,1,0,0,0,63,0,63,0,
breakid_run.sh+010-22-160.cnf+6ac76091,0,0.33,47728,63,1,0,0,0,63,0,63,0,
breakid_run.sh+010-23-80.cnf+c984da2b,0,0.38,49536,63,1,0,0,0,63,0,63,0,
breakid_run.sh+010-80-12.cnf+ffa6303d,0,1.44,179156,0,0,0,0,0,0,0,0,0,
breakid_run.sh+10pipe_q0_k.cnf+92462a62,0,5.67,678796,20,20,0,0,0,21032,0,21032,5253,
breakid_run.sh+11pipe_11_ooo.cnf+bfef1126,0,16.14,1404928,23,1,0,0,0,147735,0,147735,36928,
breakid_run.sh+11pipe_k.cnf+ceff98ef,0,22.43,1870140,25,1,0,0,0,156541,0,156541,39129,
breakid_run.sh+11pipe_q0_k.cnf+7423f401,0,7.56,978968,22,22,0,0,0,30290,0,30290,7567,
breakid_run.sh+12pipe_q0_k.cnf+5601bda0,0,11.08,1372148,24,24,0,0,0,36932,0,36932,9227,
breakid_run.sh+13pipe_q0_k.cnf+37df873f,0,16.15,1869896,26,26,0,0,0,51506,0,51506,12870,
breakid_run.sh+14pipe_q0_k.cnf+19bd50de,0,23.36,2494252,28,28,0,0,0,60780,0,60780,15188,
breakid_run.sh+15pipe_q0_k.cnf+fb9b1a7d,0,29.18,3263020,30,30,0,0,0,70874,0,70874,17711,
breakid_run.sh+289-unsat-6x30.cnf+9b0f4430,0,0.29,11136,30,1,0,0,0,20166,0,20166,5034,
breakid_run.sh+5-SATISFIABLE.cnf+4afa238,0,2.76,347104,1,1,0,0,0,989,0,989,247,
breakid_run.sh+6s10.cnf+5c375591,0,0.36,44376,29,24,0,0,0,63773,0,63773,15936,
breakid_run.sh+6s11-opt.cnf+c9f392f8,0,0.21,38684,22,20,0,0,0,94,0,94,18,
breakid_run.sh+6s12.cnf+5c538493,0,0.36,44456,29,22,0,0,0,64045,0,64045,16004,
breakid_run.sh+6s123.cnf+2e4b43ba,0,19.6,1116460,1505,359,0,0,0,1605029,0,1605029,400881,
breakid_run.sh+6s126-opt.cnf+9f2b22a3,0,5.04,678136,0,0,0,0,0,0,0,0,0,
breakid_run.sh+6s13-opt.cnf+f27c70fa,0,0.3,60744,11,2,0,0,0,15,0,15,1,
breakid_run.sh+6s130-opt.cnf+19d9f9bc,0,0.33,57212,44,2,0,0,0,48,0,48,1,
breakid_run.sh+6s131-opt.cnf+ae1e68bd,0,0.31,57144,44,2,0,0,0,48,0,48,1,
breakid_run.sh+6s133.cnf+30001c59,0,0.45,62144,60,16,0,0,0,91136,0,91136,22769,
breakid_run.sh+6s137.cnf+30387a5d,0,13.45,968604,957,957,0,0,0,1329377,0,1329377,332105,
breakid_run.sh+6s151.cnf+334d9e95,0,0.41,47576,1,1,0,0,0,70857,0,70857,17714,
breakid_run.sh+6s153.cnf+3369cd97,0,2.62,109696,518,34,0,0,0,171734,0,171734,42804,
breakid_run.sh+6s16-opt.cnf+af49bdfd,0,0.17,35860,25,23,0,0,0,105,0,105,20,
breakid_run.sh+6s16.cnf+5c8be297,0,0.32,40232,32,25,0,0,0,58872,0,58872,14710,
breakid_run.sh+6s165-nonopt.cnf+dc19e2f5,0,0.02,4644,20,20,0,0,0,6008,0,6008,1497,
breakid_run.sh+6s167-opt.cnf+4955620,0,0.01,5796,3,1,0,0,0,3,0,3,0,
breakid_run.sh+6s168-opt.cnf+98d9c521,0,0.02,6912,0,0,0,0,0,0,0,0,0,
breakid_run.sh+6s169-opt.cnf+2d1e3422,0,0.04,7520,19,3,0,0,0,67,0,67,12,
breakid_run.sh+6s17-opt.cnf+438e2cfe,0,0.3,55204,14,4,0,0,0,30,0,30,4,
breakid_run.sh+6s184.cnf+38966ef5,0,0.33,43704,26,22,0,0,0,62614,0,62614,15647,
breakid_run.sh+6s9.cnf+2cb47501,0,0.31,44708,32,24,0,0,0,64556,0,64556,16131,
breakid_run.sh+7pipe_k.cnf+c0fb72b6,0,2.56,253724,17,1,0,0,0,41617,0,41617,10400,
breakid_run.sh+8pipe_k.cnf+55e02577,0,4.79,448424,19,1,0,0,0,56311,0,56311,14073,
breakid_run.sh+9dlx_vliw_at_b_iq3.cnf+3621ac2a,0,2.09,331732,11,11,0,0,0,1415,0,1415,351,
breakid_run.sh+9dlx_vliw_at_b_iq4.cnf+362fc3ab,0,3.77,534484,11,11,0,0,0,2511,0,2511,625,
breakid_run.sh+9dlx_vliw_at_b_iq6.used-as.sat04-347.cnf+fea47326,0,8.38,1207864,11,11,0,0,0,2203,0,2203,548,
breakid_run.sh+9dlx_vliw_at_b_iq7.cnf+365a0a2e,0,14.54,2008848,11,11,0,0,0,4619,0,4619,1152,
breakid_run.sh+9dlx_vliw_at_b_iq8.used-as.sat04-718.cnf+61902050,0,16.74,2369008,11,11,0,0,0,4551,0,4551,1135,
breakid_run.sh+9dlx_vliw_at_b_iq9.cnf+36763930,0,23.8,3194688,11,11,0,0,0,4587,0,4587,1144,
breakid_run.sh+9vliw_m_9stages_iq3_C1_bug1.cnf+5fea217a,0,35.48,4343712,2,2,0,0,0,2206,0,2206,551,
breakid_run.sh+9vliw_m_9stages_iq3_C1_bug10.cnf+9d5dfd30,0,33.61,4348760,2,2,0,0,0,2834,0,2834,708,
breakid_run.sh+9vliw_m_9stages_iq3_C1_bug3.cnf+6006507c,0,32.66,4357192,2,2,0,0,0,3858,0,3858,964,
breakid_run.sh+9vliw_m_9stages_iq3_C1_bug4.cnf+601467fd,0,35.22,4334400,2,2,0,0,0,3146,0,3146,786,
breakid_run.sh+9vliw_m_9stages_iq3_C1_bug7.cnf+603eae80,0,34.06,4342956,2,2,0,0,0,3630,0,3630,907,
breakid_run.sh+9vliw_m_9stages_iq3_C1_bug8.cnf+604cc601,0,35.11,4344616,2,2,0,0,0,2602,0,2602,650,
breakid_run.sh+9vliw_m_9stages_iq3_C1_bug9.cnf+605add82,0,31.51,4353656,2,2,0,0,0,3330,0,3330,832,
breakid_run.sh+ACG-15-10p0.cnf+ace0d6e5,0,2.72,400068,0,0,0,0,0,0,0,0,0,
breakid_run.sh+ACG-15-10p1.cnf+aceeee66,0,2.66,403484,0,0,0,0,0,0,0,0,0,
breakid_run.sh+ACG-20-10p1.cnf+7c646b8c,0,3.93,581648,0,0,0,0,0,0,0,0,0,
breakid_run.sh+ACG-20-5p0.cnf+eeb737c3,0,3.29,494948,0,0,0,0,0,0,0,0,0,
breakid_run.sh+ACG-20-5p1.cnf+eec54f44,0,3.61,504540,0,0,0,0,0,0,0,0,0,
breakid_run.sh+AProVE07-01.cnf+1ad14e31,0,0.05,11128,0,0,0,0,0,0,0,0,0,
breakid_run.sh+AProVE07-03.cnf+1aed7d33,0,0.02,4676,0,0,0,0,0,0,0,0,0,
breakid_run.sh+AProVE07-08.cnf+1b33f2b8,0,0.03,6808,0,0,0,0,0,0,0,0,0,
breakid_run.sh+AProVE07-27.cnf+1e8f8c75,0,0.04,11252,2,2,0,0,0,10,0,10,2,
breakid_run.sh+AProVE09-06.cnf+eada1d74,0,1.02,111232,2,1,0,0,0,171594,0,171594,42898,
breakid_run.sh+Chvatal-k5.cnf+d110625f,0,0.11,11980,1008,1,0,0,0,1008,0,1008,0,
breakid_run.sh+Composite-024BitPrimes-1.used-as.sat04-861.cnf+31634ce6,0,0.02,4376,1,1,0,0,0,1,0,1,0,
breakid_run.sh+Composite-024BitPrimes-1.used-as.sat04-861.cnf+cc80ab86,0,0.01,4376,1,1,0,0,0,1,0,1,0,
breakid_run.sh+E02F20.cnf+a5aeabd2,0,1.15,147240,0,0,0,0,0,0,0,0,0,
breakid_run.sh+E02F22.cnf+a5cadad4,0,4.52,507192,0,0,0,0,0,0,0,0,0,
breakid_run.sh+EDP3-10000.cnf+78acfc3d,0,1.97,227028,1,1,0,0,0,70149,0,70149,17537,
breakid_run.sh+EDP3-11000.cnf+e08e291c,0,2.46,250240,1,1,0,0,0,88557,0,88557,22139,
breakid_run.sh+EDP3-12000.cnf+486f55fb,0,2.73,277832,1,1,0,0,0,107209,0,107209,26802,
breakid_run.sh+EDP3-13000.cnf+b05082da,0,2.69,299324,1,1,0,0,0,126013,0,126013,31503,
breakid_run.sh+EDP3-14000.cnf+1831afb9,0,3.34,329872,1,1,0,0,0,144929,0,144929,36232,
breakid_run.sh+EDP3-15000.cnf+8012dc98,0,3.26,355296,1,1,0,0,0,68193,0,68193,17048,
breakid_run.sh+EDP3-16000.cnf+e7f40977,0,3.46,389632,1,1,0,0,0,87061,0,87061,21765,
breakid_run.sh+EDP3-17000.cnf+4fd53656,0,4.07,412644,1,1,0,0,0,106385,0,106385,26596,
breakid_run.sh+EDP3-18000.cnf+b7b66335,0,4.37,439408,1,1,0,0,0,125905,0,125905,31476,
breakid_run.sh+EDP3-19000.cnf+1f979014,0,4.3,466604,1,1,0,0,0,145389,0,145389,36347,
breakid_run.sh+EDP3-20000.cnf+cf16b3e,0,5.08,493536,1,1,0,0,0,165145,0,165145,41286,
breakid_run.sh+EDP3-30000.cnf+a135da3f,0,7.95,783200,1,1,0,0,0,173261,0,173261,43315,
breakid_run.sh+EDP3-40000.cnf+357a4940,0,11.33,1058940,1,1,0,0,0,380229,0,380229,95057,
breakid_run.sh+EDP3-50000.cnf+c9beb841,0,14.12,1373160,1,1,0,0,0,593665,0,593665,148416,
breakid_run.sh+EDP3-60000.cnf+5e032742,0,16.99,1693712,1,1,0,0,0,419701,0,419701,104925,
breakid_run.sh+EDP3-70000.cnf+f2479643,0,22.26,1975824,1,1,0,0,0,636117,0,636117,159029,
breakid_run.sh+EDP3-8000.cnf+eb90c6e6,0,1.67,176772,1,1,0,0,0,33865,0,33865,8466,
breakid_run.sh+EDP3-80000.cnf+868c0544,0,24.16,2283064,1,1,0,0,0,859785,0,859785,214946,
breakid_run.sh+EDP3-9000.cnf+5371f3c5,0,1.86,203064,1,1,0,0,0,51913,0,51913,12978,
breakid_run.sh+EDP3-90000.cnf+1ad07445,0,28.37,2600020,1,1,0,0,0,1086065,0,1086065,271516,
breakid_run.sh+FlowerSnark-k6.cnf+53ccd68b,0,1.19,71996,3000,1,0,0,0,3000,0,3000,0,
breakid_run.sh+GreenTao_2-3-6_2071.cnf+fe690359,0,0.27,50700,0,0,0,0,0,0,0,0,0,
breakid_run.sh+GreenTao_2-4-4_511.cnf+462f8fed,0,0.01,2152,2,2,0,0,0,2,0,2,0,
breakid_run.sh+Hidoku_enu_6.cnf+dfdd7ad1,0,0.02,4996,316,1,0,0,0,316,0,316,0,
breakid_run.sh+Hidoku_enu_7.cnf+dfeb9252,0,0.05,8808,433,1,0,0,0,433,0,433,0,
breakid_run.sh+IBM_FV_2004_rule_batch_1_31_1_SAT_dat.k40.debugged.cnf+33538a31,0,0.49,80924,13,8,0,0,0,29,0,29,4,
breakid_run.sh+LABS_n038_goal002.cnf+d12ebbc3,0,0.12,27000,0,0,0,0,0,0,0,0,0,
breakid_run.sh+LABS_n044_goal003.cnf+f90e82df,0,0.2,40620,2,2,0,0,0,2,0,2,0,
breakid_run.sh+LABS_n045_goal003.cnf+e7918960,0,0.24,43588,2,2,0,0,0,2,0,2,0,
breakid_run.sh+LABS_n051_goal004.cnf+f71507c,0,0.36,61952,2,2,0,0,0,2,0,2,0,
breakid_run.sh+LABS_n052_goal004.cnf+fdf456fd,0,0.38,65500,2,2,0,0,0,2,0,2,0,
breakid_run.sh+LABS_n066_goal005.cnf+99ec5221,0,0.83,130836,2,2,0,0,0,2,0,2,0,
breakid_run.sh+LABS_n078_goal006.cnf+58de4043,0,1.33,216528,6,6,0,0,0,6,0,6,0,
breakid_run.sh+LABS_n081_goal007.cnf+b534f3dc,0,1.85,268376,23,7,0,0,0,23,0,23,0,
breakid_run.sh+LABS_n082_goal007.cnf+a3b7fa5d,0,2.24,295500,313,7,0,0,0,313,0,313,0,
breakid_run.sh+LABS_n088_goal008.cnf+3ad838e4,0,4.44,410672,1765,7,0,0,0,1765,0,1765,0,
breakid_run.sh+MD5-27-4.cnf+a42efdd0,0,0.12,21896,0,0,0,0,0,0,0,0,0,
breakid_run.sh+MD5-28-1.cnf+d8eaf28e,0,0.11,23208,0,0,0,0,0,0,0,0,0,
breakid_run.sh+MD5-28-2.cnf+d8f90a0f,0,0.13,23212,0,0,0,0,0,0,0,0,0,
breakid_run.sh+MD5-28-3.cnf+d9072190,0,0.11,23192,0,0,0,0,0,0,0,0,0,
breakid_run.sh+MD5-28-4.cnf+d9153911,0,0.13,22676,0,0,0,0,0,0,0,0,0,
breakid_run.sh+MD5-28-5.cnf+d9235092,0,0.15,23196,0,0,0,0,0,0,0,0,0,
breakid_run.sh+MD5-29-2.cnf+ddf4550,0,0.14,23916,0,0,0,0,0,0,0,0,0,
breakid_run.sh+MD5-29-3.cnf+ded5cd1,0,0.15,23656,0,0,0,0,0,0,0,0,0,
breakid_run.sh+MD5-29-4.cnf+dfb7452,0,0.14,23652,0,0,0,0,0,0,0,0,0,
breakid_run.sh+MD5-29-5.cnf+e098bd3,0,0.14,23652,0,0,0,0,0,0,0,0,0,
breakid_run.sh+MD5-30-1.cnf+999a4565,0,0.14,24952,0,0,0,0,0,0,0,0,0,
breakid_run.sh+MD5-30-2.cnf+99a85ce6,0,0.16,24680,0,0,0,0,0,0,0,0,0,
breakid_run.sh+MD5-30-4.cnf+99c48be8,0,0.14,24952,0,0,0,0,0,0,0,0,0,
breakid_run.sh+MD5-30-5.cnf+99d2a369,0,0.14,24948,0,0,0,0,0,0,0,0,0,
breakid_run.sh+MD5-31-4.cnf+ceaac729,0,0.15,25672,0,0,0,0,0,0,0,0,0,
breakid_run.sh+MD5-31-5.cnf+ceb8deaa,0,0.14,26204,0,0,0,0,0,0,0,0,0,
breakid_run.sh+MD5-32-1.cnf+366bbe7,0,0.15,26696,0,0,0,0,0,0,0,0,0,
breakid_run.sh+MD5-32-2.cnf+374d368,0,0.16,26692,0,0,0,0,0,0,0,0,0,
breakid_run.sh+MD5-32-3.cnf+382eae9,0,0.14,26960,0,0,0,0,0,0,0,0,0,
breakid_run.sh+MD5-32-4.cnf+391026a,0,0.17,26696,0,0,0,0,0,0,0,0,0,
breakid_run.sh+MD5-32-5.cnf+39f19eb,0,0.14,26704,0,0,0,0,0,0,0,0,0,
breakid_run.sh+Q32inK09.cnf+60e8f1af,0,0.06,4004,7,1,0,0,0,283,0,283,69,
breakid_run.sh+Q32inK10.cnf+621ef6c5,0,0.42,18008,9,1,0,0,0,589,0,589,145,
breakid_run.sh+Q32inK11.cnf+622d0e46,0,2.07,62876,9,1,0,0,0,749,0,749,185,
breakid_run.sh+Q3inK10.cnf+f93ca94d,0,1.12,34900,10,1,0,0,0,566,0,566,139,
breakid_run.sh+Q3inK11.cnf+e5ac3467,0,7.97,124484,11,1,0,0,0,783,0,783,193,
breakid_run.sh+Robertson-k8.cnf+6b107a41,0,1.3,65268,3610,1,0,0,0,3610,0,3610,0,
breakid_run.sh+SAT_dat.k100-24_1_rule_1.cnf+f91cb837,0,426.71,2336172,56396,113,0,0,0,98020,0,98020,10406,
breakid_run.sh+SAT_dat.k100-24_1_rule_2.cnf+f92acfb8,0,425.03,2335968,56396,113,0,0,0,98020,0,98020,10406,
breakid_run.sh+SAT_dat.k100-24_1_rule_3.cnf+f938e739,0,428.58,2336980,56396,113,0,0,0,98020,0,98020,10406,
breakid_run.sh+SAT_dat.k30-30_rule.cnf+120c162e,0,0.78,111196,161,4,0,0,0,289,0,289,32,
breakid_run.sh+SAT_dat.k35-31_2_rule_2.cnf+95ad98b2,0,0.61,82704,457,4,0,0,0,833,0,833,94,
breakid_run.sh+SAT_dat.k70-24_1_rule_1.cnf+58a200e5,0,212.01,1631552,39686,83,0,0,0,69070,0,69070,7346,
breakid_run.sh+SAT_dat.k70-24_1_rule_3.cnf+58be2fe7,0,212.55,1657316,39686,83,0,0,0,69066,0,69066,7345,
breakid_run.sh+SAT_dat.k75-24_1_rule_3.cnf+ec0f85ec,0,242.35,1775292,42471,88,0,0,0,73879,0,73879,7852,
breakid_run.sh+SAT_dat.k80-24_1_rule_1.cnf+1d33e304,0,280.12,1865028,45256,93,0,0,0,78720,0,78720,8366,
breakid_run.sh+SAT_dat.k80-24_1_rule_2.cnf+1d41fa85,0,275.46,1892212,45256,93,0,0,0,78716,0,78716,8365,
breakid_run.sh+SAT_dat.k85-24_1_rule_1.cnf+b0853909,0,309.67,1983472,48041,98,0,0,0,83533,0,83533,8873,
breakid_run.sh+SAT_dat.k85-24_1_rule_2.cnf+b093508a,0,309.61,2012240,48041,98,0,0,0,83529,0,83529,8872,
breakid_run.sh+SAT_dat.k85-24_1_rule_3.cnf+b0a1680b,0,308.9,2012308,48041,98,0,0,0,83529,0,83529,8872,
breakid_run.sh+SAT_dat.k90.debugged.cnf+6b329644,0,346.06,2101812,50826,103,0,0,0,88362,0,88362,9384,
breakid_run.sh+SAT_dat.k95-24_1_rule_1.cnf+75171b28,0,383.65,2253564,53611,108,0,0,0,93183,0,93183,9893,
breakid_run.sh+SAT_dat.k95-24_1_rule_2.cnf+752532a9,0,383.19,2220976,53611,108,0,0,0,93183,0,93183,9893,
breakid_run.sh+SAT_dat.k95-24_1_rule_3.cnf+75334a2a,0,383.5,2255508,53611,108,0,0,0,93183,0,93183,9893,
breakid_run.sh+SAT_instance_N=111.cnf+dedc4748,0,0.79,127712,0,0,0,0,0,0,0,0,0,
breakid_run.sh+SAT_instance_N=31.cnf+2577141,0,0.04,10588,0,0,0,0,0,0,0,0,0,
breakid_run.sh+SAT_instance_N=33.cnf+273a043,0,0.04,11668,0,0,0,0,0,0,0,0,0,
breakid_run.sh+SAT_instance_N=43.cnf+42878e2,0,0.1,19556,0,0,0,0,0,0,0,0,0,
breakid_run.sh+SAT_instance_N=49.cnf+47d05e8,0,0.13,25324,0,0,0,0,0,0,0,0,0,
breakid_run.sh+SAT_instance_N=55.cnf+5f98083,0,0.17,31588,0,0,0,0,0,0,0,0,0,
breakid_run.sh+SAT_instance_N=63.cnf+7922a20,0,0.2,41096,0,0,0,0,0,0,0,0,0,
breakid_run.sh+SAT_instance_N=69.cnf+7e6b726,0,0.26,49364,0,0,0,0,0,0,0,0,0,
breakid_run.sh+SAT_instance_N=72.cnf+938eb3e,0,0.29,52588,0,0,0,0,0,0,0,0,0,
breakid_run.sh+SAT_instance_N=75.cnf+96331c1,0,0.37,58596,0,0,0,0,0,0,0,0,0,
breakid_run.sh+SAT_instance_N=77.cnf+97f60c3,0,0.33,61348,0,0,0,0,0,0,0,0,0,
breakid_run.sh+SAT_instance_N=85.cnf+b180a60,0,0.45,74688,0,0,0,0,0,0,0,0,0,
breakid_run.sh+SAT_instance_N=93.cnf+cb0b3fd,0,0.49,89056,0,0,0,0,0,0,0,0,0,
breakid_run.sh+SAT_instance_N=99.cnf+d054103,0,0.59,101352,0,0,0,0,0,0,0,0,0,
breakid_run.sh+UCG-15-10p0.cnf+b20523f9,0,2.3,346360,0,0,0,0,0,0,0,0,0,
breakid_run.sh+UCG-15-10p1.cnf+b2133b7a,0,2.42,349668,0,0,0,0,0,0,0,0,0,
breakid_run.sh+UCG-20-10p0.cnf+817aa11f,0,3.14,463900,0,0,0,0,0,0,0,0,0,
breakid_run.sh+UCG-20-10p1.cnf+8188b8a0,0,3.34,469092,0,0,0,0,0,0,0,0,0,
breakid_run.sh+UCG-20-5p0.cnf+940af82f,0,2.67,403020,0,0,0,0,0,0,0,0,0,
breakid_run.sh+UCG-20-5p1.cnf+94190fb0,0,2.73,400976,0,0,0,0,0,0,0,0,0,
breakid_run.sh+UR-15-10p0.cnf+d054eaad,0,2.27,340860,0,0,0,0,0,0,0,0,0,
breakid_run.sh+UR-15-10p1.cnf+d063022e,0,2.53,345824,0,0,0,0,0,0,0,0,0,
breakid_run.sh+UR-20-10p0.cnf+9fca67d3,0,3.42,464504,0,0,0,0,0,0,0,0,0,
breakid_run.sh+UR-20-10p1.cnf+9fd87f54,0,3.39,469372,0,0,0,0,0,0,0,0,0,
breakid_run.sh+UR-20-5p0.cnf+b60d8afb,0,2.98,402440,0,0,0,0,0,0,0,0,0,
breakid_run.sh+UTI-20-10p0.cnf+5e3b11b0,0,3.19,465320,0,0,0,0,0,0,0,0,0,
breakid_run.sh+UTI-20-10p1.cnf+5e492931,0,3.17,477412,0,0,0,0,0,0,0,0,0,
breakid_run.sh+UTI-20-5p1.cnf+7a2fc8ff,0,2.88,402328,0,0,0,0,0,0,0,0,0,
breakid_run.sh+Urq3_5.cnf+9f24d42b,0,0.0,1720,29,1,0,0,0,20,0,20,0,
breakid_run.sh+Urq4_5.cnf+d40b0f6c,0,0.0,1720,43,1,0,0,0,26,0,26,0,
breakid_run.sh+Urq5_5.cnf+8f14aad,0,0.02,1720,72,1,0,0,0,37,0,37,0,
breakid_run.sh+Urq6_5.cnf+3dd785ee,0,0.05,1840,109,1,0,0,0,54,0,54,0,
breakid_run.sh+Urq7_5.cnf+72bdc12f,0,0.09,2632,143,1,0,0,0,58,0,58,0,
breakid_run.sh+Urq8_5.cnf+a7a3fc70,0,0.19,3952,200,1,0,0,0,80,0,80,0,
breakid_run.sh+VanDerWaerden_pd_2-3-20_388.cnf+3149ca3e,0,0.03,7580,0,0,0,0,0,0,0,0,0,
breakid_run.sh+aaai10-planning-ipc5-TPP-21-step11.cnf+d9a43d0c,0,1.49,268320,2,2,0,0,0,2,0,2,0,
breakid_run.sh+aaai10-planning-ipc5-TPP-30-step11.cnf+c0759e2e,0,5.86,966060,12,12,0,0,0,12,0,12,0,
breakid_run.sh+aaai10-planning-ipc5-pathways-13-step17.cnf+791661c8,0,0.28,50904,0,0,0,0,0,0,0,0,0,
breakid_run.sh+aaai10-planning-ipc5-pathways-17-step20.cnf+992f2b5c,0,0.56,99152,0,0,0,0,0,0,0,0,0,
breakid_run.sh+aaai10-planning-ipc5-pathways-17-step21.cnf+993d42dd,0,0.65,108348,0,0,0,0,0,0,0,0,0,
breakid_run.sh+aes_24_4_keyfind_4.cnf+d2a5cc2a,0,0.01,2796,0,0,0,0,0,0,0,0,0,
breakid_run.sh+aes_24_4_keyfind_5.cnf+d2b3e3ab,0,0.01,2796,0,0,0,0,0,0,0,0,0,
breakid_run.sh+aes_32_2_keyfind_1.cnf+4202d742,0,0.01,2428,0,0,0,0,0,0,0,0,0,
breakid_run.sh+aes_32_2_keyfind_3.cnf+421f0644,0,0.0,2424,0,0,0,0,0,0,0,0,0,
breakid_run.sh+aes_32_3_keyfind_1.cnf+9bde4183,0,0.0,1720,0,0,0,0,0,0,0,0,0,
breakid_run.sh+aes_64_1_keyfind_1.cnf+b74ef562,0,0.0,1720,0,0,0,0,0,0,0,0,0,
breakid_run.sh+aes_64_1_keyfind_1.cnf+d730cf60,0,0.0,1720,0,0,0,0,0,0,0,0,0,
breakid_run.sh+atco_enc1_opt1_03_56.cnf+11a8fcb9,0,0.64,100532,46,46,0,0,0,46,0,46,0,
breakid_run.sh+atco_enc1_opt1_04_32.cnf+75e81a56,0,1.42,206464,30,30,0,0,0,30,0,30,0,
breakid_run.sh+atco_enc1_opt1_05_21.cnf+dc065715,0,1.42,197860,17,17,0,0,0,17,0,17,0,
breakid_run.sh+atco_enc1_opt1_10_15.cnf+67686b20,0,0.63,96536,35,34,0,0,0,19467,0,19467,4858,
breakid_run.sh+atco_enc1_opt1_10_21.cnf+68e4e5bb,0,0.72,99616,35,34,0,0,0,19479,0,19479,4861,
breakid_run.sh+atco_enc1_opt1_15_240.cnf+9e3075f1,0,1.66,226476,35,35,0,0,0,24539,0,24539,6126,
breakid_run.sh+atco_enc1_opt1_18_18.cnf+a69c189b,0,1.62,224684,3,3,0,0,0,23139,0,23139,5784,
breakid_run.sh+atco_enc1_opt2_05_4.cnf+c9f1a2b7,0,0.93,130732,33,18,0,0,0,97,0,97,16,
breakid_run.sh+atco_enc1_opt2_10_12.cnf+fc22d75e,0,0.34,52204,41,38,0,0,0,3617,0,3617,894,
breakid_run.sh+atco_enc1_opt2_10_14.cnf+fc3f0660,0,0.39,52856,41,38,0,0,0,3617,0,3617,894,
breakid_run.sh+atco_enc1_opt2_10_15.cnf+fc4d1de1,0,0.36,52932,41,38,0,0,0,3617,0,3617,894,
breakid_run.sh+atco_enc1_opt2_10_16.cnf+fc5b3562,0,0.37,53776,41,38,0,0,0,3617,0,3617,894,
breakid_run.sh+atco_enc1_opt2_20_12.cnf+9067465f,0,18.62,2177124,11,6,0,0,0,202267,0,202267,50564,
breakid_run.sh+atco_enc2_opt1_05_21.cnf+bd9834f4,0,1.24,187072,17,17,0,0,0,17,0,17,0,
breakid_run.sh+atco_enc2_opt1_10_21.cnf+4a76c39a,0,0.62,89900,35,34,0,0,0,19355,0,19355,4830,
breakid_run.sh+atco_enc2_opt1_15_100.cnf+b320b635,0,1.53,212808,35,35,0,0,0,24415,0,24415,6095,
breakid_run.sh+atco_enc2_opt1_20_11.cnf+dd0659fc,0,31.21,3278248,8,5,0,0,0,367472,0,367472,91866,
breakid_run.sh+atco_enc2_opt2_05_4.cnf+23cd0cf8,0,0.93,130796,34,18,0,0,0,102,0,102,17,
breakid_run.sh+atco_enc2_opt2_05_9.cnf+2413827d,0,0.9,132084,34,18,0,0,0,102,0,102,17,
breakid_run.sh+atco_enc2_opt2_10_21.cnf+df5b765b,0,0.4,56140,43,35,0,0,0,3651,0,3651,902,
breakid_run.sh+atco_enc2_opt2_20_11.cnf+71eb0cbd,0,21.38,2144684,13,6,0,0,0,294852,0,294852,73710,
breakid_run.sh+atco_enc3_opt1_03_53.cnf+d4a271f4,0,14.08,1893208,1,1,0,0,0,1,0,1,0,
breakid_run.sh+atco_enc3_opt1_04_50.cnf+3c595850,0,17.74,2356820,1,1,0,0,0,1,0,1,0,
breakid_run.sh+atco_enc3_opt1_13_48.cnf+67787ddb,0,20.88,2405620,2,2,0,0,0,649498,0,649498,162374,
breakid_run.sh+atco_enc3_opt2_05_21.cnf+340ec594,0,17.04,2155612,1,1,0,0,0,1,0,1,0,
breakid_run.sh+atco_enc3_opt2_10_12.cnf+bf46931c,0,13.4,1809012,1,1,0,0,0,1,0,1,0,
breakid_run.sh+atco_enc3_opt2_10_14.cnf+bf62c21e,0,12.82,1814668,1,1,0,0,0,1,0,1,0,
breakid_run.sh+atco_enc3_opt2_18_44.cnf+38ab2f3,0,14.75,1927652,1,1,0,0,0,1,0,1,0,
breakid_run.sh+beempgsol2b1.cnf+975dea48,0,0.39,35180,51,1,0,0,0,72975,0,72975,18233,
breakid_run.sh+beempgsol5b1.cnf+36109c0b,0,0.41,36788,51,1,0,0,0,88211,0,88211,22043,
breakid_run.sh+bjrb07amba10andenv.cnf+f9c89734,0,2.41,255992,13,8,0,0,0,392197,0,392197,98046,
breakid_run.sh+blocks-blocks-36-0.120-NOTKNOWN.cnf+a7ed3cdb,0,16.49,2825376,0,0,0,0,0,0,0,0,0,
breakid_run.sh+blocks-blocks-36-0.130-NOTKNOWN.cnf+1c8a71c,0,19.34,3060576,0,0,0,0,0,0,0,0,0,
breakid_run.sh+blocks-blocks-37-1.130-NOTKNOWN.cnf+adfc5f9a,0,20.57,3285072,0,0,0,0,0,0,0,0,0,
breakid_run.sh+bob12m02-opt.cnf+107655f4,0,0.14,31008,20,20,0,0,0,2396,0,2396,594,
breakid_run.sh+bob12m02.cnf+b7b90e0e,0,0.26,34484,21,21,0,0,0,51145,0,51145,12781,
breakid_run.sh+bob12m04.cnf+b7d53d10,0,119.16,730412,18251,18251,0,0,0,848767,0,848767,207629,
breakid_run.sh+bob12m09-opt.cnf+1e555efb,0,0.34,60248,4,4,0,0,0,20,0,20,4,
breakid_run.sh+bob12s02.cnf+f51e7194,0,0.29,34468,4,4,0,0,0,51196,0,51196,12798,
breakid_run.sh+bob12s09-opt.cnf+9bb18f81,0,0.35,60240,4,4,0,0,0,20,0,20,4,
breakid_run.sh+bvadd_17322.cnf+27d0f11e,0,4.28,604036,0,0,0,0,0,0,0,0,0,
breakid_run.sh+bvadd_27079.cnf+264d8dfe,0,6.55,945444,0,0,0,0,0,0,0,0,0,
breakid_run.sh+bvadd_27966.cnf+868425,0,7.3,978844,0,0,0,0,0,0,0,0,0,
breakid_run.sh+bvadd_29740.cnf+62be291d,0,7.91,1035664,0,0,0,0,0,0,0,0,0,
breakid_run.sh+bvashr_0710.cnf+af2b6f78,0,3.44,490368,0,0,0,0,0,0,0,0,0,
breakid_run.sh+bvslt_13916.cnf+1543f2a7,0,6.22,854620,0,0,0,0,0,0,0,0,0,
breakid_run.sh+bvslt_19860.cnf+57d872b5,0,11.24,1626752,0,0,0,0,0,0,0,0,0,
breakid_run.sh+bvsub_06991.cnf+932d987b,0,2.64,401076,0,0,0,0,0,0,0,0,0,
breakid_run.sh+bvult_16967.cnf+3283d8e2,0,12.0,1602488,0,0,0,0,0,0,0,0,0,
breakid_run.sh+c10bi_i.cnf+5c26e7d8,0,0.97,159168,3,3,0,0,0,40407,0,40407,10101,
breakid_run.sh+ccp-s10-facto1.cnf+fa42f99d,0,0.01,2704,28,2,0,0,0,4024,0,4024,999,
breakid_run.sh+ccp-s10-facto2.cnf+fa51111e,0,0.18,9044,48,2,0,0,0,21709,0,21709,5416,
breakid_run.sh+ccp-s10-facto3.cnf+fa5f289f,0,0.65,22260,68,2,0,0,0,61999,0,61999,15485,
breakid_run.sh+ccp-s10-facto4.cnf+fa6d4020,0,1.81,44940,88,2,0,0,0,133681,0,133681,33402,
breakid_run.sh+ccp-s5-facto2.cnf+99b1e560,0,0.0,1720,23,2,0,0,0,2650,0,2650,657,
breakid_run.sh+ccp-s5-facto3.cnf+99bffce1,0,0.02,2768,33,2,0,0,0,6986,0,6986,1739,
breakid_run.sh+ccp-s5-facto4.cnf+99ce1462,0,0.05,4648,43,2,0,0,0,14684,0,14684,3661,
breakid_run.sh+ccp-s6-facto2.cnf+a1638abf,0,0.01,2184,28,2,0,0,0,4569,0,4569,1136,
breakid_run.sh+ccp-s6-facto3.cnf+a171a240,0,0.04,4500,40,2,0,0,0,13315,0,13315,3321,
breakid_run.sh+ccp-s6-facto4.cnf+a17fb9c1,0,0.11,8636,52,2,0,0,0,27795,0,27795,6938,
breakid_run.sh+ccp-s7-facto2.cnf+a915301e,0,0.03,3040,32,2,0,0,0,6676,0,6676,1661,
breakid_run.sh+ccp-s7-facto3.cnf+a923479f,0,0.1,7364,47,2,0,0,0,21339,0,21339,5324,
breakid_run.sh+ccp-s7-facto4.cnf+a9315f20,0,0.26,13820,61,2,0,0,0,43261,0,43261,10801,
breakid_run.sh+ccp-s8-facto1.cnf+b0b8bdfc,0,0.01,1720,22,2,0,0,0,2670,0,2670,662,
breakid_run.sh+ccp-s8-facto2.cnf+b0c6d57d,0,0.05,4300,38,2,0,0,0,10542,0,10542,2626,
breakid_run.sh+ccp-s8-facto3.cnf+b0d4ecfe,0,0.2,10424,54,2,0,0,0,29360,0,29360,7328,
breakid_run.sh+ccp-s8-facto4.cnf+b0e3047f,0,0.51,21292,70,2,0,0,0,65210,0,65210,16288,
breakid_run.sh+ccp-s9-facto1.cnf+b86a635b,0,0.01,1836,24,2,0,0,0,2520,0,2520,624,
breakid_run.sh+ccp-s9-facto2.cnf+b8787adc,0,0.09,6184,42,2,0,0,0,14864,0,14864,3707,
breakid_run.sh+ccp-s9-facto3.cnf+b886925d,0,0.31,14868,60,2,0,0,0,39906,0,39906,9963,
breakid_run.sh+ccp-s9-facto4.cnf+b894a9de,0,0.78,29528,78,2,0,0,0,88474,0,88474,22100,
breakid_run.sh+chnl10_11.cnf+50740548,0,0.0,1720,22,1,0,0,0,2774,0,2774,688,
breakid_run.sh+chnl10_12.cnf+50821cc9,0,0.0,1724,22,1,0,0,0,2998,0,2998,744,
breakid_run.sh+chnl10_13.cnf+5090344a,0,0.01,1720,24,1,0,0,0,3464,0,3464,860,
breakid_run.sh+chnl11_12.cnf+b86349a8,0,0.01,1720,24,1,0,0,0,3320,0,3320,824,
breakid_run.sh+chnl11_13.cnf+b8716129,0,0.01,1840,24,1,0,0,0,3880,0,3880,964,
breakid_run.sh+chnl11_20.cnf+b9fbf345,0,0.03,3160,38,1,0,0,0,8314,0,8314,2069,
breakid_run.sh+complete-300-0.1-18-98765432130018.cnf+935a6d98,0,0.1,12864,0,0,0,0,0,0,0,0,0,
breakid_run.sh+complete-300-0.1-4-9876543213004.cnf+9b36af6a,0,0.11,13124,0,0,0,0,0,0,0,0,0,
breakid_run.sh+complete-300-0.1-7-9876543213007.cnf+4601b30,0,0.11,13036,0,0,0,0,0,0,0,0,0,
breakid_run.sh+complete-300-0.1-8-9876543213008.cnf+d2189472,0,0.1,12928,0,0,0,0,0,0,0,0,0,
breakid_run.sh+complete-400-0.1-12-98765432140012.cnf+e2cf2dda,0,0.24,25992,0,0,0,0,0,0,0,0,0,
breakid_run.sh+complete-400-0.1-16-98765432140016.cnf+818ee55a,0,0.22,25672,0,0,0,0,0,0,0,0,0,
breakid_run.sh+complete-400-0.1-3-9876543214003.cnf+6eb073c8,0,0.24,25800,0,0,0,0,0,0,0,0,0,
breakid_run.sh+complete-400-0.1-7-9876543214007.cnf+a59258d0,0,0.24,25808,0,0,0,0,0,0,0,0,0,
breakid_run.sh+complete-500-0.1-1-9876543215001.cnf+7471bee4,0,0.42,43680,0,0,0,0,0,0,0,0,0,
breakid_run.sh+complete-500-0.1-15-98765432150015.cnf+57734afc,0,0.42,44692,0,0,0,0,0,0,0,0,0,
breakid_run.sh+complete-500-0.1-17-98765432150017.cnf+26d326bc,0,0.44,45376,0,0,0,0,0,0,0,0,0,
breakid_run.sh+complete-500-0.1-7-9876543215007.cnf+46c49670,0,0.42,44708,0,0,0,0,0,0,0,0,0,
breakid_run.sh+complete-500-0.1-8-9876543215008.cnf+147d0fb2,0,0.42,44700,0,0,0,0,0,0,0,0,0,
breakid_run.sh+connm-ue-csp-sat-n1200-d0.02-s1099787414.sat05-542.reshuffled-07.cnf+b7f60609,0,54.05,5360,0,0,0,0,0,0,0,0,0,
breakid_run.sh+contest02-ezfact64_10.sat05-449.reshuffled-07.cnf+e2571fc,0,0.03,7656,0,0,0,0,0,0,0,0,0,
breakid_run.sh+countbitssrl032.cnf+57937efc,0,0.12,21988,0,0,0,0,0,0,0,0,0,
breakid_run.sh+crafted_n10_d6_c2_num13.cnf+3ebdcaf6,0,144.69,979040,42,1,0,0,0,1603128,0,1603128,400782,
breakid_run.sh+crafted_n10_d6_c2_num16.cnf+3ee81179,0,136.54,975900,42,1,0,0,0,1545347,0,1545347,386334,
breakid_run.sh+crafted_n10_d6_c2_num17.cnf+3ef628fa,0,135.0,973032,42,1,0,0,0,1514203,0,1514203,378550,
breakid_run.sh+crafted_n10_d6_c2_num2.cnf+44233d58,0,122.17,978996,41,1,0,0,0,1615170,0,1615170,403791,
breakid_run.sh+crafted_n10_d6_c2_num4.cnf+443f6c5a,0,156.3,985564,43,1,0,0,0,1759631,0,1759631,439907,
breakid_run.sh+crafted_n10_d6_c2_num5.cnf+444d83db,0,148.1,979324,43,1,0,0,0,1701154,0,1701154,425293,
breakid_run.sh+crafted_n10_d6_c2_num6.cnf+445b9b5c,0,134.12,971128,42,1,0,0,0,1489533,0,1489533,372382,
breakid_run.sh+crafted_n10_d6_c2_num9.cnf+4485e1df,0,1520.55,1001064,42,1,0,0,0,1675051,0,1675051,418766,
breakid_run.sh+crafted_n10_d6_c3_num1.cnf+385e96f6,0,341.77,2082188,41,1,0,0,0,2313914,0,2313914,578475,
breakid_run.sh+crafted_n10_d6_c3_num18.cnf+d3e8f33c,0,542.9,2179396,44,1,0,0,0,2364847,0,2364847,591212,
breakid_run.sh+crafted_n10_d6_c3_num5.cnf+3896f4fa,0,470.62,2180216,42,1,0,0,0,2251382,0,2251382,562846,
breakid_run.sh+crafted_n10_d6_c4_num3.cnf+2cc43717,0,3700.89,3393352
breakid_run.sh+crafted_n10_d6_c4_num8.cnf+2d0aac9c,0,633.04,3527264,42,1,0,0,0,2851000,0,2851000,712750,
breakid_run.sh+crafted_n10_d6_c4_num9.cnf+2d18c41d,0,592.0,3524132,42,1,0,0,0,2723951,0,2723951,680990,
breakid_run.sh+crafted_n11_d6_c3_num17.cnf+2484b9bc,0,449.74,2276928,46,1,0,0,0,2573573,0,2573573,643394,
breakid_run.sh+crafted_n11_d6_c4_num1.cnf+e39e5f4,0,739.2,4028724,46,1,0,0,0,3470089,0,3470089,867522,
breakid_run.sh+crafted_n11_d6_c4_num18.cnf+b97783fe,0,810.23,4025124,46,1,0,0,0,3398576,0,3398576,849642,
breakid_run.sh+crafted_n11_d6_c4_num19.cnf+b9859b7f,0,1027.58,4171640,46,1,0,0,0,3568081,0,3568081,892018,
breakid_run.sh+crafted_n11_d6_c4_num21.cnf+bac9b816,0,1184.79,4180776,46,1,0,0,0,3705537,0,3705537,926386,
breakid_run.sh+crafted_n12_d5_c4_num6.cnf+18f32d7,0,3701.35,901688
breakid_run.sh+crafted_n12_d6_c3_num10.cnf+74cbf336,0,2324.79,2809536,50,1,0,0,0,3382284,0,3382284,845574,
breakid_run.sh+crafted_n12_d6_c3_num16.cnf+7520803c,0,595.73,2786932,50,1,0,0,0,3468956,0,3468956,867238,
breakid_run.sh+crafted_n12_d6_c4_num11.cnf+9bebd78,0,2331.32,5201892,50,1,0,0,0,4613751,0,4613751,1153438,
breakid_run.sh+crafted_n12_d6_c4_num18.cnf+a2161ff,0,1837.29,5199964,50,1,0,0,0,4842737,0,4842737,1210686,
breakid_run.sh+crafted_n12_d6_c4_num20.cnf+b657e96,0,1237.08,5017572,50,1,0,0,0,4381745,0,4381745,1095438,
breakid_run.sh+crafted_n12_d6_c4_num22.cnf+b81ad98,0,3699.11,4895260
breakid_run.sh+crafted_n12_d6_c4_num23.cnf+b8fc519,0,1057.63,5034368,50,1,0,0,0,4598483,0,4598483,1149622,
breakid_run.sh+crafted_n12_d6_c4_num4.cnf+eff60a56,0,1017.98,5020680,50,1,0,0,0,4333428,0,4333428,1083358,
breakid_run.sh+crafted_n12_d6_c4_num6.cnf+f0123958,0,1158.73,5028796,50,1,0,0,0,4540460,0,4540460,1135118,
breakid_run.sh+crafted_n12_d6_c4_num9.cnf+f03c7fdb,0,3480.35,5060248,52,1,0,0,0,4939515,0,4939515,1234880,
breakid_run.sh+crn_20_361_s.cnf+2cd27318,0,0.03,7196,0,0,0,0,0,0,0,0,0,
breakid_run.sh+ctl_3082_415_unsat_pre.cnf+83efee1d,0,0.18,33976,0,0,0,0,0,0,0,0,0,
breakid_run.sh+ctl_3791_556_unsat_pre.cnf+6e2b83fe,0,0.23,32296,20,11,0,0,0,13268,0,13268,3312,
breakid_run.sh+ctl_4291_567_5_unsat_pre.cnf+66c8a62e,0,0.27,47216,1,1,0,0,0,949,0,949,237,
breakid_run.sh+dated-10-11-u.cnf+2f1eeb44,0,1.5,226492,0,0,0,0,0,0,0,0,0,
breakid_run.sh+dated-10-13-u.cnf+98eb61c6,0,2.08,293972,0,0,0,0,0,0,0,0,0,
breakid_run.sh+dated-10-17-u.cnf+6c844eca,0,2.73,383544,0,0,0,0,0,0,0,0,0,
breakid_run.sh+dated-5-13-u.cnf+2cb69e8e,0,1.57,224732,0,0,0,0,0,0,0,0,0,
breakid_run.sh+dimacs.cnf+1a4b4a3e,0,0.01,4144,0,0,0,0,0,0,0,0,0,
breakid_run.sh+edges-024-4-10183999-1-00.cnf+f7369bd5,0,0.0,1736,0,0,0,0,0,0,0,0,0,
breakid_run.sh+edges-024-4-1208111-1-00.cnf+fbba57a3,0,0.0,1724,0,0,0,0,0,0,0,0,0,
breakid_run.sh+edges-024-4-5613555-1-00.cnf+663d4639,0,0.0,1720,0,0,0,0,0,0,0,0,0,
breakid_run.sh+edges-024-4-5667555-1-00.cnf+899e5058,0,0.0,1720,0,0,0,0,0,0,0,0,0,
breakid_run.sh+edges-024-4-7787777-1-00.cnf+8c189c13,0,0.0,1736,0,0,0,0,0,0,0,0,0,
breakid_run.sh+edges-024-4-7880777-1-00.cnf+605ed8cd,0,0.0,1720,0,0,0,0,0,0,0,0,0,
breakid_run.sh+edges-025-4-10062999-1-00.cnf+f7b58d56,0,0.0,1736,0,0,0,0,0,0,0,0,0,
breakid_run.sh+edges-025-4-10106999-1-00.cnf+c06a57e1,0,0.0,1720,0,0,0,0,0,0,0,0,0,
breakid_run.sh+edges-025-4-10169999-1-00.cnf+d726251e,0,0.0,1736,0,0,0,0,0,0,0,0,0,
breakid_run.sh+edges-025-4-1237111-1-00.cnf+9a72845e,0,0.0,1736,0,0,0,0,0,0,0,0,0,
breakid_run.sh+edges-025-4-3369333-1-00.cnf+5bd0a6ba,0,0.0,1740,0,0,0,0,0,0,0,0,0,
breakid_run.sh+edges-025-4-5714555-1-00.cnf+963d8d5a,0,0.0,1740,0,0,0,0,0,0,0,0,0,
breakid_run.sh+edges-025-4-7780777-1-00.cnf+ee2544eb,0,0.0,1720,0,0,0,0,0,0,0,0,0,
breakid_run.sh+edges-025-4-7932777-1-00.cnf+158d3654,0,0.0,1720,0,0,0,0,0,0,0,0,0,
breakid_run.sh+edges-025-4-7957777-1-00.cnf+81d7ea17,0,0.0,1720,0,0,0,0,0,0,0,0,0,
breakid_run.sh+edges-070-3-10037999-34.cnf+3606fa18,0,0.0,1716,3,1,0,0,0,3,0,3,0,
breakid_run.sh+edges-070-3-10062999-36.cnf+64c09b72,0,0.0,1720,3,1,0,0,0,3,0,3,0,
breakid_run.sh+edges-070-3-10122999-15.cnf+310543b8,0,0.0,1720,3,1,0,0,0,3,0,3,0,
breakid_run.sh+edges-070-3-1226111-26.cnf+8f51baf1,0,0.0,1720,3,1,0,0,0,3,0,3,0,
breakid_run.sh+edges-070-3-1250111-33.cnf+2a950ca4,0,0.0,1720,3,1,0,0,0,3,0,3,0,
breakid_run.sh+edges-070-3-3470333-15.cnf+b84a8f64,0,0.0,1720,3,1,0,0,0,3,0,3,0,
breakid_run.sh+edges-070-3-7857777-1.cnf+8200f146,0,0.0,1724,3,1,0,0,0,3,0,3,0,
breakid_run.sh+edges-072-3-1124111-35.cnf+1cfd44a,0,0.0,1724,3,1,0,0,0,3,0,3,0,
breakid_run.sh+edges-072-3-1131111-37.cnf+4aef9068,0,0.0,1720,3,1,0,0,0,3,0,3,0,
breakid_run.sh+edges-072-3-1161111-15.cnf+5e7ea045,0,0.0,1716,3,1,0,0,0,3,0,3,0,
breakid_run.sh+edges-072-3-5729555-15.cnf+c723224f,0,0.0,1720,3,1,0,0,0,3,0,3,0,
breakid_run.sh+edges-072-3-5749555-14.cnf+d678558c,0,0.0,1720,3,1,0,0,0,3,0,3,0,
breakid_run.sh+edges-072-3-7902777-18.cnf+2748f50b,0,0.0,1720,3,1,0,0,0,3,0,3,0,
breakid_run.sh+edges-072-3-7923777-13.cnf+cb4a7d05,0,0.0,1720,3,1,0,0,0,3,0,3,0,
breakid_run.sh+edges-072-3-7925777-19.cnf+f5686f8d,0,0.0,1720,3,1,0,0,0,3,0,3,0,
breakid_run.sh+em_14_7_3_cmp.cnf+87563ad0,0,1.91,115588,130,1,0,0,0,253084,0,253084,63243,
breakid_run.sh+em_7_3_6_cmp.cnf+93ac12a9,0,0.03,4828,10,1,0,0,0,4930,0,4930,1230,
breakid_run.sh+em_7_4_8_cmp.cnf+5119a36c,0,0.03,5548,1,1,0,0,0,4773,0,4773,1193,
breakid_run.sh+em_7_4_8_fbc.cnf+dc4fd4cd,0,0.05,9240,1,1,0,0,0,4773,0,4773,1193,
breakid_run.sh+em_7_4_9_all.cnf+79a46548,0,0.07,13888,2,1,0,0,0,5030,0,5030,1257,
breakid_run.sh+em_7_4_9_fbc.cnf+709443ce,0,0.05,10080,2,1,0,0,0,5030,0,5030,1257,
breakid_run.sh+esawn_uw3.debugged.cnf+c6f5f75a,0,89.77,14359048
breakid_run.sh+ezfact64_3.sat05-450.reshuffled-07.cnf+8f367131,0,0.03,7716,0,0,0,0,0,0,0,0,0,
breakid_run.sh+ezfact64_4.sat05-451.reshuffled-07.cnf+8630b773,0,0.04,7720,0,0,0,0,0,0,0,0,0,
breakid_run.sh+ezfact64_5.sat05-452.reshuffled-07.cnf+7d2afdb5,0,0.04,7716,0,0,0,0,0,0,0,0,0,
breakid_run.sh+fpga10_11_uns_rcr.cnf+4c9ddd85,0,0.01,1720,22,1,0,0,0,3090,0,3090,767,
breakid_run.sh+fpga10_12_uns_rcr.cnf+3b20e406,0,0.01,1720,22,1,0,0,0,3422,0,3422,850,
breakid_run.sh+fpga10_13_uns_rcr.cnf+29a3ea87,0,0.01,1720,24,1,0,0,0,3763,0,3763,935,
breakid_run.sh+fpga10_15_uns_rcr.cnf+6a9f789,0,0.01,2164,28,1,0,0,0,4940,0,4940,1228,
breakid_run.sh+fpga10_20_uns_rcr.cnf+3ff8a0a3,0,0.03,3160,38,1,0,0,0,8347,0,8347,2078,
breakid_run.sh+fpga10_8_sat.cnf+bc73e051,0,0.0,1736,16,1,0,0,0,1215,0,1215,300,
breakid_run.sh+fpga10_9_sat.cnf+50b84f52,0,0.0,1720,19,1,0,0,0,1489,0,1489,368,
breakid_run.sh+fpga11_12_uns_rcr.cnf+1cb2c1e5,0,0.01,1852,24,1,0,0,0,4012,0,4012,997,
breakid_run.sh+fpga11_13_uns_rcr.cnf+b35c866,0,0.01,1988,24,1,0,0,0,4480,0,4480,1114,
breakid_run.sh+fpga11_14_uns_rcr.cnf+f9b8cee7,0,0.01,2156,26,1,0,0,0,5001,0,5001,1244,
breakid_run.sh+fpga11_15_uns_rcr.cnf+e83bd568,0,0.01,2348,28,1,0,0,0,5588,0,5588,1390,
breakid_run.sh+fpga11_20_uns_rcr.cnf+218a7e82,0,0.03,3424,38,1,0,0,0,9226,0,9226,2297,
breakid_run.sh+fpga12_11_sat.cnf+d0c2d8d,0,0.0,1716,24,1,0,0,0,2940,0,2940,729,
breakid_run.sh+fpga12_12_sat.cnf+a1509c8e,0,0.01,1720,25,1,0,0,0,3051,0,3051,757,
breakid_run.sh+fpga12_8_sat.cnf+e63d45d3,0,0.0,1736,18,1,0,0,0,1745,0,1745,432,
breakid_run.sh+fpga12_9_sat.cnf+7a81b4d4,0,0.0,1720,20,1,0,0,0,2072,0,2072,513,
breakid_run.sh+fpga13_10_sat.cnf+807963eb,0,0.0,1720,22,1,0,0,0,2473,0,2473,613,
breakid_run.sh+fpga13_12_sat.cnf+a90241ed,0,0.01,1720,26,1,0,0,0,3662,0,3662,909,
breakid_run.sh+fpga13_9_sat.cnf+f666795,0,0.0,1720,20,1,0,0,0,2042,0,2042,507,
breakid_run.sh+frb45-21-1.used-as.sat04-883.cnf+8bfa6a66,0,0.09,17624,0,0,0,0,0,0,0,0,0,
breakid_run.sh+frb80-14-2.used-as.sat04-880.cnf+51e3be31,0,0.06,13616,0,0,0,0,0,0,0,0,0,
breakid_run.sh+fsf-300-354-2-2-3-2.58.opt.cnf+fe830b54,0,0.01,4168,0,0,0,0,0,0,0,0,0,
breakid_run.sh+fsf-300-354-2-2-3-2.89.opt.cnf+6fa3cdb2,0,0.01,4172,0,0,0,0,0,0,0,0,0,
breakid_run.sh+fsf-300-354-2-2-3-2.94.opt.cnf+7e9713cc,0,0.01,4172,0,0,0,0,0,0,0,0,0,
breakid_run.sh+fsf-300-354-2-2-3-2.95.opt.cnf+12db82cd,0,0.01,4172,0,0,0,0,0,0,0,0,0,
breakid_run.sh+grid-strips-grid-y-3.035-NOTKNOWN.cnf+183a14db,0,4.61,725012,0,0,0,0,0,0,0,0,0,
breakid_run.sh+grid-strips-grid-y-3.055-NOTKNOWN.cnf+cbf0e95d,0,7.05,1140228,0,0,0,0,0,0,0,0,0,
breakid_run.sh+grid-strips-grid-y-3.065-SAT.cnf+544e11b2,0,8.51,1347080,0,0,0,0,0,0,0,0,0,
breakid_run.sh+grieu-vmpc-31.cnf+b7fffa87,0,0.2,37856,0,0,0,0,0,0,0,0,0,
breakid_run.sh+gss-18-s100.cnf+c82780e3,0,0.18,36952,0,0,0,0,0,0,0,0,0,
breakid_run.sh+gss-19-s100.cnf+bc70f202,0,0.17,37496,0,0,0,0,0,0,0,0,0,
breakid_run.sh+gss-20-s100.cnf+bac0aaac,0,0.18,37048,0,0,0,0,0,0,0,0,0,
breakid_run.sh+gss-22-s100.cnf+a3538cea,0,0.18,37628,0,0,0,0,0,0,0,0,0,
breakid_run.sh+gss-23-s100.cnf+979cfe09,0,0.17,37324,0,0,0,0,0,0,0,0,0,
breakid_run.sh+gss-24-s100.cnf+8be66f28,0,0.19,37460,0,0,0,0,0,0,0,0,0,
breakid_run.sh+gss-25-s100.cnf+802fe047,0,0.2,37864,0,0,0,0,0,0,0,0,0,
breakid_run.sh+gus-md5-04.cnf+b42cccab,0,0.98,97460,1,1,0,0,0,136829,0,136829,34207,
breakid_run.sh+gus-md5-05.cnf+b43ae42c,0,0.95,97552,1,1,0,0,0,137121,0,137121,34280,
breakid_run.sh+gus-md5-06.cnf+b448fbad,0,0.98,97800,1,1,0,0,0,137369,0,137369,34342,
breakid_run.sh+gus-md5-07.cnf+b457132e,0,0.98,97884,1,1,0,0,0,137653,0,137653,34413,
breakid_run.sh+gus-md5-09.cnf+b4734230,0,0.99,98464,1,1,0,0,0,138425,0,138425,34606,
breakid_run.sh+gus-md5-10.cnf+b5a94746,0,0.99,98480,1,1,0,0,0,138453,0,138453,34613,
breakid_run.sh+gus-md5-11.cnf+b5b75ec7,0,0.97,98520,1,1,0,0,0,138565,0,138565,34641,
breakid_run.sh+gus-md5-12.cnf+b5c57648,0,1.0,98512,1,1,0,0,0,138545,0,138545,34636,
breakid_run.sh+gus-md5-14.cnf+b5e1a54a,0,0.97,98564,1,1,0,0,0,138713,0,138713,34678,
breakid_run.sh+gus-md5-15.cnf+b5efbccb,0,1.0,98604,1,1,0,0,0,138817,0,138817,34704,
breakid_run.sh+gus-md5-16.cnf+b5fdd44c,0,0.98,99224,1,1,0,0,0,139701,0,139701,34925,
breakid_run.sh+hid-uns-enc-6-1-0-0-0-0-19851.cnf+3a3128b8,0,0.01,2988,0,0,0,0,0,0,0,0,0,
breakid_run.sh+hid-uns-enc-6-1-0-0-0-0-26462.cnf+c4fc1438,0,0.01,2988,0,0,0,0,0,0,0,0,0,
breakid_run.sh+hid-uns-enc-6-1-0-0-0-0-26808.cnf+8eac7a88,0,0.01,2992,0,0,0,0,0,0,0,0,0,
breakid_run.sh+hid-uns-enc-6-1-0-0-0-0-2907.cnf+d815877c,0,0.01,2992,0,0,0,0,0,0,0,0,0,
breakid_run.sh+hid-uns-enc-6-1-0-0-0-0-31380.cnf+2041e9d9,0,0.01,2968,0,0,0,0,0,0,0,0,0,
breakid_run.sh+hid-uns-enc-6-1-0-0-0-0-3191.cnf+a7cbeae4,0,0.01,2992,0,0,0,0,0,0,0,0,0,
breakid_run.sh+hid-uns-enc-6-1-0-0-0-0-3251.cnf+d5dec3a9,0,0.01,2988,0,0,0,0,0,0,0,0,0,
breakid_run.sh+hid-uns-enc-7-1-0-0-0-0-11545.cnf+67918ae3,0,0.02,5424,0,0,0,0,0,0,0,0,0,
breakid_run.sh+hid-uns-enc-7-1-0-0-0-0-3557.cnf+5c87d8d1,0,0.02,5428,0,0,0,0,0,0,0,0,0,
breakid_run.sh+hid-uns-enc-9-1-0-0-0-0-24642.cnf+81676041,0,0.07,13868,0,0,0,0,0,0,0,0,0,
breakid_run.sh+hitag2-10-60-0-0x0ffdbe60727f161-57.cnf+8fe5baa1,0,0.07,11736,79,2,0,0,0,79,0,79,0,
breakid_run.sh+hitag2-10-60-0-0x8edc44db7837bbf-65.cnf+503a7998,0,0.06,11988,77,2,0,0,0,77,0,77,0,
breakid_run.sh+hitag2-10-60-0-0xe14721bd199894a-99.cnf+b4bbfc01,0,0.07,12012,78,2,0,0,0,78,0,78,0,
breakid_run.sh+hitag2-10-60-0-0xe6754daf48162bf-46.cnf+c1267b29,0,0.07,12212,80,2,0,0,0,80,0,80,0,
breakid_run.sh+hitag2-10-60-0-0xfee9637399d85a2-78.cnf+db95d70b,0,0.08,11984,76,2,0,0,0,76,0,76,0,
breakid_run.sh+hitag2-7-60-0-0xe8fa35372ed37e2-80.cnf+a14f659a,0,0.07,11800,74,2,0,0,0,74,0,74,0,
breakid_run.sh+hitag2-8-60-0-0x1eb82244d7f1c3c-47.cnf+32db45c9,0,0.07,11972,72,2,0,0,0,72,0,72,0,
breakid_run.sh+hitag2-8-60-0-0xdcdbc8bf368ee73-37.cnf+7cc6af9a,0,0.07,12060,80,2,0,0,0,80,0,80,0,
breakid_run.sh+hitag2-8-60-0-0xfba1a41b5dfd7f7-52.cnf+6ae658e3,0,0.07,12236,79,2,0,0,0,79,0,79,0,
breakid_run.sh+hole002.cnf+7a437810,0,0.0,1720,3,1,0,0,0,19,0,19,4,
breakid_run.sh+hole003.cnf+7a518f91,0,0.0,1720,4,1,0,0,0,52,0,52,12,
breakid_run.sh+hole004.cnf+7a5fa712,0,0.0,1720,5,1,0,0,0,109,0,109,26,
breakid_run.sh+hole005.cnf+7a6dbe93,0,0.0,1720,6,1,0,0,0,166,0,166,40,
breakid_run.sh+hole006.cnf+7a7bd614,0,0.0,1720,7,1,0,0,0,323,0,323,79,
breakid_run.sh+hole007.cnf+7a89ed95,0,0.0,1716,8,1,0,0,0,464,0,464,114,
breakid_run.sh+hole008.cnf+7a980516,0,0.0,1720,9,1,0,0,0,709,0,709,175,
breakid_run.sh+hole009.cnf+7aa61c97,0,0.0,1720,10,1,0,0,0,866,0,866,214,
breakid_run.sh+hole010.cnf+7bdc21ad,0,0.0,1720,11,1,0,0,0,1315,0,1315,326,
breakid_run.sh+hole010_shuffled.cnf+23fe5ded,0,0.0,1724,11,1,0,0,0,1447,0,1447,359,
breakid_run.sh+hole011.cnf+7bea392e,0,0.0,1724,12,1,0,0,0,1440,0,1440,357,
breakid_run.sh+hole011_shuffled.cnf+5dc278c,0,0.0,1740,12,1,0,0,0,1868,0,1868,464,
breakid_run.sh+hole012.cnf+7bf850af,0,0.0,1720,13,1,0,0,0,1909,0,1909,474,
breakid_run.sh+hole012_shuffled.cnf+e7b9f12b,0,0.0,1720,13,1,0,0,0,2225,0,2225,553,
breakid_run.sh+hole013.cnf+7c066830,0,0.0,1720,14,1,0,0,0,2662,0,2662,662,
breakid_run.sh+hole013_shuffled.cnf+c997baca,0,0.0,1720,14,1,0,0,0,2923,0,2923,728,
breakid_run.sh+hole014.cnf+7c147fb1,0,0.0,1720,15,1,0,0,0,3015,0,3015,750,
breakid_run.sh+hole014_shuffled.cnf+ab758469,0,0.0,1720,15,1,0,0,0,3555,0,3555,885,
breakid_run.sh+hole015.cnf+7c229732,0,0.01,1840,16,1,0,0,0,3840,0,3840,956,
breakid_run.sh+hole015_shuffled.cnf+8d534e08,0,0.01,1976,16,1,0,0,0,4391,0,4391,1094,
breakid_run.sh+hole016_shuffled.cnf+6f3117a7,0,0.01,2344,17,1,0,0,0,5777,0,5777,1440,
breakid_run.sh+hole017_shuffled.cnf+510ee146,0,0.01,2592,18,1,0,0,0,6533,0,6533,1629,
breakid_run.sh+hole018_shuffled.cnf+32ecaae5,0,0.02,2896,19,1,0,0,0,7695,0,7695,1919,
breakid_run.sh+hole019_shuffled.cnf+14ca7484,0,0.02,3160,20,1,0,0,0,8996,0,8996,2244,
breakid_run.sh+hole020.cnf+7d90fa4c,0,0.03,3160,21,1,0,0,0,8101,0,8101,2020,
breakid_run.sh+hole020_shuffled.cnf+7dd9c82e,0,0.03,3420,21,1,0,0,0,10222,0,10222,2551,
breakid_run.sh+hole030.cnf+7f45d2eb,0,0.13,8960,31,1,0,0,0,27975,0,27975,6986,
breakid_run.sh+hole030_shuffled.cnf+d7b5326f,0,0.17,10980,31,1,0,0,0,35207,0,35207,8794,
breakid_run.sh+hwmcc10-timeframe-expansion-k45-pdtpmsgoodbakery-tseitin.cnf+cadb9e3d,0,0.67,117764,45,45,0,0,0,45,0,45,0,
breakid_run.sh+hwmcc10-timeframe-expansion-k45-pdtvisns3p02-tseitin.cnf+9e6f140e,0,1.13,195236,1,1,0,0,0,1,0,1,0,
breakid_run.sh+hwmcc10-timeframe-expansion-k50-pdtpmsns2-tseitin.cnf+f540c973,0,0.59,103144,2,2,0,0,0,2,0,2,0,
breakid_run.sh+hwmcc10-timeframe-expansion-k50-pdtvisns3p00-tseitin.cnf+f17b7832,0,1.34,216260,1,1,0,0,0,1,0,1,0,
breakid_run.sh+instance_n8_i8_pp_ci_ce.cnf+ba719524,0,0.58,85492,7,7,0,0,0,7,0,7,0,
breakid_run.sh+instance_n8_i9_pp.cnf+95b26a67,0,0.66,96616,7,7,0,0,0,7,0,7,0,
breakid_run.sh+itox_vc1130.cnf+531d5e9a,0,7.8,177492,9044,28,0,0,0,12232,0,12232,797,
breakid_run.sh+jkkk-one-one-10-34-sat.cnf+99786405,0,0.13,26544,0,0,0,0,0,0,0,0,0,
breakid_run.sh+jkkk-random-132906006148277-10-10-34-SUM-sat.cnf+d5501f96,0,0.43,79084,0,0,0,0,0,0,0,0,0,
breakid_run.sh+jkkk-random-132906006427000-10-10-35-OR-sat.cnf+1b49ad5d,0,0.47,76820,0,0,0,0,0,0,0,0,0,
breakid_run.sh+jkkk-random-132906006427000-10-10-36-SUM-sat.cnf+296002be,0,0.55,98580,0,0,0,0,0,0,0,0,0,
breakid_run.sh+jkkk-random-132906006493326-10-10-35-OR-sat.cnf+ffcb8eef,0,0.42,77960,0,0,0,0,0,0,0,0,0,
breakid_run.sh+k2fix_gr_rcs_w9.shuffled.cnf+3b87a32c,0,2.69,104272,115,2,0,0,0,107649,0,107649,26901,
breakid_run.sh+korf-17.cnf+4f09ce20,0,0.2,32780,0,0,0,0,0,0,0,0,0,
breakid_run.sh+korf-18.cnf+4f17e5a1,0,0.46,70504,0,0,0,0,0,0,0,0,0,
breakid_run.sh+logistics.a.cnf+e025dccb,0,0.01,2896,2,1,0,0,0,990,0,990,247,
breakid_run.sh+logistics.b.cnf+e033f44c,0,0.0,3168,14,2,0,0,0,1850,0,1850,459,
breakid_run.sh+logistics.c.cnf+e0420bcd,0,0.02,4276,3,1,0,0,0,503,0,503,125,
breakid_run.sh+logistics.d.cnf+e050234e,0,0.04,8696,1,1,0,0,0,3149,0,3149,787,
breakid_run.sh+manol-pipe-c10nid_i.cnf+5fb352ff,0,1.83,295524,2,2,0,0,0,44798,0,44798,11199,
breakid_run.sh+manol-pipe-c10nidw.cnf+98f3a0bc,0,3.5,507672,2,2,0,0,0,90466,0,90466,22616,
breakid_run.sh+manol-pipe-c10nidw_s.cnf+7ef03af0,0,3.45,472928,2,2,0,0,0,86778,0,86778,21694,
breakid_run.sh+manol-pipe-c8nidw.cnf+9ed7d851,0,2.03,314132,1,1,0,0,0,33601,0,33601,8400,
breakid_run.sh+manol-pipe-g10bid_i.cnf+8b44b46f,0,2.18,312820,3,3,0,0,0,73495,0,73495,18373,
breakid_run.sh+maxxor032.cnf+fce1f6dd,0,0.07,15876,0,0,0,0,0,0,0,0,0,
breakid_run.sh+minandmaxor128.cnf+c8b150a,0,1.81,286212,0,0,0,0,0,0,0,0,0,
breakid_run.sh+minxor128.cnf+9d0615f3,0,0.32,61764,0,0,0,0,0,0,0,0,0,
breakid_run.sh+minxorminand064.cnf+81594605,0,0.24,46448,0,0,0,0,0,0,0,0,0,
breakid_run.sh+mod2-rand3bip-sat-230-2.sat05-2189.reshuffled-07.cnf+3d07dd62,0,3698.96,1408
breakid_run.sh+mod2-rand3bip-sat-230-2.sat05-2189.reshuffled-07.cnf+b5109617,0,3699.62,1408
breakid_run.sh+mod2-rand3bip-sat-270-1.sat05-2248.reshuffled-07.cnf+4c2a14c0,0,3698.77,1408
breakid_run.sh+mod2-rand3bip-sat-270-1.shuffled-as.sat05-2248.cnf+787afff2,0,3699.2,1408
breakid_run.sh+mod2-rand3bip-sat-270-2.sat05-2249.reshuffled-07.cnf+1a812220,0,3699.26,1408
breakid_run.sh+mod2-rand3bip-sat-280-1.sat05-2263.reshuffled-07.cnf+94f194ba,0,3699.81,1408
breakid_run.sh+mod2c-rand3bip-sat-240-3.shuffled-as.sat05-2520.cnf+7442b019,0,0.0,1720,99,51,0,0,0,373,0,373,69,
breakid_run.sh+mod2c-rand3bip-sat-240-3.shuffled-as.sat05-2520.cnf+a1efd36e,0,0.0,1720,99,51,0,0,0,373,0,373,69,
breakid_run.sh+mod2c-rand3bip-sat-250-1.shuffled-as.sat05-2533.cnf+a96888be,0,0.0,1720,99,65,0,0,0,299,0,299,50,
breakid_run.sh+mod2c-rand3bip-sat-250-3.shuffled-as.sat05-2535.cnf+8b26c67e,0,0.0,1720,102,59,0,0,0,319,0,319,55,
breakid_run.sh+mrpp_4x4#4_24.cnf+99de0abd,0,0.05,10528,124,1,0,0,0,124,0,124,0,
breakid_run.sh+mrpp_4x4#6_12.cnf+67cf5cda,0,0.02,5232,88,1,0,0,0,88,0,88,0,
breakid_run.sh+mrpp_4x4#6_20.cnf+69680677,0,0.03,8536,112,1,0,0,0,112,0,112,0,
breakid_run.sh+mrpp_4x4#6_6.cnf+39eb157,0,0.0,2780,70,1,0,0,0,70,0,70,0,
breakid_run.sh+mrpp_4x4#8_12.cnf+3791b698,0,0.03,6464,100,1,0,0,0,100,0,100,0,
breakid_run.sh+mrpp_4x4#8_16.cnf+37ca149c,0,0.04,8664,116,1,0,0,0,116,0,116,0,
breakid_run.sh+mrpp_4x4#8_24.cnf+3962be39,0,0.05,12772,148,1,0,0,0,148,0,148,0,
breakid_run.sh+mrpp_4x4#8_7.cnf+6d793f5a,0,0.01,3792,80,1,0,0,0,80,0,80,0,
breakid_run.sh+mrpp_6x6#10_10.cnf+20ec056d,0,0.05,11952,156,1,0,0,0,156,0,156,0,
breakid_run.sh+mrpp_6x6#10_12.cnf+2108346f,0,0.07,14180,164,1,0,0,0,164,0,164,0,
breakid_run.sh+mrpp_6x6#10_20.cnf+22a0de0c,0,0.11,23740,196,1,0,0,0,196,0,196,0,
breakid_run.sh+mrpp_6x6#12_20.cnf+f26337ca,0,0.12,23516,196,1,0,0,0,196,0,196,0,
breakid_run.sh+mrpp_6x6#12_9.cnf+5ac8d027,0,0.04,10524,152,1,0,0,0,152,0,152,0,
breakid_run.sh+mrpp_6x6#14_12.cnf+c08ce7eb,0,0.07,13976,164,1,0,0,0,164,0,164,0,
breakid_run.sh+mrpp_6x6#16_16.cnf+90879fad,0,0.14,24272,196,1,0,0,0,196,0,196,0,
breakid_run.sh+mrpp_6x6#18_12.cnf+60119b67,0,0.09,18076,176,1,0,0,0,176,0,176,0,
breakid_run.sh+mrpp_8x8#10_9.cnf+e8f286a1,0,0.09,18332,235,1,0,0,0,235,0,235,0,
breakid_run.sh+mrpp_8x8#16_10.cnf+9702852b,0,0.12,26128,249,1,0,0,0,249,0,249,0,
breakid_run.sh+mrpp_8x8#16_11.cnf+97109cac,0,0.16,28816,254,1,0,0,0,254,0,254,0,
breakid_run.sh+mrpp_8x8#16_12.cnf+971eb42d,0,0.19,31228,259,1,0,0,0,259,0,259,0,
breakid_run.sh+mrpp_8x8#16_16.cnf+97571231,0,0.24,41812,279,1,0,0,0,279,0,279,0,
breakid_run.sh+mrpp_8x8#18_14.cnf+66fd3ced,0,0.24,36352,269,1,0,0,0,269,0,269,0,
breakid_run.sh+mrpp_8x8#20_24.cnf+bded1d95,0,0.41,60500,319,1,0,0,0,319,0,319,0,
breakid_run.sh+mrpp_8x8#22_11.cnf+8bd05831,0,0.18,28428,254,1,0,0,0,254,0,254,0,
breakid_run.sh+mrpp_8x8#22_20.cnf+8d77194f,0,0.33,50180,299,1,0,0,0,299,0,299,0,
breakid_run.sh+mrpp_8x8#22_24.cnf+8daf7753,0,0.37,59656,319,1,0,0,0,319,0,319,0,
breakid_run.sh+mrpp_8x8#24_11.cnf+5b92b1ef,0,0.15,28076,254,1,0,0,0,254,0,254,0,
breakid_run.sh+mrpp_8x8#24_12.cnf+5ba0c970,0,0.2,30652,259,1,0,0,0,259,0,259,0,
breakid_run.sh+mrpp_8x8#24_14.cnf+5bbcf872,0,0.22,35472,269,1,0,0,0,269,0,269,0,
breakid_run.sh+mrpp_8x8#24_20.cnf+5d39730d,0,0.34,49612,299,1,0,0,0,299,0,299,0,
breakid_run.sh+ndist.b.20499.cnf+dc671c33,0,1.09,182844,0,0,0,0,0,0,0,0,0,
breakid_run.sh+ndist.b.20998.cnf+e4d82cf7,0,1.15,182232,0,0,0,0,0,0,0,0,0,
breakid_run.sh+ndist.b.22495.cnf+abf117ed,0,1.32,194952,0,0,0,0,0,0,0,0,0,
breakid_run.sh+ndist.b.22994.cnf+b46228b1,0,1.18,196480,0,0,0,0,0,0,0,0,0,
breakid_run.sh+ndist.b.23992.cnf+1c27268e,0,1.26,204988,0,0,0,0,0,0,0,0,0,
breakid_run.sh+ndist.b.24491.cnf+7b7b13a7,0,1.43,209764,0,0,0,0,0,0,0,0,0,
breakid_run.sh+ndist.b.25489.cnf+e21823ef,0,1.36,222260,0,0,0,0,0,0,0,0,0,
breakid_run.sh+ndist.b.26487.cnf+49dd21cc,0,1.38,227376,0,0,0,0,0,0,0,0,0,
breakid_run.sh+ndist.b.27485.cnf+b1a21fa9,0,1.5,236776,0,0,0,0,0,0,0,0,0,
breakid_run.sh+ndist.b.29481.cnf+812c1b63,0,1.63,256240,0,0,0,0,0,0,0,0,0,
breakid_run.sh+openstacks-p30_3.085-SAT.cnf+b3120296,0,3.6,586708,3,2,0,0,0,3075,0,3075,768,
breakid_run.sh+openstacks-sequencedstrips-nonadl-nonnegated-os-sequencedstrips-p30_1.025-NOTKNOWN.cnf+3b56a18,0,1.01,172468,4,3,0,0,0,1220,0,1220,304,
breakid_run.sh+openstacks-sequencedstrips-nonadl-nonnegated-os-sequencedstrips-p30_3.025-NOTKNOWN.cnf+8cd92e56,0,0.99,175412,3,2,0,0,0,915,0,915,228,
breakid_run.sh+openstacks-sequencedstrips-nonadl-nonnegated-os-sequencedstrips-p30_3.085-SAT.cnf+431a0ab4,0,3.71,584864,3,2,0,0,0,3075,0,3075,768,
breakid_run.sh+partial-10-11-s.cnf+405db8cd,0,2.13,306036,0,0,0,0,0,0,0,0,0,
breakid_run.sh+partial-10-17-s.cnf+7dc31c53,0,3.81,501000,0,0,0,0,0,0,0,0,0,
breakid_run.sh+partial-5-15-s.cnf+d0c4ac23,0,2.42,366752,0,0,0,0,0,0,0,0,0,
breakid_run.sh+partial-5-17-s.cnf+3a9122a5,0,3.08,423076,0,0,0,0,0,0,0,0,0,
breakid_run.sh+pb_300_10_lb_07.cnf+add3736e,0,1.36,222472,0,0,0,0,0,0,0,0,0,
breakid_run.sh+pb_300_10_lb_08.cnf+ade18aef,0,1.4,226900,0,0,0,0,0,0,0,0,0,
breakid_run.sh+post-c32s-ss-8.cnf+f8ef0b6f,0,0.32,59608,0,0,0,0,0,0,0,0,0,
breakid_run.sh+post-cbmc-aes-d-r2-noholes.cnf+bc9406c,0,4.52,576152,333,8,0,0,0,80275,0,80275,19996,
breakid_run.sh+post-cbmc-aes-d-r2.cnf+f2b1b27,0,7.54,581136,2557,9,0,0,0,99530,0,99530,24253,
breakid_run.sh+post-cbmc-aes-ee-r2-noholes.cnf+aab1da6e,0,5.01,564432,241,4,0,0,0,10537,0,10537,2574,
breakid_run.sh+post-cbmc-zfcp-2.8-u2.cnf+a8b7b29c,0,2721.82,12514732
breakid_run.sh+prime2209-98.cnf+677a519b,0,2.76,175352,97,1,0,0,0,468801,0,468801,117176,
breakid_run.sh+q_query_3_L100_coli.sat.cnf+73aa138f,0,5.05,548440,853,26,0,0,0,26429,0,26429,6394,
breakid_run.sh+q_query_3_L150_coli.sat.cnf+34f326d4,0,8.51,876728,846,26,0,0,0,26486,0,26486,6410,
breakid_run.sh+q_query_3_L200_coli.sat.cnf+553bf16e,0,11.76,1251024,853,26,0,0,0,26429,0,26429,6394,
breakid_run.sh+q_query_3_L80_coli.sat.cnf+92e3ee22,0,3.76,432396,845,26,0,0,0,26509,0,26509,6416,
breakid_run.sh+q_query_3_L90_coli.sat.cnf+ecbf5863,0,4.45,493836,852,26,0,0,0,26428,0,26428,6394,
breakid_run.sh+q_query_3_l45_lambda.cnf+c7f7613f,0,0.34,58616,137,64,0,0,0,1801,0,1801,416,
breakid_run.sh+q_query_3_l46_lambda.cnf+cfa9069e,0,0.37,60180,136,64,0,0,0,1800,0,1800,416,
breakid_run.sh+q_query_3_l48_lambda.cnf+df0c515c,0,0.43,63172,138,64,0,0,0,1802,0,1802,416,
breakid_run.sh+rbcl_xits_08_UNSAT.cnf+f1b4e4d4,0,0.11,22456,1,1,0,0,0,213,0,213,53,
breakid_run.sh+rbcl_xits_14_SAT.cnf+3339e128,0,0.25,47960,1,1,0,0,0,357,0,357,89,
breakid_run.sh+rbsat-v1150c84314gyes10.cnf+7f2c95b3,0,0.13,25580,0,0,0,0,0,0,0,0,0,
breakid_run.sh+rbsat-v1150c84314gyes4.cnf+6f9f331a,0,0.11,25600,0,0,0,0,0,0,0,0,0,
breakid_run.sh+rbsat-v1150c84314gyes5.cnf+6fad4a9b,0,0.11,26648,0,0,0,0,0,0,0,0,0,
breakid_run.sh+rbsat-v1150c84314gyes7.cnf+6fc9799d,0,0.11,25488,0,0,0,0,0,0,0,0,0,
breakid_run.sh+rbsat-v945c61409g10.cnf+5861906f,0,0.09,19520,0,0,0,0,0,0,0,0,0,
breakid_run.sh+rbsat-v945c61409gyes5.cnf+6457283e,0,0.07,19528,0,0,0,0,0,0,0,0,0,
breakid_run.sh+reg_s_2_unknown.cnf+d915a46b,0,4.36,597156,15,11,0,0,0,31371,0,31371,7839,
breakid_run.sh+rnd-v25-e13-k3.cnf+2ff1ad9e,0,1.7,145852,2200,1,0,0,0,2200,0,2200,0,
breakid_run.sh+rnd-v25-e178-k13.cnf+96846c3d,0,15.45,296468,12575,1,0,0,0,12575,0,12575,0,
breakid_run.sh+rnd-v25-e212-k9.cnf+31ba4597,0,13.8,304472,10925,1,0,0,0,10925,0,10925,0,
breakid_run.sh+rnd-v25-e81-k9.cnf+6e62e9ed,0,6.52,199632,7650,1,0,0,0,7650,0,7650,0,
breakid_run.sh+rook-40-0-0.cnf+899d3f39,0,0.61,96432,0,0,0,0,0,0,0,0,0,
breakid_run.sh+rook-40-0-1.cnf+89ab56ba,0,0.53,94868,0,0,0,0,0,0,0,0,0,
breakid_run.sh+rook-42-0-0.cnf+b2261d3b,0,0.71,110992,0,0,0,0,0,0,0,0,0,
breakid_run.sh+rook-42-0-1.cnf+b23434bc,0,0.71,109544,0,0,0,0,0,0,0,0,0,
breakid_run.sh+rook-42-1-1.cnf+e71a6ffd,0,0.7,102976,0,0,0,0,0,0,0,0,0,
breakid_run.sh+rook-44-0-1.cnf+dabd12be,0,0.83,132964,0,0,0,0,0,0,0,0,0,
breakid_run.sh+rook-44-1-1.cnf+fa34dff,0,0.86,128608,0,0,0,0,0,0,0,0,0,
breakid_run.sh+rook-46-1-1.cnf+382c2c01,0,0.89,146288,0,0,0,0,0,0,0,0,0,
breakid_run.sh+rook-47-0-1.cnf+978a5fc1,0,1.01,156272,0,0,0,0,0,0,0,0,0,
breakid_run.sh+rook-47-1-1.cnf+cc709b02,0,0.93,156512,0,0,0,0,0,0,0,0,0,
breakid_run.sh+rook-48-0-1.cnf+2bcecec2,0,0.99,169608,0,0,0,0,0,0,0,0,0,
breakid_run.sh+rook-49-1-1.cnf+f4f97904,0,1.17,179468,0,0,0,0,0,0,0,0,0,
breakid_run.sh+rook-50-0-0.cnf+7de6b058,0,1.2,185492,0,0,0,0,0,0,0,0,0,
breakid_run.sh+rook-51-0-0.cnf+122b1f59,0,1.2,198132,0,0,0,0,0,0,0,0,0,
breakid_run.sh+rook-52-0-1.cnf+a67da5db,0,1.38,210388,0,0,0,0,0,0,0,0,0,
breakid_run.sh+rook-54-0-0.cnf+cef86c5c,0,1.62,238356,0,0,0,0,0,0,0,0,0,
breakid_run.sh+rook-54-1-1.cnf+3ecbf1e,0,1.45,235476,0,0,0,0,0,0,0,0,0,
breakid_run.sh+rook-55-0-1.cnf+634af2de,0,1.69,244160,0,0,0,0,0,0,0,0,0,
breakid_run.sh+rook-56-0-0.cnf+f7814a5e,0,1.75,262708,0,0,0,0,0,0,0,0,0,
breakid_run.sh+rook-56-1-1.cnf+2c759d20,0,1.64,244796,0,0,0,0,0,0,0,0,0,
breakid_run.sh+rook-57-1-1.cnf+c0ba0c21,0,1.87,257556,0,0,0,0,0,0,0,0,0,
breakid_run.sh+rook-58-1-1.cnf+54fe7b22,0,1.78,274764,0,0,0,0,0,0,0,0,0,
breakid_run.sh+rook-59-1-1.cnf+e942ea23,0,1.9,309584,0,0,0,0,0,0,0,0,0,
breakid_run.sh+rook-60-0-1.cnf+723e38f8,0,2.28,319960,0,0,0,0,0,0,0,0,0,
breakid_run.sh+rook-61-1-1.cnf+3b68e33a,0,2.13,318928,0,0,0,0,0,0,0,0,0,
breakid_run.sh+rook-63-1-1.cnf+63f1c13c,0,2.6,349316,0,0,0,0,0,0,0,0,0,
breakid_run.sh+rook-65-1-1.cnf+8c7a9f3e,0,2.82,384932,0,0,0,0,0,0,0,0,0,
breakid_run.sh+rook-68-1-1.cnf+4947ec41,0,3.25,437832,0,0,0,0,0,0,0,0,0,
breakid_run.sh+rook-72-1-1.cnf+c3f6c35a,0,3.87,558732,0,0,0,0,0,0,0,0,0,
breakid_run.sh+rook-76-1-1.cnf+15087f5e,0,4.24,604392,0,0,0,0,0,0,0,0,0,
breakid_run.sh+rpoc_xits_15_SAT.cnf+67ad7422,0,0.36,57748,2,2,0,0,0,762,0,762,190,
breakid_run.sh+rpoc_xits_15_SAT.cnf+7dc132a4,0,0.35,57744,2,2,0,0,0,762,0,762,190,
breakid_run.sh+sat-grid-pbl-0200.sat05-1339.reshuffled-07.cnf+146b02a2,0,10.31,53696,20098,5082,0,0,0,113862,0,113862,24351,
breakid_run.sh+sgen1-sat-230-100.cnf+e2a27196,0,0.0,1716,0,0,0,0,0,0,0,0,0,
breakid_run.sh+sgen1-sat-240-100.cnf+d6ebe2b5,0,0.0,1720,0,0,0,0,0,0,0,0,0,
breakid_run.sh+sgen1-sat-250-100.cnf+cb3553d4,0,0.0,1720,0,0,0,0,0,0,0,0,0,
breakid_run.sh+sgen1-sat-270-100.cnf+b3c83612,0,0.0,1720,0,0,0,0,0,0,0,0,0,
breakid_run.sh+sgen3-n200-s39840374-sat.cnf+27894733,0,0.0,1720,0,0,0,0,0,0,0,0,0,
breakid_run.sh+sgen3-n220-s24359701-sat.cnf+7224fb2,0,0.0,1720,0,0,0,0,0,0,0,0,0,
breakid_run.sh+sgen3-n240-s78945233-sat.cnf+83cc26,0,0.0,1720,0,0,0,0,0,0,0,0,0,
breakid_run.sh+sgen4-sat-160-8.cnf+be599cbc,0,0.0,1720,0,0,0,0,0,0,0,0,0,
breakid_run.sh+sgen4-sat-200-8.cnf+e356fe83,0,0.0,1720,0,0,0,0,0,0,0,0,0,
breakid_run.sh+sgen4-sat-220-8.cnf+b3195841,0,0.0,1720,0,0,0,0,0,0,0,0,0,
breakid_run.sh+sgen6-1080-5-1.cnf+3ae1266e,0,0.0,1720,0,0,0,0,0,0,0,0,0,
breakid_run.sh+sgen6-1200-5-1.cnf+c25f02f8,0,0.0,1720,0,0,0,0,0,0,0,0,0,
breakid_run.sh+sgen6-1320-5-1.cnf+3fd697f7,0,0.0,1720,0,0,0,0,0,0,0,0,0,
breakid_run.sh+sgen6-1440-5-1.cnf+bd4e2cf6,0,0.0,1720,0,0,0,0,0,0,0,0,0,
breakid_run.sh+sgen6-840-5-1.cnf+8440804f,0,0.0,1720,0,0,0,0,0,0,0,0,0,
breakid_run.sh+sgen6-960-5-1.cnf+1b8154e,0,0.0,1724,0,0,0,0,0,0,0,0,0,
breakid_run.sh+shift1add.10000.cnf+44993f58,0,1.04,179240,2,1,0,0,0,14,0,14,3,
breakid_run.sh+shift1add.13988.cnf+666c5c3e,0,1.59,244456,2,1,0,0,0,14,0,14,3,
breakid_run.sh+shift1add.15982.cnf+35da28f6,0,1.88,283368,2,1,0,0,0,14,0,14,3,
breakid_run.sh+shift1add.18973.cnf+6bd6ee75,0,2.21,331364,2,1,0,0,0,10,0,10,2,
breakid_run.sh+shift1add.21964.cnf+274c623f,0,2.56,383556,2,1,0,0,0,10,0,10,2,
breakid_run.sh+shift1add.24955.cnf+5d4927be,0,3.09,435476,2,1,0,0,0,14,0,14,3,
breakid_run.sh+shift1add.25952.cnf+c5000e1a,0,2.89,453188,2,1,0,0,0,10,0,10,2,
breakid_run.sh+shift1add.29940.cnf+62b3b9f5,0,3.57,522864,2,1,0,0,0,10,0,10,2,
breakid_run.sh+slp-synthesis-aes-top28.cnf+6ae84a73,0,0.62,105880,0,0,0,0,0,0,0,0,0,
breakid_run.sh+slp-synthesis-aes-top29.cnf+6af661f4,0,0.71,115360,0,0,0,0,0,0,0,0,0,
breakid_run.sh+smtlib-qfbv-aigs-ext_con_032_008_0256-tseitin.cnf+7ae8833a,0,0.32,33848,69,7,0,0,0,57017,0,57017,14237,
breakid_run.sh+smtlib-qfbv-aigs-lfsr_004_127_112-tseitin.cnf+857b25d,0,2.43,356628,1,1,0,0,0,7325,0,7325,1831,
breakid_run.sh+stable-300-0.1-20-98765432130020.cnf+22aae93a,0,0.09,10252,0,0,0,0,0,0,0,0,0,
breakid_run.sh+stable-400-0.1-11-98765432140011.cnf+b9a15c7c,0,0.2,21064,0,0,0,0,0,0,0,0,0,
breakid_run.sh+stable-400-0.1-12-98765432140012.cnf+a1514a5c,0,0.2,21260,0,0,0,0,0,0,0,0,0,
breakid_run.sh+stable-400-0.1-2-9876543214002.cnf+d2fb4f88,0,0.19,21460,0,0,0,0,0,0,0,0,0,
breakid_run.sh+stable-400-0.1-4-9876543214004.cnf+6e6c420c,0,0.19,21172,0,0,0,0,0,0,0,0,0,
breakid_run.sh+stable-400-0.1-5-9876543214005.cnf+3c24bb4e,0,0.2,21056,0,0,0,0,0,0,0,0,0,
breakid_run.sh+stable-400-0.1-7-9876543214007.cnf+d795add2,0,0.2,21048,0,0,0,0,0,0,0,0,0,
breakid_run.sh+total-10-13-u.cnf+e6247194,0,2.52,366260,0,0,0,0,0,0,0,0,0,
breakid_run.sh+toughsat_factoring_155s.cnf+30e27ac5,0,0.01,3928,0,0,0,0,0,0,0,0,0,
breakid_run.sh+toughsat_factoring_426s.cnf+cb88283e,0,0.02,4460,0,0,0,0,0,0,0,0,0,
breakid_run.sh+toughsat_factoring_958s.cnf+750a6b9a,0,0.01,4192,0,0,0,0,0,0,0,0,0,
breakid_run.sh+toughsat_factoring_inf.cnf+bdfa59b8,0,0.03,6236,0,0,0,0,0,0,0,0,0,
breakid_run.sh+tph17.cnf+a27e9bd5,0,1.43,38044,34,1,0,0,0,18755,0,18755,4681,
breakid_run.sh+transport-transport-city-sequential-25nodes-1000size-3degree-100mindistance-3trucks-10packages-2008seed.020-NOTKNOWN.cnf+aa9ce5cf,0,2.91,456092,0,0,0,0,0,0,0,0,0,
breakid_run.sh+transport-transport-city-sequential-25nodes-1000size-3degree-100mindistance-3trucks-10packages-2008seed.030-NOTKNOWN.cnf+4785010,0,4.53,683936,0,0,0,0,0,0,0,0,0,
breakid_run.sh+transport-transport-city-sequential-25nodes-1000size-3degree-100mindistance-3trucks-10packages-2008seed.040-NOTKNOWN.cnf+5e53ba51,0,5.75,925700,0,0,0,0,0,0,0,0,0,
breakid_run.sh+transport-transport-city-sequential-25nodes-1000size-3degree-100mindistance-3trucks-10packages-2008seed.050-NOTKNOWN.cnf+b82f2492,0,7.26,1140004,0,0,0,0,0,0,0,0,0,
breakid_run.sh+transport-transport-city-sequential-35nodes-1000size-4degree-100mindistance-4trucks-14packages-2008seed.040-NOTKNOWN.cnf+e063fcd4,0,15.32,2393852,0,0,0,0,0,0,0,0,0,
breakid_run.sh+velev-vliw-uns-2.0-uq5.cnf+b2936a98,0,5.42,814576,11,11,0,0,0,3019,0,3019,752,
breakid_run.sh+velev-vliw-uns-4.0-9-i1.cnf+a21cf8d5,0,7.4,1057132,2,2,0,0,0,1430,0,1430,357,
breakid_run.sh+velev-vliw-uns-4.0-9.cnf+a4a2b03a,0,4.05,597336,2,2,0,0,0,782,0,782,195,
breakid_run.sh+vmpc_29.cnf+c2e6cfe1,0,0.19,31060,0,0,0,0,0,0,0,0,0,
breakid_run.sh+vmpc_32.renamed-as.sat05-1919.cnf+5f170c12,0,0.24,39200,0,0,0,0,0,0,0,0,0,
breakid_run.sh+vmpc_33.cnf+c4471b7a,0,0.27,45548,0,0,0,0,0,0,0,0,0,
breakid_run.sh+x1_40.shuffled.cnf+57218e83,0,0.0,1720,41,1,0,0,0,26,0,26,0,
breakid_run.sh+x1_80.shuffled.cnf+be8f3787,0,0.01,1720,80,1,0,0,0,52,0,52,0,
breakid_run.sh+zfcp-2.8-u2-nh.cnf+81865c9a,0,2658.44,13007828
