Name,OutCode,Time,Mem
cnfdedup_run.sh+001-80-12.cnf+66dc9bf8,0,1.12,55520
cnfdedup_run.sh+002-23-96.cnf+c7a95e4c,0,0.31,17484
cnfdedup_run.sh+002-80-12.cnf+fbc14eb9,0,1.15,55520
cnfdedup_run.sh+002-80-4.cnf+94ab5896,0,1.18,55516
cnfdedup_run.sh+002-80-8.cnf+94e3b69a,0,1.15,55520
cnfdedup_run.sh+003-23-80.cnf+5a84ab68,0,0.3,17480
cnfdedup_run.sh+003-80-8.cnf+892d27b9,0,1.12,55520
cnfdedup_run.sh+004-22-144.cnf+fe420919,0,0.3,17492
cnfdedup_run.sh+004-22-160.cnf+1735c53,0,0.3,17488
cnfdedup_run.sh+004-80-8.cnf+7d7698d8,0,1.11,55520
cnfdedup_run.sh+005-22-160.cnf+92501b2,0,0.29,17488
cnfdedup_run.sh+005-80-12.cnf+ba6f66fc,0,1.15,55520
cnfdedup_run.sh+006-22-144.cnf+da553d7,0,0.3,17488
cnfdedup_run.sh+006-22-160.cnf+10d6a711,0,0.29,17492
cnfdedup_run.sh+006-23-80.cnf+1932c3ab,0,0.3,17484
cnfdedup_run.sh+006-23-96.cnf+1b3c2950,0,0.31,17480
cnfdedup_run.sh+006-80-4.cnf+65d11d12,0,1.15,55520
cnfdedup_run.sh+007-80-12.cnf+e438cc7e,0,1.17,55520
cnfdedup_run.sh+007-80-8.cnf+5a52ec35,0,1.12,55520
cnfdedup_run.sh+008-80-12.cnf+791d7f3f,0,1.13,55520
cnfdedup_run.sh+008-80-4.cnf+4e63ff50,0,1.17,55516
cnfdedup_run.sh+008-80-8.cnf+4e9c5d54,0,1.12,55520
cnfdedup_run.sh+009-23-64.cnf+d4af88b4,0,0.31,17484
cnfdedup_run.sh+009-80-4.cnf+42ad706f,0,1.16,55520
cnfdedup_run.sh+009-80-8.cnf+42e5ce73,0,1.17,55516
cnfdedup_run.sh+010-22-144.cnf+cdfe7a1e,0,0.31,17488
cnfdedup_run.sh+010-22-160.cnf+d12fcd58,0,0.3,17492
cnfdedup_run.sh+010-23-80.cnf+a3883884,0,0.3,17480
cnfdedup_run.sh+010-80-12.cnf+d9a98e96,0,1.15,55520
cnfdedup_run.sh+10pipe_q0_k.cnf+f8eb567b,0,3.02,220476
cnfdedup_run.sh+11pipe_11_ooo.cnf+11f99aff,0,6.1,442128
cnfdedup_run.sh+11pipe_k.cnf+205a8b76,0,7.24,614944
cnfdedup_run.sh+11pipe_q0_k.cnf+dac9201a,0,4.64,327644
cnfdedup_run.sh+12pipe_q0_k.cnf+bca6e9b9,0,6.44,445312
cnfdedup_run.sh+13pipe_q0_k.cnf+9e84b358,0,8.69,630760
cnfdedup_run.sh+14pipe_q0_k.cnf+80627cf7,0,11.7,819968
cnfdedup_run.sh+15pipe_q0_k.cnf+62404696,0,15.42,1125084
cnfdedup_run.sh+289-unsat-6x30.cnf+397df9f7,0,0.03,3976
cnfdedup_run.sh+5-SATISFIABLE.cnf+d83f9791,0,1.72,99300
cnfdedup_run.sh+6s10.cnf+a186a398,0,0.12,11504
cnfdedup_run.sh+6s11-opt.cnf+1b4e857f,0,0.13,11240
cnfdedup_run.sh+6s12.cnf+a1a2d29a,0,0.12,11504
cnfdedup_run.sh+6s123.cnf+92e5b693,0,4.25,279444
cnfdedup_run.sh+6s126-opt.cnf+792e80fc,0,2.71,180676
cnfdedup_run.sh+6s13-opt.cnf+43d76381,0,0.21,17468
cnfdedup_run.sh+6s130-opt.cnf+f3dd5815,0,0.2,16676
cnfdedup_run.sh+6s131-opt.cnf+8821c716,0,0.2,16676
cnfdedup_run.sh+6s133.cnf+949a8f32,0,0.2,16412
cnfdedup_run.sh+6s137.cnf+94d2ed36,0,3.62,253040
cnfdedup_run.sh+6s151.cnf+97e8116e,0,0.15,12296
cnfdedup_run.sh+6s153.cnf+98044070,0,0.34,26180
cnfdedup_run.sh+6s16-opt.cnf+a4b084,0,0.11,10448
cnfdedup_run.sh+6s16.cnf+a1db309e,0,0.11,10712
cnfdedup_run.sh+6s165-nonopt.cnf+4a1a39fc,0,0.0,2320
cnfdedup_run.sh+6s167-opt.cnf+de98b479,0,0.01,2688
cnfdedup_run.sh+6s168-opt.cnf+72dd237a,0,0.01,2920
cnfdedup_run.sh+6s169-opt.cnf+721927b,0,0.02,2956
cnfdedup_run.sh+6s17-opt.cnf+94e91f85,0,0.2,16148
cnfdedup_run.sh+6s184.cnf+9d30e1ce,0,0.13,11240
cnfdedup_run.sh+6s9.cnf+aacfca1a,0,0.13,11504
cnfdedup_run.sh+7pipe_k.cnf+68c4934f,0,1.07,82628
cnfdedup_run.sh+8pipe_k.cnf+fda94610,0,1.9,147912
cnfdedup_run.sh+9dlx_vliw_at_b_iq3.cnf+d49061f1,0,1.42,103080
cnfdedup_run.sh+9dlx_vliw_at_b_iq4.cnf+d49e7972,0,2.6,172736
cnfdedup_run.sh+9dlx_vliw_at_b_iq6.used-as.sat04-347.cnf+7421e52d,0,5.64,387676
cnfdedup_run.sh+9dlx_vliw_at_b_iq7.cnf+d4c8bff5,0,10.29,659588
cnfdedup_run.sh+9dlx_vliw_at_b_iq8.used-as.sat04-718.cnf+d70d9257,0,11.96,766332
cnfdedup_run.sh+9dlx_vliw_at_b_iq9.cnf+d4e4eef7,0,16.71,1081292
cnfdedup_run.sh+9vliw_m_9stages_iq3_C1_bug1.cnf+ef4dfb93,0,22.93,1426336
cnfdedup_run.sh+9vliw_m_9stages_iq3_C1_bug10.cnf+fa756637,0,23.32,1426340
cnfdedup_run.sh+9vliw_m_9stages_iq3_C1_bug3.cnf+ef6a2a95,0,22.86,1426076
cnfdedup_run.sh+9vliw_m_9stages_iq3_C1_bug4.cnf+ef784216,0,22.95,1423424
cnfdedup_run.sh+9vliw_m_9stages_iq3_C1_bug7.cnf+efa28899,0,23.07,1426340
cnfdedup_run.sh+9vliw_m_9stages_iq3_C1_bug8.cnf+efb0a01a,0,23.16,1426340
cnfdedup_run.sh+9vliw_m_9stages_iq3_C1_bug9.cnf+efbeb79b,0,23.39,1426332
cnfdedup_run.sh+ACG-15-10p0.cnf+138602fe,0,1.76,129592
cnfdedup_run.sh+ACG-15-10p1.cnf+13941a7f,0,1.73,129588
cnfdedup_run.sh+ACG-20-10p1.cnf+e30997a5,0,2.36,168812
cnfdedup_run.sh+ACG-20-5p0.cnf+551fa48a,0,2.08,146424
cnfdedup_run.sh+ACG-20-5p1.cnf+552dbc0b,0,2.17,148800
cnfdedup_run.sh+AProVE07-01.cnf+81767a4a,0,0.03,4240
cnfdedup_run.sh+AProVE07-03.cnf+8192a94c,0,0.0,2444
cnfdedup_run.sh+AProVE07-08.cnf+81d91ed1,0,0.02,2916
cnfdedup_run.sh+AProVE07-27.cnf+8534b88e,0,0.03,4240
cnfdedup_run.sh+AProVE09-06.cnf+517f498d,0,0.41,31128
cnfdedup_run.sh+Chvatal-k5.cnf+c05713a6,0,0.04,4768
cnfdedup_run.sh+Composite-024BitPrimes-1.used-as.sat04-861.cnf+2269d4ff,0,0.01,2452
cnfdedup_run.sh+Composite-024BitPrimes-1.used-as.sat04-861.cnf+339880cd,0,0.01,2448
cnfdedup_run.sh+E02F20.cnf+d4629419,0,0.95,46948
cnfdedup_run.sh+E02F22.cnf+d47ec31b,0,3.66,161732
cnfdedup_run.sh+EDP3-10000.cnf+67f3ad84,0,0.99,66468
cnfdedup_run.sh+EDP3-11000.cnf+cfd4da63,0,1.1,73068
cnfdedup_run.sh+EDP3-12000.cnf+37b60742,0,1.23,79668
cnfdedup_run.sh+EDP3-13000.cnf+9f973421,0,1.34,86532
cnfdedup_run.sh+EDP3-14000.cnf+7786100,0,1.43,93132
cnfdedup_run.sh+EDP3-15000.cnf+6f598ddf,0,1.61,99996
cnfdedup_run.sh+EDP3-16000.cnf+d73ababe,0,1.69,106860
cnfdedup_run.sh+EDP3-17000.cnf+3f1be79d,0,1.96,125128
cnfdedup_run.sh+EDP3-18000.cnf+a6fd147c,0,2.06,129196
cnfdedup_run.sh+EDP3-19000.cnf+ede415b,0,2.11,136324
cnfdedup_run.sh+EDP3-20000.cnf+fc381c85,0,2.25,143184
cnfdedup_run.sh+EDP3-30000.cnf+907c8b86,0,3.6,215788
cnfdedup_run.sh+EDP3-40000.cnf+24c0fa87,0,5.1,307944
cnfdedup_run.sh+EDP3-50000.cnf+b9056988,0,6.45,385032
cnfdedup_run.sh+EDP3-60000.cnf+4d49d889,0,8.2,512676
cnfdedup_run.sh+EDP3-70000.cnf+e18e478a,0,9.74,579076
cnfdedup_run.sh+EDP3-8000.cnf+3d9b50bf,0,0.75,49676
cnfdedup_run.sh+EDP3-80000.cnf+75d2b68b,0,11.24,660124
cnfdedup_run.sh+EDP3-9000.cnf+a57c7d9e,0,0.9,62144
cnfdedup_run.sh+EDP3-90000.cnf+a17258c,0,12.79,742228
cnfdedup_run.sh+FlowerSnark-k6.cnf+f23b8c52,0,0.29,23012
cnfdedup_run.sh+GreenTao_2-3-6_2071.cnf+6577d1f2,0,0.22,17996
cnfdedup_run.sh+GreenTao_2-4-4_511.cnf+ff300a34,0,0.0,1780
cnfdedup_run.sh+Hidoku_enu_6.cnf+183cf658,0,0.01,2548
cnfdedup_run.sh+Hidoku_enu_7.cnf+184b0dd9,0,0.02,3448
cnfdedup_run.sh+IBM_FV_2004_rule_batch_1_31_1_SAT_dat.k40.debugged.cnf+f46163f8,0,0.31,23616
cnfdedup_run.sh+LABS_n038_goal002.cnf+c6a25c9c,0,0.08,8316
cnfdedup_run.sh+LABS_n044_goal003.cnf+ee8223b8,0,0.12,10976
cnfdedup_run.sh+LABS_n045_goal003.cnf+dd052a39,0,0.11,11768
cnfdedup_run.sh+LABS_n051_goal004.cnf+4e4f155,0,0.21,16676
cnfdedup_run.sh+LABS_n052_goal004.cnf+f367f7d6,0,0.21,17468
cnfdedup_run.sh+LABS_n066_goal005.cnf+8f5ff2fa,0,0.46,34096
cnfdedup_run.sh+LABS_n078_goal006.cnf+4e51e11c,0,0.74,52576
cnfdedup_run.sh+LABS_n081_goal007.cnf+aaa894b5,0,1.04,70424
cnfdedup_run.sh+LABS_n082_goal007.cnf+992b9b36,0,1.15,76492
cnfdedup_run.sh+LABS_n088_goal008.cnf+304bd9bd,0,1.72,106856
cnfdedup_run.sh+MD5-27-4.cnf+f589f057,0,0.09,7256
cnfdedup_run.sh+MD5-28-1.cnf+2a45e515,0,0.1,8316
cnfdedup_run.sh+MD5-28-2.cnf+2a53fc96,0,0.09,8316
cnfdedup_run.sh+MD5-28-3.cnf+2a621417,0,0.09,8316
cnfdedup_run.sh+MD5-28-4.cnf+2a702b98,0,0.09,8316
cnfdedup_run.sh+MD5-28-5.cnf+2a7e4319,0,0.09,8316
cnfdedup_run.sh+MD5-29-2.cnf+5f3a37d7,0,0.1,8340
cnfdedup_run.sh+MD5-29-3.cnf+5f484f58,0,0.1,8340
cnfdedup_run.sh+MD5-29-4.cnf+5f5666d9,0,0.1,8340
cnfdedup_run.sh+MD5-29-5.cnf+5f647e5a,0,0.1,8340
cnfdedup_run.sh+MD5-30-1.cnf+eaf537ec,0,0.1,8604
cnfdedup_run.sh+MD5-30-2.cnf+eb034f6d,0,0.1,8604
cnfdedup_run.sh+MD5-30-4.cnf+eb1f7e6f,0,0.1,8604
cnfdedup_run.sh+MD5-30-5.cnf+eb2d95f0,0,0.1,8604
cnfdedup_run.sh+MD5-31-4.cnf+2005b9b0,0,0.12,8868
cnfdedup_run.sh+MD5-31-5.cnf+2013d131,0,0.12,8868
cnfdedup_run.sh+MD5-32-1.cnf+54c1ae6e,0,0.11,9132
cnfdedup_run.sh+MD5-32-2.cnf+54cfc5ef,0,0.11,9132
cnfdedup_run.sh+MD5-32-3.cnf+54dddd70,0,0.12,9132
cnfdedup_run.sh+MD5-32-4.cnf+54ebf4f1,0,0.11,9128
cnfdedup_run.sh+MD5-32-5.cnf+54fa0c72,0,0.11,9132
cnfdedup_run.sh+Q32inK09.cnf+cee948b6,0,0.02,2424
cnfdedup_run.sh+Q32inK10.cnf+d01f4dcc,0,0.11,6368
cnfdedup_run.sh+Q32inK11.cnf+d02d654d,0,0.43,20620
cnfdedup_run.sh+Q3inK10.cnf+5fe1d566,0,0.24,11600
cnfdedup_run.sh+Q3inK11.cnf+4c516080,0,0.91,39992
cnfdedup_run.sh+Robertson-k8.cnf+a36ff5c8,0,0.25,20908
cnfdedup_run.sh+SAT_dat.k100-24_1_rule_1.cnf+73e7bcbe,0,10.26,666884
cnfdedup_run.sh+SAT_dat.k100-24_1_rule_2.cnf+73f5d43f,0,10.32,666884
cnfdedup_run.sh+SAT_dat.k100-24_1_rule_3.cnf+7403ebc0,0,10.68,666884
cnfdedup_run.sh+SAT_dat.k30-30_rule.cnf+41741947,0,0.47,34584
cnfdedup_run.sh+SAT_dat.k35-31_2_rule_2.cnf+fcbc674b,0,0.34,24624
cnfdedup_run.sh+SAT_dat.k70-24_1_rule_1.cnf+bfb0cf7e,0,7.15,451308
cnfdedup_run.sh+SAT_dat.k70-24_1_rule_3.cnf+bfccfe80,0,7.22,451304
cnfdedup_run.sh+SAT_dat.k75-24_1_rule_3.cnf+531e5485,0,8.24,520608
cnfdedup_run.sh+SAT_dat.k80-24_1_rule_1.cnf+8442b19d,0,8.78,546500
cnfdedup_run.sh+SAT_dat.k80-24_1_rule_2.cnf+8450c91e,0,8.65,546500
cnfdedup_run.sh+SAT_dat.k85-24_1_rule_1.cnf+179407a2,0,9.11,576592
cnfdedup_run.sh+SAT_dat.k85-24_1_rule_2.cnf+17a21f23,0,9.06,576596
cnfdedup_run.sh+SAT_dat.k85-24_1_rule_3.cnf+17b036a4,0,9.02,576596
cnfdedup_run.sh+SAT_dat.k90.debugged.cnf+28caf64b,0,9.77,606692
cnfdedup_run.sh+SAT_dat.k95-24_1_rule_1.cnf+dc25e9c1,0,9.98,636788
cnfdedup_run.sh+SAT_dat.k95-24_1_rule_2.cnf+dc340142,0,10.19,636788
cnfdedup_run.sh+SAT_dat.k95-24_1_rule_3.cnf+dc4218c3,0,10.26,636788
cnfdedup_run.sh+SAT_instance_N=111.cnf+97dcc18f,0,0.52,36212
cnfdedup_run.sh+SAT_instance_N=31.cnf+f7cb121a,0,0.03,3720
cnfdedup_run.sh+SAT_instance_N=33.cnf+f7e7411c,0,0.03,4240
cnfdedup_run.sh+SAT_instance_N=43.cnf+f99c19bb,0,0.05,6200
cnfdedup_run.sh+SAT_instance_N=49.cnf+f9f0a6c1,0,0.08,8336
cnfdedup_run.sh+SAT_instance_N=55.cnf+fb6d215c,0,0.1,9656
cnfdedup_run.sh+SAT_instance_N=63.cnf+fd05caf9,0,0.15,12032
cnfdedup_run.sh+SAT_instance_N=69.cnf+fd5a57ff,0,0.18,15992
cnfdedup_run.sh+SAT_instance_N=72.cnf+feac8c17,0,0.2,16144
cnfdedup_run.sh+SAT_instance_N=75.cnf+fed6d29a,0,0.22,17468
cnfdedup_run.sh+SAT_instance_N=77.cnf+fef3019c,0,0.23,18260
cnfdedup_run.sh+SAT_instance_N=85.cnf+8bab39,0,0.28,21428
cnfdedup_run.sh+SAT_instance_N=93.cnf+22454d6,0,0.33,24856
cnfdedup_run.sh+SAT_instance_N=99.cnf+278e1dc,0,0.42,31128
cnfdedup_run.sh+UCG-15-10p0.cnf+18aa5012,0,1.46,101820
cnfdedup_run.sh+UCG-15-10p1.cnf+18b86793,0,1.46,103140
cnfdedup_run.sh+UCG-20-10p0.cnf+e81fcd38,0,2.04,144256
cnfdedup_run.sh+UCG-20-10p1.cnf+e82de4b9,0,2.14,145840
cnfdedup_run.sh+UCG-20-5p0.cnf+fa7364f6,0,1.77,129916
cnfdedup_run.sh+UCG-20-5p1.cnf+fa817c77,0,1.86,130096
cnfdedup_run.sh+UR-15-10p0.cnf+36bd5774,0,1.47,101816
cnfdedup_run.sh+UR-15-10p1.cnf+36cb6ef5,0,1.47,103140
cnfdedup_run.sh+UR-20-10p0.cnf+632d49a,0,2.11,144256
cnfdedup_run.sh+UR-20-10p1.cnf+640ec1b,0,2.11,145840
cnfdedup_run.sh+UR-20-5p0.cnf+9010e954,0,1.85,130096
cnfdedup_run.sh+UTI-20-10p0.cnf+c4e03dc9,0,2.1,144520
cnfdedup_run.sh+UTI-20-10p1.cnf+c4ee554a,0,2.13,146104
cnfdedup_run.sh+UTI-20-5p1.cnf+e09835c6,0,1.82,129900
cnfdedup_run.sh+Urq3_5.cnf+d7844fb2,0,0.0,1448
cnfdedup_run.sh+Urq4_5.cnf+c6a8af3,0,0.0,1452
cnfdedup_run.sh+Urq5_5.cnf+4150c634,0,0.0,1452
cnfdedup_run.sh+Urq6_5.cnf+76370175,0,0.0,1520
cnfdedup_run.sh+Urq7_5.cnf+ab1d3cb6,0,0.0,1556
cnfdedup_run.sh+Urq8_5.cnf+e00377f7,0,0.0,1664
cnfdedup_run.sh+VanDerWaerden_pd_2-3-20_388.cnf+5890efd7,0,0.03,3448
cnfdedup_run.sh+aaai10-planning-ipc5-TPP-21-step11.cnf+aa1484d3,0,1.12,83204
cnfdedup_run.sh+aaai10-planning-ipc5-TPP-30-step11.cnf+90e5e5f5,0,4.42,310304
cnfdedup_run.sh+aaai10-planning-ipc5-pathways-13-step17.cnf+ea4ede61,0,0.18,16464
cnfdedup_run.sh+aaai10-planning-ipc5-pathways-17-step20.cnf+a67a7f5,0,0.4,31816
cnfdedup_run.sh+aaai10-planning-ipc5-pathways-17-step21.cnf+a75bf76,0,0.42,34208
cnfdedup_run.sh+aes_24_4_keyfind_4.cnf+711481f1,0,0.0,1960
cnfdedup_run.sh+aes_24_4_keyfind_5.cnf+71229972,0,0.01,1960
cnfdedup_run.sh+aes_32_2_keyfind_1.cnf+e0718d09,0,0.0,1868
cnfdedup_run.sh+aes_32_2_keyfind_3.cnf+e08dbc0b,0,0.0,1868
cnfdedup_run.sh+aes_32_3_keyfind_1.cnf+3a4cf74a,0,0.0,1584
cnfdedup_run.sh+aes_64_1_keyfind_1.cnf+759f8527,0,0.0,1592
cnfdedup_run.sh+aes_64_1_keyfind_1.cnf+e6b6f87b,0,0.0,1592
cnfdedup_run.sh+anna.col.11.cnf+6b22a9fc,0,0.01,2148
cnfdedup_run.sh+atco_enc1_opt1_03_56.cnf+cf415cc0,0,0.49,31536
cnfdedup_run.sh+atco_enc1_opt1_04_32.cnf+33807a5d,0,1.09,64580
cnfdedup_run.sh+atco_enc1_opt1_05_21.cnf+999eb71c,0,1.03,62432
cnfdedup_run.sh+atco_enc1_opt1_10_15.cnf+2500cb27,0,0.44,31524
cnfdedup_run.sh+atco_enc1_opt1_10_21.cnf+267d45c2,0,0.45,31524
cnfdedup_run.sh+atco_enc1_opt1_15_240.cnf+93a416ca,0,1.13,70136
cnfdedup_run.sh+atco_enc1_opt1_18_18.cnf+643478a2,0,1.14,70804
cnfdedup_run.sh+atco_enc1_opt2_05_4.cnf+f959a5d0,0,0.76,41664
cnfdedup_run.sh+atco_enc1_opt2_10_12.cnf+b9bb3765,0,0.24,17096
cnfdedup_run.sh+atco_enc1_opt2_10_14.cnf+b9d76667,0,0.27,17364
cnfdedup_run.sh+atco_enc1_opt2_10_15.cnf+b9e57de8,0,0.27,17364
cnfdedup_run.sh+atco_enc1_opt2_10_16.cnf+b9f39569,0,0.25,17628
cnfdedup_run.sh+atco_enc1_opt2_20_12.cnf+4dffa666,0,11.74,691728
cnfdedup_run.sh+atco_enc2_opt1_05_21.cnf+7b3094fb,0,1.01,62572
cnfdedup_run.sh+atco_enc2_opt1_10_21.cnf+80f23a1,0,0.39,25788
cnfdedup_run.sh+atco_enc2_opt1_15_100.cnf+a894570e,0,1.06,64396
cnfdedup_run.sh+atco_enc2_opt1_20_11.cnf+9a9eba03,0,19.64,1068360
cnfdedup_run.sh+atco_enc2_opt2_05_4.cnf+53351011,0,0.71,41664
cnfdedup_run.sh+atco_enc2_opt2_05_9.cnf+537b8596,0,0.7,41928
cnfdedup_run.sh+atco_enc2_opt2_10_21.cnf+9cf3d662,0,0.28,18420
cnfdedup_run.sh+atco_enc2_opt2_20_11.cnf+2f836cc4,0,11.33,689352
cnfdedup_run.sh+atco_enc3_opt1_03_53.cnf+923ad1fb,0,8.8,553712
cnfdedup_run.sh+atco_enc3_opt1_04_50.cnf+f9f1b857,0,10.78,673068
cnfdedup_run.sh+atco_enc3_opt1_13_48.cnf+2510dde2,0,10.79,673604
cnfdedup_run.sh+atco_enc3_opt2_05_21.cnf+f1a7259b,0,9.78,626588
cnfdedup_run.sh+atco_enc3_opt2_10_12.cnf+7cdef323,0,8.29,532844
cnfdedup_run.sh+atco_enc3_opt2_10_14.cnf+7cfb2225,0,8.48,534428
cnfdedup_run.sh+atco_enc3_opt2_18_44.cnf+c12312fa,0,8.87,565600
cnfdedup_run.sh+beempgsol2b1.cnf+55e414f,0,0.09,9392
cnfdedup_run.sh+beempgsol5b1.cnf+a410f312,0,0.1,9392
cnfdedup_run.sh+bjrb07amba10andenv.cnf+98374cfb,0,0.92,64616
cnfdedup_run.sh+blocks-blocks-36-0.120-NOTKNOWN.cnf+cf346274,0,11.95,898288
cnfdedup_run.sh+blocks-blocks-36-0.130-NOTKNOWN.cnf+290fccb5,0,13.57,1044720
cnfdedup_run.sh+blocks-blocks-37-1.130-NOTKNOWN.cnf+d5438533,0,14.86,1105528
cnfdedup_run.sh+bob12m02-opt.cnf+7e76acfb,0,0.09,9392
cnfdedup_run.sh+bob12m02.cnf+9140095,0,0.1,9396
cnfdedup_run.sh+bob12m04.cnf+9302f97,0,2.59,175128
cnfdedup_run.sh+bob12m09-opt.cnf+8c55b602,0,0.2,17468
cnfdedup_run.sh+bob12s02.cnf+4679641b,0,0.09,9396
cnfdedup_run.sh+bob12s09-opt.cnf+9b1e688,0,0.21,17468
cnfdedup_run.sh+bvadd_17322.cnf+216068b7,0,2.13,144504
cnfdedup_run.sh+bvadd_27079.cnf+1fdd0597,0,3.31,216048
cnfdedup_run.sh+bvadd_27966.cnf+fa15fbbe,0,3.67,252976
cnfdedup_run.sh+bvadd_29740.cnf+5c4da0b6,0,3.82,253044
cnfdedup_run.sh+bvashr_0710.cnf+a8bae711,0,1.58,106860
cnfdedup_run.sh+bvslt_13916.cnf+ed36a40,0,2.73,188328
cnfdedup_run.sh+bvslt_19860.cnf+5167ea4e,0,5.66,361264
cnfdedup_run.sh+bvsub_06991.cnf+8cbd1014,0,1.36,93924
cnfdedup_run.sh+bvult_16967.cnf+2c13507b,0,5.45,355720
cnfdedup_run.sh+c10bi_i.cnf+3f00871,0,0.57,42540
cnfdedup_run.sh+ccp-s10-facto1.cnf+98b1af64,0,0.0,1860
cnfdedup_run.sh+ccp-s10-facto2.cnf+98bfc6e5,0,0.02,3448
cnfdedup_run.sh+ccp-s10-facto3.cnf+98cdde66,0,0.05,6196
cnfdedup_run.sh+ccp-s10-facto4.cnf+98dbf5e7,0,0.12,10184
cnfdedup_run.sh+ccp-s5-facto2.cnf+6d41dab9,0,0.0,1448
cnfdedup_run.sh+ccp-s5-facto3.cnf+6d4ff23a,0,0.0,1624
cnfdedup_run.sh+ccp-s5-facto4.cnf+6d5e09bb,0,0.0,1884
cnfdedup_run.sh+ccp-s6-facto2.cnf+74f38018,0,0.0,1596
cnfdedup_run.sh+ccp-s6-facto3.cnf+75019799,0,0.0,1964
cnfdedup_run.sh+ccp-s6-facto4.cnf+750faf1a,0,0.01,2488
cnfdedup_run.sh+ccp-s7-facto2.cnf+7ca52577,0,0.0,1852
cnfdedup_run.sh+ccp-s7-facto3.cnf+7cb33cf8,0,0.01,2528
cnfdedup_run.sh+ccp-s7-facto4.cnf+7cc15479,0,0.02,3448
cnfdedup_run.sh+ccp-s8-facto1.cnf+8448b355,0,0.0,1540
cnfdedup_run.sh+ccp-s8-facto2.cnf+8456cad6,0,0.01,2256
cnfdedup_run.sh+ccp-s8-facto3.cnf+8464e257,0,0.02,3184
cnfdedup_run.sh+ccp-s8-facto4.cnf+8472f9d8,0,0.04,4880
cnfdedup_run.sh+ccp-s9-facto1.cnf+8bfa58b4,0,0.0,1656
cnfdedup_run.sh+ccp-s9-facto2.cnf+8c087035,0,0.01,2744
cnfdedup_run.sh+ccp-s9-facto3.cnf+8c1687b6,0,0.03,4768
cnfdedup_run.sh+ccp-s9-facto4.cnf+8c249f37,0,0.07,6992
cnfdedup_run.sh+chnl-005x006.shuffled.cnf+3b6ce812,0,0.0,1452
cnfdedup_run.sh+chnl-010x011.shuffled.cnf+22c4595e,0,0.0,1448
cnfdedup_run.sh+chnl-015x017.shuffled.cnf+44d07db3,0,0.0,1752
cnfdedup_run.sh+chnl-020x021.shuffled.cnf+4a4a2560,0,0.0,2216
cnfdedup_run.sh+chnl-025x050.shuffled.cnf+4cd8051f,0,0.07,7528
cnfdedup_run.sh+chnl-030x031.shuffled.cnf+71cff162,0,0.02,3976
cnfdedup_run.sh+chnl-040x041.shuffled.cnf+9955bd64,0,0.08,8348
cnfdedup_run.sh+chnl-045x050.shuffled.cnf+e82cc8a1,0,0.14,12568
cnfdedup_run.sh+chnl-050x060.shuffled.cnf+38d92a08,0,0.24,19860
cnfdedup_run.sh+chnl-050x070.shuffled.cnf+92b49449,0,0.3,25928
cnfdedup_run.sh+chnl10_11.cnf+4a037ce1,0,0.0,1452
cnfdedup_run.sh+chnl10_12.cnf+4a119462,0,0.0,1452
cnfdedup_run.sh+chnl10_13.cnf+4a1fabe3,0,0.0,1464
cnfdedup_run.sh+chnl11_12.cnf+b1f2c141,0,0.0,1456
cnfdedup_run.sh+chnl11_13.cnf+b200d8c2,0,0.0,1508
cnfdedup_run.sh+chnl11_20.cnf+b38b6ade,0,0.0,1760
cnfdedup_run.sh+color-11-3.sat05-445.reshuffled-07.cnf+c6b51923,0,0.01,2320
cnfdedup_run.sh+color-18-4.sat05-443.reshuffled-07.cnf+e70db3e9,0,0.15,11244
cnfdedup_run.sh+complete-300-0.1-18-98765432130018.cnf+63cab55f,0,0.09,4792
cnfdedup_run.sh+complete-300-0.1-4-9876543213004.cnf+5cd43cf1,0,0.08,5032
cnfdedup_run.sh+complete-300-0.1-7-9876543213007.cnf+c5fda8b7,0,0.09,4936
cnfdedup_run.sh+complete-300-0.1-8-9876543213008.cnf+93b621f9,0,0.09,4784
cnfdedup_run.sh+complete-400-0.1-12-98765432140012.cnf+b33f75a1,0,0.18,8476
cnfdedup_run.sh+complete-400-0.1-16-98765432140016.cnf+51ff2d21,0,0.18,8156
cnfdedup_run.sh+complete-400-0.1-3-9876543214003.cnf+304e014f,0,0.18,8180
cnfdedup_run.sh+complete-400-0.1-7-9876543214007.cnf+672fe657,0,0.18,8168
cnfdedup_run.sh+complete-500-0.1-1-9876543215001.cnf+360f4c6b,0,0.35,13252
cnfdedup_run.sh+complete-500-0.1-15-98765432150015.cnf+27e392c3,0,0.35,13584
cnfdedup_run.sh+complete-500-0.1-17-98765432150017.cnf+f7436e83,0,0.37,13680
cnfdedup_run.sh+complete-500-0.1-7-9876543215007.cnf+86223f7,0,0.36,13616
cnfdedup_run.sh+complete-500-0.1-8-9876543215008.cnf+d61a9d39,0,0.35,13616
cnfdedup_run.sh+connm-ue-csp-sat-n1200-d0.02-s1099787414.sat05-542.reshuffled-07.cnf+7c119c10,0,0.01,2756
cnfdedup_run.sh+contest02-ezfact64_10.sat05-449.reshuffled-07.cnf+1ca1c355,0,0.03,3184
cnfdedup_run.sh+countbitssrl032.cnf+5122f695,0,0.07,6996
cnfdedup_run.sh+counting-clqcolor-unsat-set-b-clqcolor-08-06-07.sat05-1257.reshuffled-07.cnf+22811534,0,0.0,1460
cnfdedup_run.sh+crafted_n10_d6_c2_num13.cnf+ce21a50f,0,3.6,309324
cnfdedup_run.sh+crafted_n10_d6_c2_num16.cnf+ce4beb92,0,3.87,309588
cnfdedup_run.sh+crafted_n10_d6_c2_num17.cnf+ce5a0313,0,3.56,309324
cnfdedup_run.sh+crafted_n10_d6_c2_num2.cnf+383f3c1f,0,3.53,309588
cnfdedup_run.sh+crafted_n10_d6_c2_num4.cnf+385b6b21,0,3.6,309324
cnfdedup_run.sh+crafted_n10_d6_c2_num5.cnf+386982a2,0,3.62,309324
cnfdedup_run.sh+crafted_n10_d6_c2_num6.cnf+38779a23,0,3.54,309324
cnfdedup_run.sh+crafted_n10_d6_c2_num9.cnf+38a1e0a6,0,3.49,309324
cnfdedup_run.sh+crafted_n10_d6_c3_num1.cnf+2c7a95bd,0,8.49,677612
cnfdedup_run.sh+crafted_n10_d6_c3_num18.cnf+634ccd55,0,8.58,677616
cnfdedup_run.sh+crafted_n10_d6_c3_num5.cnf+2cb2f3c1,0,8.75,677616
cnfdedup_run.sh+crafted_n10_d6_c4_num3.cnf+20e035de,0,15.21,1185568
cnfdedup_run.sh+crafted_n10_d6_c4_num8.cnf+2126ab63,0,15.15,1185568
cnfdedup_run.sh+crafted_n10_d6_c4_num9.cnf+2134c2e4,0,15.35,1185564
cnfdedup_run.sh+crafted_n11_d6_c3_num17.cnf+b3e893d5,0,9.42,727524
cnfdedup_run.sh+crafted_n11_d6_c4_num1.cnf+255e4bb,0,17.4,1331848
cnfdedup_run.sh+crafted_n11_d6_c4_num18.cnf+48db5e17,0,16.9,1331848
cnfdedup_run.sh+crafted_n11_d6_c4_num19.cnf+48e97598,0,18.25,1332108
cnfdedup_run.sh+crafted_n11_d6_c4_num21.cnf+4a2d922f,0,17.37,1331848
cnfdedup_run.sh+crafted_n12_d5_c4_num6.cnf+f5ab319e,0,3.43,290820
cnfdedup_run.sh+crafted_n12_d6_c3_num10.cnf+42fcd4f,0,11.04,873800
cnfdedup_run.sh+crafted_n12_d6_c3_num16.cnf+4845a55,0,11.36,873800
cnfdedup_run.sh+crafted_n12_d6_c4_num11.cnf+99229791,0,21.5,1626240
cnfdedup_run.sh+crafted_n12_d6_c4_num18.cnf+99853c18,0,21.54,1626240
cnfdedup_run.sh+crafted_n12_d6_c4_num20.cnf+9ac958af,0,21.61,1626240
cnfdedup_run.sh+crafted_n12_d6_c4_num22.cnf+9ae587b1,0,21.57,1626232
cnfdedup_run.sh+crafted_n12_d6_c4_num23.cnf+9af39f32,0,21.29,1626240
cnfdedup_run.sh+crafted_n12_d6_c4_num4.cnf+e412091d,0,21.38,1626240
cnfdedup_run.sh+crafted_n12_d6_c4_num6.cnf+e42e381f,0,21.51,1626236
cnfdedup_run.sh+crafted_n12_d6_c4_num9.cnf+e4587ea2,0,21.37,1626240
cnfdedup_run.sh+crn_20_361_s.cnf+6531ee9f,0,0.01,2828
cnfdedup_run.sh+ctl_3082_415_unsat_pre.cnf+eafebcb6,0,0.14,11236
cnfdedup_run.sh+ctl_3791_556_unsat_pre.cnf+272bfe45,0,0.15,10712
cnfdedup_run.sh+ctl_4291_567_5_unsat_pre.cnf+e193aab5,0,0.21,15988
cnfdedup_run.sh+dated-10-11-u.cnf+8129751d,0,1.0,68452
cnfdedup_run.sh+dated-10-13-u.cnf+eaf5eb9f,0,1.18,85916
cnfdedup_run.sh+dated-10-17-u.cnf+be8ed8a3,0,1.68,125496
cnfdedup_run.sh+dated-5-13-u.cnf+9ab6f595,0,0.95,68184
cnfdedup_run.sh+david.col.11.cnf+302e5da2,0,0.01,2004
cnfdedup_run.sh+dimacs.cnf+48ff3285,0,0.01,2336
cnfdedup_run.sh+edges-024-4-10183999-1-00.cnf+3d0c53ae,0,0.0,1452
cnfdedup_run.sh+edges-024-4-1208111-1-00.cnf+58d1c0aa,0,0.0,1452
cnfdedup_run.sh+edges-024-4-5613555-1-00.cnf+c354af40,0,0.0,1452
cnfdedup_run.sh+edges-024-4-5667555-1-00.cnf+e6b5b95f,0,0.0,1448
cnfdedup_run.sh+edges-024-4-7787777-1-00.cnf+e930051a,0,0.0,1452
cnfdedup_run.sh+edges-024-4-7880777-1-00.cnf+bd7641d4,0,0.0,1452
cnfdedup_run.sh+edges-025-4-10062999-1-00.cnf+3d8b452f,0,0.0,1452
cnfdedup_run.sh+edges-025-4-10106999-1-00.cnf+6400fba,0,0.0,1448
cnfdedup_run.sh+edges-025-4-10169999-1-00.cnf+1cfbdcf7,0,0.0,1448
cnfdedup_run.sh+edges-025-4-1237111-1-00.cnf+f789ed65,0,0.0,1452
cnfdedup_run.sh+edges-025-4-3369333-1-00.cnf+b8e80fc1,0,0.0,1448
cnfdedup_run.sh+edges-025-4-5714555-1-00.cnf+f354f661,0,0.0,1452
cnfdedup_run.sh+edges-025-4-7780777-1-00.cnf+4b3cadf2,0,0.0,1452
cnfdedup_run.sh+edges-025-4-7932777-1-00.cnf+72a49f5b,0,0.0,1452
cnfdedup_run.sh+edges-025-4-7957777-1-00.cnf+deef531e,0,0.0,1452
cnfdedup_run.sh+edges-070-3-10037999-34.cnf+c56ad431,0,0.0,1452
cnfdedup_run.sh+edges-070-3-10062999-36.cnf+f424758b,0,0.0,1452
cnfdedup_run.sh+edges-070-3-10122999-15.cnf+c0691dd1,0,0.0,1452
cnfdedup_run.sh+edges-070-3-1226111-26.cnf+836db9b8,0,0.0,1452
cnfdedup_run.sh+edges-070-3-1250111-33.cnf+1eb10b6b,0,0.0,1448
cnfdedup_run.sh+edges-070-3-3470333-15.cnf+ac668e2b,0,0.0,1448
cnfdedup_run.sh+edges-070-3-7857777-1.cnf+60967d9f,0,0.0,1452
cnfdedup_run.sh+edges-072-3-1124111-35.cnf+f5ebd311,0,0.0,1452
cnfdedup_run.sh+edges-072-3-1131111-37.cnf+3f0b8f2f,0,0.0,1452
cnfdedup_run.sh+edges-072-3-1161111-15.cnf+529a9f0c,0,0.0,1452
cnfdedup_run.sh+edges-072-3-5729555-15.cnf+bb3f2116,0,0.0,1448
cnfdedup_run.sh+edges-072-3-5749555-14.cnf+ca945453,0,0.0,1448
cnfdedup_run.sh+edges-072-3-7902777-18.cnf+1b64f3d2,0,0.0,1452
cnfdedup_run.sh+edges-072-3-7923777-13.cnf+bf667bcc,0,0.0,1452
cnfdedup_run.sh+edges-072-3-7925777-19.cnf+e9846e54,0,0.0,1448
cnfdedup_run.sh+em_14_7_3_cmp.cnf+5ae63029,0,0.48,33708
cnfdedup_run.sh+em_7_3_6_cmp.cnf+cc0b8e30,0,0.01,2496
cnfdedup_run.sh+em_7_4_8_cmp.cnf+89791ef3,0,0.01,2772
cnfdedup_run.sh+em_7_4_8_fbc.cnf+14af5054,0,0.03,3728
cnfdedup_run.sh+em_7_4_9_all.cnf+b203e0cf,0,0.04,5440
cnfdedup_run.sh+em_7_4_9_fbc.cnf+a8f3bf55,0,0.03,4004
cnfdedup_run.sh+esawn_uw3.debugged.cnf+6564ad21,0,97.36,5631316
cnfdedup_run.sh+ezfact64_3.sat05-450.reshuffled-07.cnf+9b1f7d78,0,0.02,3184
cnfdedup_run.sh+ezfact64_4.sat05-451.reshuffled-07.cnf+9219c3ba,0,0.02,3184
cnfdedup_run.sh+ezfact64_5.sat05-452.reshuffled-07.cnf+891409fc,0,0.02,3184
cnfdedup_run.sh+fpga10_11_uns_rcr.cnf+b3acac1e,0,0.0,1448
cnfdedup_run.sh+fpga10_12_uns_rcr.cnf+a22fb29f,0,0.0,1448
cnfdedup_run.sh+fpga10_13_uns_rcr.cnf+90b2b920,0,0.0,1468
cnfdedup_run.sh+fpga10_15_uns_rcr.cnf+6db8c622,0,0.0,1532
cnfdedup_run.sh+fpga10_20_uns_rcr.cnf+a7076f3c,0,0.0,1748
cnfdedup_run.sh+fpga10_8_sat.cnf+5ae29618,0,0.0,1452
cnfdedup_run.sh+fpga10_9_sat.cnf+ef270519,0,0.0,1452
cnfdedup_run.sh+fpga11_12_uns_rcr.cnf+83c1907e,0,0.0,1456
cnfdedup_run.sh+fpga11_13_uns_rcr.cnf+724496ff,0,0.0,1512
cnfdedup_run.sh+fpga11_14_uns_rcr.cnf+60c79d80,0,0.0,1524
cnfdedup_run.sh+fpga11_15_uns_rcr.cnf+4f4aa401,0,0.0,1552
cnfdedup_run.sh+fpga11_20_uns_rcr.cnf+88994d1b,0,0.0,1760
cnfdedup_run.sh+fpga12_11_sat.cnf+3c7430a6,0,0.0,1448
cnfdedup_run.sh+fpga12_12_sat.cnf+d0b89fa7,0,0.0,1452
cnfdedup_run.sh+fpga12_8_sat.cnf+84abfb9a,0,0.0,1448
cnfdedup_run.sh+fpga12_9_sat.cnf+18f06a9b,0,0.0,1452
cnfdedup_run.sh+fpga13_10_sat.cnf+afe16704,0,0.0,1448
cnfdedup_run.sh+fpga13_12_sat.cnf+d86a4506,0,0.0,1448
cnfdedup_run.sh+fpga13_9_sat.cnf+add51d5c,0,0.0,1452
cnfdedup_run.sh+fpsol2.i.1.col.65.cnf+969d21d1,0,1.04,79512
cnfdedup_run.sh+fpsol2.i.2.col.30.cnf+98e9c7ce,0,0.34,26748
cnfdedup_run.sh+fpsol2.i.3.col.30.cnf+a09b6d2d,0,0.34,26748
cnfdedup_run.sh+frb45-21-1.used-as.sat04-883.cnf+4d97f7ed,0,0.06,7284
cnfdedup_run.sh+frb80-14-2.used-as.sat04-880.cnf+13814bb8,0,0.04,5704
cnfdedup_run.sh+fsf-300-354-2-2-3-2.58.opt.cnf+73644e9b,0,0.01,2220
cnfdedup_run.sh+fsf-300-354-2-2-3-2.89.opt.cnf+e48510f9,0,0.0,2216
cnfdedup_run.sh+fsf-300-354-2-2-3-2.94.opt.cnf+f3785713,0,0.01,2220
cnfdedup_run.sh+fsf-300-354-2-2-3-2.95.opt.cnf+87bcc614,0,0.0,2220
cnfdedup_run.sh+games120.col.9.cnf+a0011805,0,0.0,2172
cnfdedup_run.sh+grid-strips-grid-y-3.035-NOTKNOWN.cnf+8a4e3834,0,3.08,221448
cnfdedup_run.sh+grid-strips-grid-y-3.055-NOTKNOWN.cnf+3e050cb6,0,5.15,354972
cnfdedup_run.sh+grid-strips-grid-y-3.065-SAT.cnf+b1657ab9,0,6.04,413052
cnfdedup_run.sh+grieu-vmpc-31.cnf+a0a8460,0,0.17,15060
cnfdedup_run.sh+gripper02t6.cnf+ddcbf013,0,0.0,1616
cnfdedup_run.sh+gripper02t7.cnf+5f25d10d,0,0.0,1744
cnfdedup_run.sh+gripper04t14.cnf+a3287e5e,0,0.03,4880
cnfdedup_run.sh+gripper04t15.cnf+4b63fb86,0,0.04,5148
cnfdedup_run.sh+gripper06t22.cnf+748381b9,0,0.13,13092
cnfdedup_run.sh+gripper06t23.cnf+1cbefee1,0,0.14,13620
cnfdedup_run.sh+gripper10t38.cnf+9b8a4925,0,0.67,62148
cnfdedup_run.sh+gripper10t39.cnf+43c5c64d,0,0.66,62148
cnfdedup_run.sh+gss-18-s100.cnf+2eccacfc,0,0.12,10976
cnfdedup_run.sh+gss-19-s100.cnf+23161e1b,0,0.12,10976
cnfdedup_run.sh+gss-20-s100.cnf+2165d6c5,0,0.12,10976
cnfdedup_run.sh+gss-22-s100.cnf+9f8b903,0,0.12,10976
cnfdedup_run.sh+gss-23-s100.cnf+fe422a22,0,0.11,10976
cnfdedup_run.sh+gss-24-s100.cnf+f28b9b41,0,0.12,11240
cnfdedup_run.sh+gss-25-s100.cnf+e6d50c60,0,0.12,11240
cnfdedup_run.sh+gus-md5-04.cnf+e394cfc4,0,0.32,24068
cnfdedup_run.sh+gus-md5-05.cnf+e3a2e745,0,0.32,24332
cnfdedup_run.sh+gus-md5-06.cnf+e3b0fec6,0,0.32,24332
cnfdedup_run.sh+gus-md5-07.cnf+e3bf1647,0,0.33,24332
cnfdedup_run.sh+gus-md5-09.cnf+e3db4549,0,0.32,24332
cnfdedup_run.sh+gus-md5-10.cnf+e5114a5f,0,0.33,24332
cnfdedup_run.sh+gus-md5-11.cnf+e51f61e0,0,0.32,24332
cnfdedup_run.sh+gus-md5-12.cnf+e52d7961,0,0.34,24332
cnfdedup_run.sh+gus-md5-14.cnf+e549a863,0,0.32,24332
cnfdedup_run.sh+gus-md5-15.cnf+e557bfe4,0,0.33,24332
cnfdedup_run.sh+gus-md5-16.cnf+e565d765,0,0.34,24596
cnfdedup_run.sh+hid-uns-enc-6-1-0-0-0-0-19851.cnf+ac454c11,0,0.01,1964
cnfdedup_run.sh+hid-uns-enc-6-1-0-0-0-0-26462.cnf+37103791,0,0.0,1968
cnfdedup_run.sh+hid-uns-enc-6-1-0-0-0-0-26808.cnf+c09de1,0,0.0,1968
cnfdedup_run.sh+hid-uns-enc-6-1-0-0-0-0-2907.cnf+99b31503,0,0.0,1968
cnfdedup_run.sh+hid-uns-enc-6-1-0-0-0-0-31380.cnf+92560d32,0,0.0,1968
cnfdedup_run.sh+hid-uns-enc-6-1-0-0-0-0-3191.cnf+6969786b,0,0.0,1968
cnfdedup_run.sh+hid-uns-enc-6-1-0-0-0-0-3251.cnf+977c5130,0,0.01,1968
cnfdedup_run.sh+hid-uns-enc-7-1-0-0-0-0-11545.cnf+d9a5ae3c,0,0.01,2560
cnfdedup_run.sh+hid-uns-enc-7-1-0-0-0-0-3557.cnf+1e256658,0,0.01,2560
cnfdedup_run.sh+hid-uns-enc-9-1-0-0-0-0-24642.cnf+f37b839a,0,0.04,4768
cnfdedup_run.sh+hitag2-10-60-0-0x0ffdbe60727f161-57.cnf+cd7e6bba,0,0.05,4504
cnfdedup_run.sh+hitag2-10-60-0-0x8edc44db7837bbf-65.cnf+8dd32ab1,0,0.05,4504
cnfdedup_run.sh+hitag2-10-60-0-0xe14721bd199894a-99.cnf+f254ad1a,0,0.04,4504
cnfdedup_run.sh+hitag2-10-60-0-0xe6754daf48162bf-46.cnf+febf2c42,0,0.05,5032
cnfdedup_run.sh+hitag2-10-60-0-0xfee9637399d85a2-78.cnf+192e8824,0,0.05,4504
cnfdedup_run.sh+hitag2-7-60-0-0xe8fa35372ed37e2-80.cnf+71bfad61,0,0.05,4504
cnfdedup_run.sh+hitag2-8-60-0-0x1eb82244d7f1c3c-47.cnf+34b8d90,0,0.05,4504
cnfdedup_run.sh+hitag2-8-60-0-0xdcdbc8bf368ee73-37.cnf+4d36f761,0,0.06,4504
cnfdedup_run.sh+hitag2-8-60-0-0xfba1a41b5dfd7f7-52.cnf+3b56a0aa,0,0.05,5028
cnfdedup_run.sh+hole002.cnf+a9ab7b29,0,0.0,1452
cnfdedup_run.sh+hole003.cnf+a9b992aa,0,0.0,1452
cnfdedup_run.sh+hole004.cnf+a9c7aa2b,0,0.0,1452
cnfdedup_run.sh+hole005.cnf+a9d5c1ac,0,0.0,1452
cnfdedup_run.sh+hole006.cnf+a9e3d92d,0,0.0,1452
cnfdedup_run.sh+hole007.cnf+a9f1f0ae,0,0.0,1452
cnfdedup_run.sh+hole008.cnf+aa00082f,0,0.0,1452
cnfdedup_run.sh+hole009.cnf+aa0e1fb0,0,0.0,1452
cnfdedup_run.sh+hole010.cnf+ab4424c6,0,0.0,1452
cnfdedup_run.sh+hole010_shuffled.cnf+5e2f2cc6,0,0.0,1452
cnfdedup_run.sh+hole011.cnf+ab523c47,0,0.0,1448
cnfdedup_run.sh+hole011_shuffled.cnf+400cf665,0,0.0,1452
cnfdedup_run.sh+hole012.cnf+ab6053c8,0,0.0,1452
cnfdedup_run.sh+hole012_shuffled.cnf+21eac004,0,0.0,1452
cnfdedup_run.sh+hole013.cnf+ab6e6b49,0,0.0,1452
cnfdedup_run.sh+hole013_shuffled.cnf+3c889a3,0,0.0,1448
cnfdedup_run.sh+hole014.cnf+ab7c82ca,0,0.0,1456
cnfdedup_run.sh+hole014_shuffled.cnf+e5a65342,0,0.0,1456
cnfdedup_run.sh+hole015.cnf+ab8a9a4b,0,0.0,1508
cnfdedup_run.sh+hole015_shuffled.cnf+c7841ce1,0,0.0,1508
cnfdedup_run.sh+hole016_shuffled.cnf+a961e680,0,0.0,1540
cnfdedup_run.sh+hole017_shuffled.cnf+8b3fb01f,0,0.0,1580
cnfdedup_run.sh+hole018_shuffled.cnf+6d1d79be,0,0.0,1624
cnfdedup_run.sh+hole019_shuffled.cnf+4efb435d,0,0.0,1668
cnfdedup_run.sh+hole020.cnf+acf8fd65,0,0.0,1760
cnfdedup_run.sh+hole020_shuffled.cnf+b80a9707,0,0.0,1760
cnfdedup_run.sh+hole030.cnf+aeadd604,0,0.01,2736
cnfdedup_run.sh+hole030_shuffled.cnf+11e60148,0,0.01,2736
cnfdedup_run.sh+homer.col.13.cnf+6170ae45,0,0.03,4500
cnfdedup_run.sh+huck.col.11.cnf+1a824347,0,0.0,1808
cnfdedup_run.sh+hwmcc10-timeframe-expansion-k45-pdtpmsgoodbakery-tseitin.cnf+155ac6c4,0,0.44,33044
cnfdedup_run.sh+hwmcc10-timeframe-expansion-k45-pdtvisns3p02-tseitin.cnf+536d9815,0,0.71,50996
cnfdedup_run.sh+hwmcc10-timeframe-expansion-k50-pdtpmsns2-tseitin.cnf+3bd1acc,0,0.4,31128
cnfdedup_run.sh+hwmcc10-timeframe-expansion-k50-pdtvisns3p00-tseitin.cnf+a679fc39,0,0.84,62156
cnfdedup_run.sh+inithx.i.1.col.54.cnf+24ce317d,0,1.46,102528
cnfdedup_run.sh+inithx.i.2.col.31.cnf+28ebdf1b,0,0.66,44716
cnfdedup_run.sh+inithx.i.3.col.31.cnf+309d847a,0,0.57,44712
cnfdedup_run.sh+instance_n8_i8_pp_ci_ce.cnf+49d56f3d,0,0.4,27172
cnfdedup_run.sh+instance_n8_i9_pp.cnf+8b260b40,0,0.49,31976
cnfdedup_run.sh+itox_vc1130.cnf+b9c28ab3,0,0.67,46768
cnfdedup_run.sh+jean.col.10.cnf+ea5d4973,0,0.0,1700
cnfdedup_run.sh+jkkk-one-one-10-34-sat.cnf+8d9462cc,0,0.1,9216
cnfdedup_run.sh+jkkk-random-132906006148277-10-10-34-SUM-sat.cnf+d5c7bf1d,0,0.33,24184
cnfdedup_run.sh+jkkk-random-132906006427000-10-10-35-OR-sat.cnf+972c80f6,0,0.31,23116
cnfdedup_run.sh+jkkk-random-132906006427000-10-10-36-SUM-sat.cnf+29d7a245,0,0.44,31496
cnfdedup_run.sh+jkkk-random-132906006493326-10-10-35-OR-sat.cnf+7bae6288,0,0.32,23116
cnfdedup_run.sh+k2fix_gr_rcs_w9.shuffled.cnf+b652a7b3,0,0.43,33856
cnfdedup_run.sh+korf-17.cnf+f6d2eeb9,0,0.15,10912
cnfdedup_run.sh+korf-18.cnf+f6e1063a,0,0.41,22912
cnfdedup_run.sh+le450_15a.col.15.cnf+430ec2e6,0,0.14,12840
cnfdedup_run.sh+le450_15b.col.15.cnf+4ac06845,0,0.15,12840
cnfdedup_run.sh+le450_15c.col.15.cnf+52720da4,0,0.31,25140
cnfdedup_run.sh+le450_15d.col.15.cnf+5a23b303,0,0.31,25140
cnfdedup_run.sh+le450_25a.col.25.cnf+26a16524,0,0.25,21720
cnfdedup_run.sh+le450_25b.col.25.cnf+2e530a83,0,0.27,21720
cnfdedup_run.sh+le450_25c.col.25.cnf+3604afe2,0,0.57,44424
cnfdedup_run.sh+le450_25d.col.25.cnf+3db65541,0,0.54,44424
cnfdedup_run.sh+le450_5a.col.5.cnf+fc05d768,0,0.02,3708
cnfdedup_run.sh+le450_5b.col.5.cnf+90ea8a29,0,0.02,3712
cnfdedup_run.sh+le450_5c.col.5.cnf+25cf3cea,0,0.04,5412
cnfdedup_run.sh+le450_5d.col.5.cnf+bab3efab,0,0.05,5412
cnfdedup_run.sh+log-pairs-05t5.cnf+317c472c,0,0.21,18796
cnfdedup_run.sh+log-pairs-07t5.cnf+9b48bdae,0,1.04,76776
cnfdedup_run.sh+log-pairs-09t5.cnf+5153430,0,3.54,253060
cnfdedup_run.sh+log-pairs-11t5.cnf+c5c48707,0,9.73,593868
cnfdedup_run.sh+log-rotate-06t6.cnf+266dce25,0,0.22,18792
cnfdedup_run.sh+log-rotate-06t6.cnf+d14f0f1e,0,0.22,18792
cnfdedup_run.sh+log-rotate-07t6.cnf+6354a5f,0,0.47,36740
cnfdedup_run.sh+log-rotate-08t6.cnf+3b1b85a0,0,0.67,53640
cnfdedup_run.sh+log-rotate-08t6.cnf+903a44a7,0,0.7,53640
cnfdedup_run.sh+log-rotate-09t6.cnf+7001c0e1,0,1.26,94720
cnfdedup_run.sh+log-rotate-09t6.cnf+c5207fe8,0,1.32,94720
cnfdedup_run.sh+log-rotate-11t6.cnf+85cfd2bf,0,3.93,259368
cnfdedup_run.sh+logistics.a.cnf+d5997da4,0,0.0,1992
cnfdedup_run.sh+logistics.b.cnf+d5a79525,0,0.0,2048
cnfdedup_run.sh+logistics.c.cnf+d5b5aca6,0,0.01,2428
cnfdedup_run.sh+logistics.d.cnf+d5c3c427,0,0.02,3448
cnfdedup_run.sh+manol-pipe-c10nid_i.cnf+8f1b5618,0,1.13,79928
cnfdedup_run.sh+manol-pipe-c10nidw.cnf+37625683,0,2.04,138960
cnfdedup_run.sh+manol-pipe-c10nidw_s.cnf+3c889af7,0,1.93,130776
cnfdedup_run.sh+manol-pipe-c8nidw.cnf+7267cdaa,0,1.23,84416
cnfdedup_run.sh+manol-pipe-g10bid_i.cnf+baacb788,0,1.16,83624
cnfdedup_run.sh+maxxor032.cnf+d6e55536,0,0.04,5412
cnfdedup_run.sh+miles1000.col.42.cnf+6663e2f7,0,0.28,23812
cnfdedup_run.sh+miles1500.col.73.cnf+d4e57470,0,0.82,63664
cnfdedup_run.sh+miles250.col.8.cnf+e4b35605,0,0.0,1768
cnfdedup_run.sh+miles500.col.20.cnf+a48882a3,0,0.03,4796
cnfdedup_run.sh+miles750.col.31.cnf+12962686,0,0.12,11944
cnfdedup_run.sh+minandmaxor128.cnf+fbd1c651,0,1.14,79404
cnfdedup_run.sh+minxor128.cnf+7709744c,0,0.23,18260
cnfdedup_run.sh+minxorminand064.cnf+7ae8bd9e,0,0.16,13356
cnfdedup_run.sh+mod2-rand3bip-sat-230-2.sat05-2189.reshuffled-07.cnf+6a0f1a1e,0,0.0,1452
cnfdedup_run.sh+mod2-rand3bip-sat-230-2.sat05-2189.reshuffled-07.cnf+ac757ba9,0,0.0,1452
cnfdedup_run.sh+mod2-rand3bip-sat-270-1.sat05-2248.reshuffled-07.cnf+12898c7,0,0.0,1452
cnfdedup_run.sh+mod2-rand3bip-sat-270-1.shuffled-as.sat05-2248.cnf+3988d9b9,0,0.0,1452
cnfdedup_run.sh+mod2-rand3bip-sat-270-2.sat05-2249.reshuffled-07.cnf+cf7fa627,0,0.0,1452
cnfdedup_run.sh+mod2-rand3bip-sat-280-1.sat05-2263.reshuffled-07.cnf+49f018c1,0,0.0,1452
cnfdedup_run.sh+mod2c-rand3bip-sat-240-3.shuffled-as.sat05-2520.cnf+8cc1d047,0,0.0,1560
cnfdedup_run.sh+mod2c-rand3bip-sat-240-3.shuffled-as.sat05-2520.cnf+d4f00f32,0,0.0,1560
cnfdedup_run.sh+mod2c-rand3bip-sat-250-1.shuffled-as.sat05-2533.cnf+a15e7d7,0,0.0,1556
cnfdedup_run.sh+mod2c-rand3bip-sat-250-3.shuffled-as.sat05-2535.cnf+ebd42597,0,0.0,1568
cnfdedup_run.sh+mrpp_4x4#4_24.cnf+6d6e0016,0,0.02,3976
cnfdedup_run.sh+mrpp_4x4#6_12.cnf+3b5f5233,0,0.01,2660
cnfdedup_run.sh+mrpp_4x4#6_20.cnf+3cf7fbd0,0,0.02,3448
cnfdedup_run.sh+mrpp_4x4#6_6.cnf+3bfe2cde,0,0.0,1936
cnfdedup_run.sh+mrpp_4x4#8_12.cnf+b21abf1,0,0.02,2920
cnfdedup_run.sh+mrpp_4x4#8_16.cnf+b5a09f5,0,0.02,3456
cnfdedup_run.sh+mrpp_4x4#8_24.cnf+cf2b392,0,0.04,4884
cnfdedup_run.sh+mrpp_4x4#8_7.cnf+a5d8bae1,0,0.01,2320
cnfdedup_run.sh+mrpp_6x6#10_10.cnf+bf5abb34,0,0.04,4768
cnfdedup_run.sh+mrpp_6x6#10_12.cnf+bf76ea36,0,0.05,5412
cnfdedup_run.sh+mrpp_6x6#10_20.cnf+c10f93d3,0,0.07,8340
cnfdedup_run.sh+mrpp_6x6#12_20.cnf+90d1ed91,0,0.08,8340
cnfdedup_run.sh+mrpp_6x6#12_9.cnf+2e58c580,0,0.03,4240
cnfdedup_run.sh+mrpp_6x6#14_12.cnf+5efb9db2,0,0.04,5148
cnfdedup_run.sh+mrpp_6x6#16_16.cnf+2ef65574,0,0.1,8600
cnfdedup_run.sh+mrpp_6x6#18_12.cnf+fe80512e,0,0.06,6464
cnfdedup_run.sh+mrpp_8x8#10_9.cnf+bc827bfa,0,0.07,6468
cnfdedup_run.sh+mrpp_8x8#16_10.cnf+35713af2,0,0.1,9132
cnfdedup_run.sh+mrpp_8x8#16_11.cnf+357f5273,0,0.12,9660
cnfdedup_run.sh+mrpp_8x8#16_12.cnf+358d69f4,0,0.14,10452
cnfdedup_run.sh+mrpp_8x8#16_16.cnf+35c5c7f8,0,0.17,13356
cnfdedup_run.sh+mrpp_8x8#18_14.cnf+56bf2b4,0,0.14,11772
cnfdedup_run.sh+mrpp_8x8#20_24.cnf+5c5bd35c,0,0.27,19320
cnfdedup_run.sh+mrpp_8x8#22_11.cnf+2a3f0df8,0,0.1,9660
cnfdedup_run.sh+mrpp_8x8#22_20.cnf+2be5cf16,0,0.21,16680
cnfdedup_run.sh+mrpp_8x8#22_24.cnf+2c1e2d1a,0,0.26,19320
cnfdedup_run.sh+mrpp_8x8#24_11.cnf+fa0167b6,0,0.12,9656
cnfdedup_run.sh+mrpp_8x8#24_12.cnf+fa0f7f37,0,0.13,10188
cnfdedup_run.sh+mrpp_8x8#24_14.cnf+fa2bae39,0,0.15,11508
cnfdedup_run.sh+mrpp_8x8#24_20.cnf+fba828d4,0,0.22,16416
cnfdedup_run.sh+mulsol.i.1.col.49.cnf+f16c6fb7,0,0.25,20928
cnfdedup_run.sh+mulsol.i.2.col.31.cnf+f6f8806f,0,0.15,13104
cnfdedup_run.sh+mulsol.i.3.col.31.cnf+feaa25ce,0,0.14,13100
cnfdedup_run.sh+mulsol.i.4.col.31.cnf+65bcb2d,0,0.14,13364
cnfdedup_run.sh+mulsol.i.5.col.31.cnf+e0d708c,0,0.15,13368
cnfdedup_run.sh+myciel3.col.4.cnf+55edce52,0,0.0,1444
cnfdedup_run.sh+myciel4.col.5.cnf+eae09894,0,0.0,1440
cnfdedup_run.sh+myciel5.col.6.cnf+7fd362d6,0,0.0,1440
cnfdedup_run.sh+myciel6.col.7.cnf+14c62d18,0,0.0,1796
cnfdedup_run.sh+myciel7.col.8.cnf+a9b8f75a,0,0.01,2920
cnfdedup_run.sh+ndist.b.20499.cnf+aff7118c,0,0.53,39908
cnfdedup_run.sh+ndist.b.20998.cnf+b8682250,0,0.56,40696
cnfdedup_run.sh+ndist.b.22495.cnf+7f810d46,0,0.56,43072
cnfdedup_run.sh+ndist.b.22994.cnf+87f21e0a,0,0.61,44132
cnfdedup_run.sh+ndist.b.23992.cnf+efb71be7,0,0.6,45716
cnfdedup_run.sh+ndist.b.24491.cnf+4f0b0900,0,0.65,46508
cnfdedup_run.sh+ndist.b.25489.cnf+b5a81948,0,0.66,48356
cnfdedup_run.sh+ndist.b.26487.cnf+1d6d1725,0,0.69,49940
cnfdedup_run.sh+ndist.b.27485.cnf+85321502,0,0.73,51524
cnfdedup_run.sh+ndist.b.29481.cnf+54bc10bc,0,0.84,62144
cnfdedup_run.sh+openstacks-p30_3.085-SAT.cnf+2ddd071d,0,2.49,174248
cnfdedup_run.sh+openstacks-sequencedstrips-nonadl-nonnegated-os-sequencedstrips-p30_1.025-NOTKNOWN.cnf+1d267df,0,0.69,50560
cnfdedup_run.sh+openstacks-sequencedstrips-nonadl-nonnegated-os-sequencedstrips-p30_3.025-NOTKNOWN.cnf+8af62c1d,0,0.67,51352
cnfdedup_run.sh+openstacks-sequencedstrips-nonadl-nonnegated-os-sequencedstrips-p30_3.085-SAT.cnf+a3a94c8d,0,2.4,174248
cnfdedup_run.sh+partial-10-11-s.cnf+39ed3066,0,1.22,88828
cnfdedup_run.sh+partial-10-17-s.cnf+775293ec,0,2.13,149804
cnfdedup_run.sh+partial-5-15-s.cnf+c00b5d6a,0,1.48,104164
cnfdedup_run.sh+partial-5-17-s.cnf+29d7d3ec,0,1.79,129168
cnfdedup_run.sh+pb_300_10_lb_07.cnf+a762eb07,0,0.96,67652
cnfdedup_run.sh+pb_300_10_lb_08.cnf+a7710288,0,0.94,68200
cnfdedup_run.sh+post-c32s-ss-8.cnf+e835bcb6,0,0.22,17204
cnfdedup_run.sh+post-cbmc-aes-d-r2-noholes.cnf+ffe53f33,0,2.58,171132
cnfdedup_run.sh+post-cbmc-aes-d-r2.cnf+ad99d0ee,0,2.55,171132
cnfdedup_run.sh+post-cbmc-aes-ee-r2-noholes.cnf+3a15b487,0,2.52,168228
cnfdedup_run.sh+post-cbmc-zfcp-2.8-u2.cnf+9e2b5375,0,53.84,3351748
cnfdedup_run.sh+prime2209-98.cnf+9fd9cd22,0,0.49,38056
cnfdedup_run.sh+q_query_3_L100_coli.sat.cnf+dab8e228,0,2.42,160680
cnfdedup_run.sh+q_query_3_L150_coli.sat.cnf+9c01f56d,0,4.27,265516
cnfdedup_run.sh+q_query_3_L200_coli.sat.cnf+bc4ac007,0,6.03,364528
cnfdedup_run.sh+q_query_3_L80_coli.sat.cnf+4be46869,0,2.03,128736
cnfdedup_run.sh+q_query_3_L90_coli.sat.cnf+a5bfd2aa,0,2.3,144576
cnfdedup_run.sh+q_query_3_l45_lambda.cnf+858fc146,0,0.24,18268
cnfdedup_run.sh+q_query_3_l46_lambda.cnf+8d4166a5,0,0.25,18800
cnfdedup_run.sh+q_query_3_l48_lambda.cnf+9ca4b163,0,0.26,19592
cnfdedup_run.sh+queen10_10.col.10.cnf+162c4066,0,0.02,3500
cnfdedup_run.sh+queen11_11.col.11.cnf+77c76787,0,0.03,4504
cnfdedup_run.sh+queen12_12.col.12.cnf+d9628ea8,0,0.05,5824
cnfdedup_run.sh+queen13_13.col.13.cnf+3afdb5c9,0,0.07,7812
cnfdedup_run.sh+queen14_14.col.14.cnf+9c98dcea,0,0.1,10160
cnfdedup_run.sh+queen15_15.col.15.cnf+fe34040b,0,0.15,13568
cnfdedup_run.sh+queen16_16.col.16.cnf+5fcf2b2c,0,0.2,16864
cnfdedup_run.sh+queen5_5.col.5.cnf+219ab1b4,0,0.0,1444
cnfdedup_run.sh+queen6_6.col.7.cnf+a51e99f8,0,0.0,1604
cnfdedup_run.sh+queen7_7.col.7.cnf+2886533a,0,0.0,1784
cnfdedup_run.sh+queen8_12.col.12.cnf+c69100a5,0,0.02,3784
cnfdedup_run.sh+queen8_8.col.9.cnf+ac0a3b7e,0,0.01,2280
cnfdedup_run.sh+queen9_9.col.10.cnf+b129cdb2,0,0.01,2916
cnfdedup_run.sh+ramsey_3_3_6.cnf+e3256718,1,0.0,1412
cnfdedup_run.sh+ramsey_3_4_9.cnf+1835e8dc,1,0.0,1408
cnfdedup_run.sh+ramsey_4_4_17.cnf+d59072bc,1,0.0,1412
cnfdedup_run.sh+ramsey_4_4_18.cnf+d59e8a3d,1,0.0,1412
cnfdedup_run.sh+ramsey_4_5_24.cnf+3efc31b7,1,0.0,1408
cnfdedup_run.sh+ramsey_4_5_25.cnf+3f0a4938,1,0.0,1412
cnfdedup_run.sh+ramsey_5_5_42.cnf+36932512,1,0.0,1408
cnfdedup_run.sh+ramsey_5_5_43.cnf+36a13c93,1,0.0,1408
cnfdedup_run.sh+rbcl_xits_08_UNSAT.cnf+90239a9b,0,0.08,8604
cnfdedup_run.sh+rbcl_xits_14_SAT.cnf+6b995caf,0,0.2,17204
cnfdedup_run.sh+rbsat-v1150c84314gyes10.cnf+e906fcc,0,0.09,10028
cnfdedup_run.sh+rbsat-v1150c84314gyes4.cnf+63bb31e1,0,0.09,10024
cnfdedup_run.sh+rbsat-v1150c84314gyes5.cnf+63c94962,0,0.09,9924
cnfdedup_run.sh+rbsat-v1150c84314gyes7.cnf+63e57864,0,0.09,10032
cnfdedup_run.sh+rbsat-v945c61409g10.cnf+bf705f08,0,0.07,7528
cnfdedup_run.sh+rbsat-v945c61409gyes5.cnf+42ecb497,0,0.07,7528
cnfdedup_run.sh+reg_s_2_unknown.cnf+d2a51c04,0,2.95,176972
cnfdedup_run.sh+rnd-v25-e13-k3.cnf+ce606365,0,0.66,46768
cnfdedup_run.sh+rnd-v25-e178-k13.cnf+541ccc44,0,1.37,93944
cnfdedup_run.sh+rnd-v25-e212-k9.cnf+612248b0,0,1.44,96320
cnfdedup_run.sh+rnd-v25-e81-k9.cnf+cd19fb4,0,0.93,64904
cnfdedup_run.sh+rook-40-0-0.cnf+832cb6d2,0,0.37,31128
cnfdedup_run.sh+rook-40-0-1.cnf+833ace53,0,0.39,31136
cnfdedup_run.sh+rook-42-0-0.cnf+abb594d4,0,0.44,33040
cnfdedup_run.sh+rook-42-0-1.cnf+abc3ac55,0,0.45,33048
cnfdedup_run.sh+rook-42-1-1.cnf+e0a9e796,0,0.44,33056
cnfdedup_run.sh+rook-44-0-1.cnf+d44c8a57,0,0.49,37272
cnfdedup_run.sh+rook-44-1-1.cnf+932c598,0,0.5,37280
cnfdedup_run.sh+rook-46-1-1.cnf+31bba39a,0,0.59,42032
cnfdedup_run.sh+rook-47-0-1.cnf+9119d75a,0,0.61,44404
cnfdedup_run.sh+rook-47-1-1.cnf+c600129b,0,0.63,44412
cnfdedup_run.sh+rook-48-0-1.cnf+255e465b,0,0.66,46780
cnfdedup_run.sh+rook-49-1-1.cnf+ee88f09d,0,0.71,49692
cnfdedup_run.sh+rook-50-0-0.cnf+777627f1,0,0.77,52308
cnfdedup_run.sh+rook-51-0-0.cnf+bba96f2,0,0.86,62140
cnfdedup_run.sh+rook-52-0-1.cnf+a00d1d74,0,0.9,62248
cnfdedup_run.sh+rook-54-0-0.cnf+c887e3f5,0,0.97,68572
cnfdedup_run.sh+rook-54-1-1.cnf+fd7c36b7,0,1.0,68864
cnfdedup_run.sh+rook-55-0-1.cnf+5cda6a77,0,1.04,72020
cnfdedup_run.sh+rook-56-0-0.cnf+f110c1f7,0,1.09,75440
cnfdedup_run.sh+rook-56-1-1.cnf+260514b9,0,1.09,75464
cnfdedup_run.sh+rook-57-1-1.cnf+ba4983ba,0,1.12,79160
cnfdedup_run.sh+rook-58-1-1.cnf+4e8df2bb,0,1.19,82860
cnfdedup_run.sh+rook-59-1-1.cnf+e2d261bc,0,1.27,86824
cnfdedup_run.sh+rook-60-0-1.cnf+6bcdb091,0,1.31,90768
cnfdedup_run.sh+rook-61-1-1.cnf+34f85ad3,0,1.38,95008
cnfdedup_run.sh+rook-63-1-1.cnf+5d8138d5,0,1.54,103460
cnfdedup_run.sh+rook-65-1-1.cnf+860a16d7,0,1.77,125160
cnfdedup_run.sh+rook-68-1-1.cnf+42d763da,0,2.02,136352
cnfdedup_run.sh+rook-72-1-1.cnf+bd863af3,0,2.38,158268
cnfdedup_run.sh+rook-76-1-1.cnf+e97f6f7,0,2.79,183088
cnfdedup_run.sh+rpoc_xits_15_SAT.cnf+515127fd,0,0.29,19844
cnfdedup_run.sh+rpoc_xits_15_SAT.cnf+a00cefa9,0,0.25,19844
cnfdedup_run.sh+sat-grid-pbl-0200.sat05-1339.reshuffled-07.cnf+7b82d7e9,0,0.13,9656
cnfdedup_run.sh+school1.col.14.cnf+5600607c,0,0.32,26456
cnfdedup_run.sh+school1_nsh.col.14.cnf+d4aac378,0,0.23,20908
cnfdedup_run.sh+sgen1-sat-230-100.cnf+d816126f,0,0.0,1452
cnfdedup_run.sh+sgen1-sat-240-100.cnf+cc5f838e,0,0.0,1448
cnfdedup_run.sh+sgen1-sat-250-100.cnf+c0a8f4ad,0,0.0,1452
cnfdedup_run.sh+sgen1-sat-270-100.cnf+a93bd6eb,0,0.0,1452
cnfdedup_run.sh+sgen3-n200-s39840374-sat.cnf+84a0b03a,0,0.0,1452
cnfdedup_run.sh+sgen3-n220-s24359701-sat.cnf+6439b8b9,0,0.0,1452
cnfdedup_run.sh+sgen3-n240-s78945233-sat.cnf+5d9b352d,0,0.0,1448
cnfdedup_run.sh+sgen4-sat-160-8.cnf+edc19fd5,0,0.0,1448
cnfdedup_run.sh+sgen4-sat-200-8.cnf+12bf019c,0,0.0,1452
cnfdedup_run.sh+sgen4-sat-220-8.cnf+e2815b5a,0,0.0,1452
cnfdedup_run.sh+sgen6-1080-5-1.cnf+d94fdc35,0,0.0,1448
cnfdedup_run.sh+sgen6-1200-5-1.cnf+60cdb8bf,0,0.0,1452
cnfdedup_run.sh+sgen6-1320-5-1.cnf+de454dbe,0,0.0,1452
cnfdedup_run.sh+sgen6-1440-5-1.cnf+5bbce2bd,0,0.0,1452
cnfdedup_run.sh+sgen6-840-5-1.cnf+57d075a8,0,0.0,1448
cnfdedup_run.sh+sgen6-960-5-1.cnf+d5480aa7,0,0.0,1452
cnfdedup_run.sh+shift1add.10000.cnf+74014271,0,0.55,41752
cnfdedup_run.sh+shift1add.13988.cnf+95d45f57,0,0.85,62140
cnfdedup_run.sh+shift1add.15982.cnf+65422c0f,0,0.97,67788
cnfdedup_run.sh+shift1add.18973.cnf+9b3ef18e,0,1.13,78876
cnfdedup_run.sh+shift1add.21964.cnf+56b46558,0,1.31,89700
cnfdedup_run.sh+shift1add.24955.cnf+8cb12ad7,0,1.49,100788
cnfdedup_run.sh+shift1add.25952.cnf+f4681133,0,1.56,104220
cnfdedup_run.sh+shift1add.29940.cnf+921bbd0e,0,1.85,127344
cnfdedup_run.sh+slp-synthesis-aes-top28.cnf+d1f7190c,0,0.41,31780
cnfdedup_run.sh+slp-synthesis-aes-top29.cnf+d205308d,0,0.43,33628
cnfdedup_run.sh+smtlib-qfbv-aigs-ext_con_032_008_0256-tseitin.cnf+446d6913,0,0.07,8600
cnfdedup_run.sh+smtlib-qfbv-aigs-lfsr_004_127_112-tseitin.cnf+d636cb6,0,1.34,91812
cnfdedup_run.sh+stable-300-0.1-20-98765432130020.cnf+e44876c1,0,0.07,3976
cnfdedup_run.sh+stable-400-0.1-11-98765432140011.cnf+7b3eea03,0,0.16,6504
cnfdedup_run.sh+stable-400-0.1-12-98765432140012.cnf+62eed7e3,0,0.15,6392
cnfdedup_run.sh+stable-400-0.1-2-9876543214002.cnf+47dc92cf,0,0.17,6492
cnfdedup_run.sh+stable-400-0.1-4-9876543214004.cnf+e34d8553,0,0.16,6496
cnfdedup_run.sh+stable-400-0.1-5-9876543214005.cnf+b105fe95,0,0.16,6352
cnfdedup_run.sh+stable-400-0.1-7-9876543214007.cnf+4c76f119,0,0.16,6476
cnfdedup_run.sh+total-10-13-u.cnf+382efb6d,0,1.49,105128
cnfdedup_run.sh+toughsat_factoring_155s.cnf+c04654de,0,0.01,2336
cnfdedup_run.sh+toughsat_factoring_426s.cnf+5aec0257,0,0.01,2428
cnfdedup_run.sh+toughsat_factoring_958s.cnf+46e45b3,0,0.01,2340
cnfdedup_run.sh+toughsat_factoring_inf.cnf+b216587f,0,0.02,2916
cnfdedup_run.sh+tph17.cnf+7c81fa2e,0,0.15,12560
cnfdedup_run.sh+transport-transport-city-sequential-25nodes-1000size-3degree-100mindistance-3trucks-10packages-2008seed.020-NOTKNOWN.cnf+49b7b1d6,0,1.99,140600
cnfdedup_run.sh+transport-transport-city-sequential-25nodes-1000size-3degree-100mindistance-3trucks-10packages-2008seed.030-NOTKNOWN.cnf+a3931c17,0,2.86,201848
cnfdedup_run.sh+transport-transport-city-sequential-25nodes-1000size-3degree-100mindistance-3trucks-10packages-2008seed.040-NOTKNOWN.cnf+fd6e8658,0,4.11,280408
cnfdedup_run.sh+transport-transport-city-sequential-25nodes-1000size-3degree-100mindistance-3trucks-10packages-2008seed.050-NOTKNOWN.cnf+5749f099,0,4.98,341656
cnfdedup_run.sh+transport-transport-city-sequential-35nodes-1000size-4degree-100mindistance-4trucks-14packages-2008seed.040-NOTKNOWN.cnf+7f7ec8db,0,10.95,714360
cnfdedup_run.sh+unsat-set-a-clqcolor-10-06-07.sat05-1250.reshuffled-07.cnf+4e8c0a5f,0,0.0,1556
cnfdedup_run.sh+unsat-set-a-clqcolor-12-07-08.sat05-1251.reshuffled-07.cnf+8339447e,0,0.0,1788
cnfdedup_run.sh+unsat-set-a-clqcolor-16-10-11.sat05-1253.reshuffled-07.cnf+cbf4a07c,0,0.02,2920
cnfdedup_run.sh+unsat-set-a-clqcolor-30-19-20.sat05-1256.reshuffled-07.cnf+2399d332,0,0.27,19852
cnfdedup_run.sh+unsat-set-a-fclqcolor-10-06-07.sat05-1274.reshuffled-07.cnf+66c5a6a7,0,0.0,1604
cnfdedup_run.sh+unsat-set-a-fclqcolor-20-13-14.sat05-1278.reshuffled-07.cnf+879256ac,0,0.05,5676
cnfdedup_run.sh+unsat-set-b-clqcolor-16-11-14.sat05-1261.reshuffled-07.cnf+d1ea1416,0,0.03,3712
cnfdedup_run.sh+unsat-set-b-clqcolor-30-20-26.sat05-1264.reshuffled-07.cnf+7e47b5be,0,0.49,33580
cnfdedup_run.sh+unsat-set-b-fclqcolor-10-07-09.sat05-1282.reshuffled-07.cnf+31cd66c4,0,0.0,1788
cnfdedup_run.sh+unsat-set-b-fclqcolor-25-18-23.sat05-1287.reshuffled-07.cnf+6fc247cd,0,0.26,19584
cnfdedup_run.sh+vdw_2_3_8.cnf+420a330d,0,0.0,1412
cnfdedup_run.sh+vdw_2_3_9.cnf+42184a8e,0,0.0,1412
cnfdedup_run.sh+vdw_2_4_34.cnf+5ed16dc5,0,0.0,1412
cnfdedup_run.sh+vdw_2_4_35.cnf+5edf8546,0,0.0,1412
cnfdedup_run.sh+vdw_2_5_177.cnf+ab596128,0,0.0,2188
cnfdedup_run.sh+vdw_2_5_178.cnf+ab6778a9,0,0.0,2188
cnfdedup_run.sh+vdw_2_6_1131.cnf+6ff575e0,0,0.52,27232
cnfdedup_run.sh+vdw_2_6_1132.cnf+70038d61,0,0.55,31128
cnfdedup_run.sh+vdw_3_3_26.cnf+e9a10868,0,0.0,1412
cnfdedup_run.sh+vdw_3_3_27.cnf+e9af1fe9,0,0.0,1408
cnfdedup_run.sh+vdw_3_4_292.cnf+e4031be2,0,0.06,5676
cnfdedup_run.sh+vdw_3_4_293.cnf+e4113363,0,0.06,5676
cnfdedup_run.sh+vdw_4_3_75.cnf+e6649d21,0,0.0,1884
cnfdedup_run.sh+vdw_4_3_76.cnf+e672b4a2,0,0.0,1896
cnfdedup_run.sh+vdw_5_3_171.cnf+412a0e63,0,0.04,5148
cnfdedup_run.sh+velev-vliw-uns-2.0-uq5.cnf+6b93e4df,0,4.13,274256
cnfdedup_run.sh+velev-vliw-uns-4.0-9-i1.cnf+92bc76e,0,5.39,345004
cnfdedup_run.sh+velev-vliw-uns-4.0-9.cnf+623b1041,0,2.9,191748
cnfdedup_run.sh+vmpc_29.cnf+6aaff07a,0,0.14,12752
cnfdedup_run.sh+vmpc_32.renamed-as.sat05-1919.cnf+a4ecc3eb,0,0.22,17944
cnfdedup_run.sh+vmpc_33.cnf+6c103c13,0,0.24,18712
cnfdedup_run.sh+x1_40.shuffled.cnf+d1ec930a,0,0.0,1452
cnfdedup_run.sh+x1_80.shuffled.cnf+395a3c0e,0,0.0,1448
cnfdedup_run.sh+zeroin.i.1.col.49.cnf+b9f2cb16,0,0.25,21724
cnfdedup_run.sh+zeroin.i.2.col.30.cnf+bf70c44d,0,0.13,11784
cnfdedup_run.sh+zeroin.i.3.col.30.cnf+c72269ac,0,0.12,11784
cnfdedup_run.sh+zfcp-2.8-u2-nh.cnf+70cd0de1,0,53.53,3351744
