Name,OutCode,Time,Mem
glucose_breakid.sh+001-80-12.cnf+3f533a8a,0,0.0,1476,nosym
glucose_breakid.sh+002-23-96.cnf+a01ffcde,0,3598.38,164528
glucose_breakid.sh+002-80-12.cnf+d437ed4b,0,0.0,1480,nosym
glucose_breakid.sh+002-80-4.cnf+f67d9fc4,0,0.0,1476,nosym
glucose_breakid.sh+002-80-8.cnf+f6b5fdc8,0,0.0,1480,nosym
glucose_breakid.sh+003-23-80.cnf+32fb49fa,0,3597.15,160796
glucose_breakid.sh+003-80-8.cnf+eaff6ee7,0,0.0,1480,nosym
glucose_breakid.sh+004-22-144.cnf+349f3cc7,0,3596.22,164168
glucose_breakid.sh+004-22-160.cnf+37d09001,0,3598.19,168684
glucose_breakid.sh+004-80-8.cnf+df48e006,0,0.0,1480,nosym
glucose_breakid.sh+005-22-160.cnf+3f823560,0,3597.31,166636
glucose_breakid.sh+005-80-12.cnf+92e6058e,0,0.0,1476,nosym
glucose_breakid.sh+006-22-144.cnf+44028785,0,3597.58,163768
glucose_breakid.sh+006-22-160.cnf+4733dabf,0,3598.08,165824
glucose_breakid.sh+006-23-80.cnf+f1a9623d,0,3597.7,162376
glucose_breakid.sh+006-23-96.cnf+f3b2c7e2,0,3597.44,163048
glucose_breakid.sh+006-80-4.cnf+c7a36440,0,0.0,1476,nosym
glucose_breakid.sh+007-80-12.cnf+bcaf6b10,0,0.0,1476,nosym
glucose_breakid.sh+007-80-8.cnf+bc253363,0,0.0,1480,nosym
glucose_breakid.sh+008-80-12.cnf+51941dd1,0,0.0,1476,nosym
glucose_breakid.sh+008-80-4.cnf+b036467e,0,0.0,1480,nosym
glucose_breakid.sh+008-80-8.cnf+b06ea482,0,0.0,1480,nosym
glucose_breakid.sh+009-23-64.cnf+ad262746,0,3598.34,159796
glucose_breakid.sh+009-80-4.cnf+a47fb79d,0,0.0,1476,nosym
glucose_breakid.sh+009-80-8.cnf+a4b815a1,0,0.0,1480,nosym
glucose_breakid.sh+010-22-144.cnf+45badcc,0,3598.17,166700
glucose_breakid.sh+010-22-160.cnf+78d0106,0,3597.26,166288
glucose_breakid.sh+010-23-80.cnf+7bfed716,0,3598.43,159280
glucose_breakid.sh+010-80-12.cnf+b2202d28,0,0.0,1480,nosym
glucose_breakid.sh+10pipe_q0_k.cnf+8e34988d,0,277.48,267748,4689,2415418,17026723,2881835844,UNSATISFIABLE,
glucose_breakid.sh+11pipe_11_ooo.cnf+79faa091,0,3596.05,681072
glucose_breakid.sh+11pipe_k.cnf+822cd2a4,0,824.19,6923176,7477,5106299,41255516,7287538524,UNSATISFIABLE,
glucose_breakid.sh+11pipe_q0_k.cnf+7012622c,0,359.57,348636,5818,2412377,21672104,3274519539,UNSATISFIABLE,
glucose_breakid.sh+12pipe_q0_k.cnf+51f02bcb,0,3594.63,923416
glucose_breakid.sh+13pipe_q0_k.cnf+33cdf56a,0,803.52,583780,10884,2528823,42299895,7141457572,UNSATISFIABLE,
glucose_breakid.sh+14pipe_q0_k.cnf+15abbf09,0,1731.74,914696,14870,5010229,64378871,16369295719,UNSATISFIABLE,
glucose_breakid.sh+15pipe_q0_k.cnf+f78988a8,0,1844.82,1080920,16751,4260299,83085834,16296206376,UNSATISFIABLE,
glucose_breakid.sh+289-unsat-6x30.cnf+2b7b9fa5,0,1.59,14256,822,80725,259840,5779038,SATISFIABLE,
glucose_breakid.sh+5-SATISFIABLE.cnf+a63f8423,0,501.54,172924,9014,2199025,3826589,1753402471,SATISFIABLE,
glucose_breakid.sh+6s10.cnf+6407b1c6,0,232.31,96356,9843,2372112,7499394,544929749,UNSATISFIABLE,
glucose_breakid.sh+6s11-opt.cnf+7d20ccad,0,298.86,95812,11738,3124850,7671797,651773889,UNSATISFIABLE,
glucose_breakid.sh+6s12.cnf+6423e0c8,0,317.56,91108,12075,3014755,7170067,661302912,UNSATISFIABLE,
glucose_breakid.sh+6s123.cnf+20866e25,0,3293.58,516200,24743,4143527,1398484503,13388954228,UNSATISFIABLE,
glucose_breakid.sh+6s126-opt.cnf+51a51f8e,0,0.0,1476,nosym
glucose_breakid.sh+6s13-opt.cnf+a5a9aaaf,0,393.46,100012,14641,3473989,10009386,843699505,UNSATISFIABLE,
glucose_breakid.sh+6s130-opt.cnf+cc53f6a7,0,273.0,102704,11028,3640163,13685952,641151069,UNSATISFIABLE,
glucose_breakid.sh+6s131-opt.cnf+609865a8,0,252.7,101948,11145,3652785,14642165,652892170,UNSATISFIABLE,
glucose_breakid.sh+6s133.cnf+223b46c4,0,243.1,98560,9247,3096720,10639749,554571257,UNSATISFIABLE,
glucose_breakid.sh+6s137.cnf+2273a4c8,0,3597.89,464344
glucose_breakid.sh+6s151.cnf+2588c900,0,3597.89,181168
glucose_breakid.sh+6s153.cnf+25a4f802,0,39.53,73136,4548,1120534,2817841,135673547,UNSATISFIABLE,
glucose_breakid.sh+6s16-opt.cnf+6276f7b2,0,297.53,93496,11869,2975952,6938457,617585240,UNSATISFIABLE,
glucose_breakid.sh+6s16.cnf+645c3ecc,0,308.93,90092,10645,2988063,6423939,592754337,UNSATISFIABLE,
glucose_breakid.sh+6s165-nonopt.cnf+5df93a2a,0,13.56,21000,880,410028,543625,29206872,UNSATISFIABLE,
glucose_breakid.sh+6s167-opt.cnf+b70f530b,0,0.0,1480,nosym
glucose_breakid.sh+6s168-opt.cnf+4b53c20c,0,0.0,1480,nosym
glucose_breakid.sh+6s169-opt.cnf+df98310d,0,247.26,66668,5428,3584477,4333916,344011716,UNSATISFIABLE,
glucose_breakid.sh+6s17-opt.cnf+f6bb66b3,0,364.95,98228,13313,3381594,8938147,733702393,UNSATISFIABLE,
glucose_breakid.sh+6s184.cnf+2ad19960,0,353.88,93520,12921,3225459,7796844,671449458,UNSATISFIABLE,
glucose_breakid.sh+6s9.cnf+4dfd3e2c,0,249.34,82744,9726,2591055,6447134,563839625,UNSATISFIABLE,
glucose_breakid.sh+7pipe_k.cnf+1115ae61,0,434.97,1028088,5500,3929164,15520484,2178114133,UNSATISFIABLE,
glucose_breakid.sh+8pipe_k.cnf+a5fa6122,0,321.63,801092,2923,2825786,11736266,1985279110,UNSATISFIABLE,
glucose_breakid.sh+9dlx_vliw_at_b_iq3.cnf+c68e079f,0,93.41,156432,3225,824286,16988109,605183773,UNSATISFIABLE,
glucose_breakid.sh+9dlx_vliw_at_b_iq4.cnf+c69c1f20,0,171.88,193892,4840,1080909,27422266,1096791523,UNSATISFIABLE,
glucose_breakid.sh+9dlx_vliw_at_b_iq6.used-as.sat04-347.cnf+5baebb5b,0,512.94,401304,10384,1593789,63116426,3306885886,UNSATISFIABLE,
glucose_breakid.sh+9dlx_vliw_at_b_iq7.cnf+c6c665a3,0,791.89,657920,11553,1695607,85217298,5741860120,UNSATISFIABLE,
glucose_breakid.sh+9dlx_vliw_at_b_iq8.used-as.sat04-718.cnf+be9a6885,0,1315.77,732092,16849,2267632,132191407,8607769521,UNSATISFIABLE,
glucose_breakid.sh+9dlx_vliw_at_b_iq9.cnf+c6e294a5,0,1768.5,962444,20520,2534198,183516845,12457595588,UNSATISFIABLE,
glucose_breakid.sh+9vliw_m_9stages_iq3_C1_bug1.cnf+49c4d9a5,0,76.56,1261916,297,54529,5027762,635004186,SATISFIABLE,
glucose_breakid.sh+9vliw_m_9stages_iq3_C1_bug10.cnf+eeda4a65,0,74.77,1261820,333,64345,5277501,748393249,SATISFIABLE,
glucose_breakid.sh+9vliw_m_9stages_iq3_C1_bug3.cnf+49e108a7,0,12.1,1262752,2,1960,1509510,11162501,SATISFIABLE,
glucose_breakid.sh+9vliw_m_9stages_iq3_C1_bug4.cnf+49ef2028,0,84.1,1257628,360,71581,5611687,739970098,SATISFIABLE,
glucose_breakid.sh+9vliw_m_9stages_iq3_C1_bug7.cnf+4a1966ab,0,42.78,1261892,181,27550,3536590,310543989,SATISFIABLE,
glucose_breakid.sh+9vliw_m_9stages_iq3_C1_bug8.cnf+4a277e2c,0,62.47,1261176,213,45080,4775802,542350711,SATISFIABLE,
glucose_breakid.sh+9vliw_m_9stages_iq3_C1_bug9.cnf+4a3595ad,0,50.6,1260540,130,27377,3846050,374219260,SATISFIABLE,
glucose_breakid.sh+ACG-15-10p0.cnf+a8cf4510,0,0.0,1476,nosym
glucose_breakid.sh+ACG-15-10p1.cnf+a8dd5c91,0,0.0,1476,nosym
glucose_breakid.sh+ACG-20-10p1.cnf+7852d9b7,0,0.0,1480,nosym
glucose_breakid.sh+ACG-20-5p0.cnf+8b7cd838,0,0.0,1480,nosym
glucose_breakid.sh+ACG-20-5p1.cnf+8b8aefb9,0,0.0,1480,nosym
glucose_breakid.sh+AProVE07-01.cnf+16bfbc5c,0,0.0,1476,nosym
glucose_breakid.sh+AProVE07-03.cnf+16dbeb5e,0,0.0,1476,nosym
glucose_breakid.sh+AProVE07-08.cnf+172260e3,0,0.0,1480,nosym
glucose_breakid.sh+AProVE07-27.cnf+1a7dfaa0,0,482.58,81052,6741,2721062,3374494,1035319290,UNSATISFIABLE,
glucose_breakid.sh+AProVE09-06.cnf+e6c88b9f,0,375.09,99496,2381,946285,1440113,2110074212,SATISFIABLE,
glucose_breakid.sh+Chvatal-k5.cnf+5876c054,0,0.0,1480,nosym
glucose_breakid.sh+Composite-024BitPrimes-1.used-as.sat04-861.cnf+aa9f57b,0,278.54,44208,2236,2158143,2283409,493946529,SATISFIABLE,
glucose_breakid.sh+Composite-024BitPrimes-1.used-as.sat04-861.cnf+cb564f11,0,300.18,45116,2236,2158143,2283409,493946529,SATISFIABLE,
glucose_breakid.sh+E02F20.cnf+fad8cec7,0,0.0,1480,nosym
glucose_breakid.sh+E02F22.cnf+faf4fdc9,0,0.0,1476,nosym
glucose_breakid.sh+EDP3-10000.cnf+135a32,0,3597.24,194388
glucose_breakid.sh+EDP3-11000.cnf+67f48711,0,3597.42,190748
glucose_breakid.sh+EDP3-12000.cnf+cfd5b3f0,0,3597.85,213784
glucose_breakid.sh+EDP3-13000.cnf+37b6e0cf,0,3596.03,224516
glucose_breakid.sh+EDP3-14000.cnf+9f980dae,0,3597.91,239928
glucose_breakid.sh+EDP3-15000.cnf+7793a8d,0,3597.8,266136
glucose_breakid.sh+EDP3-16000.cnf+6f5a676c,0,3596.87,259968
glucose_breakid.sh+EDP3-17000.cnf+d73b944b,0,3597.32,231856
glucose_breakid.sh+EDP3-18000.cnf+3f1cc12a,0,3597.94,239368
glucose_breakid.sh+EDP3-19000.cnf+a6fdee09,0,3597.64,241964
glucose_breakid.sh+EDP3-20000.cnf+9457c933,0,3597.19,253464
glucose_breakid.sh+EDP3-30000.cnf+289c3834,0,3597.39,332008
glucose_breakid.sh+EDP3-40000.cnf+bce0a735,0,3597.29,414548
glucose_breakid.sh+EDP3-50000.cnf+51251636,0,3597.66,512784
glucose_breakid.sh+EDP3-60000.cnf+e5698537,0,3597.21,604396
glucose_breakid.sh+EDP3-70000.cnf+79adf438,0,3596.53,710912
glucose_breakid.sh+EDP3-8000.cnf+a59c5651,0,4.74,59816,161,20795,377757,22069571,SATISFIABLE,
glucose_breakid.sh+EDP3-80000.cnf+df26339,0,3597.16,820360
glucose_breakid.sh+EDP3-9000.cnf+d7d8330,0,513.36,151320,10491,1820959,23451110,2238891324,SATISFIABLE,
glucose_breakid.sh+EDP3-90000.cnf+a236d23a,0,3596.83,937784
glucose_breakid.sh+FlowerSnark-k6.cnf+e4393200,0,0.0,1476,nosym
glucose_breakid.sh+GreenTao_2-3-6_2071.cnf+e2248904,0,0.0,1476,nosym
glucose_breakid.sh+GreenTao_2-4-4_511.cnf+c96728e2,0,3598.03,183304
glucose_breakid.sh+Hidoku_enu_6.cnf+27242f86,0,0.0,1480,nosym
glucose_breakid.sh+Hidoku_enu_7.cnf+27324707,0,0.0,1480,nosym
glucose_breakid.sh+IBM_FV_2004_rule_batch_1_31_1_SAT_dat.k40.debugged.cnf+472cd1a6,0,3597.08,170728
glucose_breakid.sh+LABS_n038_goal002.cnf+82d5b02e,0,0.0,1476,nosym
glucose_breakid.sh+LABS_n044_goal003.cnf+aab5774a,0,629.37,71740,135,1621211,1759448,2841388939,SATISFIABLE,
glucose_breakid.sh+LABS_n045_goal003.cnf+99387dcb,0,3598.33,154024
glucose_breakid.sh+LABS_n051_goal004.cnf+c11844e7,0,2524.94,143208,94,4291905,4603043,10240956341,SATISFIABLE,
glucose_breakid.sh+LABS_n052_goal004.cnf+af9b4b68,0,458.25,60876,275,680879,763094,1745116754,SATISFIABLE,
glucose_breakid.sh+LABS_n066_goal005.cnf+4b93468c,0,3596.97,176272
glucose_breakid.sh+LABS_n078_goal006.cnf+a8534ae,0,3148.43,211984,9350,2239071,3170779,13599568679,SATISFIABLE,
glucose_breakid.sh+LABS_n081_goal007.cnf+66dbe847,0,556.1,178716,1044,342038,460145,2193263437,SATISFIABLE,
glucose_breakid.sh+LABS_n082_goal007.cnf+555eeec8,0,3597.82,240104
glucose_breakid.sh+LABS_n088_goal008.cnf+ec7f2d4f,0,307.95,215500,371,172131,244412,961850828,SATISFIABLE,
glucose_breakid.sh+MD5-27-4.cnf+575c3785,0,0.0,1480,nosym
glucose_breakid.sh+MD5-28-1.cnf+8c182c43,0,0.0,1476,nosym
glucose_breakid.sh+MD5-28-2.cnf+8c2643c4,0,0.0,1480,nosym
glucose_breakid.sh+MD5-28-3.cnf+8c345b45,0,0.0,1476,nosym
glucose_breakid.sh+MD5-28-4.cnf+8c4272c6,0,0.0,1480,nosym
glucose_breakid.sh+MD5-28-5.cnf+8c508a47,0,0.0,1480,nosym
glucose_breakid.sh+MD5-29-2.cnf+c10c7f05,0,0.0,1480,nosym
glucose_breakid.sh+MD5-29-3.cnf+c11a9686,0,0.0,1480,nosym
glucose_breakid.sh+MD5-29-4.cnf+c128ae07,0,0.0,1476,nosym
glucose_breakid.sh+MD5-29-5.cnf+c136c588,0,0.0,1476,nosym
glucose_breakid.sh+MD5-30-1.cnf+4cc77f1a,0,0.0,1476,nosym
glucose_breakid.sh+MD5-30-2.cnf+4cd5969b,0,0.0,1480,nosym
glucose_breakid.sh+MD5-30-4.cnf+4cf1c59d,0,0.0,1480,nosym
glucose_breakid.sh+MD5-30-5.cnf+4cffdd1e,0,0.0,1476,nosym
glucose_breakid.sh+MD5-31-4.cnf+81d800de,0,0.0,1480,nosym
glucose_breakid.sh+MD5-31-5.cnf+81e6185f,0,0.0,1480,nosym
glucose_breakid.sh+MD5-32-1.cnf+b693f59c,0,0.0,1480,nosym
glucose_breakid.sh+MD5-32-2.cnf+b6a20d1d,0,0.0,1476,nosym
glucose_breakid.sh+MD5-32-3.cnf+b6b0249e,0,0.0,1480,nosym
glucose_breakid.sh+MD5-32-4.cnf+b6be3c1f,0,0.0,1480,nosym
glucose_breakid.sh+MD5-32-5.cnf+b6cc53a0,0,0.0,1480,nosym
glucose_breakid.sh+Q32inK09.cnf+e2c848e4,0,0.57,3152,1,11096,11803,117004,UNSATISFIABLE,
glucose_breakid.sh+Q32inK10.cnf+e3fe4dfa,0,6.37,10288,1,9588,10234,104139,UNSATISFIABLE,
glucose_breakid.sh+Q32inK11.cnf+e40c657b,0,118.92,31716,22,20363,22036,240976,UNSATISFIABLE,
glucose_breakid.sh+Q3inK10.cnf+f52b1778,0,16.03,16344,1,0,109,166,SATISFIABLE,
glucose_breakid.sh+Q3inK11.cnf+e19aa292,0,522.77,54560,1,69,246,523,SATISFIABLE,
glucose_breakid.sh+Robertson-k8.cnf+b2572ef6,0,0.0,1480,nosym
glucose_breakid.sh+SAT_dat.k100-24_1_rule_1.cnf+8cd1e7ec,0,3597.21,865272
glucose_breakid.sh+SAT_dat.k100-24_1_rule_2.cnf+8cdfff6d,0,3598.03,882428
glucose_breakid.sh+SAT_dat.k100-24_1_rule_3.cnf+8cee16ee,0,3598.24,876780
glucose_breakid.sh+SAT_dat.k30-30_rule.cnf+8f2b2959,0,454.94,147328,10029,1590847,3650628,1666126353,SATISFIABLE,
glucose_breakid.sh+SAT_dat.k35-31_2_rule_2.cnf+79691e5d,0,3472.52,163448,35660,9063057,13432308,5856401459,UNSATISFIABLE,
glucose_breakid.sh+SAT_dat.k70-24_1_rule_1.cnf+3c5d8690,0,2774.63,724864,16978,2237853,7852250,12315971269,UNSATISFIABLE,
glucose_breakid.sh+SAT_dat.k70-24_1_rule_3.cnf+3c79b592,0,2984.63,728120,17979,2577462,8756183,13287182035,UNSATISFIABLE,
glucose_breakid.sh+SAT_dat.k75-24_1_rule_3.cnf+cfcb0b97,0,3555.42,774612,22154,3014454,10278620,15817556269,UNSATISFIABLE,
glucose_breakid.sh+SAT_dat.k80-24_1_rule_1.cnf+ef68af,0,3598.01,691264
glucose_breakid.sh+SAT_dat.k80-24_1_rule_2.cnf+fd8030,0,3597.59,691940
glucose_breakid.sh+SAT_dat.k85-24_1_rule_1.cnf+9440beb4,0,3597.7,740084
glucose_breakid.sh+SAT_dat.k85-24_1_rule_2.cnf+944ed635,0,3597.88,724748
glucose_breakid.sh+SAT_dat.k85-24_1_rule_3.cnf+945cedb6,0,3597.73,742224
glucose_breakid.sh+SAT_dat.k90.debugged.cnf+91f5e879,0,3596.84,789328
glucose_breakid.sh+SAT_dat.k95-24_1_rule_1.cnf+58d2a0d3,0,3597.19,824660
glucose_breakid.sh+SAT_dat.k95-24_1_rule_2.cnf+58e0b854,0,3598.16,831524
glucose_breakid.sh+SAT_dat.k95-24_1_rule_3.cnf+58eecfd5,0,3596.71,826136
glucose_breakid.sh+SAT_instance_N=111.cnf+6213e03d,0,0.0,1480,nosym
glucose_breakid.sh+SAT_instance_N=31.cnf+b3fe65ac,0,0.0,1480,nosym
glucose_breakid.sh+SAT_instance_N=33.cnf+b41a94ae,0,0.0,1480,nosym
glucose_breakid.sh+SAT_instance_N=43.cnf+b5cf6d4d,0,0.0,1480,nosym
glucose_breakid.sh+SAT_instance_N=49.cnf+b623fa53,0,0.0,1480,nosym
glucose_breakid.sh+SAT_instance_N=55.cnf+b7a074ee,0,0.0,1476,nosym
glucose_breakid.sh+SAT_instance_N=63.cnf+b9391e8b,0,0.0,1480,nosym
glucose_breakid.sh+SAT_instance_N=69.cnf+b98dab91,0,0.0,1480,nosym
glucose_breakid.sh+SAT_instance_N=72.cnf+badfdfa9,0,0.0,1480,nosym
glucose_breakid.sh+SAT_instance_N=75.cnf+bb0a262c,0,0.0,1476,nosym
glucose_breakid.sh+SAT_instance_N=77.cnf+bb26552e,0,0.0,1480,nosym
glucose_breakid.sh+SAT_instance_N=85.cnf+bcbefecb,0,0.0,1480,nosym
glucose_breakid.sh+SAT_instance_N=93.cnf+be57a868,0,0.0,1476,nosym
glucose_breakid.sh+SAT_instance_N=99.cnf+beac356e,0,0.0,1480,nosym
glucose_breakid.sh+UCG-15-10p0.cnf+adf39224,0,0.0,1476,nosym
glucose_breakid.sh+UCG-15-10p1.cnf+ae01a9a5,0,0.0,1480,nosym
glucose_breakid.sh+UCG-20-10p0.cnf+7d690f4a,0,0.0,1476,nosym
glucose_breakid.sh+UCG-20-10p1.cnf+7d7726cb,0,0.0,1480,nosym
glucose_breakid.sh+UCG-20-5p0.cnf+30d098a4,0,0.0,1480,nosym
glucose_breakid.sh+UCG-20-5p1.cnf+30deb025,0,0.0,1480,nosym
glucose_breakid.sh+UR-15-10p0.cnf+6d1a8b22,0,0.0,1476,nosym
glucose_breakid.sh+UR-15-10p1.cnf+6d28a2a3,0,0.0,1476,nosym
glucose_breakid.sh+UR-20-10p0.cnf+3c900848,0,0.0,1476,nosym
glucose_breakid.sh+UR-20-10p1.cnf+3c9e1fc9,0,0.0,1480,nosym
glucose_breakid.sh+UR-20-5p0.cnf+688787e6,0,0.0,1480,nosym
glucose_breakid.sh+UTI-20-10p0.cnf+5a297fdb,0,0.0,1480,nosym
glucose_breakid.sh+UTI-20-10p1.cnf+5a37975c,0,0.0,1480,nosym
glucose_breakid.sh+UTI-20-5p1.cnf+16f56974,0,0.0,1480,nosym
glucose_breakid.sh+Urq3_5.cnf+e66b88e0,0,0.0,1480,0,0,0,45,UNSATISFIABLE,
glucose_breakid.sh+Urq4_5.cnf+1b51c421,0,0.0,1480,0,0,0,73,UNSATISFIABLE,
glucose_breakid.sh+Urq5_5.cnf+5037ff62,0,0.0,1484,0,0,0,120,UNSATISFIABLE,
glucose_breakid.sh+Urq6_5.cnf+851e3aa3,0,0.0,1484,0,0,0,179,UNSATISFIABLE,
glucose_breakid.sh+Urq7_5.cnf+ba0475e4,0,0.0,1484,0,0,0,239,UNSATISFIABLE,
glucose_breakid.sh+Urq8_5.cnf+eeeab125,0,0.0,1484,0,0,0,326,UNSATISFIABLE,
glucose_breakid.sh+VanDerWaerden_pd_2-3-20_388.cnf+c16674e9,0,0.0,1476,nosym
glucose_breakid.sh+aaai10-planning-ipc5-TPP-21-step11.cnf+519d0e81,0,875.73,239316,2876,985143,2456326,5451059284,UNSATISFIABLE,
glucose_breakid.sh+aaai10-planning-ipc5-TPP-30-step11.cnf+386e6fa3,0,49.99,304536,228,45680,1094994,415790716,SATISFIABLE,
glucose_breakid.sh+aaai10-planning-ipc5-pathways-13-step17.cnf+a89f3173,0,0.0,1480,nosym
glucose_breakid.sh+aaai10-planning-ipc5-pathways-17-step20.cnf+c8b7fb07,0,0.0,1476,nosym
glucose_breakid.sh+aaai10-planning-ipc5-pathways-17-step21.cnf+c8c61288,0,0.0,1476,nosym
glucose_breakid.sh+aes_24_4_keyfind_4.cnf+6312279f,0,0.0,1480,nosym
glucose_breakid.sh+aes_24_4_keyfind_5.cnf+63203f20,0,0.0,1480,nosym
glucose_breakid.sh+aes_32_2_keyfind_1.cnf+d26f32b7,0,0.0,1480,nosym
glucose_breakid.sh+aes_32_2_keyfind_3.cnf+d28b61b9,0,0.0,1476,nosym
glucose_breakid.sh+aes_32_3_keyfind_1.cnf+2c4a9cf8,0,0.0,1480,nosym
glucose_breakid.sh+aes_64_1_keyfind_1.cnf+346e088d,0,0.0,1444,nosym
glucose_breakid.sh+aes_64_1_keyfind_1.cnf+679d2ad5,0,0.0,1444,nosym
glucose_breakid.sh+anna.col.11.cnf+2755fd8e,0,8.49,19316,590,146438,178143,3321118,UNSATISFIABLE,
glucose_breakid.sh+atco_enc1_opt1_03_56.cnf+386c4eee,0,147.8,99060,7185,2153849,4380609,670586579,SATISFIABLE,
glucose_breakid.sh+atco_enc1_opt1_04_32.cnf+9cab6c8b,0,2424.39,168244,28086,6799264,11168501,7223358222,SATISFIABLE,
glucose_breakid.sh+atco_enc1_opt1_05_21.cnf+2c9a94a,0,39.99,100960,2020,230003,1984511,190628874,SATISFIABLE,
glucose_breakid.sh+atco_enc1_opt1_10_15.cnf+8e2bbd55,0,137.91,94628,1713,1098763,1615114,620888170,SATISFIABLE,
glucose_breakid.sh+atco_enc1_opt1_10_21.cnf+8fa837f0,0,233.97,101200,4491,2271917,3522395,867145081,SATISFIABLE,
glucose_breakid.sh+atco_enc1_opt1_15_240.cnf+4fd76a5c,0,129.87,95852,4703,309469,4786543,451002956,SATISFIABLE,
glucose_breakid.sh+atco_enc1_opt1_18_18.cnf+cd5f6ad0,0,195.12,140416,5144,1034355,2255330,818630257,SATISFIABLE,
glucose_breakid.sh+atco_enc1_opt2_05_4.cnf+4710b5e2,0,121.72,95196,2830,825028,1422184,261258737,UNSATISFIABLE,
glucose_breakid.sh+atco_enc1_opt2_10_12.cnf+22e62993,0,165.76,63916,1906,1461767,1875430,319179512,UNSATISFIABLE,
glucose_breakid.sh+atco_enc1_opt2_10_14.cnf+23025895,0,161.43,63048,1317,1635934,2064969,305733626,UNSATISFIABLE,
glucose_breakid.sh+atco_enc1_opt2_10_15.cnf+23107016,0,208.75,76764,1701,1901658,2395165,365769649,UNSATISFIABLE,
glucose_breakid.sh+atco_enc1_opt2_10_16.cnf+231e8797,0,3598.41,156252
glucose_breakid.sh+atco_enc1_opt2_20_12.cnf+b72a9894,0,1137.02,705416,12243,4051703,5284128,2494130592,UNSATISFIABLE,
glucose_breakid.sh+atco_enc2_opt1_05_21.cnf+e45b8729,0,33.91,97352,1694,218466,1907799,141534508,SATISFIABLE,
glucose_breakid.sh+atco_enc2_opt1_10_21.cnf+713a15cf,0,230.84,99344,3697,2328937,3410923,660008495,SATISFIABLE,
glucose_breakid.sh+atco_enc2_opt1_15_100.cnf+64c7aaa0,0,286.66,145416,10721,1446771,9052611,1066837983,SATISFIABLE,
glucose_breakid.sh+atco_enc2_opt1_20_11.cnf+3c9ac31,0,502.78,1130208,4077,1321243,1903398,1788673102,UNSATISFIABLE,
glucose_breakid.sh+atco_enc2_opt2_05_4.cnf+a0ec2023,0,229.11,100364,3911,1640207,2362980,521923825,UNSATISFIABLE,
glucose_breakid.sh+atco_enc2_opt2_05_9.cnf+a13295a8,0,1889.83,233576,24201,6751564,11776198,1934427090,SATISFIABLE,
glucose_breakid.sh+atco_enc2_opt2_10_21.cnf+61ec890,0,821.99,115360,20556,7356402,10257245,1271551696,SATISFIABLE,
glucose_breakid.sh+atco_enc2_opt2_20_11.cnf+98ae5ef2,0,332.22,689268,3574,1278185,1761074,795966560,UNSATISFIABLE,
glucose_breakid.sh+atco_enc3_opt1_03_53.cnf+fb65c429,0,3598.04,704400
glucose_breakid.sh+atco_enc3_opt1_04_50.cnf+631caa85,0,1202.94,880568,3097,331020,3730703,8245236197,SATISFIABLE,
glucose_breakid.sh+atco_enc3_opt1_13_48.cnf+8e3bd010,0,1855.67,886100,2268,310452,7137544,10635655563,SATISFIABLE,
glucose_breakid.sh+atco_enc3_opt2_05_21.cnf+5ad217c9,0,1083.93,810588,1908,316295,1723768,6630295964,SATISFIABLE,
glucose_breakid.sh+atco_enc3_opt2_10_12.cnf+e609e551,0,1229.4,674636,708,267454,409870,4585547749,UNSATISFIABLE,
glucose_breakid.sh+atco_enc3_opt2_10_14.cnf+e6261453,0,1097.52,677976,1424,467671,748959,5606136551,UNSATISFIABLE,
glucose_breakid.sh+atco_enc3_opt2_18_44.cnf+2a4e0528,0,1500.16,726988,3119,415176,2717254,10863307318,SATISFIABLE,
glucose_breakid.sh+beempgsol2b1.cnf+193d417d,0,81.47,51020,1415,783090,1330527,290693795,UNSATISFIABLE,
glucose_breakid.sh+beempgsol5b1.cnf+b7eff340,0,74.42,59848,1405,717393,1245222,261423173,UNSATISFIABLE,
glucose_breakid.sh+bjrb07amba10andenv.cnf+8a34f2a9,0,556.06,126636,3505,1145600,2164425,2480906145,UNSATISFIABLE,
glucose_breakid.sh+blocks-blocks-36-0.120-NOTKNOWN.cnf+3809e786,0,0.0,1476,nosym
glucose_breakid.sh+blocks-blocks-36-0.130-NOTKNOWN.cnf+91e551c7,0,0.0,1480,nosym
glucose_breakid.sh+blocks-blocks-37-1.130-NOTKNOWN.cnf+3e190a45,0,0.0,1480,nosym
glucose_breakid.sh+bob12m02-opt.cnf+9255ad29,0,816.04,211612,62018,9678476,20943179,1483674175,UNSATISFIABLE,
glucose_breakid.sh+bob12m02.cnf+6ae647c3,0,360.51,155564,27452,5774385,11341137,703993588,UNSATISFIABLE,
glucose_breakid.sh+bob12m04.cnf+6b0276c5,0,1502.92,457192,547,226084,1006977067,5371769963,UNSATISFIABLE,
glucose_breakid.sh+bob12m09-opt.cnf+a034b630,0,148.07,77028,3272,1159145,1844202,548920516,UNSATISFIABLE,
glucose_breakid.sh+bob12s02.cnf+a84bab49,0,368.41,148692,28713,5616985,11312810,761363321,UNSATISFIABLE,
glucose_breakid.sh+bob12s09-opt.cnf+1d90e6b6,0,117.23,63196,3072,993758,1649168,501412846,UNSATISFIABLE,
glucose_breakid.sh+bvadd_17322.cnf+8d3651c9,0,0.0,1480,nosym
glucose_breakid.sh+bvadd_27079.cnf+8bb2eea9,0,0.0,1472,nosym
glucose_breakid.sh+bvadd_27966.cnf+65ebe4d0,0,0.0,1480,nosym
glucose_breakid.sh+bvadd_29740.cnf+c82389c8,0,0.0,1480,nosym
glucose_breakid.sh+bvashr_0710.cnf+1490d023,0,0.0,1480,nosym
glucose_breakid.sh+bvslt_13916.cnf+7aa95352,0,0.0,1480,nosym
glucose_breakid.sh+bvslt_19860.cnf+bd3dd360,0,0.0,1476,nosym
glucose_breakid.sh+bvsub_06991.cnf+f892f926,0,0.0,1480,nosym
glucose_breakid.sh+bvult_16967.cnf+97e9398d,0,0.0,1476,nosym
glucose_breakid.sh+c10bi_i.cnf+ac412383,0,74.07,90176,2027,631619,4044714,285065122,UNSATISFIABLE,
glucose_breakid.sh+ccp-s10-facto1.cnf+8aaf5512,0,1008.4,136224,32674,12575515,21218016,550400863,UNSATISFIABLE,
glucose_breakid.sh+ccp-s10-facto2.cnf+8abd6c93,0,3596.96,297572
glucose_breakid.sh+ccp-s10-facto3.cnf+8acb8414,0,3596.11,334304
glucose_breakid.sh+ccp-s10-facto4.cnf+8ad99b95,0,3597.1,323044
glucose_breakid.sh+ccp-s5-facto2.cnf+3b41c74b,0,7.42,13828,522,425612,611215,11538168,UNSATISFIABLE,
glucose_breakid.sh+ccp-s5-facto3.cnf+3b4fdecc,0,510.91,109376,16805,13244636,28323204,392577081,UNSATISFIABLE,
glucose_breakid.sh+ccp-s5-facto4.cnf+3b5df64d,0,43.46,44224,7800,2992478,12248407,79495627,UNSATISFIABLE,
glucose_breakid.sh+ccp-s6-facto2.cnf+42f36caa,0,3598.02,184652
glucose_breakid.sh+ccp-s6-facto3.cnf+4301842b,0,3598.07,237352
glucose_breakid.sh+ccp-s6-facto4.cnf+430f9bac,0,3597.89,268948
glucose_breakid.sh+ccp-s7-facto2.cnf+4aa51209,0,3596.69,231176
glucose_breakid.sh+ccp-s7-facto3.cnf+4ab3298a,0,3597.04,245300
glucose_breakid.sh+ccp-s7-facto4.cnf+4ac1410b,0,3596.99,262672
glucose_breakid.sh+ccp-s8-facto1.cnf+52489fe7,0,1.32,6100,165,67063,100695,2409752,UNSATISFIABLE,
glucose_breakid.sh+ccp-s8-facto2.cnf+5256b768,0,3597.34,242556
glucose_breakid.sh+ccp-s8-facto3.cnf+5264cee9,0,3597.31,265952
glucose_breakid.sh+ccp-s8-facto4.cnf+5272e66a,0,3597.97,296708
glucose_breakid.sh+ccp-s9-facto1.cnf+59fa4546,0,9.94,20252,1018,396828,634400,12593136,UNSATISFIABLE,
glucose_breakid.sh+ccp-s9-facto2.cnf+5a085cc7,0,3597.59,270156
glucose_breakid.sh+ccp-s9-facto3.cnf+5a167448,0,3597.95,307076
glucose_breakid.sh+ccp-s9-facto4.cnf+5a248bc9,0,3597.93,285276
glucose_breakid.sh+chnl-005x006.shuffled.cnf+22f9be40,0,0.0,1480,0,0,0,47,UNSATISFIABLE,
glucose_breakid.sh+chnl-010x011.shuffled.cnf+a512f8c,0,0.0,1568,0,0,0,188,UNSATISFIABLE,
glucose_breakid.sh+chnl-015x017.shuffled.cnf+2c5d53e1,0,0.0,3012,0,0,0,663,UNSATISFIABLE,
glucose_breakid.sh+chnl-020x021.shuffled.cnf+31d6fb8e,0,0.01,4316,0,0,0,1455,UNSATISFIABLE,
glucose_breakid.sh+chnl-025x050.shuffled.cnf+3464db4d,0,0.06,11144,0,0,0,942,UNSATISFIABLE,
glucose_breakid.sh+chnl-030x031.shuffled.cnf+595cc790,0,0.03,10008,0,0,0,1969,UNSATISFIABLE,
glucose_breakid.sh+chnl-040x041.shuffled.cnf+80e29392,0,0.09,15512,0,0,0,5279,UNSATISFIABLE,
glucose_breakid.sh+chnl-045x050.shuffled.cnf+cfb99ecf,0,0.17,19108,0,0,0,5138,UNSATISFIABLE,
glucose_breakid.sh+chnl-050x060.shuffled.cnf+20660036,0,0.36,27348,0,0,0,4598,UNSATISFIABLE,
glucose_breakid.sh+chnl-050x070.shuffled.cnf+7a416a77,0,0.56,33916,0,0,0,3437,UNSATISFIABLE,
glucose_breakid.sh+chnl10_11.cnf+b5d965f3,0,0.0,1544,0,0,0,214,UNSATISFIABLE,
glucose_breakid.sh+chnl10_12.cnf+b5e77d74,0,0.0,1572,0,0,0,258,UNSATISFIABLE,
glucose_breakid.sh+chnl10_13.cnf+b5f594f5,0,0.0,1812,0,0,0,373,UNSATISFIABLE,
glucose_breakid.sh+chnl11_12.cnf+1dc8aa53,0,0.0,1608,0,0,0,355,UNSATISFIABLE,
glucose_breakid.sh+chnl11_13.cnf+1dd6c1d4,0,0.0,1808,0,0,0,118,UNSATISFIABLE,
glucose_breakid.sh+chnl11_20.cnf+1f6153f0,0,0.0,2564,0,0,0,202,UNSATISFIABLE,
glucose_breakid.sh+color-11-3.sat05-445.reshuffled-07.cnf+3b57e151,0,3597.24,228196
glucose_breakid.sh+color-18-4.sat05-443.reshuffled-07.cnf+5bb07c17,0,3597.53,324556
glucose_breakid.sh+complete-300-0.1-18-98765432130018.cnf+b533f0d,0,0.0,1480,nosym
glucose_breakid.sh+complete-300-0.1-4-9876543213004.cnf+eaf5a1f,0,0.0,1480,nosym
glucose_breakid.sh+complete-300-0.1-7-9876543213007.cnf+77d8c5e5,0,0.0,1480,nosym
glucose_breakid.sh+complete-300-0.1-8-9876543213008.cnf+45913f27,0,0.0,1476,nosym
glucose_breakid.sh+complete-400-0.1-12-98765432140012.cnf+5ac7ff4f,0,0.0,1476,nosym
glucose_breakid.sh+complete-400-0.1-16-98765432140016.cnf+f987b6cf,0,0.0,1480,nosym
glucose_breakid.sh+complete-400-0.1-3-9876543214003.cnf+e2291e7d,0,0.0,1476,nosym
glucose_breakid.sh+complete-400-0.1-7-9876543214007.cnf+190b0385,0,0.0,1480,nosym
glucose_breakid.sh+complete-500-0.1-1-9876543215001.cnf+e7ea6999,0,0.0,1480,nosym
glucose_breakid.sh+complete-500-0.1-15-98765432150015.cnf+cf6c1c71,0,0.0,1480,nosym
glucose_breakid.sh+complete-500-0.1-17-98765432150017.cnf+9ecbf831,0,0.0,1480,nosym
glucose_breakid.sh+complete-500-0.1-7-9876543215007.cnf+ba3d4125,0,0.0,1480,nosym
glucose_breakid.sh+complete-500-0.1-8-9876543215008.cnf+87f5ba67,0,0.0,1480,nosym
glucose_breakid.sh+connm-ue-csp-sat-n1200-d0.02-s1099787414.sat05-542.reshuffled-07.cnf+278a3a3e,0,0.0,1484,nosym
glucose_breakid.sh+contest02-ezfact64_10.sat05-449.reshuffled-07.cnf+d4fae7e7,0,0.0,1480,nosym
glucose_breakid.sh+countbitssrl032.cnf+bcf8dfa7,0,0.0,1480,nosym
glucose_breakid.sh+counting-clqcolor-unsat-set-b-clqcolor-08-06-07.sat05-1257.reshuffled-07.cnf+ecfa4ae2,0,0.0,1488,1,94,346,4008,UNSATISFIABLE,
glucose_breakid.sh+crafted_n10_d6_c2_num13.cnf+28988321,0,18.7,231056,79,9367,59282,9455024,UNSATISFIABLE,
glucose_breakid.sh+crafted_n10_d6_c2_num16.cnf+28c2c9a4,0,15.86,231816,54,5289,69472,8410286,UNSATISFIABLE,
glucose_breakid.sh+crafted_n10_d6_c2_num17.cnf+28d0e125,0,17.65,231208,92,9246,82427,12786985,UNSATISFIABLE,
glucose_breakid.sh+crafted_n10_d6_c2_num2.cnf+bf4b53cd,0,15.72,228972,57,6406,55557,7216594,UNSATISFIABLE,
glucose_breakid.sh+crafted_n10_d6_c2_num4.cnf+bf6782cf,0,30.19,229616,103,45068,121707,42561994,UNSATISFIABLE,
glucose_breakid.sh+crafted_n10_d6_c2_num5.cnf+bf759a50,0,21.64,230644,104,17645,84929,20198897,UNSATISFIABLE,
glucose_breakid.sh+crafted_n10_d6_c2_num6.cnf+bf83b1d1,0,14.84,229476,42,4931,56547,8040966,UNSATISFIABLE,
glucose_breakid.sh+crafted_n10_d6_c2_num9.cnf+bfadf854,0,15.71,230064,71,10271,70788,11854256,UNSATISFIABLE,
glucose_breakid.sh+crafted_n10_d6_c3_num1.cnf+b386ad6b,0,16.94,489184,110,21317,146974,37393599,UNSATISFIABLE,
glucose_breakid.sh+crafted_n10_d6_c3_num18.cnf+bdc3ab67,0,164.27,491552,267,145484,367665,208311983,UNSATISFIABLE,
glucose_breakid.sh+crafted_n10_d6_c3_num5.cnf+b3bf0b6f,0,17.26,489104,108,23431,148872,34433946,UNSATISFIABLE,
glucose_breakid.sh+crafted_n10_d6_c4_num3.cnf+a7ec4d8c,0,894.05,862412,457,666852,1042951,1204469389,UNSATISFIABLE,
glucose_breakid.sh+crafted_n10_d6_c4_num8.cnf+a832c311,0,76.06,855536,199,64106,368747,110091677,UNSATISFIABLE,
glucose_breakid.sh+crafted_n10_d6_c4_num9.cnf+a840da92,0,3596.15,1138532
glucose_breakid.sh+crafted_n11_d6_c3_num17.cnf+e5f71e7,0,1172.75,590496,537,949904,1166872,1432657652,UNSATISFIABLE,
glucose_breakid.sh+crafted_n11_d6_c4_num1.cnf+8961fc69,0,78.73,963576,291,64429,370431,102786633,UNSATISFIABLE,
glucose_breakid.sh+crafted_n11_d6_c4_num18.cnf+a3523c29,0,121.09,971848,201,100516,407124,162953962,UNSATISFIABLE,
glucose_breakid.sh+crafted_n11_d6_c4_num19.cnf+a36053aa,0,415.99,969796,337,357900,650967,468704420,UNSATISFIABLE,
glucose_breakid.sh+crafted_n11_d6_c4_num21.cnf+a4a47041,0,86.98,965864,164,121346,398315,189180833,UNSATISFIABLE,
glucose_breakid.sh+crafted_n12_d5_c4_num6.cnf+7cb7494c,0,42.25,258364,284,50350,335802,51644222,UNSATISFIABLE,
glucose_breakid.sh+crafted_n12_d6_c3_num10.cnf+5ea6ab61,0,24.93,640776,184,34006,236120,47411656,UNSATISFIABLE,
glucose_breakid.sh+crafted_n12_d6_c3_num16.cnf+5efb3867,0,9.78,642644,122,16148,181755,28190359,UNSATISFIABLE,
glucose_breakid.sh+crafted_n12_d6_c4_num11.cnf+f39975a3,0,3599.38,1689212
glucose_breakid.sh+crafted_n12_d6_c4_num18.cnf+f3fc1a2a,0,3599.2,1726404
glucose_breakid.sh+crafted_n12_d6_c4_num20.cnf+f54036c1,0,421.3,1215424,624,284273,811027,391773256,UNSATISFIABLE,
glucose_breakid.sh+crafted_n12_d6_c4_num22.cnf+f55c65c3,0,2005.36,1274568,931,1376446,1948681,2666208012,UNSATISFIABLE,
glucose_breakid.sh+crafted_n12_d6_c4_num23.cnf+f56a7d44,0,2309.7,1211064,1449,1557259,2366341,2780514840,UNSATISFIABLE,
glucose_breakid.sh+crafted_n12_d6_c4_num4.cnf+6b1e20cb,0,631.51,1215152,474,374136,874241,647526433,UNSATISFIABLE,
glucose_breakid.sh+crafted_n12_d6_c4_num6.cnf+6b3a4fcd,0,1315.44,1220572,503,881065,1411974,1730846985,UNSATISFIABLE,
glucose_breakid.sh+crafted_n12_d6_c4_num9.cnf+6b649650,0,1528.01,1230776,557,839757,1420029,2201207664,UNSATISFIABLE,
glucose_breakid.sh+crn_20_361_s.cnf+741927cd,0,0.0,1476,nosym
glucose_breakid.sh+ctl_3082_415_unsat_pre.cnf+67ab73c8,0,0.0,1444,nosym
glucose_breakid.sh+ctl_3791_556_unsat_pre.cnf+f1631cf3,0,1184.7,187176,8432,15613459,18160081,1842243819,UNSATISFIABLE,
glucose_breakid.sh+ctl_4291_567_5_unsat_pre.cnf+fa7dd5e3,0,3597.2,269288
glucose_breakid.sh+dated-10-11-u.cnf+e92a7aaf,0,0.0,1480,nosym
glucose_breakid.sh+dated-10-13-u.cnf+52f6f131,0,0.0,1480,nosym
glucose_breakid.sh+dated-10-17-u.cnf+268fde35,0,0.0,1476,nosym
glucose_breakid.sh+dated-5-13-u.cnf+ae95f5c3,0,0.0,1480,nosym
glucose_breakid.sh+david.col.11.cnf+fa657c50,0,25.21,31888,2363,674828,825550,20832576,UNSATISFIABLE,
glucose_breakid.sh+dimacs.cnf+6f756d33,0,0.0,1480,nosym
glucose_breakid.sh+edges-024-4-10183999-1-00.cnf+d543f540,0,0.0,1480,nosym
glucose_breakid.sh+edges-024-4-1208111-1-00.cnf+4d36a4d8,0,0.0,1480,nosym
glucose_breakid.sh+edges-024-4-5613555-1-00.cnf+b7b9936e,0,0.0,1476,nosym
glucose_breakid.sh+edges-024-4-5667555-1-00.cnf+db1a9d8d,0,0.0,1476,nosym
glucose_breakid.sh+edges-024-4-7787777-1-00.cnf+dd94e948,0,0.0,1480,nosym
glucose_breakid.sh+edges-024-4-7880777-1-00.cnf+b1db2602,0,0.0,1476,nosym
glucose_breakid.sh+edges-025-4-10062999-1-00.cnf+d5c2e6c1,0,0.0,1472,nosym
glucose_breakid.sh+edges-025-4-10106999-1-00.cnf+9e77b14c,0,0.0,1476,nosym
glucose_breakid.sh+edges-025-4-10169999-1-00.cnf+b5337e89,0,0.0,1472,nosym
glucose_breakid.sh+edges-025-4-1237111-1-00.cnf+ebeed193,0,0.0,1480,nosym
glucose_breakid.sh+edges-025-4-3369333-1-00.cnf+ad4cf3ef,0,0.0,1476,nosym
glucose_breakid.sh+edges-025-4-5714555-1-00.cnf+e7b9da8f,0,0.0,1480,nosym
glucose_breakid.sh+edges-025-4-7780777-1-00.cnf+3fa19220,0,0.0,1480,nosym
glucose_breakid.sh+edges-025-4-7932777-1-00.cnf+67098389,0,0.0,1476,nosym
glucose_breakid.sh+edges-025-4-7957777-1-00.cnf+d354374c,0,0.0,1476,nosym
glucose_breakid.sh+edges-070-3-10037999-34.cnf+1fe1b243,0,0.0,1476,nosym
glucose_breakid.sh+edges-070-3-10062999-36.cnf+4e9b539d,0,0.0,1480,nosym
glucose_breakid.sh+edges-070-3-10122999-15.cnf+1adffbe3,0,0.0,1480,nosym
glucose_breakid.sh+edges-070-3-1226111-26.cnf+a79d166,0,0.0,1476,nosym
glucose_breakid.sh+edges-070-3-1250111-33.cnf+a5bd2319,0,0.0,1480,nosym
glucose_breakid.sh+edges-070-3-3470333-15.cnf+3372a5d9,0,0.0,1480,nosym
glucose_breakid.sh+edges-070-3-7857777-1.cnf+64f1b831,0,0.0,1480,nosym
glucose_breakid.sh+edges-072-3-1124111-35.cnf+7cf7eabf,0,0.0,1480,nosym
glucose_breakid.sh+edges-072-3-1131111-37.cnf+c617a6dd,0,0.0,1480,nosym
glucose_breakid.sh+edges-072-3-1161111-15.cnf+d9a6b6ba,0,0.0,1476,nosym
glucose_breakid.sh+edges-072-3-5729555-15.cnf+424b38c4,0,0.0,1476,nosym
glucose_breakid.sh+edges-072-3-5749555-14.cnf+51a06c01,0,0.0,1476,nosym
glucose_breakid.sh+edges-072-3-7902777-18.cnf+a2710b80,0,0.0,1480,nosym
glucose_breakid.sh+edges-072-3-7923777-13.cnf+4672937a,0,0.0,1480,nosym
glucose_breakid.sh+edges-072-3-7925777-19.cnf+70908602,0,0.0,1480,nosym
glucose_breakid.sh+em_14_7_3_cmp.cnf+28e61cbb,0,3596.26,416768
glucose_breakid.sh+em_7_3_6_cmp.cnf+daf2c75e,0,2181.12,166896,40491,6626595,13176959,759171957,SATISFIABLE,
glucose_breakid.sh+em_7_4_8_cmp.cnf+98605821,0,140.38,68996,3156,858615,1537760,116612335,SATISFIABLE,
glucose_breakid.sh+em_7_4_8_fbc.cnf+23968982,0,99.91,62024,1680,670402,1024893,108193129,SATISFIABLE,
glucose_breakid.sh+em_7_4_9_all.cnf+c0eb19fd,0,2.06,13020,169,48593,111454,5156809,SATISFIABLE,
glucose_breakid.sh+em_7_4_9_fbc.cnf+b7daf883,0,2.04,11420,210,44768,95699,5563406,SATISFIABLE,
glucose_breakid.sh+esawn_uw3.debugged.cnf+576252cf,0,0.0,1444,nosym
glucose_breakid.sh+ezfact64_3.sat05-450.reshuffled-07.cnf+d2cf8026,0,0.0,1480,nosym
glucose_breakid.sh+ezfact64_4.sat05-451.reshuffled-07.cnf+c9c9c668,0,0.0,1476,nosym
glucose_breakid.sh+ezfact64_5.sat05-452.reshuffled-07.cnf+c0c40caa,0,0.0,1480,nosym
glucose_breakid.sh+fpga10_11_uns_rcr.cnf+30596330,0,0.0,1540,0,0,0,131,UNSATISFIABLE,
glucose_breakid.sh+fpga10_12_uns_rcr.cnf+1edc69b1,0,0.0,3608,0,0,0,245,UNSATISFIABLE,
glucose_breakid.sh+fpga10_13_uns_rcr.cnf+d5f7032,0,0.0,1808,0,0,0,235,UNSATISFIABLE,
glucose_breakid.sh+fpga10_15_uns_rcr.cnf+ea657d34,0,0.0,2056,0,0,0,436,UNSATISFIABLE,
glucose_breakid.sh+fpga10_20_uns_rcr.cnf+23b4264e,0,0.0,2172,0,0,0,341,UNSATISFIABLE,
glucose_breakid.sh+fpga10_8_sat.cnf+4ce03bc6,0,0.0,1484,1,1,90,319,SATISFIABLE,
glucose_breakid.sh+fpga10_9_sat.cnf+e124aac7,0,0.0,1480,1,13,44,345,SATISFIABLE,
glucose_breakid.sh+fpga11_12_uns_rcr.cnf+6e4790,0,0.0,1808,0,0,0,332,UNSATISFIABLE,
glucose_breakid.sh+fpga11_13_uns_rcr.cnf+eef14e11,0,0.0,1848,0,0,0,285,UNSATISFIABLE,
glucose_breakid.sh+fpga11_14_uns_rcr.cnf+dd745492,0,0.0,2060,0,0,0,382,UNSATISFIABLE,
glucose_breakid.sh+fpga11_15_uns_rcr.cnf+cbf75b13,0,0.0,2068,0,0,0,289,UNSATISFIABLE,
glucose_breakid.sh+fpga11_20_uns_rcr.cnf+546042d,0,0.0,2572,0,0,0,324,UNSATISFIABLE,
glucose_breakid.sh+fpga12_11_sat.cnf+8a2b40b8,0,0.0,1484,1,1,38,342,SATISFIABLE,
glucose_breakid.sh+fpga12_12_sat.cnf+1e6fafb9,0,0.0,1484,1,5,92,749,SATISFIABLE,
glucose_breakid.sh+fpga12_8_sat.cnf+76a9a148,0,0.0,1484,1,2,170,510,SATISFIABLE,
glucose_breakid.sh+fpga12_9_sat.cnf+aee1049,0,0.0,1484,1,6,139,620,SATISFIABLE,
glucose_breakid.sh+fpga13_10_sat.cnf+fd987716,0,0.0,1484,1,44,277,1137,SATISFIABLE,
glucose_breakid.sh+fpga13_12_sat.cnf+26215518,0,0.0,1480,1,40,130,1220,SATISFIABLE,
glucose_breakid.sh+fpga13_9_sat.cnf+9fd2c30a,0,0.0,1484,1,5,142,474,SATISFIABLE,
glucose_breakid.sh+fpsol2.i.1.col.65.cnf+f113ffe3,0,0.0,1476,nosym
glucose_breakid.sh+fpsol2.i.2.col.30.cnf+f360a5e0,0,3596.75,562504
glucose_breakid.sh+fpsol2.i.3.col.30.cnf+fb124b3f,0,3596.34,549988
glucose_breakid.sh+frb45-21-1.used-as.sat04-883.cnf+ff73151b,0,0.0,1480,nosym
glucose_breakid.sh+frb80-14-2.used-as.sat04-880.cnf+c55c68e6,0,0.0,1480,nosym
glucose_breakid.sh+fsf-300-354-2-2-3-2.58.opt.cnf+e220df49,0,0.0,1480,nosym
glucose_breakid.sh+fsf-300-354-2-2-3-2.89.opt.cnf+5341a1a7,0,0.0,1480,nosym
glucose_breakid.sh+fsf-300-354-2-2-3-2.94.opt.cnf+6234e7c1,0,0.0,1480,nosym
glucose_breakid.sh+fsf-300-354-2-2-3-2.95.opt.cnf+f67956c2,0,0.0,1476,nosym
glucose_breakid.sh+games120.col.9.cnf+b8eb4333,0,0.57,6568,61,23603,28692,263695,UNSATISFIABLE,
glucose_breakid.sh+grid-strips-grid-y-3.035-NOTKNOWN.cnf+13d6c0c6,0,0.0,1480,nosym
glucose_breakid.sh+grid-strips-grid-y-3.055-NOTKNOWN.cnf+c78d9548,0,0.0,1480,nosym
glucose_breakid.sh+grid-strips-grid-y-3.065-SAT.cnf+a5ca5ee7,0,0.0,1480,nosym
glucose_breakid.sh+grieu-vmpc-31.cnf+720b89f2,0,0.0,1480,nosym
glucose_breakid.sh+gripper02t6.cnf+64d807c1,0,0.0,1480,1,59,151,3406,UNSATISFIABLE,
glucose_breakid.sh+gripper02t7.cnf+780ffc3b,0,0.0,1484,1,56,241,3986,SATISFIABLE,
glucose_breakid.sh+gripper04t14.cnf+fd9f5c70,0,0.55,6680,50,18574,36909,3072900,UNSATISFIABLE,
glucose_breakid.sh+gripper04t15.cnf+4fbf3618,0,0.13,6952,13,3822,9516,583042,SATISFIABLE,
glucose_breakid.sh+gripper06t22.cnf+cefa5fcb,0,2.02,16880,173,40718,90879,11437573,UNSATISFIABLE,
glucose_breakid.sh+gripper06t23.cnf+211a3973,0,4.31,21720,292,80850,172521,23251818,SATISFIABLE,
glucose_breakid.sh+gripper10t38.cnf+f6012737,0,1839.43,154732,23273,7524173,11066286,3738234138,UNSATISFIABLE,
glucose_breakid.sh+gripper10t39.cnf+482100df,0,3258.65,166552,33344,11653007,16747769,5933081411,SATISFIABLE,
glucose_breakid.sh+gss-18-s100.cnf+c415ef0e,0,0.0,1480,nosym
glucose_breakid.sh+gss-19-s100.cnf+b85f602d,0,0.0,1480,nosym
glucose_breakid.sh+gss-20-s100.cnf+b6af18d7,0,0.0,1480,nosym
glucose_breakid.sh+gss-22-s100.cnf+9f41fb15,0,0.0,1480,nosym
glucose_breakid.sh+gss-23-s100.cnf+938b6c34,0,0.0,1476,nosym
glucose_breakid.sh+gss-24-s100.cnf+87d4dd53,0,0.0,1480,nosym
glucose_breakid.sh+gss-25-s100.cnf+7c1e4e72,0,0.0,1480,nosym
glucose_breakid.sh+gus-md5-04.cnf+314bdfd6,0,1.74,47832,2,618,3488,3992430,UNSATISFIABLE,
glucose_breakid.sh+gus-md5-05.cnf+3159f757,0,5.4,49148,2,2149,4833,14091817,UNSATISFIABLE,
glucose_breakid.sh+gus-md5-06.cnf+31680ed8,0,14.55,49180,8,5922,10003,40469193,UNSATISFIABLE,
glucose_breakid.sh+gus-md5-07.cnf+31762659,0,46.92,54184,73,38647,81555,131582939,UNSATISFIABLE,
glucose_breakid.sh+gus-md5-09.cnf+3192555b,0,438.17,123852,757,414507,646998,1041279028,UNSATISFIABLE,
glucose_breakid.sh+gus-md5-10.cnf+32c85a71,0,2076.9,181668,3352,2046273,3385218,3829312398,UNSATISFIABLE,
glucose_breakid.sh+gus-md5-11.cnf+32d671f2,0,3598.07,290632
glucose_breakid.sh+gus-md5-12.cnf+32e48973,0,3597.87,295452
glucose_breakid.sh+gus-md5-14.cnf+3300b875,0,3597.77,273920
glucose_breakid.sh+gus-md5-15.cnf+330ecff6,0,3597.66,268356
glucose_breakid.sh+gus-md5-16.cnf+331ce777,0,3597.44,256660
glucose_breakid.sh+hid-uns-enc-6-1-0-0-0-0-19851.cnf+35cdd4a3,0,0.0,1476,nosym
glucose_breakid.sh+hid-uns-enc-6-1-0-0-0-0-26462.cnf+c098c023,0,0.0,1480,nosym
glucose_breakid.sh+hid-uns-enc-6-1-0-0-0-0-26808.cnf+8a492673,0,0.0,1476,nosym
glucose_breakid.sh+hid-uns-enc-6-1-0-0-0-0-2907.cnf+4b8e3231,0,0.0,1480,nosym
glucose_breakid.sh+hid-uns-enc-6-1-0-0-0-0-31380.cnf+1bde95c4,0,0.0,1480,nosym
glucose_breakid.sh+hid-uns-enc-6-1-0-0-0-0-3191.cnf+1b449599,0,0.0,1480,nosym
glucose_breakid.sh+hid-uns-enc-6-1-0-0-0-0-3251.cnf+49576e5e,0,0.0,1476,nosym
glucose_breakid.sh+hid-uns-enc-7-1-0-0-0-0-11545.cnf+632e36ce,0,0.0,1480,nosym
glucose_breakid.sh+hid-uns-enc-7-1-0-0-0-0-3557.cnf+d0008386,0,0.0,1480,nosym
glucose_breakid.sh+hid-uns-enc-9-1-0-0-0-0-24642.cnf+7d040c2c,0,0.0,1476,nosym
glucose_breakid.sh+hitag2-10-60-0-0x0ffdbe60727f161-57.cnf+170717cc,0,3597.84,142476
glucose_breakid.sh+hitag2-10-60-0-0x8edc44db7837bbf-65.cnf+d75bd6c3,0,3598.27,150008
glucose_breakid.sh+hitag2-10-60-0-0xe14721bd199894a-99.cnf+3bdd592c,0,3597.99,154224
glucose_breakid.sh+hitag2-10-60-0-0xe6754daf48162bf-46.cnf+4847d854,0,3598.14,155448
glucose_breakid.sh+hitag2-10-60-0-0xfee9637399d85a2-78.cnf+62b73436,0,3598.42,168320
glucose_breakid.sh+hitag2-7-60-0-0xe8fa35372ed37e2-80.cnf+1948370f,0,3598.39,124176
glucose_breakid.sh+hitag2-8-60-0-0x1eb82244d7f1c3c-47.cnf+aad4173e,0,3597.5,148716
glucose_breakid.sh+hitag2-8-60-0-0xdcdbc8bf368ee73-37.cnf+f4bf810f,0,3598.55,136092
glucose_breakid.sh+hitag2-8-60-0-0xfba1a41b5dfd7f7-52.cnf+e2df2a58,0,3598.58,130760
glucose_breakid.sh+hole002.cnf+f7628b3b,0,0.0,1480,0,0,0,0,UNSATISFIABLE,
glucose_breakid.sh+hole003.cnf+f770a2bc,0,0.0,1484,0,0,0,5,UNSATISFIABLE,
glucose_breakid.sh+hole004.cnf+f77eba3d,0,0.0,1484,0,0,0,6,UNSATISFIABLE,
glucose_breakid.sh+hole005.cnf+f78cd1be,0,0.0,1480,0,0,0,0,UNSATISFIABLE,
glucose_breakid.sh+hole006.cnf+f79ae93f,0,0.0,1484,0,0,0,32,UNSATISFIABLE,
glucose_breakid.sh+hole007.cnf+f7a900c0,0,0.0,1480,0,0,0,26,UNSATISFIABLE,
glucose_breakid.sh+hole008.cnf+f7b71841,0,0.0,1480,0,0,0,0,UNSATISFIABLE,
glucose_breakid.sh+hole009.cnf+f7c52fc2,0,0.0,1484,0,0,0,123,UNSATISFIABLE,
glucose_breakid.sh+hole010.cnf+f8fb34d8,0,0.0,1480,0,0,0,118,UNSATISFIABLE,
glucose_breakid.sh+hole010_shuffled.cnf+683d1c58,0,0.0,1484,0,0,0,144,UNSATISFIABLE,
glucose_breakid.sh+hole011.cnf+f9094c59,0,0.0,1484,0,0,0,147,UNSATISFIABLE,
glucose_breakid.sh+hole011_shuffled.cnf+4a1ae5f7,0,0.0,1484,0,0,0,158,UNSATISFIABLE,
glucose_breakid.sh+hole012.cnf+f91763da,0,0.0,1484,0,0,0,139,UNSATISFIABLE,
glucose_breakid.sh+hole012_shuffled.cnf+2bf8af96,0,0.0,1484,0,0,0,224,UNSATISFIABLE,
glucose_breakid.sh+hole013.cnf+f9257b5b,0,0.0,1484,0,0,0,0,UNSATISFIABLE,
glucose_breakid.sh+hole013_shuffled.cnf+dd67935,0,0.0,1484,0,0,0,134,UNSATISFIABLE,
glucose_breakid.sh+hole014.cnf+f93392dc,0,0.0,1484,0,0,0,282,UNSATISFIABLE,
glucose_breakid.sh+hole014_shuffled.cnf+efb442d4,0,0.0,1484,0,0,0,234,UNSATISFIABLE,
glucose_breakid.sh+hole015.cnf+f941aa5d,0,0.0,3344,0,0,0,398,UNSATISFIABLE,
glucose_breakid.sh+hole015_shuffled.cnf+d1920c73,0,0.0,1484,0,0,0,205,UNSATISFIABLE,
glucose_breakid.sh+hole016_shuffled.cnf+b36fd612,0,0.0,1480,0,0,0,462,UNSATISFIABLE,
glucose_breakid.sh+hole017_shuffled.cnf+954d9fb1,0,0.0,1544,0,0,0,290,UNSATISFIABLE,
glucose_breakid.sh+hole018_shuffled.cnf+772b6950,0,0.0,1568,0,0,0,501,UNSATISFIABLE,
glucose_breakid.sh+hole019_shuffled.cnf+590932ef,0,0.0,1800,0,0,0,557,UNSATISFIABLE,
glucose_breakid.sh+hole020.cnf+fab00d77,0,0.0,3628,0,0,0,726,UNSATISFIABLE,
glucose_breakid.sh+hole020_shuffled.cnf+c2188699,0,0.0,3864,0,0,0,658,UNSATISFIABLE,
glucose_breakid.sh+hole030.cnf+fc64e616,0,0.0,5416,0,0,0,0,UNSATISFIABLE,
glucose_breakid.sh+hole030_shuffled.cnf+1bf3f0da,0,0.01,3836,0,0,0,1372,UNSATISFIABLE,
glucose_breakid.sh+homer.col.13.cnf+2ba7ccf3,0,0.0,8432,0,0,0,12,UNSATISFIABLE,
glucose_breakid.sh+huck.col.11.cnf+d6b596d9,0,0.01,1832,1,131,588,3092,UNSATISFIABLE,
glucose_breakid.sh+hwmcc10-timeframe-expansion-k45-pdtpmsgoodbakery-tseitin.cnf+df9cb9f2,0,163.19,105536,4646,716387,2020503,593893010,UNSATISFIABLE,
glucose_breakid.sh+hwmcc10-timeframe-expansion-k45-pdtvisns3p02-tseitin.cnf+21145243,0,2676.65,230568,26414,6517806,13007234,5879006893,UNSATISFIABLE,
glucose_breakid.sh+hwmcc10-timeframe-expansion-k50-pdtpmsns2-tseitin.cnf+bc163f5e,0,356.26,150344,7004,1218067,3305758,1068128060,UNSATISFIABLE,
glucose_breakid.sh+hwmcc10-timeframe-expansion-k50-pdtvisns3p00-tseitin.cnf+7420b667,0,3597.42,266740
glucose_breakid.sh+inithx.i.1.col.54.cnf+7f450f8f,0,0.0,1476,nosym
glucose_breakid.sh+inithx.i.2.col.31.cnf+8362bd2d,0,3595.34,641740
glucose_breakid.sh+inithx.i.3.col.31.cnf+8b14628c,0,3596.92,619660
glucose_breakid.sh+instance_n8_i8_pp_ci_ce.cnf+a44c4d4f,0,14.33,54888,832,204670,680024,64191742,SATISFIABLE,
glucose_breakid.sh+instance_n8_i9_pp.cnf+47595ed2,0,1376.66,228076,25167,6671828,15471528,2544915165,SATISFIABLE,
glucose_breakid.sh+itox_vc1130.cnf+4f0bccc5,0,1.51,85632,6,3531,51268,1419566,SATISFIABLE,
glucose_breakid.sh+jean.col.10.cnf+a6909d05,0,3.02,10688,353,99772,120582,1673447,UNSATISFIABLE,
glucose_breakid.sh+jkkk-one-one-10-34-sat.cnf+14a07a7a,0,0.0,1480,nosym
glucose_breakid.sh+jkkk-random-132906006148277-10-10-34-SUM-sat.cnf+2e4ec04b,0,0.0,1480,nosym
glucose_breakid.sh+jkkk-random-132906006427000-10-10-35-OR-sat.cnf+a249a208,0,0.0,1480,nosym
glucose_breakid.sh+jkkk-random-132906006427000-10-10-36-SUM-sat.cnf+825ea373,0,0.0,1476,nosym
glucose_breakid.sh+jkkk-random-132906006493326-10-10-35-OR-sat.cnf+86cb839a,0,0.0,1480,nosym
glucose_breakid.sh+k2fix_gr_rcs_w9.shuffled.cnf+cf3cd2e1,0,131.22,144108,2762,908706,1870066,191770869,UNSATISFIABLE,
glucose_breakid.sh+korf-17.cnf+9f2409cb,0,0.0,1480,nosym
glucose_breakid.sh+korf-18.cnf+9f32214c,0,0.0,1476,nosym
glucose_breakid.sh+le450_15a.col.15.cnf+ca1ada94,0,3596.7,310032
glucose_breakid.sh+le450_15b.col.15.cnf+d1cc7ff3,0,3597.45,302012
glucose_breakid.sh+le450_15c.col.15.cnf+d97e2552,0,3597.91,306652
glucose_breakid.sh+le450_15d.col.15.cnf+e12fcab1,0,3597.76,285568
glucose_breakid.sh+le450_25a.col.25.cnf+adad7cd2,0,3595.98,507032
glucose_breakid.sh+le450_25b.col.25.cnf+b55f2231,0,3593.21,329456
glucose_breakid.sh+le450_25c.col.25.cnf+bd10c790,0,3594.72,511688
glucose_breakid.sh+le450_25d.col.25.cnf+c4c26cef,0,3594.81,589692
glucose_breakid.sh+le450_5a.col.5.cnf+14f00296,0,0.03,4972,1,9,916,1052,UNSATISFIABLE,
glucose_breakid.sh+le450_5b.col.5.cnf+a9d4b557,0,0.03,5824,1,13,931,1236,UNSATISFIABLE,
glucose_breakid.sh+le450_5c.col.5.cnf+3eb96818,0,0.08,7900,1,11,12,234,UNSATISFIABLE,
glucose_breakid.sh+le450_5d.col.5.cnf+d39e1ad9,0,0.07,9268,1,20,924,1494,UNSATISFIABLE,
glucose_breakid.sh+log-pairs-05t5.cnf+7b04f33e,0,1.34,19744,1,81,1789,22728,SATISFIABLE,
glucose_breakid.sh+log-pairs-07t5.cnf+e4d169c0,0,29.82,78328,1,403,1378,314632,SATISFIABLE,
glucose_breakid.sh+log-pairs-09t5.cnf+4e9de042,0,181.69,216720,2,147,1650,134525,SATISFIABLE,
glucose_breakid.sh+log-pairs-11t5.cnf+f4d3319,0,1.27,428944,14,1146,40261,1468874,SATISFIABLE,
glucose_breakid.sh+log-rotate-06t6.cnf+db5cfeb0,0,0.53,16988,12,2767,4492,192002,UNSATISFIABLE,
glucose_breakid.sh+log-rotate-06t6.cnf+e4be2137,0,0.54,19016,12,2767,4492,192002,UNSATISFIABLE,
glucose_breakid.sh+log-rotate-07t6.cnf+104339f1,0,2.01,33084,147,31835,45435,3466020,UNSATISFIABLE,
glucose_breakid.sh+log-rotate-08t6.cnf+45297532,0,3.4,50724,143,32244,48320,4221679,UNSATISFIABLE,
glucose_breakid.sh+log-rotate-08t6.cnf+4e8a97b9,0,3.33,50740,143,32244,48320,4221679,UNSATISFIABLE,
glucose_breakid.sh+log-rotate-09t6.cnf+7a0fb073,0,13.46,83400,487,96485,172581,41042283,UNSATISFIABLE,
glucose_breakid.sh+log-rotate-09t6.cnf+8370d2fa,0,13.29,82028,487,96485,172581,41042283,UNSATISFIABLE,
glucose_breakid.sh+log-rotate-11t6.cnf+442025d1,0,2042.38,374932,39277,7918206,11558356,4176660350,UNSATISFIABLE,
glucose_breakid.sh+logistics.a.cnf+91ccd136,0,0.0,3356,1,117,828,6052,SATISFIABLE,
glucose_breakid.sh+logistics.b.cnf+91dae8b7,0,0.0,3364,1,143,1169,7228,SATISFIABLE,
glucose_breakid.sh+logistics.c.cnf+91e90038,0,0.01,1796,1,356,2280,18924,SATISFIABLE,
glucose_breakid.sh+logistics.d.cnf+91f717b9,0,0.03,4844,1,53,640,17026,SATISFIABLE,
glucose_breakid.sh+manol-pipe-c10nid_i.cnf+dcd2662a,0,114.29,153836,2725,861512,6963864,430094663,UNSATISFIABLE,
glucose_breakid.sh+manol-pipe-c10nidw.cnf+295ffc31,0,230.1,259972,3865,1079102,10234758,777754088,UNSATISFIABLE,
glucose_breakid.sh+manol-pipe-c10nidw_s.cnf+a5b38d25,0,15.83,242144,443,120282,1150447,54048043,UNSATISFIABLE,
glucose_breakid.sh+manol-pipe-c8nidw.cnf+4067ba3c,0,62.64,160628,1770,523377,4249091,242692343,UNSATISFIABLE,
glucose_breakid.sh+manol-pipe-g10bid_i.cnf+863c79a,0,136.03,167748,3039,936373,7875847,472371837,UNSATISFIABLE,
glucose_breakid.sh+maxxor032.cnf+af5bf3c8,0,0.0,1480,nosym
glucose_breakid.sh+miles1000.col.42.cnf+ed6ffaa5,0,3596.24,704668
glucose_breakid.sh+miles1500.col.73.cnf+5bf18c1e,0,3595.53,1027700
glucose_breakid.sh+miles250.col.8.cnf+fd9d8133,0,0.06,2368,2,6251,7735,91678,UNSATISFIABLE,
glucose_breakid.sh+miles500.col.20.cnf+a8e3bd35,0,3597.15,443988
glucose_breakid.sh+miles750.col.31.cnf+16f16118,0,3595.6,342384
glucose_breakid.sh+minandmaxor128.cnf+93f172ff,0,0.0,1476,nosym
glucose_breakid.sh+minxor128.cnf+4f8012de,0,0.0,1480,nosym
glucose_breakid.sh+minxorminand064.cnf+e6bea6b0,0,0.0,1480,nosym
glucose_breakid.sh+mod2-rand3bip-sat-230-2.sat05-2189.reshuffled-07.cnf+37b5d44c,0,0.0,1480,nosym
glucose_breakid.sh+mod2-rand3bip-sat-230-2.sat05-2189.reshuffled-07.cnf+ab566257,0,0.0,1484,nosym
glucose_breakid.sh+mod2-rand3bip-sat-270-1.sat05-2248.reshuffled-07.cnf+cecf52f5,0,0.0,1480,nosym
glucose_breakid.sh+mod2-rand3bip-sat-270-1.shuffled-as.sat05-2248.cnf+8c544767,0,0.0,1484,nosym
glucose_breakid.sh+mod2-rand3bip-sat-270-2.sat05-2249.reshuffled-07.cnf+9d266055,0,0.0,1480,nosym
glucose_breakid.sh+mod2-rand3bip-sat-280-1.sat05-2263.reshuffled-07.cnf+1796d2ef,0,0.0,1484,nosym
glucose_breakid.sh+mod2c-rand3bip-sat-240-3.shuffled-as.sat05-2520.cnf+73f25bd9,0,22.48,22312,1,344578,357493,25155780,SATISFIABLE,
glucose_breakid.sh+mod2c-rand3bip-sat-240-3.shuffled-as.sat05-2520.cnf+db925744,0,22.48,22280,1,344578,357493,25155780,SATISFIABLE,
glucose_breakid.sh+mod2c-rand3bip-sat-250-1.shuffled-as.sat05-2533.cnf+10b82fe9,0,2604.41,158396,2207,9512323,9743656,646780661,SATISFIABLE,
glucose_breakid.sh+mod2c-rand3bip-sat-250-3.shuffled-as.sat05-2535.cnf+f2766da9,0,2306.46,145928,107,12216188,12527409,668814963,SATISFIABLE,
glucose_breakid.sh+mrpp_4x4#4_24.cnf+3b6deca8,0,0.0,1480,nosym
glucose_breakid.sh+mrpp_4x4#6_12.cnf+95f3ec5,0,0.0,1480,nosym
glucose_breakid.sh+mrpp_4x4#6_20.cnf+af7e862,0,0.0,1476,nosym
glucose_breakid.sh+mrpp_4x4#6_6.cnf+4ae5660c,0,0.0,1480,nosym
glucose_breakid.sh+mrpp_4x4#8_12.cnf+d9219883,0,0.0,1472,nosym
glucose_breakid.sh+mrpp_4x4#8_16.cnf+d959f687,0,0.0,1480,nosym
glucose_breakid.sh+mrpp_4x4#8_24.cnf+daf2a024,0,0.0,1480,nosym
glucose_breakid.sh+mrpp_4x4#8_7.cnf+b4bff40f,0,0.0,1480,nosym
glucose_breakid.sh+mrpp_6x6#10_10.cnf+b15860e2,0,0.0,1480,nosym
glucose_breakid.sh+mrpp_6x6#10_12.cnf+b1748fe4,0,0.0,1476,nosym
glucose_breakid.sh+mrpp_6x6#10_20.cnf+b30d3981,0,0.0,1476,nosym
glucose_breakid.sh+mrpp_6x6#12_20.cnf+82cf933f,0,0.0,1480,nosym
glucose_breakid.sh+mrpp_6x6#12_9.cnf+fc58b212,0,0.0,1480,nosym
glucose_breakid.sh+mrpp_6x6#14_12.cnf+50f94360,0,0.0,1480,nosym
glucose_breakid.sh+mrpp_6x6#16_16.cnf+20f3fb22,0,0.0,1476,nosym
glucose_breakid.sh+mrpp_6x6#18_12.cnf+f07df6dc,0,0.0,1480,nosym
glucose_breakid.sh+mrpp_8x8#10_9.cnf+8a82688c,0,0.0,1480,nosym
glucose_breakid.sh+mrpp_8x8#16_10.cnf+276ee0a0,0,0.0,1480,nosym
glucose_breakid.sh+mrpp_8x8#16_11.cnf+277cf821,0,0.0,1476,nosym
glucose_breakid.sh+mrpp_8x8#16_12.cnf+278b0fa2,0,0.0,1476,nosym
glucose_breakid.sh+mrpp_8x8#16_16.cnf+27c36da6,0,0.0,1480,nosym
glucose_breakid.sh+mrpp_8x8#18_14.cnf+f7699862,0,0.0,1476,nosym
glucose_breakid.sh+mrpp_8x8#20_24.cnf+4e59790a,0,0.0,1480,nosym
glucose_breakid.sh+mrpp_8x8#22_11.cnf+1c3cb3a6,0,0.0,1480,nosym
glucose_breakid.sh+mrpp_8x8#22_20.cnf+1de374c4,0,0.0,1480,nosym
glucose_breakid.sh+mrpp_8x8#22_24.cnf+1e1bd2c8,0,0.0,1476,nosym
glucose_breakid.sh+mrpp_8x8#24_11.cnf+ebff0d64,0,0.0,1480,nosym
glucose_breakid.sh+mrpp_8x8#24_12.cnf+ec0d24e5,0,0.0,1480,nosym
glucose_breakid.sh+mrpp_8x8#24_14.cnf+ec2953e7,0,0.0,1480,nosym
glucose_breakid.sh+mrpp_8x8#24_20.cnf+eda5ce82,0,0.0,1480,nosym
glucose_breakid.sh+mulsol.i.1.col.49.cnf+4be34dc9,0,3595.83,814240
glucose_breakid.sh+mulsol.i.2.col.31.cnf+516f5e81,0,3595.69,527632
glucose_breakid.sh+mulsol.i.3.col.31.cnf+592103e0,0,3596.55,547796
glucose_breakid.sh+mulsol.i.4.col.31.cnf+60d2a93f,0,3596.95,541364
glucose_breakid.sh+mulsol.i.5.col.31.cnf+68844e9e,0,3596.56,507788
glucose_breakid.sh+myciel3.col.4.cnf+d29a8564,0,0.0,1476,1,9,10,24,UNSATISFIABLE,
glucose_breakid.sh+myciel4.col.5.cnf+678d4fa6,0,0.0,1476,1,390,526,6157,UNSATISFIABLE,
glucose_breakid.sh+myciel5.col.6.cnf+fc8019e8,0,0.53,3548,21,21331,27929,840687,UNSATISFIABLE,
glucose_breakid.sh+myciel6.col.7.cnf+9172e42a,0,3597.46,157256
glucose_breakid.sh+myciel7.col.8.cnf+2665ae6c,0,3597.57,191632
glucose_breakid.sh+ndist.b.20499.cnf+7df6fe1e,0,0.0,1480,nosym
glucose_breakid.sh+ndist.b.20998.cnf+86680ee2,0,0.0,1476,nosym
glucose_breakid.sh+ndist.b.22495.cnf+4d80f9d8,0,0.0,1480,nosym
glucose_breakid.sh+ndist.b.22994.cnf+55f20a9c,0,0.0,1480,nosym
glucose_breakid.sh+ndist.b.23992.cnf+bdb70879,0,0.0,1480,nosym
glucose_breakid.sh+ndist.b.24491.cnf+1d0af592,0,0.0,1476,nosym
glucose_breakid.sh+ndist.b.25489.cnf+83a805da,0,0.0,1480,nosym
glucose_breakid.sh+ndist.b.26487.cnf+eb6d03b7,0,0.0,1480,nosym
glucose_breakid.sh+ndist.b.27485.cnf+53320194,0,0.0,1480,nosym
glucose_breakid.sh+ndist.b.29481.cnf+22bbfd4e,0,0.0,1480,nosym
glucose_breakid.sh+openstacks-p30_3.085-SAT.cnf+46c7324b,0,5.32,208716,13,2469,54050,3143402,SATISFIABLE,
glucose_breakid.sh+openstacks-sequencedstrips-nonadl-nonnegated-os-sequencedstrips-p30_1.025-NOTKNOWN.cnf+cc4b9d8d,0,3596.24,948380
glucose_breakid.sh+openstacks-sequencedstrips-nonadl-nonnegated-os-sequencedstrips-p30_3.025-NOTKNOWN.cnf+556f61cb,0,3596.89,694256
glucose_breakid.sh+openstacks-sequencedstrips-nonadl-nonnegated-os-sequencedstrips-p30_3.085-SAT.cnf+9834c21f,0,5.44,209552,13,2469,54050,3143402,SATISFIABLE,
glucose_breakid.sh+partial-10-11-s.cnf+a5c31978,0,0.0,1480,nosym
glucose_breakid.sh+partial-10-17-s.cnf+e3287cfe,0,0.0,1476,nosym
glucose_breakid.sh+partial-5-15-s.cnf+582b0a18,0,0.0,1480,nosym
glucose_breakid.sh+partial-5-17-s.cnf+c1f7809a,0,0.0,1480,nosym
glucose_breakid.sh+pb_300_10_lb_07.cnf+1338d419,0,0.0,1480,nosym
glucose_breakid.sh+pb_300_10_lb_08.cnf+1346eb9a,0,0.0,1480,nosym
glucose_breakid.sh+post-c32s-ss-8.cnf+80556964,0,0.0,1480,nosym
glucose_breakid.sh+post-cbmc-aes-d-r2-noholes.cnf+86f156e1,0,96.07,209576,6813,1958057,4195871,110729193,UNSATISFIABLE,
glucose_breakid.sh+post-cbmc-aes-d-r2.cnf+9f97769c,0,92.62,215916,6154,1866554,4007985,103911008,UNSATISFIABLE,
glucose_breakid.sh+post-cbmc-aes-ee-r2-noholes.cnf+948c9299,0,92.31,207588,6408,1984749,4094048,94155949,UNSATISFIABLE,
glucose_breakid.sh+post-cbmc-zfcp-2.8-u2.cnf+5a5ea707,0,0.0,1440,nosym
glucose_breakid.sh+prime2209-98.cnf+aec10650,0,2.48,111628,7,4010,205086,7786780,SATISFIABLE,
glucose_breakid.sh+q_query_3_L100_coli.sat.cnf+5765993a,0,30.71,215372,1285,277639,541587,126667854,UNSATISFIABLE,
glucose_breakid.sh+q_query_3_L150_coli.sat.cnf+18aeac7f,0,77.08,345596,2747,512298,990873,280701808,UNSATISFIABLE,
glucose_breakid.sh+q_query_3_L200_coli.sat.cnf+38f77719,0,91.47,490920,2608,553767,1060517,325806920,UNSATISFIABLE,
glucose_breakid.sh+q_query_3_L80_coli.sat.cnf+161b8717,0,34.5,167304,1564,320971,570567,142328834,UNSATISFIABLE,
glucose_breakid.sh+q_query_3_L90_coli.sat.cnf+6ff6f158,0,36.02,187560,1622,298336,542470,138085232,UNSATISFIABLE,
glucose_breakid.sh+q_query_3_l45_lambda.cnf+eebab374,0,121.08,50760,4869,1174839,1721221,233768140,UNSATISFIABLE,
glucose_breakid.sh+q_query_3_l46_lambda.cnf+f66c58d3,0,107.26,53680,4228,1076100,1585313,215734768,UNSATISFIABLE,
glucose_breakid.sh+q_query_3_l48_lambda.cnf+5cfa391,0,99.66,52428,3166,1101012,1575552,218046157,UNSATISFIABLE,
glucose_breakid.sh+queen10_10.col.10.cnf+70a31e78,0,0.02,4900,1,128,821,6569,UNSATISFIABLE,
glucose_breakid.sh+queen11_11.col.11.cnf+d23e4599,0,0.02,3604,1,215,1343,13556,UNSATISFIABLE,
glucose_breakid.sh+queen12_12.col.12.cnf+33d96cba,0,0.07,7156,1,362,1846,25791,UNSATISFIABLE,
glucose_breakid.sh+queen13_13.col.13.cnf+957493db,0,0.03,7064,1,409,2569,34013,UNSATISFIABLE,
glucose_breakid.sh+queen14_14.col.14.cnf+f70fbafc,0,0.05,8528,10,1062,4295,98461,UNSATISFIABLE,
glucose_breakid.sh+queen15_15.col.15.cnf+58aae21d,0,0.08,10748,7,1432,5453,156475,UNSATISFIABLE,
glucose_breakid.sh+queen16_16.col.16.cnf+ba46093e,0,0.12,12924,10,2999,6091,340021,UNSATISFIABLE,
glucose_breakid.sh+queen5_5.col.5.cnf+3a84dce2,0,0.0,1480,1,19,76,407,UNSATISFIABLE,
glucose_breakid.sh+queen6_6.col.7.cnf+be08c526,0,0.0,1480,1,97,287,1939,UNSATISFIABLE,
glucose_breakid.sh+queen7_7.col.7.cnf+41707e68,0,0.0,1476,1,403,555,7958,UNSATISFIABLE,
glucose_breakid.sh+queen8_12.col.12.cnf+4d9d1853,0,0.03,3468,1,391,1429,24624,UNSATISFIABLE,
glucose_breakid.sh+queen8_8.col.9.cnf+c4f466ac,0,23.71,18268,392,234969,287419,12048559,UNSATISFIABLE,
glucose_breakid.sh+queen9_9.col.10.cnf+b5850844,0,3598.46,145168
glucose_breakid.sh+ramsey_3_3_6.cnf+4c505946,0,0.0,1448,0,0,0,10,UNSATISFIABLE,
glucose_breakid.sh+ramsey_3_4_9.cnf+8160db0a,0,0.0,1444,1,149,178,1566,UNSATISFIABLE,
glucose_breakid.sh+ramsey_4_4_17.cnf+91c3c64e,0,0.02,1564,1,185,728,2820,SATISFIABLE,
glucose_breakid.sh+ramsey_4_4_18.cnf+91d1ddcf,0,3598.83,190600
glucose_breakid.sh+ramsey_4_5_24.cnf+fb2f8549,0,3596.77,197324
glucose_breakid.sh+ramsey_4_5_25.cnf+fb3d9cca,0,3597.38,201296
glucose_breakid.sh+ramsey_5_5_42.cnf+f2c678a4,0,3595.87,460312
glucose_breakid.sh+ramsey_5_5_43.cnf+f2d49025,0,3599.56,517952
glucose_breakid.sh+rbcl_xits_08_UNSAT.cnf+82214049,0,2221.89,144032,38328,16091594,21494955,1408038667,UNSATISFIABLE,
glucose_breakid.sh+rbcl_xits_14_SAT.cnf+7a8095dd,0,3.09,32440,270,81239,125337,4981910,SATISFIABLE,
glucose_breakid.sh+rbsat-v1150c84314gyes10.cnf+69074dde,0,0.0,1480,nosym
glucose_breakid.sh+rbsat-v1150c84314gyes4.cnf+eac7498f,0,0.0,1480,nosym
glucose_breakid.sh+rbsat-v1150c84314gyes5.cnf+ead56110,0,0.0,1480,nosym
glucose_breakid.sh+rbsat-v1150c84314gyes7.cnf+eaf19012,0,0.0,1480,nosym
glucose_breakid.sh+rbsat-v945c61409g10.cnf+3c1d161a,0,0.0,1480,nosym
glucose_breakid.sh+rbsat-v945c61409gyes5.cnf+4747ef29,0,0.0,1480,nosym
glucose_breakid.sh+reg_s_2_unknown.cnf+3e7b0516,0,1273.31,287648,6654,3432242,4647102,4490396229,UNSATISFIABLE,
glucose_breakid.sh+rnd-v25-e13-k3.cnf+c05e0913,0,0.0,1476,nosym
glucose_breakid.sh+rnd-v25-e178-k13.cnf+bd47be72,0,0.0,1480,nosym
glucose_breakid.sh+rnd-v25-e212-k9.cnf+aed958c2,0,0.0,1480,nosym
glucose_breakid.sh+rnd-v25-e81-k9.cnf+fecf4562,0,0.0,1476,nosym
glucose_breakid.sh+rook-40-0-0.cnf+ef029fe4,0,0.0,1476,nosym
glucose_breakid.sh+rook-40-0-1.cnf+ef10b765,0,0.0,1480,nosym
glucose_breakid.sh+rook-42-0-0.cnf+178b7de6,0,0.0,1480,nosym
glucose_breakid.sh+rook-42-0-1.cnf+17999567,0,0.0,1480,nosym
glucose_breakid.sh+rook-42-1-1.cnf+4c7fd0a8,0,0.0,1480,nosym
glucose_breakid.sh+rook-44-0-1.cnf+40227369,0,0.0,1480,nosym
glucose_breakid.sh+rook-44-1-1.cnf+7508aeaa,0,0.0,1480,nosym
glucose_breakid.sh+rook-46-1-1.cnf+9d918cac,0,0.0,1480,nosym
glucose_breakid.sh+rook-47-0-1.cnf+fcefc06c,0,0.0,1480,nosym
glucose_breakid.sh+rook-47-1-1.cnf+31d5fbad,0,0.0,1480,nosym
glucose_breakid.sh+rook-48-0-1.cnf+91342f6d,0,0.0,1476,nosym
glucose_breakid.sh+rook-49-1-1.cnf+5a5ed9af,0,0.0,1480,nosym
glucose_breakid.sh+rook-50-0-0.cnf+e34c1103,0,0.0,1480,nosym
glucose_breakid.sh+rook-51-0-0.cnf+77908004,0,0.0,1476,nosym
glucose_breakid.sh+rook-52-0-1.cnf+be30686,0,0.0,1476,nosym
glucose_breakid.sh+rook-54-0-0.cnf+345dcd07,0,0.0,1480,nosym
glucose_breakid.sh+rook-54-1-1.cnf+69521fc9,0,0.0,1476,nosym
glucose_breakid.sh+rook-55-0-1.cnf+c8b05389,0,0.0,1476,nosym
glucose_breakid.sh+rook-56-0-0.cnf+5ce6ab09,0,0.0,1480,nosym
glucose_breakid.sh+rook-56-1-1.cnf+91dafdcb,0,0.0,1480,nosym
glucose_breakid.sh+rook-57-1-1.cnf+261f6ccc,0,0.0,1472,nosym
glucose_breakid.sh+rook-58-1-1.cnf+ba63dbcd,0,0.0,1480,nosym
glucose_breakid.sh+rook-59-1-1.cnf+4ea84ace,0,0.0,1480,nosym
glucose_breakid.sh+rook-60-0-1.cnf+d7a399a3,0,0.0,1480,nosym
glucose_breakid.sh+rook-61-1-1.cnf+a0ce43e5,0,0.0,1476,nosym
glucose_breakid.sh+rook-63-1-1.cnf+c95721e7,0,0.0,1472,nosym
glucose_breakid.sh+rook-65-1-1.cnf+f1dfffe9,0,0.0,1480,nosym
glucose_breakid.sh+rook-68-1-1.cnf+aead4cec,0,0.0,1480,nosym
glucose_breakid.sh+rook-72-1-1.cnf+295c2405,0,0.0,1480,nosym
glucose_breakid.sh+rook-76-1-1.cnf+7a6de009,0,0.0,1480,nosym
glucose_breakid.sh+rpoc_xits_15_SAT.cnf+1f51148f,0,1.6,28872,23,30418,37774,1457961,SATISFIABLE,
glucose_breakid.sh+rpoc_xits_15_SAT.cnf+aef428d7,0,2.06,28872,23,30418,37774,1457961,SATISFIABLE,
glucose_breakid.sh+sat-grid-pbl-0200.sat05-1339.reshuffled-07.cnf+52944c97,0,0.43,34040,1,0,1,10671,SATISFIABLE,
glucose_breakid.sh+school1.col.14.cnf+6eea8baa,0,3600.6,274304
glucose_breakid.sh+school1_nsh.col.14.cnf+c90fa7a6,0,3600.81,313076
glucose_breakid.sh+sgen1-sat-230-100.cnf+94496601,0,0.0,1476,nosym
glucose_breakid.sh+sgen1-sat-240-100.cnf+8892d720,0,0.0,1476,nosym
glucose_breakid.sh+sgen1-sat-250-100.cnf+7cdc483f,0,0.0,1480,nosym
glucose_breakid.sh+sgen1-sat-270-100.cnf+656f2a7d,0,0.0,1480,nosym
glucose_breakid.sh+sgen3-n200-s39840374-sat.cnf+79059468,0,0.0,1480,nosym
glucose_breakid.sh+sgen3-n220-s24359701-sat.cnf+589e9ce7,0,0.0,1480,nosym
glucose_breakid.sh+sgen3-n240-s78945233-sat.cnf+5200195b,0,0.0,1480,nosym
glucose_breakid.sh+sgen4-sat-160-8.cnf+3b78afe7,0,0.0,1476,nosym
glucose_breakid.sh+sgen4-sat-200-8.cnf+607611ae,0,0.0,1472,nosym
glucose_breakid.sh+sgen4-sat-220-8.cnf+30386b6c,0,0.0,1480,nosym
glucose_breakid.sh+sgen6-1080-5-1.cnf+cb4d81e3,0,0.0,1476,nosym
glucose_breakid.sh+sgen6-1200-5-1.cnf+52cb5e6d,0,0.0,1472,nosym
glucose_breakid.sh+sgen6-1320-5-1.cnf+d042f36c,0,0.0,1480,nosym
glucose_breakid.sh+sgen6-1440-5-1.cnf+4dba886b,0,0.0,1480,nosym
glucose_breakid.sh+sgen6-840-5-1.cnf+25d0623a,0,0.0,1480,nosym
glucose_breakid.sh+sgen6-960-5-1.cnf+a347f739,0,0.0,1480,nosym
glucose_breakid.sh+shift1add.10000.cnf+c1b85283,0,59.23,99508,522,56522,106902365,228000275,UNSATISFIABLE,
glucose_breakid.sh+shift1add.13988.cnf+e38b6f69,0,98.99,136996,743,74357,182229920,377450855,UNSATISFIABLE,
glucose_breakid.sh+shift1add.15982.cnf+b2f93c21,0,129.14,160644,853,89279,238846953,500435363,UNSATISFIABLE,
glucose_breakid.sh+shift1add.18973.cnf+e8f601a0,0,99.65,193808,798,104473,150340887,374641313,UNSATISFIABLE,
glucose_breakid.sh+shift1add.21964.cnf+a46b756a,0,215.56,230316,1113,123643,412938667,807036371,UNSATISFIABLE,
glucose_breakid.sh+shift1add.24955.cnf+da683ae9,0,176.06,242152,1123,137449,242001194,540075389,UNSATISFIABLE,
glucose_breakid.sh+shift1add.25952.cnf+421f2145,0,270.36,245832,1266,142595,488852608,1058699138,UNSATISFIABLE,
glucose_breakid.sh+shift1add.29940.cnf+dfd2cd20,0,264.61,286492,1299,160040,308157675,947685743,UNSATISFIABLE,
glucose_breakid.sh+slp-synthesis-aes-top28.cnf+4ea3d01e,0,0.0,1480,nosym
glucose_breakid.sh+slp-synthesis-aes-top29.cnf+4eb1e79f,0,0.0,1480,nosym
glucose_breakid.sh+smtlib-qfbv-aigs-ext_con_032_008_0256-tseitin.cnf+6423a6a5,0,3595.59,372612
glucose_breakid.sh+smtlib-qfbv-aigs-lfsr_004_127_112-tseitin.cnf+78eb4348,0,3.62,178552,99,29338,159108,5571900,UNSATISFIABLE,
glucose_breakid.sh+stable-300-0.1-20-98765432130020.cnf+962393ef,0,0.0,1480,nosym
glucose_breakid.sh+stable-400-0.1-11-98765432140011.cnf+2d1a0731,0,0.0,1480,nosym
glucose_breakid.sh+stable-400-0.1-12-98765432140012.cnf+14c9f511,0,0.0,1476,nosym
glucose_breakid.sh+stable-400-0.1-2-9876543214002.cnf+b699237d,0,0.0,1476,nosym
glucose_breakid.sh+stable-400-0.1-4-9876543214004.cnf+520a1601,0,0.0,1476,nosym
glucose_breakid.sh+stable-400-0.1-5-9876543214005.cnf+1fc28f43,0,0.0,1476,nosym
glucose_breakid.sh+stable-400-0.1-7-9876543214007.cnf+bb3381c7,0,0.0,1476,nosym
glucose_breakid.sh+total-10-13-u.cnf+a03000ff,0,0.0,1480,nosym
glucose_breakid.sh+toughsat_factoring_155s.cnf+1abd32f0,0,0.0,1480,nosym
glucose_breakid.sh+toughsat_factoring_426s.cnf+b562e069,0,0.0,1480,nosym
glucose_breakid.sh+toughsat_factoring_958s.cnf+5ee523c5,0,0.0,1480,nosym
glucose_breakid.sh+toughsat_factoring_inf.cnf+3922702d,0,0.0,1476,nosym
glucose_breakid.sh+tph17.cnf+54f898c0,0,0.29,10448,0,0,0,846,UNSATISFIABLE,
glucose_breakid.sh+transport-transport-city-sequential-25nodes-1000size-3degree-100mindistance-3trucks-10packages-2008seed.020-NOTKNOWN.cnf+fcf5fc04,0,0.0,1484,nosym
glucose_breakid.sh+transport-transport-city-sequential-25nodes-1000size-3degree-100mindistance-3trucks-10packages-2008seed.030-NOTKNOWN.cnf+56d16645,0,0.0,1480,nosym
glucose_breakid.sh+transport-transport-city-sequential-25nodes-1000size-3degree-100mindistance-3trucks-10packages-2008seed.040-NOTKNOWN.cnf+b0acd086,0,0.0,1480,nosym
glucose_breakid.sh+transport-transport-city-sequential-25nodes-1000size-3degree-100mindistance-3trucks-10packages-2008seed.050-NOTKNOWN.cnf+a883ac7,0,0.0,1480,nosym
glucose_breakid.sh+transport-transport-city-sequential-35nodes-1000size-4degree-100mindistance-4trucks-14packages-2008seed.040-NOTKNOWN.cnf+32bd1309,0,0.0,1480,nosym
glucose_breakid.sh+unsat-set-a-clqcolor-10-06-07.sat05-1250.reshuffled-07.cnf+e176ef8d,0,0.92,4748,163,40330,52957,1638929,UNSATISFIABLE,
glucose_breakid.sh+unsat-set-a-clqcolor-12-07-08.sat05-1251.reshuffled-07.cnf+162429ac,0,3.98,10552,308,149878,211345,6652301,UNSATISFIABLE,
glucose_breakid.sh+unsat-set-a-clqcolor-16-10-11.sat05-1253.reshuffled-07.cnf+5edf85aa,0,3597.63,180756
glucose_breakid.sh+unsat-set-a-clqcolor-30-19-20.sat05-1256.reshuffled-07.cnf+b684b860,0,3596.34,492312
glucose_breakid.sh+unsat-set-a-fclqcolor-10-06-07.sat05-1274.reshuffled-07.cnf+31376739,0,0.02,1484,7,2728,3712,79005,UNSATISFIABLE,
glucose_breakid.sh+unsat-set-a-fclqcolor-20-13-14.sat05-1278.reshuffled-07.cnf+5204173e,0,3596.97,214272
glucose_breakid.sh+unsat-set-b-clqcolor-16-11-14.sat05-1261.reshuffled-07.cnf+64d4f944,0,1425.14,146100,25730,5748090,9047252,350008416,UNSATISFIABLE,
glucose_breakid.sh+unsat-set-b-clqcolor-30-20-26.sat05-1264.reshuffled-07.cnf+11329aec,0,3596.84,339488
glucose_breakid.sh+unsat-set-b-fclqcolor-10-07-09.sat05-1282.reshuffled-07.cnf+fc3f2756,0,0.0,1488,1,8,15,691,UNSATISFIABLE,
glucose_breakid.sh+unsat-set-b-fclqcolor-25-18-23.sat05-1287.reshuffled-07.cnf+3a34085f,0,1.59,17504,3,680,2938,38850,UNSATISFIABLE,
glucose_breakid.sh+vdw_2_3_8.cnf+da29dfbb,0,0.0,1448,1,0,1,3,SATISFIABLE,
glucose_breakid.sh+vdw_2_3_9.cnf+da37f73c,0,0.0,1444,0,0,0,2,UNSATISFIABLE,
glucose_breakid.sh+vdw_2_4_34.cnf+caa756d7,0,0.0,1448,1,94,122,1036,SATISFIABLE,
glucose_breakid.sh+vdw_2_4_35.cnf+cab56e58,0,0.0,1448,1,416,456,4710,UNSATISFIABLE,
glucose_breakid.sh+vdw_2_5_177.cnf+ba409a56,0,3.69,11340,65,140155,152932,1987170,SATISFIABLE,
glucose_breakid.sh+vdw_2_5_178.cnf+ba4eb1d7,0,20.33,21752,75,518383,558630,7131251,UNSATISFIABLE,
glucose_breakid.sh+vdw_2_6_1131.cnf+3df56272,0,3598.19,240708
glucose_breakid.sh+vdw_2_6_1132.cnf+3e0379f3,0,3597.25,277772
glucose_breakid.sh+vdw_3_3_26.cnf+5576f17a,0,0.0,1448,1,610,751,7509,SATISFIABLE,
glucose_breakid.sh+vdw_3_3_27.cnf+558508fb,0,0.01,1448,1,1919,2271,40710,UNSATISFIABLE,
glucose_breakid.sh+vdw_3_4_292.cnf+f2ea5510,0,3598.34,215532
glucose_breakid.sh+vdw_3_4_293.cnf+f2f86c91,0,3595.52,200096
glucose_breakid.sh+vdw_4_3_75.cnf+523a8633,0,3601.29,161488
glucose_breakid.sh+vdw_4_3_76.cnf+52489db4,0,3601.28,194188
glucose_breakid.sh+vdw_5_3_171.cnf+50114791,0,3600.92,183572
glucose_breakid.sh+velev-vliw-uns-2.0-uq5.cnf+35cb038d,0,300.53,287828,7640,1223819,42006634,1942504066,UNSATISFIABLE,
glucose_breakid.sh+velev-vliw-uns-4.0-9-i1.cnf+85d87e80,0,451.47,383156,10118,1914043,45104796,2998298256,UNSATISFIABLE,
glucose_breakid.sh+velev-vliw-uns-4.0-9.cnf+cb66026f,0,93.23,204352,2696,560304,11354203,573703207,UNSATISFIABLE,
glucose_breakid.sh+vmpc_29.cnf+13010b8c,0,0.0,1480,nosym
glucose_breakid.sh+vmpc_32.renamed-as.sat05-1919.cnf+3d24657d,0,0.0,1480,nosym
glucose_breakid.sh+vmpc_33.cnf+14615725,0,0.0,1480,nosym
glucose_breakid.sh+x1_40.shuffled.cnf+ead6be38,0,0.0,1484,0,0,0,117,UNSATISFIABLE,
glucose_breakid.sh+x1_80.shuffled.cnf+5244673c,0,0.0,1484,0,0,0,237,UNSATISFIABLE,
glucose_breakid.sh+zeroin.i.1.col.49.cnf+1469a928,0,3598.03,760636
glucose_breakid.sh+zeroin.i.2.col.30.cnf+19e7a25f,0,3599.84,495948
glucose_breakid.sh+zeroin.i.3.col.30.cnf+219947be,0,3600.02,497284
glucose_breakid.sh+zfcp-2.8-u2-nh.cnf+8ecba8f,0,0.0,1444,nosym
