Name,OutCode,Time,Mem
shatter_run.sh+001-80-12.cnf+d931bfa6,0,0.37,76696,505304 3151928 0 
shatter_run.sh+002-23-96.cnf+39fe81fa,0,0.1,22236,141184 877951 63 
shatter_run.sh+002-80-12.cnf+6e167267,0,0.34,76764,505304 3151928 0 
shatter_run.sh+002-80-4.cnf+da6c0728,0,0.37,76764,505296 3151920 0 
shatter_run.sh+002-80-8.cnf+daa4652c,0,0.33,76760,505300 3151924 0 
shatter_run.sh+003-23-80.cnf+ccd9cf16,0,0.08,22236,141168 877935 63 
shatter_run.sh+003-80-8.cnf+ceedd64b,0,0.4,76752,505300 3151924 0 
shatter_run.sh+004-22-144.cnf+d6915b2b,0,0.09,21368,134820 837946 63 
shatter_run.sh+004-22-160.cnf+d9c2ae65,0,0.08,21384,134836 837962 63 
shatter_run.sh+004-80-8.cnf+c337476a,0,0.33,76832,505300 3151924 0 
shatter_run.sh+005-22-160.cnf+e17453c4,0,0.08,21388,134836 837962 63 
shatter_run.sh+005-80-12.cnf+2cc48aaa,0,0.34,78016,505304 3151928 0 
shatter_run.sh+006-22-144.cnf+e5f4a5e9,0,0.07,21388,134820 837946 63 
shatter_run.sh+006-22-160.cnf+e925f923,0,0.09,21388,134836 837962 63 
shatter_run.sh+006-23-80.cnf+8b87e759,0,0.1,22256,141168 877935 63 
shatter_run.sh+006-23-96.cnf+8d914cfe,0,0.09,22248,141184 877951 63 
shatter_run.sh+006-80-4.cnf+ab91cba4,0,0.35,76764,505296 3151920 0 
shatter_run.sh+007-80-12.cnf+568df02c,0,0.37,76752,505304 3151928 0 
shatter_run.sh+007-80-8.cnf+a0139ac7,0,0.38,78612,505300 3151924 0 
shatter_run.sh+008-80-12.cnf+eb72a2ed,0,0.36,76820,505304 3151928 0 
shatter_run.sh+008-80-4.cnf+9424ade2,0,0.39,76764,505296 3151920 0 
shatter_run.sh+008-80-8.cnf+945d0be6,0,0.36,76696,505300 3151924 0 
shatter_run.sh+009-23-64.cnf+4704ac62,0,0.07,22260,141152 877919 63 
shatter_run.sh+009-80-4.cnf+886e1f01,0,0.37,76684,505296 3151920 0 
shatter_run.sh+009-80-8.cnf+88a67d05,0,0.32,76760,505300 3151924 0 
shatter_run.sh+010-22-144.cnf+a64dcc30,0,0.08,21388,134820 837946 63 
shatter_run.sh+010-22-160.cnf+a97f1f6a,0,0.08,21384,134836 837962 63 
shatter_run.sh+010-23-80.cnf+15dd5c32,0,0.1,22240,141168 877935 63 
shatter_run.sh+010-80-12.cnf+4bfeb244,0,0.34,78808,505304 3151928 0 
shatter_run.sh+10pipe_q0_k.cnf+2a8646a9,0,1.97,298204,2237295 6242234 20 
shatter_run.sh+11pipe_11_ooo.cnf+489937ad,0,6.68,618708,4364272 12498643 23 
shatter_run.sh+11pipe_k.cnf+661b3a08,0,7.01,811508,5762633 16683020 25 
shatter_run.sh+11pipe_q0_k.cnf+c641048,0,2.71,419932,3216371 9021447 22 
shatter_run.sh+12pipe_q0_k.cnf+ee41d9e7,0,4.11,588380,4490060 12650120 24 
shatter_run.sh+13pipe_q0_k.cnf+d01fa386,0,5.07,801580,6113723 17290153 26 
shatter_run.sh+14pipe_q0_k.cnf+b1fd6d25,0,7.24,1065780,8148307 23119980 28 
shatter_run.sh+15pipe_q0_k.cnf+93db36c4,0,9.01,1395100,10659876 30333210 30 
shatter_run.sh+289-unsat-6x30.cnf+ab2b1a09,0,0.29,5048,28800 108000 30 
shatter_run.sh+5-SATISFIABLE.cnf+47452d3f,0,0.76,163236,1192511 4043856 1 
shatter_run.sh+6s10.cnf+73f96b2a,0,0.12,22472,166990 265331 29 
shatter_run.sh+6s11-opt.cnf+610f3411,0,0.05,20488,163870 260339 22 
shatter_run.sh+6s12.cnf+74159a2c,0,0.15,22568,167652 266388 29 
shatter_run.sh+6s123.cnf+ecbe141,0,4.71,573772,4411155 6980012 1506 
shatter_run.sh+6s126-opt.cnf+eb83a4aa,0,1.72,349068,2893280 4628385 0 
shatter_run.sh+6s13-opt.cnf+89981213,0,0.08,31884,258429 410733 11 
shatter_run.sh+6s130-opt.cnf+66327bc3,0,0.06,29912,243101 386211 44 
shatter_run.sh+6s131-opt.cnf+fa76eac4,0,0.09,29896,242876 385851 44 
shatter_run.sh+6s133.cnf+1080b9e0,0,0.23,31200,237484 377182 60 
shatter_run.sh+6s137.cnf+10b917e4,0,3.85,484944,3732864 5898730 957 
shatter_run.sh+6s151.cnf+13ce3c1c,0,0.17,24056,178954 285987 1 
shatter_run.sh+6s153.cnf+13ea6b1e,0,0.43,55060,416732 658338 519 
shatter_run.sh+6s16-opt.cnf+46655f16,0,0.04,19064,151545 240586 25 
shatter_run.sh+6s16.cnf+744df830,0,0.19,20872,154860 245890 32 
shatter_run.sh+6s165-nonopt.cnf+4bdd4f8e,0,0.01,2852,16176 25661 20 
shatter_run.sh+6s167-opt.cnf+50edd827,0,0.0,3448,22803 36191 3 
shatter_run.sh+6s168-opt.cnf+e5324728,0,0.0,4100,27795 44181 0 
shatter_run.sh+6s169-opt.cnf+7976b629,0,0.0,4340,29697 47068 19 
shatter_run.sh+6s17-opt.cnf+daa9ce17,0,0.07,29068,234477 372368 14 
shatter_run.sh+6s184.cnf+19170c7c,0,0.11,22116,164252 260904 26 
shatter_run.sh+6s9.cnf+3dfcc848,0,0.12,22740,169024 268548 32 
shatter_run.sh+7pipe_k.cnf+83caca7d,0,1.2,116704,798934 2235373 17 
shatter_run.sh+8pipe_k.cnf+18af7d3e,0,1.85,200832,1402903 3971748 19 
shatter_run.sh+9dlx_vliw_at_b_iq3.cnf+463d8203,0,0.58,147820,1107873 2858156 11 
shatter_run.sh+9dlx_vliw_at_b_iq4.cnf+464b9984,0,0.92,239068,1810327 4723416 11 
shatter_run.sh+9dlx_vliw_at_b_iq6.used-as.sat04-347.cnf+76c1e4bf,0,3.54,525900,4054125 10757685 11 
shatter_run.sh+9dlx_vliw_at_b_iq7.cnf+4675e007,0,4.11,867584,6681298 17981849 11 
shatter_run.sh+9dlx_vliw_at_b_iq8.used-as.sat04-718.cnf+d9ad91e9,0,4.23,1027396,7913747 21243838 11 
shatter_run.sh+9dlx_vliw_at_b_iq9.cnf+46920f09,0,9.73,1383376,10640572 28677121 11 
shatter_run.sh+9vliw_m_9stages_iq3_C1_bug1.cnf+6b8ecfc1,0,13.51,1870828,14421017 39726167 2 
shatter_run.sh+9vliw_m_9stages_iq3_C1_bug10.cnf+64f17c9,0,14.46,1856544,14420989 39726113 2 
shatter_run.sh+9vliw_m_9stages_iq3_C1_bug3.cnf+6baafec3,0,10.04,1879048,14418253 39718843 2 
shatter_run.sh+9vliw_m_9stages_iq3_C1_bug4.cnf+6bb91644,0,10.45,1861616,14389559 39635046 2 
shatter_run.sh+9vliw_m_9stages_iq3_C1_bug7.cnf+6be35cc7,0,9.3,1876868,14420304 39724291 2 
shatter_run.sh+9vliw_m_9stages_iq3_C1_bug8.cnf+6bf17448,0,9.08,1873800,14420975 39726086 2 
shatter_run.sh+9vliw_m_9stages_iq3_C1_bug9.cnf+6bff8bc9,0,9.86,1853724,14420998 39726085 2 
shatter_run.sh+ACG-15-10p0.cnf+4520f32c,0,1.02,193816,1591148 2765516 0 
shatter_run.sh+ACG-15-10p1.cnf+452f0aad,0,0.87,196748,1627157 2830810 0 
shatter_run.sh+ACG-20-10p1.cnf+14a487d3,0,1.37,279284,2312832 4042075 0 
shatter_run.sh+ACG-20-5p0.cnf+2d6ef69c,0,1.2,237972,1967913 3436348 0 
shatter_run.sh+ACG-20-5p1.cnf+2d7d0e1d,0,0.81,242376,2006792 3507227 0 
shatter_run.sh+AProVE07-01.cnf+b3116a78,0,0.01,6096,43774 83792 0 
shatter_run.sh+AProVE07-03.cnf+b32d997a,0,0.0,2820,17055 31455 0 
shatter_run.sh+AProVE07-08.cnf+b3740eff,0,0.0,3916,25865 48621 0 
shatter_run.sh+AProVE07-27.cnf+b6cfa8bc,0,0.0,6096,44652 84853 2 
shatter_run.sh+AProVE09-06.cnf+831a39bb,0,0.44,55600,417661 756811 2 
shatter_run.sh+Chvatal-k5.cnf+5dab0cb8,0,0.01,5632,40076 89784 1008 
shatter_run.sh+Composite-024BitPrimes-1.used-as.sat04-861.cnf+49088d2d,0,0.0,2512,13027 49983 1 
shatter_run.sh+Composite-024BitPrimes-1.used-as.sat04-861.cnf+73f3b1df,0,0.0,2512,13027 49983 1 
shatter_run.sh+E02F20.cnf+d541bf2b,0,0.39,67572,416185 2832254 0 
shatter_run.sh+E02F22.cnf+d55dee2d,0,1.51,237160,1328294 11475569 0 
shatter_run.sh+EDP3-10000.cnf+547a696,0,0.86,108136,773400 1896392 1 
shatter_run.sh+EDP3-11000.cnf+6d28d375,0,1.36,122696,861540 2112776 1 
shatter_run.sh+EDP3-12000.cnf+d50a0054,0,1.72,133488,950961 2332332 1 
shatter_run.sh+EDP3-13000.cnf+3ceb2d33,0,1.57,145792,1041186 2553874 1 
shatter_run.sh+EDP3-14000.cnf+a4cc5a12,0,1.64,159848,1131993 2776862 1 
shatter_run.sh+EDP3-15000.cnf+cad86f1,0,1.72,172504,1223724 3002138 1 
shatter_run.sh+EDP3-16000.cnf+748eb3d0,0,1.8,183544,1316091 3228984 1 
shatter_run.sh+EDP3-17000.cnf+dc6fe0af,0,2.19,196796,1409040 3457276 1 
shatter_run.sh+EDP3-18000.cnf+44510d8e,0,2.47,209240,1503018 3688116 1 
shatter_run.sh+EDP3-19000.cnf+ac323a6d,0,2.24,220656,1596813 3918498 1 
shatter_run.sh+EDP3-20000.cnf+998c1597,0,2.56,237264,1692030 4152406 1 
shatter_run.sh+EDP3-30000.cnf+2dd08498,0,3.75,370368,2665512 6544244 1 
shatter_run.sh+EDP3-40000.cnf+c214f399,0,5.31,512628,3674721 9024544 1 
shatter_run.sh+EDP3-50000.cnf+5659629a,0,6.24,654984,4710258 11570042 1 
shatter_run.sh+EDP3-60000.cnf+ea9dd19b,0,10.8,796132,5767425 14169100 1 
shatter_run.sh+EDP3-70000.cnf+7ee2409c,0,20.23,941256,6842049 16811380 1 
shatter_run.sh+EDP3-8000.cnf+743aed6d,0,0.85,83392,599907 1470530 1 
shatter_run.sh+EDP3-80000.cnf+1326af9d,0,10.28,1095196,7931304 19489894 1 
shatter_run.sh+EDP3-9000.cnf+dc1c1a4c,0,0.85,96844,686157 1682234 1 
shatter_run.sh+EDP3-90000.cnf+a76b1e9e,0,23.9,1240464,9034272 22202364 1 
shatter_run.sh+FlowerSnark-k6.cnf+63e8ac64,0,0.07,31300,245090 604680 3000 
shatter_run.sh+GreenTao_2-3-6_2071.cnf+b1b5ed20,0,0.04,21376,163024 480654 0 
shatter_run.sh+GreenTao_2-4-4_511.cnf+964ad146,0,0.0,1552,5496 18421 2 
shatter_run.sh+Hidoku_enu_6.cnf+b076f2ea,0,0.0,2872,16940 36652 316 
shatter_run.sh+Hidoku_enu_7.cnf+b0850a6b,0,0.01,4772,32096 69855 433 
shatter_run.sh+IBM_FV_2004_rule_batch_1_31_1_SAT_dat.k40.debugged.cnf+42b9bc0a,0,0.11,40372,321895 598852 13 
shatter_run.sh+LABS_n038_goal002.cnf+68696b4a,0,0.03,15084,123137 183993 0 
shatter_run.sh+LABS_n044_goal003.cnf+90493266,0,0.05,22576,187969 281021 2 
shatter_run.sh+LABS_n045_goal003.cnf+7ecc38e7,0,0.06,24020,200707 300084 2 
shatter_run.sh+LABS_n051_goal004.cnf+a6ac0003,0,0.11,34048,288456 431452 2 
shatter_run.sh+LABS_n052_goal004.cnf+952f0684,0,0.11,35832,305351 456744 2 
shatter_run.sh+LABS_n066_goal005.cnf+312701a8,0,0.24,70948,613530 918240 2 
shatter_run.sh+LABS_n078_goal006.cnf+f018efca,0,0.57,117752,1002164 1500392 6 
shatter_run.sh+LABS_n081_goal007.cnf+4c6fa363,0,0.5,144436,1215650 2007454 23 
shatter_run.sh+LABS_n082_goal007.cnf+3af2a9e4,0,0.5,155092,1302924 2250223 313 
shatter_run.sh+LABS_n088_goal008.cnf+d212e86b,0,0.6,215088,1725368 3431376 1765 
shatter_run.sh+MD5-27-4.cnf+3b4a9ee9,0,0.02,10620,75656 240317 0 
shatter_run.sh+MD5-28-1.cnf+700693a7,0,0.02,11236,79122 252054 0 
shatter_run.sh+MD5-28-2.cnf+7014ab28,0,0.02,11232,79116 252041 0 
shatter_run.sh+MD5-28-3.cnf+7022c2a9,0,0.03,10968,79061 251883 0 
shatter_run.sh+MD5-28-4.cnf+7030da2a,0,0.03,11232,79106 252003 0 
shatter_run.sh+MD5-28-5.cnf+703ef1ab,0,0.03,11228,79091 251966 0 
shatter_run.sh+MD5-29-2.cnf+a4fae669,0,0.03,11564,82485 263447 0 
shatter_run.sh+MD5-29-3.cnf+a508fdea,0,0.03,11576,82494 263471 0 
shatter_run.sh+MD5-29-4.cnf+a517156b,0,0.02,11576,82492 263474 0 
shatter_run.sh+MD5-29-5.cnf+a5252cec,0,0.03,11572,82504 263509 0 
shatter_run.sh+MD5-30-1.cnf+30b5e67e,0,0.03,11912,85918 275018 0 
shatter_run.sh+MD5-30-2.cnf+30c3fdff,0,0.03,11916,85887 274952 0 
shatter_run.sh+MD5-30-4.cnf+30e02d01,0,0.02,11916,85916 275021 0 
shatter_run.sh+MD5-30-5.cnf+30ee4482,0,0.02,11916,85913 275010 0 
shatter_run.sh+MD5-31-4.cnf+65c66842,0,0.03,12520,89308 286465 0 
shatter_run.sh+MD5-31-5.cnf+65d47fc3,0,0.03,12416,89337 286556 0 
shatter_run.sh+MD5-32-1.cnf+9a825d00,0,0.04,12856,92690 297880 0 
shatter_run.sh+MD5-32-2.cnf+9a907481,0,0.02,12864,92671 297849 0 
shatter_run.sh+MD5-32-3.cnf+9a9e8c02,0,0.03,12856,92688 297883 0 
shatter_run.sh+MD5-32-4.cnf+9aaca383,0,0.03,12852,92690 297880 0 
shatter_run.sh+MD5-32-5.cnf+9ababb04,0,0.03,12860,92744 298024 0 
shatter_run.sh+Q32inK09.cnf+d0ac5e48,0,0.05,2420,8010 92268 7 
shatter_run.sh+Q32inK10.cnf+d1e2635e,0,0.36,9024,38520 456165 9 
shatter_run.sh+Q32inK11.cnf+d1f07adf,0,1.94,31288,139700 1667215 9 
shatter_run.sh+Q3inK10.cnf+917cc594,0,0.96,17152,75690 907245 10 
shatter_run.sh+Q3inK11.cnf+7dec50ae,0,9.65,61256,277310 3326455 11 
shatter_run.sh+Robertson-k8.cnf+3ba9f25a,0,0.06,28276,221293 539011 3610 
shatter_run.sh+SAT_dat.k100-24_1_rule_1.cnf+af6d0750,0,5.26,1170236,9486816 17352505 56396 
shatter_run.sh+SAT_dat.k100-24_1_rule_2.cnf+af7b1ed1,0,6.77,1170168,9486792 17352475 56396 
shatter_run.sh+SAT_dat.k100-24_1_rule_3.cnf+af893652,0,6.99,1169124,9486792 17352475 56396 
shatter_run.sh+SAT_dat.k30-30_rule.cnf+56afb75,0,0.21,54468,433435 870833 161 
shatter_run.sh+SAT_dat.k35-31_2_rule_2.cnf+48fa8279,0,0.13,41032,326290 620189 457 
shatter_run.sh+SAT_dat.k70-24_1_rule_1.cnf+beeeaac,0,3.63,824600,6617976 12103195 39686 
shatter_run.sh+SAT_dat.k70-24_1_rule_3.cnf+c0b19ae,0,4.01,822892,6617952 12103165 39686 
shatter_run.sh+SAT_dat.k75-24_1_rule_3.cnf+9f5c6fb3,0,4.31,877980,7096092 12978050 42471 
shatter_run.sh+SAT_dat.k80-24_1_rule_1.cnf+d080cccb,0,4.17,936288,7574256 13852965 45256 
shatter_run.sh+SAT_dat.k80-24_1_rule_2.cnf+d08ee44c,0,4.56,947264,7574232 13852935 45256 
shatter_run.sh+SAT_dat.k85-24_1_rule_1.cnf+63d222d0,0,4.08,997596,8052396 14727850 48041 
shatter_run.sh+SAT_dat.k85-24_1_rule_2.cnf+63e03a51,0,4.61,999440,8052372 14727820 48041 
shatter_run.sh+SAT_dat.k85-24_1_rule_3.cnf+63ee51d2,0,4.78,998888,8052372 14727820 48041 
shatter_run.sh+SAT_dat.k90.debugged.cnf+e3b059dd,0,5.04,1058416,8530536 15602735 50826 
shatter_run.sh+SAT_dat.k95-24_1_rule_1.cnf+286404ef,0,5.31,1115004,9008676 16477620 53611 
shatter_run.sh+SAT_dat.k95-24_1_rule_2.cnf+28721c70,0,5.51,1116068,9008652 16477590 53611 
shatter_run.sh+SAT_dat.k95-24_1_rule_3.cnf+288033f1,0,5.47,1120408,9008652 16477590 53611 
shatter_run.sh+SAT_instance_N=111.cnf+2ef788a1,0,0.24,64352,530061 968214 0 
shatter_run.sh+SAT_instance_N=31.cnf+999220c8,0,0.01,5768,41341 74705 0 
shatter_run.sh+SAT_instance_N=33.cnf+99ae4fca,0,0.0,6360,47246 85457 0 
shatter_run.sh+SAT_instance_N=43.cnf+9b632869,0,0.02,10400,79555 144444 0 
shatter_run.sh+SAT_instance_N=49.cnf+9bb7b56f,0,0.03,13284,104000 188883 0 
shatter_run.sh+SAT_instance_N=55.cnf+9d34300a,0,0.05,16468,130310 236933 0 
shatter_run.sh+SAT_instance_N=63.cnf+9eccd9a7,0,0.04,21372,170600 310573 0 
shatter_run.sh+SAT_instance_N=69.cnf+9f2166ad,0,0.07,25700,205448 374354 0 
shatter_run.sh+SAT_instance_N=72.cnf+a0739ac5,0,0.08,27452,219786 400548 0 
shatter_run.sh+SAT_instance_N=75.cnf+a09de148,0,0.08,29784,242237 441581 0 
shatter_run.sh+SAT_instance_N=77.cnf+a0ba104a,0,0.07,31776,255320 465604 0 
shatter_run.sh+SAT_instance_N=85.cnf+a252b9e7,0,0.11,38440,311092 567762 0 
shatter_run.sh+SAT_instance_N=93.cnf+a3eb6384,0,0.17,45452,371840 678941 0 
shatter_run.sh+SAT_instance_N=99.cnf+a43ff08a,0,0.15,51528,422770 771685 0 
shatter_run.sh+UCG-15-10p0.cnf+4a454040,0,0.98,162716,1339352 2450771 0 
shatter_run.sh+UCG-15-10p1.cnf+4a5357c1,0,0.78,164804,1354137 2489535 0 
shatter_run.sh+UCG-20-10p0.cnf+19babd66,0,0.96,223748,1806257 3383171 0 
shatter_run.sh+UCG-20-10p1.cnf+19c8d4e7,0,1.05,229988,1823032 3429825 0 
shatter_run.sh+UCG-20-5p0.cnf+d2c2b708,0,0.9,193316,1567397 2935703 0 
shatter_run.sh+UCG-20-5p1.cnf+d2d0ce89,0,1.15,192748,1581952 2976177 0 
shatter_run.sh+UR-15-10p0.cnf+f0ca986,0,0.73,163172,1339282 2450673 0 
shatter_run.sh+UR-15-10p1.cnf+f1ac107,0,0.73,164964,1354102 2489486 0 
shatter_run.sh+UR-20-10p0.cnf+de8226ac,0,1.13,222076,1806167 3383045 0 
shatter_run.sh+UR-20-10p1.cnf+de903e2d,0,1.02,224256,1822912 3429657 0 
shatter_run.sh+UR-20-5p0.cnf+2660d02,0,0.83,191332,1567307 2935577 0 
shatter_run.sh+UTI-20-10p0.cnf+f67b2df7,0,0.95,220484,1810341 3388888 0 
shatter_run.sh+UTI-20-10p1.cnf+f6894578,0,1.2,224464,1828451 3437411 0 
shatter_run.sh+UTI-20-5p1.cnf+b8e787d8,0,0.7,195648,1586651 2982755 0 
shatter_run.sh+Urq3_5.cnf+6fbe4c44,0,0.0,1436,562 2958 29 
shatter_run.sh+Urq4_5.cnf+a4a48785,0,0.0,1436,842 4346 43 
shatter_run.sh+Urq5_5.cnf+d98ac2c6,0,0.02,1440,1452 7669 72 
shatter_run.sh+Urq6_5.cnf+e70fe07,0,0.06,1440,2116 10956 109 
shatter_run.sh+Urq7_5.cnf+43573948,0,0.1,1436,2674 13436 143 
shatter_run.sh+Urq8_5.cnf+783d7489,0,0.23,1440,3906 20331 200 
shatter_run.sh+VanDerWaerden_pd_2-3-20_388.cnf+62cffd05,0,0.0,3588,20781 91434 0 
shatter_run.sh+aaai10-planning-ipc5-TPP-21-step11.cnf+97340e5,0,0.35,122120,983463 1808298 2 
shatter_run.sh+aaai10-planning-ipc5-TPP-30-step11.cnf+f044a207,0,1.54,435088,3549730 6615635 12 
shatter_run.sh+aaai10-planning-ipc5-pathways-13-step17.cnf+637cdd8f,0,0.05,24180,193489 343573 0 
shatter_run.sh+aaai10-planning-ipc5-pathways-17-step20.cnf+8395a723,0,0.17,47236,384420 686545 0 
shatter_run.sh+aaai10-planning-ipc5-pathways-17-step21.cnf+83a3bea4,0,0.15,51248,416023 744285 0 
shatter_run.sh+aes_24_4_keyfind_4.cnf+e2c1a203,0,0.0,1728,7008 35240 0 
shatter_run.sh+aes_24_4_keyfind_5.cnf+e2cfb984,0,0.0,1724,7008 35240 0 
shatter_run.sh+aes_32_2_keyfind_1.cnf+521ead1b,0,0.0,1588,6072 28292 0 
shatter_run.sh+aes_32_2_keyfind_3.cnf+523adc1d,0,0.0,1588,6072 28292 0 
shatter_run.sh+aes_32_3_keyfind_1.cnf+abfa175c,0,0.0,1436,4080 9100 0 
shatter_run.sh+aes_64_1_keyfind_1.cnf+aaaddaa9,0,0.0,1440,3972 11056 0 
shatter_run.sh+aes_64_1_keyfind_1.cnf+e74ca539,0,0.0,1440,3972 11056 0 
shatter_run.sh+anna.col.11.cnf+ce9b8aa,0,0.01,1744,7828,12620,31,
shatter_run.sh+atco_enc1_opt1_03_56.cnf+8a26c052,0,0.18,48020,364194 999585 46 
shatter_run.sh+atco_enc1_opt1_04_32.cnf+ee65ddef,0,0.43,98140,696748 2356978 30 
shatter_run.sh+atco_enc1_opt1_05_21.cnf+54841aae,0,0.5,91660,680817 2226732 17 
shatter_run.sh+atco_enc1_opt1_10_15.cnf+dfe62eb9,0,0.29,47296,354577 925483 35 
shatter_run.sh+atco_enc1_opt1_10_21.cnf+e162a954,0,0.23,48776,364817 969868 35 
shatter_run.sh+atco_enc1_opt1_15_240.cnf+356b2578,0,0.49,106384,767383 2446945 35 
shatter_run.sh+atco_enc1_opt1_18_18.cnf+1f19dc34,0,0.58,107440,766177 2340688 3 
shatter_run.sh+atco_enc1_opt2_05_4.cnf+bd5087fe,0,0.27,58652,415433 1667432 33 
shatter_run.sh+atco_enc1_opt2_10_12.cnf+74a09af7,0,0.09,24212,166843 628103 41 
shatter_run.sh+atco_enc1_opt2_10_14.cnf+74bcc9f9,0,0.1,24588,169454 639301 41 
shatter_run.sh+atco_enc1_opt2_10_15.cnf+74cae17a,0,0.09,24632,169803 640312 41 
shatter_run.sh+atco_enc1_opt2_10_16.cnf+74d8f8fb,0,0.1,24964,172030 650782 41 
shatter_run.sh+atco_enc1_opt2_20_12.cnf+8e509f8,0,12.06,940520,6937926 21463666 11 
shatter_run.sh+atco_enc2_opt1_05_21.cnf+3615f88d,0,0.39,86756,639937 2153924 17 
shatter_run.sh+atco_enc2_opt1_10_21.cnf+c2f48733,0,0.2,44332,329476 905600 35 
shatter_run.sh+atco_enc2_opt1_15_100.cnf+4a5b65bc,0,0.53,99684,698467 2286507 35 
shatter_run.sh+atco_enc2_opt1_20_11.cnf+55841d95,0,13.59,1465344,10699730 36434091 8 
shatter_run.sh+atco_enc2_opt2_05_4.cnf+172bf23f,0,0.23,58632,415417 1667292 34 
shatter_run.sh+atco_enc2_opt2_05_9.cnf+177267c4,0,0.21,59488,420311 1684756 34 
shatter_run.sh+atco_enc2_opt2_10_21.cnf+57d939f4,0,0.12,26108,180179 685749 43 
shatter_run.sh+atco_enc2_opt2_20_11.cnf+ea68d056,0,10.77,937844,6905955 21350297 13 
shatter_run.sh+atco_enc3_opt1_03_53.cnf+4d20358d,0,3.86,947840,7749172 14165943 1 
shatter_run.sh+atco_enc3_opt1_04_50.cnf+b4d71be9,0,7.29,1136928,9655846 17655446 1 
shatter_run.sh+atco_enc3_opt1_13_48.cnf+dff64174,0,8.12,1214788,9664353 17670595 2 
shatter_run.sh+atco_enc3_opt2_05_21.cnf+ac8c892d,0,4.66,1076616,8901287 16288734 1 
shatter_run.sh+atco_enc3_opt2_10_12.cnf+37c456b5,0,3.87,907660,7405143 13547051 1 
shatter_run.sh+atco_enc3_opt2_10_14.cnf+37e085b7,0,3.84,916804,7431571 13595486 1 
shatter_run.sh+atco_enc3_opt2_18_44.cnf+7c08768c,0,4.32,954048,7929818 14509632 1 
shatter_run.sh+beempgsol2b1.cnf+72156e1,0,0.14,17580,129444 205033 51 
shatter_run.sh+beempgsol5b1.cnf+a5d408a4,0,0.16,17588,129444 205033 51 
shatter_run.sh+bjrb07amba10andenv.cnf+9e46d0d,0,1.02,129160,981188 1569711 13 
shatter_run.sh+blocks-blocks-36-0.120-NOTKNOWN.cnf+d9736fa2,0,4.89,1194076,9759290 19629205 0 
shatter_run.sh+blocks-blocks-36-0.130-NOTKNOWN.cnf+334ed9e3,0,5.58,1283608,10572210 21264735 0 
shatter_run.sh+blocks-blocks-37-1.130-NOTKNOWN.cnf+df829261,0,5.26,1386852,11342169 22812668 0 
shatter_run.sh+bob12m02-opt.cnf+8039c28d,0,0.04,16660,130318 207802 20 
shatter_run.sh+bob12m02.cnf+4ed4af27,0,0.1,17704,130678 208378 21 
shatter_run.sh+bob12m04.cnf+4ef0de29,0,3.26,365072,2931728 4542042 18251 
shatter_run.sh+bob12m09-opt.cnf+8e18cb94,0,0.06,31404,254734 406850 4 
shatter_run.sh+bob12s02.cnf+8c3a12ad,0,0.15,17776,130508 208106 4 
shatter_run.sh+bob12s09-opt.cnf+b74fc1a,0,0.07,31396,254554 406562 4 
shatter_run.sh+bvadd_17322.cnf+2e8b91e5,0,1.47,346680,2910059 3932038 0 
shatter_run.sh+bvadd_27079.cnf+2d082ec5,0,2.28,536084,4549235 6146877 0 
shatter_run.sh+bvadd_27966.cnf+74124ec,0,2.83,554164,4698251 6348226 0 
shatter_run.sh+bvadd_29740.cnf+6978c9e4,0,2.57,586724,4996283 6750924 0 
shatter_run.sh+bvashr_0710.cnf+b5e6103f,0,1.14,287092,2431396 3116593 0 
shatter_run.sh+bvslt_13916.cnf+1bfe936e,0,2.18,499092,4248665 5454148 0 
shatter_run.sh+bvslt_19860.cnf+5e93137c,0,4.33,941400,8147396 10431011 0 
shatter_run.sh+bvsub_06991.cnf+99e83942,0,0.88,228084,1936450 2621540 0 
shatter_run.sh+bvult_16967.cnf+393e79a9,0,6.03,897044,8020089 10257407 0 
shatter_run.sh+c10bi_i.cnf+1ef63f9f,0,0.35,84392,666463 1063753 3 
shatter_run.sh+ccp-s10-facto1.cnf+a5ecf76,0,0.01,1552,5910 15960 28 
shatter_run.sh+ccp-s10-facto2.cnf+a6ce6f7,0,0.15,4028,23010 64520 48 
shatter_run.sh+ccp-s10-facto3.cnf+a7afe78,0,0.58,8044,51310 145680 68 
shatter_run.sh+ccp-s10-facto4.cnf+a8915f9,0,1.45,13700,90810 259440 88 
shatter_run.sh+ccp-s5-facto2.cnf+dc477067,0,0.0,1436,1755 4260 23 
shatter_run.sh+ccp-s5-facto3.cnf+dc5587e8,0,0.01,1440,3830 9615 33 
shatter_run.sh+ccp-s5-facto4.cnf+dc639f69,0,0.04,1708,6705 17120 43 
shatter_run.sh+ccp-s6-facto2.cnf+e3f915c6,0,0.0,1440,3390 8688 28 
shatter_run.sh+ccp-s6-facto3.cnf+e4072d47,0,0.03,1752,7458 19620 40 
shatter_run.sh+ccp-s6-facto4.cnf+e41544c8,0,0.09,2620,13110 34944 52 
shatter_run.sh+ccp-s7-facto2.cnf+ebaabb25,0,0.02,1560,5985 15890 33 
shatter_run.sh+ccp-s7-facto3.cnf+ebb8d2a6,0,0.07,2644,13237 35889 46 
shatter_run.sh+ccp-s7-facto4.cnf+ebc6ea27,0,0.22,4080,23331 63924 61 
shatter_run.sh+ccp-s8-facto1.cnf+f34e4903,0,0.0,1440,2568 6632 22 
shatter_run.sh+ccp-s8-facto2.cnf+f35c6084,0,0.04,2096,9864 26832 38 
shatter_run.sh+ccp-s8-facto3.cnf+f36a7805,0,0.16,3880,21896 60600 54 
shatter_run.sh+ccp-s8-facto4.cnf+f3788f86,0,0.45,6248,38664 107936 70 
shatter_run.sh+ccp-s9-facto1.cnf+faffee62,0,0.0,1436,3978 10539 24 
shatter_run.sh+ccp-s9-facto2.cnf+fb0e05e3,0,0.08,2956,15399 42624 42 
shatter_run.sh+ccp-s9-facto3.cnf+fb1c1d64,0,0.32,5516,34272 96255 61 
shatter_run.sh+ccp-s9-facto4.cnf+fb2a34e5,0,0.8,9148,60597 171432 79 
shatter_run.sh+chnl-005x006.shuffled.cnf+3e0ce7a4,0,0.0,1440,282 420 12 
shatter_run.sh+chnl-010x011.shuffled.cnf+256458f0,0,0.0,1436,1562 2640 22 
shatter_run.sh+chnl-015x017.shuffled.cnf+47707d45,0,0.02,1440,5134 9180 32 
shatter_run.sh+chnl-020x021.shuffled.cnf+4cea24f2,0,0.06,2120,10122 18480 42 
shatter_run.sh+chnl-025x050.shuffled.cnf+4f7804b1,0,0.97,10708,66350 127500 98 
shatter_run.sh+chnl-030x031.shuffled.cnf+746ff0f4,0,0.32,4936,31682 59520 62 
shatter_run.sh+chnl-040x041.shuffled.cnf+9bf5bcf6,0,1.08,10388,72242 137760 82 
shatter_run.sh+chnl-045x050.shuffled.cnf+eaccc833,0,2.44,16820,119350 229500 98 
shatter_run.sh+chnl-050x060.shuffled.cnf+3b79299a,0,5.55,26356,189120 366000 118 
shatter_run.sh+chnl-050x070.shuffled.cnf+955493db,0,10.08,35396,255640 497000 138 
shatter_run.sh+chnl10_11.cnf+572ea60f,0,0.0,1440,1562 2640 22 
shatter_run.sh+chnl10_12.cnf+573cbd90,0,0.0,1436,1824 3120 22 
shatter_run.sh+chnl10_13.cnf+574ad511,0,0.0,1436,2106 3640 24 
shatter_run.sh+chnl11_12.cnf+bf1dea6f,0,0.0,1440,2004 3432 24 
shatter_run.sh+chnl11_13.cnf+bf2c01f0,0,0.0,1440,2314 4004 24 
shatter_run.sh+chnl11_20.cnf+c0b6940c,0,0.02,1440,5100 9240 38 
shatter_run.sh+color-11-3.sat05-445.reshuffled-07.cnf+73ed66b5,0,0.06,2260,10285 37752 12 
shatter_run.sh+color-18-4.sat05-443.reshuffled-07.cnf+9446017b,0,1.33,15804,98496 381024 18 
shatter_run.sh+complete-300-0.1-18-98765432130018.cnf+c3297171,0,0.01,5852,27777 305642 0 
shatter_run.sh+complete-300-0.1-4-9876543213004.cnf+9a76d583,0,0.01,6092,27963 310485 0 
shatter_run.sh+complete-300-0.1-7-9876543213007.cnf+3a04149,0,0.01,5944,28107 313625 0 
shatter_run.sh+complete-300-0.1-8-9876543213008.cnf+d158ba8b,0,0.01,6040,27759 306327 0 
shatter_run.sh+complete-400-0.1-12-98765432140012.cnf+129e31b3,0,0.04,11124,48496 688869 0 
shatter_run.sh+complete-400-0.1-16-98765432140016.cnf+b15de933,0,0.03,10768,47926 673425 0 
shatter_run.sh+complete-400-0.1-3-9876543214003.cnf+6df099e1,0,0.03,10828,48130 678821 0 
shatter_run.sh+complete-400-0.1-7-9876543214007.cnf+a4d27ee9,0,0.04,10844,48139 679188 0 
shatter_run.sh+complete-500-0.1-1-9876543215001.cnf+73b1e4fd,0,0.06,18076,74123 1275348 0 
shatter_run.sh+complete-500-0.1-15-98765432150015.cnf+87424ed5,0,0.07,18512,74819 1297287 0 
shatter_run.sh+complete-500-0.1-17-98765432150017.cnf+56a22a95,0,0.08,18868,75527 1322624 0 
shatter_run.sh+complete-500-0.1-7-9876543215007.cnf+4604bc89,0,0.07,18548,74948 1301917 0 
shatter_run.sh+complete-500-0.1-8-9876543215008.cnf+13bd35cb,0,0.07,18584,75044 1306011 0 
shatter_run.sh+connm-ue-csp-sat-n1200-d0.02-s1099787414.sat05-542.reshuffled-07.cnf+ebfed3a2,0,3598.85,3484
shatter_run.sh+contest02-ezfact64_10.sat05-449.reshuffled-07.cnf+50b52103,0,0.01,4168,25931 77674 0 
shatter_run.sh+countbitssrl032.cnf+5e4e1fc3,0,0.02,11488,92938 148627 0 
shatter_run.sh+counting-clqcolor-unsat-set-b-clqcolor-08-06-07.sat05-1257.reshuffled-07.cnf+12a4a546,0,0.0,1436,1791 4604 12 
shatter_run.sh+crafted_n10_d6_c2_num13.cnf+4a62793d,0,149.41,410796,2971324 5895048 42 
shatter_run.sh+crafted_n10_d6_c2_num16.cnf+4a8cbfc0,0,136.93,411800,2971356 5895112 42 
shatter_run.sh+crafted_n10_d6_c2_num17.cnf+4a9ad741,0,150.8,406424,2971280 5894960 42 
shatter_run.sh+crafted_n10_d6_c2_num2.cnf+a79c2a31,0,152.84,418796,2971332 5895064 41 
shatter_run.sh+crafted_n10_d6_c2_num4.cnf+a7b85933,0,244.57,414996,2971300 5895000 43 
shatter_run.sh+crafted_n10_d6_c2_num5.cnf+a7c670b4,0,154.46,408104,2971316 5895032 42 
shatter_run.sh+crafted_n10_d6_c2_num6.cnf+a7d48835,0,136.78,409384,2971300 5895000 42 
shatter_run.sh+crafted_n10_d6_c2_num9.cnf+a7feceb8,0,155.25,407884,2971260 5894920 42 
shatter_run.sh+crafted_n10_d6_c3_num1.cnf+9bd783cf,0,323.88,909492,6543576 13020864 41 
shatter_run.sh+crafted_n10_d6_c3_num18.cnf+df8da183,0,588.59,901284,6543704 13021120 43 
shatter_run.sh+crafted_n10_d6_c3_num5.cnf+9c0fe1d3,0,439.68,895664,6543644 13021000 42 
shatter_run.sh+crafted_n10_d6_c4_num3.cnf+903d23f0,0,1042.86,1534220,11219124 22353272 42 
shatter_run.sh+crafted_n10_d6_c4_num8.cnf+90839975,0,815.47,1535004,11219176 22353376 42 
shatter_run.sh+crafted_n10_d6_c4_num9.cnf+9091b0f6,0,941.04,1541008,11217924 22350872 42 
shatter_run.sh+crafted_n11_d6_c3_num17.cnf+30296803,0,427.71,972336,7083120 14092856 46 
shatter_run.sh+crafted_n11_d6_c4_num1.cnf+71b2d2cd,0,742.01,1759632,12792228 25487712 46 
shatter_run.sh+crafted_n11_d6_c4_num18.cnf+c51c3245,0,1297.12,1750968,12792340 25487936 46 
shatter_run.sh+crafted_n11_d6_c4_num19.cnf+c52a49c6,0,805.5,1754300,12792492 25488240 46 
shatter_run.sh+crafted_n11_d6_c4_num21.cnf+c66e665d,0,1271.75,1750844,12792228 25487712 46 
shatter_run.sh+crafted_n12_d5_c4_num6.cnf+65081fb0,0,3598.88,394464
shatter_run.sh+crafted_n12_d6_c3_num10.cnf+8070a17d,0,605.75,1187860,8654148 17223144 50 
shatter_run.sh+crafted_n12_d6_c3_num16.cnf+80c52e83,0,619.59,1183568,8654080 17223008 50 
shatter_run.sh+crafted_n12_d6_c4_num11.cnf+15636bbf,0,1372.61,2179660,15946492 31779800 50 
shatter_run.sh+crafted_n12_d6_c4_num18.cnf+15c61046,0,3597.31,2193196
shatter_run.sh+crafted_n12_d6_c4_num20.cnf+170a2cdd,0,1253.61,2189672,15946380 31779576 50 
shatter_run.sh+crafted_n12_d6_c4_num22.cnf+17265bdf,0,1327.07,2185092,15946332 31779480 50 
shatter_run.sh+crafted_n12_d6_c4_num23.cnf+17347360,0,1413.2,2192640,15946560 31779936 50 
shatter_run.sh+crafted_n12_d6_c4_num4.cnf+536ef72f,0,1419.47,2178368,15946288 31779392 50 
shatter_run.sh+crafted_n12_d6_c4_num6.cnf+538b2631,0,1175.16,2180868,15946432 31779680 50 
shatter_run.sh+crafted_n12_d6_c4_num9.cnf+53b56cb4,0,3597.25,2166148
shatter_run.sh+crn_20_361_s.cnf+fd6beb31,0,0.0,4264,30874 52322 0 
shatter_run.sh+ctl_3082_415_unsat_pre.cnf+373cd7e4,0,0.03,16024,116703 344348 0 
shatter_run.sh+ctl_3791_556_unsat_pre.cnf+be46c557,0,0.06,15384,108424 340343 20 
shatter_run.sh+ctl_4291_567_5_unsat_pre.cnf+1d18f547,0,0.05,22400,165220 477554 1 
shatter_run.sh+dated-10-11-u.cnf+b7c911cb,0,0.53,109396,907181 1565732 0 
shatter_run.sh+dated-10-13-u.cnf+2195884d,0,0.49,143432,1168877 2035234 0 
shatter_run.sh+dated-10-17-u.cnf+f52e7551,0,0.89,189952,1520285 2691106 0 
shatter_run.sh+dated-5-13-u.cnf+9c7a0b27,0,0.46,108532,898277 1563994 0 
shatter_run.sh+david.col.11.cnf+c74924b4,0,0.01,1448,5887,9860,23,
shatter_run.sh+dimacs.cnf+49de5d97,0,0.0,2612,15417 28936 0 
shatter_run.sh+edges-024-4-10183999-1-00.cnf+ac68d45c,0,0.0,1440,= 398 709 0 
shatter_run.sh+edges-024-4-1208111-1-00.cnf+64ab723c,0,0.0,1440,= 398 709 0 
shatter_run.sh+edges-024-4-5613555-1-00.cnf+cf2e60d2,0,0.0,1436,= 398 709 0 
shatter_run.sh+edges-024-4-5667555-1-00.cnf+f28f6af1,0,0.0,1440,= 398 709 0 
shatter_run.sh+edges-024-4-7787777-1-00.cnf+f509b6ac,0,0.0,1440,= 398 709 0 
shatter_run.sh+edges-024-4-7880777-1-00.cnf+c94ff366,0,0.0,1440,= 398 709 0 
shatter_run.sh+edges-025-4-10062999-1-00.cnf+ace7c5dd,0,0.0,1440,= 414 737 0 
shatter_run.sh+edges-025-4-10106999-1-00.cnf+759c9068,0,0.0,1436,= 414 737 0 
shatter_run.sh+edges-025-4-10169999-1-00.cnf+8c585da5,0,0.0,1440,= 414 737 0 
shatter_run.sh+edges-025-4-1237111-1-00.cnf+3639ef7,0,0.0,1440,= 414 737 0 
shatter_run.sh+edges-025-4-3369333-1-00.cnf+c4c1c153,0,0.0,1440,= 414 737 0 
shatter_run.sh+edges-025-4-5714555-1-00.cnf+ff2ea7f3,0,0.0,1440,= 414 737 0 
shatter_run.sh+edges-025-4-7780777-1-00.cnf+57165f84,0,0.0,1436,= 414 737 0 
shatter_run.sh+edges-025-4-7932777-1-00.cnf+7e7e50ed,0,0.0,1436,= 414 737 0 
shatter_run.sh+edges-025-4-7957777-1-00.cnf+eac904b0,0,0.0,1440,= 414 737 0 
shatter_run.sh+edges-070-3-10037999-34.cnf+41aba85f,0,0.0,1436,= 697 831 3 
shatter_run.sh+edges-070-3-10062999-36.cnf+706549b9,0,0.0,1436,= 697 831 3 
shatter_run.sh+edges-070-3-10122999-15.cnf+3ca9f1ff,0,0.0,1440,= 697 831 3 
shatter_run.sh+edges-070-3-1226111-26.cnf+f2caa7ca,0,0.0,1440,= 697 831 3 
shatter_run.sh+edges-070-3-1250111-33.cnf+8e0df97d,0,0.0,1436,= 697 831 3 
shatter_run.sh+edges-070-3-3470333-15.cnf+1bc37c3d,0,0.0,1440,= 697 831 3 
shatter_run.sh+edges-070-3-7857777-1.cnf+95ba854d,0,0.0,1440,= 697 831 3 
shatter_run.sh+edges-072-3-1124111-35.cnf+6548c123,0,0.0,1440,= 717 855 3 
shatter_run.sh+edges-072-3-1131111-37.cnf+ae687d41,0,0.0,1436,= 717 855 3 
shatter_run.sh+edges-072-3-1161111-15.cnf+c1f78d1e,0,0.0,1436,= 717 855 3 
shatter_run.sh+edges-072-3-5729555-15.cnf+2a9c0f28,0,0.0,1436,= 717 855 3 
shatter_run.sh+edges-072-3-5749555-14.cnf+39f14265,0,0.0,1440,= 717 855 3 
shatter_run.sh+edges-072-3-7902777-18.cnf+8ac1e1e4,0,0.0,1436,= 717 855 3 
shatter_run.sh+edges-072-3-7923777-13.cnf+2ec369de,0,0.0,1440,= 717 855 3 
shatter_run.sh+edges-072-3-7925777-19.cnf+58e15c66,0,0.0,1440,= 717 855 3 
shatter_run.sh+em_14_7_3_cmp.cnf+c9ebc5d7,0,1.59,49564,342360 949008 129 
shatter_run.sh+em_7_3_6_cmp.cnf+64458ac2,0,0.01,2752,14159 37999 10 
shatter_run.sh+em_7_4_8_cmp.cnf+21b31b85,0,0.01,3228,17297 47412 2 
shatter_run.sh+em_7_4_8_fbc.cnf+ace94ce6,0,0.01,4756,28697 70212 1 
shatter_run.sh+em_7_4_9_all.cnf+4a3ddd61,0,0.03,6708,43141 99080 2 
shatter_run.sh+em_7_4_9_fbc.cnf+412dbbe7,0,0.03,5184,31817 76432 3 
shatter_run.sh+esawn_uw3.debugged.cnf+d711cd33,0,89.7,10129176,81298996,164449314,28636,
shatter_run.sh+ezfact64_3.sat05-450.reshuffled-07.cnf+75bde08a,0,0.0,4156,25931 77674 0 
shatter_run.sh+ezfact64_4.sat05-451.reshuffled-07.cnf+6cb826cc,0,0.0,4168,25931 77674 0 
shatter_run.sh+ezfact64_5.sat05-452.reshuffled-07.cnf+63b26d0e,0,0.01,4156,25931 77674 0 
shatter_run.sh+fpga10_11_uns_rcr.cnf+ffeac74c,0,0.0,1440,1562 2640 22 
shatter_run.sh+fpga10_12_uns_rcr.cnf+ee6dcdcd,0,0.0,1440,1824 3120 22 
shatter_run.sh+fpga10_13_uns_rcr.cnf+dcf0d44e,0,0.0,1436,2106 3640 24 
shatter_run.sh+fpga10_15_uns_rcr.cnf+b9f6e150,0,0.0,1440,2730 4800 28 
shatter_run.sh+fpga10_20_uns_rcr.cnf+f3458a6a,0,0.02,1440,4640 8400 38 
shatter_run.sh+fpga10_8_sat.cnf+cc8fb62a,0,0.0,1440,688 1320 16 
shatter_run.sh+fpga10_9_sat.cnf+60d4252b,0,0.0,1440,819 1620 19 
shatter_run.sh+fpga11_12_uns_rcr.cnf+cfffabac,0,0.0,1440,2004 3432 24 
shatter_run.sh+fpga11_13_uns_rcr.cnf+be82b22d,0,0.0,1440,2314 4004 24 
shatter_run.sh+fpga11_14_uns_rcr.cnf+ad05b8ae,0,0.0,1440,2646 4620 26 
shatter_run.sh+fpga11_15_uns_rcr.cnf+9b88bf2f,0,0.01,1440,3000 5280 28 
shatter_run.sh+fpga11_20_uns_rcr.cnf+d4d76849,0,0.02,1440,5100 9240 38 
shatter_run.sh+fpga12_11_sat.cnf+6b12d4,0,0.0,1440,1364 2838 24 
shatter_run.sh+fpga12_12_sat.cnf+94af81d5,0,0.0,1436,1560 3312 25 
shatter_run.sh+fpga12_8_sat.cnf+f6591bac,0,0.0,1440,848 1632 18 
shatter_run.sh+fpga12_9_sat.cnf+8a9d8aad,0,0.0,1436,1008 1998 20 
shatter_run.sh+fpga13_10_sat.cnf+73d84932,0,0.0,1440,1295 2635 22 
shatter_run.sh+fpga13_12_sat.cnf+9c612734,0,0.0,1440,1710 3630 26 
shatter_run.sh+fpga13_9_sat.cnf+1f823d6e,0,0.0,1436,1111 2207 20 
shatter_run.sh+fpsol2.i.1.col.65.cnf+12ddf5ff,0,55.99,123008,809840,1555200,14458,
shatter_run.sh+fpsol2.i.2.col.30.cnf+152a9bfc,0,8.0,37600,278648,530236,2614,
shatter_run.sh+fpsol2.i.3.col.30.cnf+1cdc415b,0,7.76,36720,277027,528554,1885,
shatter_run.sh+frb45-21-1.used-as.sat04-883.cnf+8b3a907f,0,0.01,8180,61301 120622 0 
shatter_run.sh+frb80-14-2.used-as.sat04-880.cnf+5123e44a,0,0.0,5888,44468 86536 0 
shatter_run.sh+fsf-300-354-2-2-3-2.58.opt.cnf+ef97e3ad,0,0.0,2652,15468 31806 0 
shatter_run.sh+fsf-300-354-2-2-3-2.89.opt.cnf+60b8a60b,0,0.0,2648,15468 31806 0 
shatter_run.sh+fsf-300-354-2-2-3-2.94.opt.cnf+6fabec25,0,0.0,2652,15468 31806 0 
shatter_run.sh+fsf-300-354-2-2-3-2.95.opt.cnf+3f05b26,0,0.0,2648,15468 31806 0 
shatter_run.sh+games120.col.9.cnf+db866297,0,0.0,1612,7144,12128,8,
shatter_run.sh+grid-strips-grid-y-3.035-NOTKNOWN.cnf+feb1e2,0,1.15,332108,2654375 5421135 0 
shatter_run.sh+grid-strips-grid-y-3.055-NOTKNOWN.cnf+b4b58664,0,2.31,514840,4170095 8518215 0 
shatter_run.sh+grid-strips-grid-y-3.065-SAT.cnf+bd3f2c4b,0,2.5,605644,4927955 10066755 0 
shatter_run.sh+grieu-vmpc-31.cnf+40aa210e,0,0.05,15912,120001 328011 0 
shatter_run.sh+gripper02t6.cnf+4d28de25,0,0.0,1440,3778 6546 7 
shatter_run.sh+gripper02t7.cnf+9aab1b9f,0,0.0,1440,4998 8766 7 
shatter_run.sh+gripper04t14.cnf+1f69528c,0,0.07,5704,37534 70202 15 
shatter_run.sh+gripper04t15.cnf+80880334,0,0.07,6156,40966 76678 15 
shatter_run.sh+gripper06t22.cnf+f0c455e7,0,0.45,17724,126394 241378 23 
shatter_run.sh+gripper06t23.cnf+51e3068f,0,0.48,18816,133094 254222 23 
shatter_run.sh+gripper10t38.cnf+17cb1d53,0,5.5,78348,570802 1109042 39 
shatter_run.sh+gripper10t39.cnf+78e9cdfb,0,5.88,82712,587206 1140958 39 
shatter_run.sh+gss-18-s100.cnf+60679d2a,0,0.03,19152,156997 253367 0 
shatter_run.sh+gss-19-s100.cnf+54b10e49,0,0.05,19660,157418 254241 0 
shatter_run.sh+gss-20-s100.cnf+5300c6f3,0,0.03,19420,157754 254803 0 
shatter_run.sh+gss-22-s100.cnf+3b93a931,0,0.04,19680,158342 255836 0 
shatter_run.sh+gss-23-s100.cnf+2fdd1a50,0,0.04,19956,158822 256637 0 
shatter_run.sh+gss-24-s100.cnf+24268b6f,0,0.04,19940,159377 257560 0 
shatter_run.sh+gss-25-s100.cnf+186ffc8e,0,0.04,19948,159973 258654 0 
shatter_run.sh+gus-md5-04.cnf+a78bb1f2,0,0.41,48688,361352 649225 1 
shatter_run.sh+gus-md5-05.cnf+a799c973,0,0.4,48772,362127 650620 1 
shatter_run.sh+gus-md5-06.cnf+a7a7e0f4,0,0.42,48852,362774 651749 1 
shatter_run.sh+gus-md5-07.cnf+a7b5f875,0,0.41,48936,363519 653070 1 
shatter_run.sh+gus-md5-09.cnf+a7d22777,0,0.43,49204,365555 656708 1 
shatter_run.sh+gus-md5-10.cnf+a9082c8d,0,0.42,49224,365624 656805 1 
shatter_run.sh+gus-md5-11.cnf+a916440e,0,0.42,49248,365909 657288 1 
shatter_run.sh+gus-md5-12.cnf+a9245b8f,0,0.39,49272,365858 657177 1 
shatter_run.sh+gus-md5-14.cnf+a9408a91,0,0.41,49300,366292 657915 1 
shatter_run.sh+gus-md5-15.cnf+a94ea212,0,0.44,49352,366561 658378 1 
shatter_run.sh+gus-md5-16.cnf+a95cb993,0,0.41,49656,368912 662597 1 
shatter_run.sh+hid-uns-enc-6-1-0-0-0-0-19851.cnf+22f5c5bf,0,0.0,2024,10048 28472 0 
shatter_run.sh+hid-uns-enc-6-1-0-0-0-0-26462.cnf+adc0b13f,0,0.0,2020,10048 28472 0 
shatter_run.sh+hid-uns-enc-6-1-0-0-0-0-26808.cnf+7771178f,0,0.0,2024,10048 28472 0 
shatter_run.sh+hid-uns-enc-6-1-0-0-0-0-2907.cnf+d755ad95,0,0.0,2024,10048 28472 0 
shatter_run.sh+hid-uns-enc-6-1-0-0-0-0-31380.cnf+90686e0,0,0.0,2024,10048 28472 0 
shatter_run.sh+hid-uns-enc-6-1-0-0-0-0-3191.cnf+a70c10fd,0,0.0,2020,10048 28472 0 
shatter_run.sh+hid-uns-enc-6-1-0-0-0-0-3251.cnf+d51ee9c2,0,0.0,2020,10048 28472 0 
shatter_run.sh+hid-uns-enc-7-1-0-0-0-0-11545.cnf+505627ea,0,0.0,3260,19408 54750 0 
shatter_run.sh+hid-uns-enc-7-1-0-0-0-0-3557.cnf+5bc7feea,0,0.0,3272,19408 54750 0 
shatter_run.sh+hid-uns-enc-9-1-0-0-0-0-24642.cnf+6a2bfd48,0,0.01,7460,52816 155246 0 
shatter_run.sh+hitag2-10-60-0-0x0ffdbe60727f161-57.cnf+59f731e8,0,0.01,5784,33937 175006 79 
shatter_run.sh+hitag2-10-60-0-0x8edc44db7837bbf-65.cnf+1a4bf0df,0,0.02,5840,34815 180768 77 
shatter_run.sh+hitag2-10-60-0-0xe14721bd199894a-99.cnf+7ecd7348,0,0.02,5848,34962 180836 78 
shatter_run.sh+hitag2-10-60-0-0xe6754daf48162bf-46.cnf+8b37f270,0,0.01,5932,35517 184716 80 
shatter_run.sh+hitag2-10-60-0-0xfee9637399d85a2-78.cnf+a5a74e52,0,0.01,5828,34832 180188 76 
shatter_run.sh+hitag2-7-60-0-0xe8fa35372ed37e2-80.cnf+d11e6973,0,0.01,5800,34251 176667 74 
shatter_run.sh+hitag2-8-60-0-0x1eb82244d7f1c3c-47.cnf+62aa49a2,0,0.01,5824,34824 180190 72 
shatter_run.sh+hitag2-8-60-0-0xdcdbc8bf368ee73-37.cnf+ac95b373,0,0.01,5860,35080 181849 80 
shatter_run.sh+hitag2-8-60-0-0xfba1a41b5dfd7f7-52.cnf+9ab55cbc,0,0.02,5940,35684 185115 79 
shatter_run.sh+hole002.cnf+6da25d57,0,0.0,1440,21 24 3 
shatter_run.sh+hole003.cnf+6db074d8,0,0.0,1440,46 60 4 
shatter_run.sh+hole004.cnf+6dbe8c59,0,0.0,1436,85 120 5 
shatter_run.sh+hole005.cnf+6dcca3da,0,0.0,1440,141 210 6 
shatter_run.sh+hole006.cnf+6ddabb5b,0,0.0,1440,217 336 7 
shatter_run.sh+hole007.cnf+6de8d2dc,0,0.0,1436,316 504 8 
shatter_run.sh+hole008.cnf+6df6ea5d,0,0.0,1440,441 720 9 
shatter_run.sh+hole009.cnf+6e0501de,0,0.0,1440,595 990 10 
shatter_run.sh+hole010.cnf+6f3b06f4,0,0.0,1440,781 1320 11 
shatter_run.sh+hole010_shuffled.cnf+af8f1f74,0,0.0,1440,781 1320 11 
shatter_run.sh+hole011.cnf+6f491e75,0,0.0,1440,1002 1716 12 
shatter_run.sh+hole011_shuffled.cnf+916ce913,0,0.0,1436,1002 1716 12 
shatter_run.sh+hole012.cnf+6f5735f6,0,0.0,1436,1261 2184 13 
shatter_run.sh+hole012_shuffled.cnf+734ab2b2,0,0.0,1440,1261 2184 13 
shatter_run.sh+hole013.cnf+6f654d77,0,0.0,1436,1561 2730 14 
shatter_run.sh+hole013_shuffled.cnf+55287c51,0,0.0,1436,1561 2730 14 
shatter_run.sh+hole014.cnf+6f7364f8,0,0.0,1436,1905 3360 15 
shatter_run.sh+hole014_shuffled.cnf+370645f0,0,0.0,1440,1905 3360 15 
shatter_run.sh+hole015.cnf+6f817c79,0,0.0,1440,2296 4080 16 
shatter_run.sh+hole015_shuffled.cnf+18e40f8f,0,0.0,1436,2296 4080 16 
shatter_run.sh+hole016_shuffled.cnf+fac1d92e,0,0.01,1440,2737 4896 17 
shatter_run.sh+hole017_shuffled.cnf+dc9fa2cd,0,0.01,1436,3231 5814 18 
shatter_run.sh+hole018_shuffled.cnf+be7d6c6c,0,0.01,1436,3781 6840 19 
shatter_run.sh+hole019_shuffled.cnf+a05b360b,0,0.02,1436,4390 7980 20 
shatter_run.sh+hole020.cnf+70efdf93,0,0.02,1440,5061 9240 21 
shatter_run.sh+hole020_shuffled.cnf+96a89b5,0,0.02,1440,5061 9240 21 
shatter_run.sh+hole030.cnf+72a4b832,0,0.12,2896,15841 29760 31 
shatter_run.sh+hole030_shuffled.cnf+6345f3f6,0,0.14,2908,15841 29760 31 
shatter_run.sh+homer.col.13.cnf+f88b7557,0,0.11,4988,33573,52548,328,
shatter_run.sh+huck.col.11.cnf+bc4951f5,0,0.01,1444,4564,7500,51,
shatter_run.sh+hwmcc10-timeframe-expansion-k45-pdtpmsgoodbakery-tseitin.cnf+1e414956,0,0.2,60508,494275 790544 45 
shatter_run.sh+hwmcc10-timeframe-expansion-k45-pdtvisns3p02-tseitin.cnf+6d1033a7,0,0.32,100476,815364 1302566 1 
shatter_run.sh+hwmcc10-timeframe-expansion-k50-pdtpmsns2-tseitin.cnf+37d0787a,0,0.13,53040,439362 701218 2 
shatter_run.sh+hwmcc10-timeframe-expansion-k50-pdtvisns3p00-tseitin.cnf+c01c97cb,0,0.25,111884,913564 1459455 1 
shatter_run.sh+inithx.i.1.col.54.cnf+a10f05ab,0,49.26,149576,1083919,2074526,18181,
shatter_run.sh+inithx.i.2.col.31.cnf+a52cb349,0,18.7,61852,458715,877440,2745,
shatter_run.sh+inithx.i.3.col.31.cnf+acde58a8,0,19.48,60652,456951,875400,2026,
shatter_run.sh+instance_n8_i8_pp_ci_ce.cnf+c616436b,0,0.14,38352,294559 857800 7 
shatter_run.sh+instance_n8_i9_pp.cnf+2ced19ee,0,0.18,42968,329554 961530 7 
shatter_run.sh+itox_vc1130.cnf+eb5d7ae1,0,0.34,95428,746585 1296402 9044 
shatter_run.sh+jean.col.10.cnf+8c245821,0,0.0,1440,3806,6012,57,
shatter_run.sh+jkkk-one-one-10-34-sat.cnf+fcf150de,0,0.02,12740,97018 217439 0 
shatter_run.sh+jkkk-random-132906006148277-10-10-34-SUM-sat.cnf+6c1af3af,0,0.11,38124,299696 662363 0 
shatter_run.sh+jkkk-random-132906006427000-10-10-35-OR-sat.cnf+62377224,0,0.12,37180,293451 637168 0 
shatter_run.sh+jkkk-random-132906006427000-10-10-36-SUM-sat.cnf+c02ad6d7,0,0.16,46732,369245 817676 0 
shatter_run.sh+jkkk-random-132906006493326-10-10-35-OR-sat.cnf+46b953b6,0,0.09,37176,293135 636395 0 
shatter_run.sh+k2fix_gr_rcs_w9.shuffled.cnf+f1d7f245,0,2.58,44124,327786 630432 115 
shatter_run.sh+korf-17.cnf+11d925e7,0,0.03,15244,103262 432265 0 
shatter_run.sh+korf-18.cnf+11e73d68,0,0.12,32676,202488 1297695 0 
shatter_run.sh+le450_15a.col.15.cnf+b26bb0f8,0,0.23,16660,127402,241304,13,
shatter_run.sh+le450_15b.col.15.cnf+ba1d5657,0,0.23,16660,127416,241332,13,
shatter_run.sh+le450_15c.col.15.cnf+c1cefbb6,0,0.59,31600,246570,479640,13,
shatter_run.sh+le450_15d.col.15.cnf+c980a115,0,0.57,31724,247550,481600,13,
shatter_run.sh+le450_25a.col.25.cnf+95fe5336,0,0.62,28104,220290,418080,23,
shatter_run.sh+le450_25b.col.25.cnf+9daff895,0,0.54,28124,220362,418224,23,
shatter_run.sh+le450_25c.col.25.cnf+a5619df4,0,1.53,55328,438282,854064,23,
shatter_run.sh+le450_25d.col.25.cnf+ad134353,0,1.49,55576,440250,858000,23,
shatter_run.sh+le450_5a.col.5.cnf+378b21fa,0,0.02,4272,26906,49312,3,
shatter_run.sh+le450_5b.col.5.cnf+cc6fd4bb,0,0.02,4216,26986,49472,3,
shatter_run.sh+le450_5c.col.5.cnf+6154877c,0,0.03,6324,43262,82024,3,
shatter_run.sh+le450_5d.col.5.cnf+f6393a3d,0,0.03,6296,43078,81656,3,
shatter_run.sh+log-pairs-05t5.cnf+bdf50d5a,0,1.09,24284,172856 338128 28 
shatter_run.sh+log-pairs-07t5.cnf+27c183dc,0,10.3,104324,731294 1446292 40 
shatter_run.sh+log-pairs-09t5.cnf+918dfa5e,0,49.47,310512,2247156 4464312 52 
shatter_run.sh+log-pairs-11t5.cnf+523d4d35,0,174.79,779780,5628506 11207164 64 
shatter_run.sh+log-rotate-06t6.cnf+22af01cc,0,0.69,24524,174692 340934 21 
shatter_run.sh+log-rotate-06t6.cnf+9f9bcd53,0,0.65,24524,174692 340934 21 
shatter_run.sh+log-rotate-07t6.cnf+57953d0d,0,2.05,47812,346043 680020 25 
shatter_run.sh+log-rotate-08t6.cnf+8c7b784e,0,3.81,72976,529513 1044484 27 
shatter_run.sh+log-rotate-08t6.cnf+96843d5,0,3.7,75084,529513 1044484 27 
shatter_run.sh+log-rotate-09t6.cnf+3e4e7f16,0,8.11,130444,927151 1834660 31 
shatter_run.sh+log-rotate-09t6.cnf+c161b38f,0,8.41,128624,927151 1834660 31 
shatter_run.sh+log-rotate-11t6.cnf+fefdd1ed,0,31.38,329776,2419909 4806736 39 
shatter_run.sh+logistics.a.cnf+77608c52,0,0.0,1804,8374 18743 2 
shatter_run.sh+logistics.b.cnf+776ea3d3,0,0.0,1988,8987 19867 14 
shatter_run.sh+logistics.c.cnf+777cbb54,0,0.0,2400,13001 29119 3 
shatter_run.sh+logistics.d.cnf+778ad2d5,0,0.01,4748,31417 56060 1 
shatter_run.sh+manol-pipe-c10nid_i.cnf+53123846,0,0.67,156316,1255909 2004561 2 
shatter_run.sh+manol-pipe-c10nidw.cnf+a90f7695,0,1.5,264416,2158916 3447599 2 
shatter_run.sh+manol-pipe-c10nidw_s.cnf+f76dfe89,0,1.29,248240,2013037 3214351 2 
shatter_run.sh+manol-pipe-c8nidw.cnf+e16d6358,0,0.68,166072,1337963 2135403 1 
shatter_run.sh+manol-pipe-g10bid_i.cnf+7ea399b6,0,0.62,162744,1324985 2114812 3 
shatter_run.sh+maxxor032.cnf+493a78e4,0,0.01,8560,65623 104571 0 
shatter_run.sh+miles1000.col.42.cnf+d5c0d109,0,1.72,19356,142480,274208,45,
shatter_run.sh+miles1500.col.73.cnf+44426282,0,24.86,52360,392816,766944,95,
shatter_run.sh+miles250.col.8.cnf+2038a097,0,0.0,1444,4629,7210,72,
shatter_run.sh+miles500.col.20.cnf+d9ac8a51,0,0.09,4236,27222,49324,32,
shatter_run.sh+miles750.col.31.cnf+47ba2e34,0,0.54,9940,71198,134460,35,
shatter_run.sh+minandmaxor128.cnf+9925bf63,0,0.6,148408,1245098 1991027 0 
shatter_run.sh+minxor128.cnf+e95e97fa,0,0.08,31932,268985 428683 0 
shatter_run.sh+minxorminand064.cnf+8813e6cc,0,0.07,24332,199441 318539 0 
shatter_run.sh+mod2-rand3bip-sat-230-2.sat05-2189.reshuffled-07.cnf+83b1b5b0,0,3598.83,1440
shatter_run.sh+mod2-rand3bip-sat-230-2.sat05-2189.reshuffled-07.cnf+e7df7abb,0,3600.97,1440
shatter_run.sh+mod2-rand3bip-sat-270-1.sat05-2248.reshuffled-07.cnf+1acb3459,0,3597.75,1444
shatter_run.sh+mod2-rand3bip-sat-270-1.shuffled-as.sat05-2248.cnf+87e131cb,0,3599.97,1444
shatter_run.sh+mod2-rand3bip-sat-270-2.sat05-2249.reshuffled-07.cnf+e92241b9,0,3598.73,1444
shatter_run.sh+mod2-rand3bip-sat-280-1.sat05-2263.reshuffled-07.cnf+6392b453,0,3598.54,1444
shatter_run.sh+mod2c-rand3bip-sat-240-3.shuffled-as.sat05-2520.cnf+51a2b960,0,0.0,1444,3094 11059 99 
shatter_run.sh+mod2c-rand3bip-sat-240-3.shuffled-as.sat05-2520.cnf+a772a6f5,0,0.0,1444,3094 11059 99 
shatter_run.sh+mod2c-rand3bip-sat-250-1.shuffled-as.sat05-2533.cnf+86c89205,0,0.0,1444,3114 10909 99 
shatter_run.sh+mod2c-rand3bip-sat-250-3.shuffled-as.sat05-2535.cnf+6886cfc5,0,0.0,1444,3196 11384 102 
shatter_run.sh+mrpp_4x4#4_24.cnf+dc7395c4,0,0.0,5356,37991 78605 124 
shatter_run.sh+mrpp_4x4#6_12.cnf+aa64e7e1,0,0.0,3000,18140 37136 88 
shatter_run.sh+mrpp_4x4#6_20.cnf+abfd917e,0,0.01,4592,30924 63432 112 
shatter_run.sh+mrpp_4x4#6_6.cnf+d4382970,0,0.0,1784,8538 17372 70 
shatter_run.sh+mrpp_4x4#8_12.cnf+7a27419f,0,0.0,3548,22323 49260 100 
shatter_run.sh+mrpp_4x4#8_16.cnf+7a5f9fa3,0,0.0,4424,30131 66380 116 
shatter_run.sh+mrpp_4x4#8_24.cnf+7bf84940,0,0.0,6476,45747 100620 148 
shatter_run.sh+mrpp_4x4#8_7.cnf+3e12b773,0,0.0,2288,12559 27844 80 
shatter_run.sh+mrpp_6x6#10_10.cnf+3107db46,0,0.0,5960,42501 94858 156 
shatter_run.sh+mrpp_6x6#10_12.cnf+31240a48,0,0.01,7100,51386 114290 164 
shatter_run.sh+mrpp_6x6#10_20.cnf+32bcb3e5,0,0.01,11520,86715 191174 196 
shatter_run.sh+mrpp_6x6#12_20.cnf+27f0da3,0,0.02,11484,85679 187030 196 
shatter_run.sh+mrpp_6x6#12_9.cnf+9d5e5b2e,0,0.01,5376,37774 84004 152 
shatter_run.sh+mrpp_6x6#14_12.cnf+d0a8bdc4,0,0.01,7080,50697 111534 164 
shatter_run.sh+mrpp_6x6#16_16.cnf+a0a37586,0,0.02,11424,84930 212446 196 
shatter_run.sh+mrpp_6x6#18_12.cnf+702d7140,0,0.02,8708,63075 158675 176 
shatter_run.sh+mrpp_8x8#10_9.cnf+2b8811a8,0,0.01,8896,65839 148991 235 
shatter_run.sh+mrpp_8x8#16_10.cnf+a71e5b04,0,0.02,12380,91467 236909 249 
shatter_run.sh+mrpp_8x8#16_11.cnf+a72c7285,0,0.03,13588,100996 260814 254 
shatter_run.sh+mrpp_8x8#16_12.cnf+a73a8a06,0,0.03,14796,110450 284344 259 
shatter_run.sh+mrpp_8x8#16_16.cnf+a772e80a,0,0.06,19584,147705 375659 279 
shatter_run.sh+mrpp_8x8#18_14.cnf+771912c6,0,0.04,16908,128542 327324 269 
shatter_run.sh+mrpp_8x8#20_24.cnf+ce08f36e,0,0.07,28208,217449 534459 319 
shatter_run.sh+mrpp_8x8#22_11.cnf+9bec2e0a,0,0.02,13540,99664 254154 254 
shatter_run.sh+mrpp_8x8#22_20.cnf+9d92ef28,0,0.07,23424,180290 443624 299 
shatter_run.sh+mrpp_8x8#22_24.cnf+9dcb4d2c,0,0.06,27888,215658 525504 319 
shatter_run.sh+mrpp_8x8#24_11.cnf+6bae87c8,0,0.03,13268,99353 252599 254 
shatter_run.sh+mrpp_8x8#24_12.cnf+6bbc9f49,0,0.03,14456,108450 274344 259 
shatter_run.sh+mrpp_8x8#24_14.cnf+6bd8ce4b,0,0.03,16836,126396 316594 269 
shatter_run.sh+mrpp_8x8#24_20.cnf+6d5548e6,0,0.07,23380,179159 437969 299 
shatter_run.sh+mulsol.i.1.col.49.cnf+6dad43e5,0,8.41,28308,207509,395712,2868,
shatter_run.sh+mulsol.i.2.col.31.cnf+7339549d,0,2.54,17600,128018,244380,519,
shatter_run.sh+mulsol.i.3.col.31.cnf+7aeaf9fc,0,2.12,17756,128704,246000,373,
shatter_run.sh+mulsol.i.4.col.31.cnf+829c9f5b,0,2.19,17788,129665,247860,374,
shatter_run.sh+mulsol.i.5.col.31.cnf+8a4e44ba,0,2.04,17896,130536,249540,374,
shatter_run.sh+myciel3.col.4.cnf+a22be980,0,0.0,1440,137,186,4,
shatter_run.sh+myciel4.col.5.cnf+371eb3c2,0,0.0,1444,491,752,5,
shatter_run.sh+myciel5.col.6.cnf+cc117e04,0,0.0,1444,1697,2830,6,
shatter_run.sh+myciel6.col.7.cnf+61044846,0,0.01,1544,5765,10200,7,
shatter_run.sh+myciel7.col.8.cnf+f5f71288,0,0.05,3424,19385,35714,8,
shatter_run.sh+ndist.b.20499.cnf+1efca73a,0,0.48,105312,901926 1127403 0 
shatter_run.sh+ndist.b.20998.cnf+276db7fe,0,0.44,109500,923882 1154848 0 
shatter_run.sh+ndist.b.22495.cnf+ee86a2f4,0,0.38,114056,989750 1237183 0 
shatter_run.sh+ndist.b.22994.cnf+f6f7b3b8,0,0.42,113564,1011706 1264628 0 
shatter_run.sh+ndist.b.23992.cnf+5ebcb195,0,0.39,123328,1055618 1319518 0 
shatter_run.sh+ndist.b.24491.cnf+be109eae,0,0.49,125128,1077574 1346963 0 
shatter_run.sh+ndist.b.25489.cnf+24adaef6,0,0.33,134556,1121486 1401853 0 
shatter_run.sh+ndist.b.26487.cnf+8c72acd3,0,0.35,137452,1165398 1456743 0 
shatter_run.sh+ndist.b.27485.cnf+f437aab0,0,0.61,142884,1209310 1511633 0 
shatter_run.sh+ndist.b.29481.cnf+c3c1a66a,0,0.53,149968,1297134 1621413 0 
shatter_run.sh+openstacks-p30_3.085-SAT.cnf+696251af,0,0.85,290388,2291833 4233307 3 
shatter_run.sh+openstacks-sequencedstrips-nonadl-nonnegated-os-sequencedstrips-p30_1.025-NOTKNOWN.cnf+f1f5f7f1,0,0.37,86988,668098 1232617 4 
shatter_run.sh+openstacks-sequencedstrips-nonadl-nonnegated-os-sequencedstrips-p30_3.025-NOTKNOWN.cnf+7b19bc2f,0,0.23,85736,674473 1245367 3 
shatter_run.sh+openstacks-sequencedstrips-nonadl-nonnegated-os-sequencedstrips-p30_3.085-SAT.cnf+e78c793b,0,0.87,284516,2291833 4233307 3 
shatter_run.sh+partial-10-11-s.cnf+47185994,0,0.66,150848,1216380 2107424 0 
shatter_run.sh+partial-10-17-s.cnf+847dbd1a,0,1.03,242424,1986952 3529062 0 
shatter_run.sh+partial-5-15-s.cnf+5d5f567c,0,0.69,173608,1435706 2529398 0 
shatter_run.sh+partial-5-17-s.cnf+c72bccfe,0,0.78,203324,1677292 2978994 0 
shatter_run.sh+pb_300_10_lb_07.cnf+b48e1435,0,0.37,109388,896296 1604421 0 
shatter_run.sh+pb_300_10_lb_08.cnf+b49c2bb6,0,0.34,108608,905115 1620565 0 
shatter_run.sh+post-c32s-ss-8.cnf+8589b5c8,0,0.1,31240,255897 400001 0 
shatter_run.sh+post-cbmc-aes-d-r2-noholes.cnf+6f422d45,0,1.15,273296,2160653 4598151 333 
shatter_run.sh+post-cbmc-aes-d-r2.cnf+1f46f100,0,1.06,271812,2165101 4600375 2557 
shatter_run.sh+post-cbmc-aes-ee-r2-noholes.cnf+b65688b5,0,5.21,266928,2107669 4505991 241 
shatter_run.sh+post-cbmc-zfcp-2.8-u2.cnf+3ff26223,0,99.85,6786648,55664200,87804371,639964,
shatter_run.sh+prime2209-98.cnf+3813c9b4,0,1.61,71736,586040 932862 97 
shatter_run.sh+q_query_3_L100_coli.sat.cnf+26f6fd56,0,1.17,269648,2153033 4720951 844 
shatter_run.sh+q_query_3_L150_coli.sat.cnf+e840109b,0,1.91,433480,3429908 7632301 840 
shatter_run.sh+q_query_3_L200_coli.sat.cnf+888db35,0,2.55,619080,4854283 10928651 841 
shatter_run.sh+q_query_3_L80_coli.sat.cnf+e2ff2f7b,0,1.16,212212,1683583 3664211 843 
shatter_run.sh+q_query_3_L90_coli.sat.cnf+3cda99bc,0,0.8,245204,1915358 4184881 843 
shatter_run.sh+q_query_3_l45_lambda.cnf+407524d8,0,0.1,29172,226113 497913 128 
shatter_run.sh+q_query_3_l46_lambda.cnf+4826ca37,0,0.1,29992,231966 511254 128 
shatter_run.sh+q_query_3_l48_lambda.cnf+578a14f5,0,0.1,31268,243798 538257 129 
shatter_run.sh+queen10_10.col.10.cnf+926d1494,0,0.02,2820,15130,28260,8,
shatter_run.sh+queen11_11.col.11.cnf+f4083bb5,0,0.11,3840,22341,42020,11,
shatter_run.sh+queen12_12.col.12.cnf+55a362d6,0,0.04,5076,31868,60280,10,
shatter_run.sh+queen13_13.col.13.cnf+b73e89f7,0,0.34,6632,44161,83928,13,
shatter_run.sh+queen14_14.col.14.cnf+18d9b118,0,0.13,8848,59710,113932,12,
shatter_run.sh+queen15_15.col.15.cnf+7a74d839,0,0.81,11548,79045,151340,15,
shatter_run.sh+queen16_16.col.16.cnf+dc0fff5a,0,0.31,14668,102736,197280,14,
shatter_run.sh+queen5_5.col.5.cnf+5d1ffc46,0,0.0,1440,865,1480,5,
shatter_run.sh+queen6_6.col.7.cnf+e0a3e48a,0,0.0,1444,2208,3912,5,
shatter_run.sh+queen7_7.col.7.cnf+640b9dcc,0,0.0,1444,3493,6300,7,
shatter_run.sh+queen8_12.col.12.cnf+35edeeb7,0,0.02,3092,17256,32208,12,
shatter_run.sh+queen8_8.col.9.cnf+e78f8610,0,0.0,1700,6912,12672,7,
shatter_run.sh+queen9_9.col.10.cnf+e64dd560,0,0.04,2264,11043,20466,10,
shatter_run.sh+ramsey_3_3_6.cnf+9e0acaaa,0,0.0,1404
shatter_run.sh+ramsey_3_4_9.cnf+d31b4c6e,0,0.0,1400
shatter_run.sh+ramsey_4_4_17.cnf+7757816a,0,0.0,1400
shatter_run.sh+ramsey_4_4_18.cnf+776598eb,0,0.0,1404
shatter_run.sh+ramsey_4_5_24.cnf+e0c34065,0,0.0,1404
shatter_run.sh+ramsey_4_5_25.cnf+e0d157e6,0,0.0,1400
shatter_run.sh+ramsey_5_5_42.cnf+d85a33c0,0,0.0,1400
shatter_run.sh+ramsey_5_5_43.cnf+d8684b41,0,0.0,1404
shatter_run.sh+rbcl_xits_08_UNSAT.cnf+1d0baad,0,0.02,10100,70611 203433 1 
shatter_run.sh+rbcl_xits_14_SAT.cnf+3d35941,0,0.07,20872,152928 444537 1 
shatter_run.sh+rbsat-v1150c84314gyes10.cnf+8ad143fa,0,0.02,10452,83017 163634 0 
shatter_run.sh+rbsat-v1150c84314gyes4.cnf+d3181ff3,0,0.02,10456,83236 164072 0 
shatter_run.sh+rbsat-v1150c84314gyes5.cnf+d3263774,0,0.01,10772,86614 170828 0 
shatter_run.sh+rbsat-v1150c84314gyes7.cnf+d3426676,0,0.02,10444,82715 163030 0 
shatter_run.sh+rbsat-v945c61409g10.cnf+bae7a36,0,0.01,8032,63299 124618 0 
shatter_run.sh+rbsat-v945c61409gyes5.cnf+7810bc45,0,0.01,8032,63299 124618 0 
shatter_run.sh+reg_s_2_unknown.cnf+dfd04532,0,1.35,283228,2166824 5790747 15 
shatter_run.sh+rnd-v25-e13-k3.cnf+400d8377,0,0.23,62844,495435 1285040 2200 
shatter_run.sh+rnd-v25-e178-k13.cnf+f022fd6,0,0.4,125376,988717 2610313 12575 
shatter_run.sh+rnd-v25-e212-k9.cnf+25192ade,0,0.38,135008,1005401 2692347 10925 
shatter_run.sh+rnd-v25-e81-k9.cnf+7e7ebfc6,0,0.3,87192,664387 1692712 7650 
shatter_run.sh+rook-40-0-0.cnf+9057e000,0,0.15,47012,391587 773578 0 
shatter_run.sh+rook-40-0-1.cnf+9065f781,0,0.1,45892,391627 775178 0 
shatter_run.sh+rook-42-0-0.cnf+b8e0be02,0,0.21,54844,452915 895250 0 
shatter_run.sh+rook-42-0-1.cnf+b8eed583,0,0.16,53128,452957 897014 0 
shatter_run.sh+rook-42-1-1.cnf+edd510c4,0,0.16,53368,452999 898778 0 
shatter_run.sh+rook-44-0-1.cnf+e177b385,0,0.15,60652,520375 1030986 0 
shatter_run.sh+rook-44-1-1.cnf+165deec6,0,0.21,63304,520419 1032922 0 
shatter_run.sh+rook-46-1-1.cnf+3ee6ccc8,0,0.28,75576,594215 1179786 0 
shatter_run.sh+rook-47-0-1.cnf+9e450088,0,0.28,78984,633547 1255959 0 
shatter_run.sh+rook-47-1-1.cnf+d32b3bc9,0,0.27,78384,633594 1258168 0 
shatter_run.sh+rook-48-0-1.cnf+32896f89,0,0.29,80688,674627 1337642 0 
shatter_run.sh+rook-49-1-1.cnf+fbb419cb,0,0.32,87484,717494 1425192 0 
shatter_run.sh+rook-50-0-0.cnf+84a1511f,0,0.32,92472,761987 1508978 0 
shatter_run.sh+rook-51-0-0.cnf+18e5c020,0,0.35,99344,808388 1601174 0 
shatter_run.sh+rook-52-0-1.cnf+ad3846a2,0,0.36,102612,856687 1699754 0 
shatter_run.sh+rook-54-0-0.cnf+d5b30d23,0,0.39,119532,958811 1900130 0 
shatter_run.sh+rook-54-1-1.cnf+aa75fe5,0,0.33,117408,958919 1905962 0 
shatter_run.sh+rook-55-0-1.cnf+6a0593a5,0,0.49,124140,1012867 2010503 0 
shatter_run.sh+rook-56-0-0.cnf+fe3beb25,0,0.52,132692,1068803 2118794 0 
shatter_run.sh+rook-56-1-1.cnf+33303de7,0,0.5,135284,1068915 2125066 0 
shatter_run.sh+rook-57-1-1.cnf+c774ace8,0,0.45,142284,1126934 2240648 0 
shatter_run.sh+rook-58-1-1.cnf+5bb91be9,0,0.52,151776,1187015 2360346 0 
shatter_run.sh+rook-59-1-1.cnf+effd8aea,0,0.48,151596,1249194 2484232 0 
shatter_run.sh+rook-60-0-1.cnf+78f8d9bf,0,0.59,156184,1313447 2608778 0 
shatter_run.sh+rook-61-1-1.cnf+42238401,0,0.46,171332,1379990 2744856 0 
shatter_run.sh+rook-63-1-1.cnf+6aac6203,0,0.66,188588,1519610 3023096 0 
shatter_run.sh+rook-65-1-1.cnf+93354005,0,0.81,208644,1668342 3319528 0 
shatter_run.sh+rook-68-1-1.cnf+50028d08,0,0.87,236304,1909155 3799546 0 
shatter_run.sh+rook-72-1-1.cnf+cab16421,0,1.19,279880,2264819 4508618 0 
shatter_run.sh+rook-76-1-1.cnf+1bc32025,0,0.97,326716,2662115 5300826 0 
shatter_run.sh+rpoc_xits_15_SAT.cnf+3846ec3b,0,0.11,25120,182709 532856 2 
shatter_run.sh+rpoc_xits_15_SAT.cnf+c056bdab,0,0.09,25120,182709 532856 2 
shatter_run.sh+sat-grid-pbl-0200.sat05-1339.reshuffled-07.cnf+bbde08fb,0,0.22,21500,160201 358998 20098 
shatter_run.sh+school1.col.14.cnf+9185ab0e,0,1.07,34268,258630,506480,69,
shatter_run.sh+school1_nsh.col.14.cnf+e084750a,0,0.81,26856,199460,389064,67,
shatter_run.sh+sgen1-sat-230-100.cnf+79dd211d,0,0.0,1440,1012 1610 0 
shatter_run.sh+sgen1-sat-240-100.cnf+6e26923c,0,0.0,1436,1056 1680 0 
shatter_run.sh+sgen1-sat-250-100.cnf+6270035b,0,0.0,1436,1100 1750 0 
shatter_run.sh+sgen1-sat-270-100.cnf+4b02e599,0,0.0,1440,1188 1890 0 
shatter_run.sh+sgen3-n200-s39840374-sat.cnf+907a61cc,0,0.0,1440,880 1400 0 
shatter_run.sh+sgen3-n220-s24359701-sat.cnf+70136a4b,0,0.0,1440,968 1540 0 
shatter_run.sh+sgen3-n240-s78945233-sat.cnf+6974e6bf,0,0.0,1436,1056 1680 0 
shatter_run.sh+sgen4-sat-160-8.cnf+b1b88203,0,0.0,1440,704 1120 0 
shatter_run.sh+sgen4-sat-200-8.cnf+d6b5e3ca,0,0.0,1440,880 1400 0 
shatter_run.sh+sgen4-sat-220-8.cnf+a6783d88,0,0.0,1436,968 1540 0 
shatter_run.sh+sgen6-1080-5-1.cnf+4afcfc47,0,0.0,1440,792 1260 0 
shatter_run.sh+sgen6-1200-5-1.cnf+d27ad8d1,0,0.0,1440,880 1400 0 
shatter_run.sh+sgen6-1320-5-1.cnf+4ff26dd0,0,0.0,1440,968 1540 0 
shatter_run.sh+sgen6-1440-5-1.cnf+cd6a02cf,0,0.0,1436,1056 1680 0 
shatter_run.sh+sgen6-840-5-1.cnf+c6d60b56,0,0.0,1436,616 980 0 
shatter_run.sh+sgen6-960-5-1.cnf+444da055,0,0.0,1440,704 1120 0 
shatter_run.sh+shift1add.10000.cnf+37f8249f,0,0.36,100556,829963 1129944 2 
shatter_run.sh+shift1add.13988.cnf+59cb4185,0,0.52,136316,1160967 1580588 2 
shatter_run.sh+shift1add.15982.cnf+29390e3d,0,0.49,160120,1326469 1805910 2 
shatter_run.sh+shift1add.18973.cnf+5f35d3bc,0,0.69,192544,1574722 2143893 2 
shatter_run.sh+shift1add.21964.cnf+1aab4786,0,0.73,210588,1822975 2481876 2 
shatter_run.sh+shift1add.24955.cnf+50a80d05,0,0.86,250368,2071228 2819859 2 
shatter_run.sh+shift1add.25952.cnf+b85ef361,0,0.7,257508,2153979 2932520 2 
shatter_run.sh+shift1add.29940.cnf+56129f3c,0,0.97,293120,2484983 3383164 2 
shatter_run.sh+slp-synthesis-aes-top28.cnf+1e35343a,0,0.14,56176,460396 780537 0 
shatter_run.sh+slp-synthesis-aes-top29.cnf+1e434bbb,0,0.16,59916,492858 835742 0 
shatter_run.sh+smtlib-qfbv-aigs-ext_con_032_008_0256-tseitin.cnf+3e3ecdc1,0,0.14,16064,123327 187939 69 
shatter_run.sh+smtlib-qfbv-aigs-lfsr_004_127_112-tseitin.cnf+f30e5864,0,0.68,197260,1579981 2401431 1 
shatter_run.sh+stable-300-0.1-20-98765432130020.cnf+21eb0f53,0,0.01,4832,17697 281464 0 
shatter_run.sh+stable-400-0.1-11-98765432140011.cnf+b8e18295,0,0.03,8680,30758 633545 0 
shatter_run.sh+stable-400-0.1-12-98765432140012.cnf+a0917075,0,0.04,8832,30855 638746 0 
shatter_run.sh+stable-400-0.1-2-9876543214002.cnf+c41027e1,0,0.04,8756,30930 641665 0 
shatter_run.sh+stable-400-0.1-4-9876543214004.cnf+5f811a65,0,0.03,8644,30593 631662 0 
shatter_run.sh+stable-400-0.1-5-9876543214005.cnf+2d3993a7,0,0.03,8632,30607 627900 0 
shatter_run.sh+stable-400-0.1-7-9876543214007.cnf+c8aa862b,0,0.03,8636,30600 629371 0 
shatter_run.sh+total-10-13-u.cnf+6ece981b,0,0.66,179112,1464077 2549314 0 
shatter_run.sh+toughsat_factoring_155s.cnf+3c87290c,0,0.0,2440,13424 33986 0 
shatter_run.sh+toughsat_factoring_426s.cnf+d72cd685,0,0.0,2580,14763 37314 0 
shatter_run.sh+toughsat_factoring_958s.cnf+80af19e1,0,0.0,2424,13424 33986 0 
shatter_run.sh+toughsat_factoring_inf.cnf+21734691,0,0.0,3460,21272 54002 0 
shatter_run.sh+tph17.cnf+eed71ddc,0,2.15,16944,112490 334985 34 
shatter_run.sh+transport-transport-city-sequential-25nodes-1000size-3degree-100mindistance-3trucks-10packages-2008seed.020-NOTKNOWN.cnf+9834bd68,0,0.86,219936,1772520 3311830 0 
shatter_run.sh+transport-transport-city-sequential-25nodes-1000size-3degree-100mindistance-3trucks-10packages-2008seed.030-NOTKNOWN.cnf+f21027a9,0,1.52,322468,2658220 4967370 0 
shatter_run.sh+transport-transport-city-sequential-25nodes-1000size-3degree-100mindistance-3trucks-10packages-2008seed.040-NOTKNOWN.cnf+4beb91ea,0,2.43,431948,3543920 6622910 0 
shatter_run.sh+transport-transport-city-sequential-25nodes-1000size-3degree-100mindistance-3trucks-10packages-2008seed.050-NOTKNOWN.cnf+a5c6fc2b,0,2.32,537976,4429620 8278450 0 
shatter_run.sh+transport-transport-city-sequential-35nodes-1000size-4degree-100mindistance-4trucks-14packages-2008seed.040-NOTKNOWN.cnf+cdfbd46d,0,4.62,1130932,9292452 17355586 0 
shatter_run.sh+unsat-set-a-clqcolor-10-06-07.sat05-1250.reshuffled-07.cnf+60d7daf1,0,0.0,1436,2737 7205 14 
shatter_run.sh+unsat-set-a-clqcolor-12-07-08.sat05-1251.reshuffled-07.cnf+95851510,0,0.01,1436,5006 13572 17 
shatter_run.sh+unsat-set-a-clqcolor-16-10-11.sat05-1253.reshuffled-07.cnf+de40710e,0,0.08,3036,16219 45752 24 
shatter_run.sh+unsat-set-a-clqcolor-30-19-20.sat05-1256.reshuffled-07.cnf+35e5a3c4,0,3.45,26912,182525 534870 47 
shatter_run.sh+unsat-set-a-fclqcolor-10-06-07.sat05-1274.reshuffled-07.cnf+9df3e855,0,0.01,1440,3202 8135 14 
shatter_run.sh+unsat-set-a-fclqcolor-20-13-14.sat05-1278.reshuffled-07.cnf+bec0985a,0,0.35,7012,44584 124500 31 
shatter_run.sh+unsat-set-b-clqcolor-16-11-14.sat05-1261.reshuffled-07.cnf+e435e4a8,0,0.15,4452,25686 73312 25 
shatter_run.sh+unsat-set-b-clqcolor-30-20-26.sat05-1264.reshuffled-07.cnf+90938650,0,9.57,44468,304886 897045 48 
shatter_run.sh+unsat-set-b-fclqcolor-10-07-09.sat05-1282.reshuffled-07.cnf+68fba872,0,0.01,1436,4959 12980 15 
shatter_run.sh+unsat-set-b-fclqcolor-25-18-23.sat05-1287.reshuffled-07.cnf+a6f0897b,0,3.31,25956,176948 508050 41 
shatter_run.sh+vdw_2_3_8.cnf+df5e2c1f,0,0.0,1404,64,104,2,
shatter_run.sh+vdw_2_3_9.cnf+df6c43a0,0,0.0,1404,77,132,2,
shatter_run.sh+vdw_2_4_34.cnf+6bfc96f3,0,0.0,1404,522,1544,2,
shatter_run.sh+vdw_2_4_35.cnf+6c0aae74,0,0.0,1404,549,1636,2,
shatter_run.sh+vdw_2_5_177.cnf+43935dba,0,0.01,2056,8541,38988,2,
shatter_run.sh+vdw_2_5_178.cnf+43a1753b,0,0.0,2048,8634,39432,2,
shatter_run.sh+vdw_2_6_1131.cnf+defb0b8e,0,0.72,43940,260357,1532736,2,
shatter_run.sh+vdw_2_6_1132.cnf+df09230f,0,0.74,44080,260814,1535452,2,
shatter_run.sh+vdw_3_3_26.cnf+f6cc3196,0,0.0,1400,650,1560,2,
shatter_run.sh+vdw_3_3_27.cnf+f6da4917,0,0.0,1404,696,1683,3,
shatter_run.sh+vdw_3_4_292.cnf+7c3d1874,0,0.05,7480,44239,170532,2,
shatter_run.sh+vdw_3_4_293.cnf+7c4b2ff5,0,0.05,7528,44537,171702,2,
shatter_run.sh+vdw_4_3_75.cnf+f38fc64f,0,0.0,1604,6151,17028,4,
shatter_run.sh+vdw_4_3_76.cnf+f39dddd0,0,0.0,1628,6308,17480,3,
shatter_run.sh+vdw_5_3_171.cnf+d9640af5,0,0.08,6116,38006,110085,5,
shatter_run.sh+velev-vliw-uns-2.0-uq5.cnf+2aeabf1,0,1.47,361268,2769069 7293092 11 
shatter_run.sh+velev-vliw-uns-4.0-9-i1.cnf+5569e29c,0,1.72,461688,3539356 9583561 2 
shatter_run.sh+velev-vliw-uns-4.0-9.cnf+1d2073d3,0,1.59,259544,2006543 5376678 2 
shatter_run.sh+vmpc_29.cnf+85b627a8,0,0.02,13396,98281 268511 0 
shatter_run.sh+vmpc_32.renamed-as.sat05-1919.cnf+14494499,0,0.03,17456,131968 360800 0 
shatter_run.sh+vmpc_33.cnf+87167341,0,0.03,19228,144705 395703 0 
shatter_run.sh+x1_40.shuffled.cnf+d71dd9c,0,0.0,1440,550 1058 40 
shatter_run.sh+x1_80.shuffled.cnf+74df86a0,0,0.0,1440,1110 2138 80 
shatter_run.sh+zeroin.i.1.col.49.cnf+36339f44,0,5.85,29408,217267,413856,4084,
shatter_run.sh+zeroin.i.2.col.30.cnf+3bb1987b,0,1.66,15840,115138,217616,1586,
shatter_run.sh+zeroin.i.3.col.30.cnf+43633dda,0,1.43,15844,114814,217268,1448,
shatter_run.sh+zfcp-2.8-u2-nh.cnf+e2106f3,0,93.29,6658504,54597368,87270955,106425,
