Name,OutCode,Time,Mem
glucose_run.sh+001-80-12.cnf+49e24f33,0,803.03,176400,81227,11358337,184730200,1395009940,SATISFIABLE,
glucose_run.sh+002-23-96.cnf+aaaf1187,0,3697.8,164648
glucose_run.sh+002-80-12.cnf+dec701f4,0,1053.05,198600,86376,11719357,189074372,1540838934,SATISFIABLE,
glucose_run.sh+002-80-4.cnf+f6d4d1fb,0,189.37,137644,30081,4158456,78865428,482818029,SATISFIABLE,
glucose_run.sh+002-80-8.cnf+f70d2fff,0,731.8,174812,74456,10903959,171440945,1304012737,SATISFIABLE,
glucose_run.sh+003-23-80.cnf+3d8a5ea3,0,3697.61,165164
glucose_run.sh+003-80-8.cnf+eb56a11e,0,621.37,164824,68030,9408184,154588313,1122148172,SATISFIABLE,
glucose_run.sh+004-22-144.cnf+7bf2bd3e,0,3698.52,160976
glucose_run.sh+004-22-160.cnf+7f241078,0,3698.17,160512
glucose_run.sh+004-80-8.cnf+dfa0123d,0,672.36,172020,71878,10279010,162772059,1207572723,SATISFIABLE,
glucose_run.sh+005-22-160.cnf+86d5b5d7,0,3698.37,162084
glucose_run.sh+005-80-12.cnf+9d751a37,0,1911.36,258816,114319,14902530,233192777,2055801950,SATISFIABLE,
glucose_run.sh+006-22-144.cnf+8b5607fc,0,3698.0,164664
glucose_run.sh+006-22-160.cnf+8e875b36,0,3698.47,161572
glucose_run.sh+006-23-80.cnf+fc3876e6,0,3698.58,161604
glucose_run.sh+006-23-96.cnf+fe41dc8b,0,3698.11,158836
glucose_run.sh+006-80-4.cnf+c7fa9677,0,209.77,139932,28917,4363801,79128235,499133721,SATISFIABLE,
glucose_run.sh+007-80-12.cnf+c73e7fb9,0,1042.66,202456,82039,10799464,181540717,1480967251,SATISFIABLE,
glucose_run.sh+007-80-8.cnf+bc7c659a,0,584.96,175616,67422,9731531,157078824,1170629695,SATISFIABLE,
glucose_run.sh+008-80-12.cnf+5c23327a,0,725.38,173556,78407,11176774,179677274,1320138342,SATISFIABLE,
glucose_run.sh+008-80-4.cnf+b08d78b5,0,273.88,144548,37001,5444918,95427472,621545789,SATISFIABLE,
glucose_run.sh+008-80-8.cnf+b0c5d6b9,0,521.22,161908,59536,8717603,147843524,1037891881,SATISFIABLE,
glucose_run.sh+009-23-64.cnf+b7b53bef,0,3698.14,158296
glucose_run.sh+009-80-4.cnf+a4d6e9d4,0,234.88,141388,31986,4612469,87390692,562966566,SATISFIABLE,
glucose_run.sh+009-80-8.cnf+a50f47d8,0,740.06,171632,81574,11711355,189837650,1408180142,SATISFIABLE,
glucose_run.sh+010-22-144.cnf+4baf2e43,0,3698.29,165280
glucose_run.sh+010-22-160.cnf+4ee0817d,0,3698.42,160948
glucose_run.sh+010-23-80.cnf+868debbf,0,3698.07,164860
glucose_run.sh+010-80-12.cnf+bcaf41d1,0,869.07,190976,85327,11642438,187193770,1458175436,SATISFIABLE,
glucose_run.sh+10pipe_q0_k.cnf+315126f6,0,226.69,272276,5907,2122093,17938449,2068202748,UNSATISFIABLE,
glucose_run.sh+11pipe_11_ooo.cnf+c82d38ba,0,3695.65,622148
glucose_run.sh+11pipe_k.cnf+828404db,0,954.43,9251764,7517,3838795,35747306,5909022694,UNSATISFIABLE,
glucose_run.sh+11pipe_q0_k.cnf+132ef095,0,293.63,357812,7500,2523507,23134728,3237017169,UNSATISFIABLE,
glucose_run.sh+12pipe_q0_k.cnf+f50cba34,0,486.92,483944,9396,3139950,37763742,4507775168,UNSATISFIABLE,
glucose_run.sh+13pipe_q0_k.cnf+d6ea83d3,0,1619.12,655800,8888,7407341,62141176,16890605479,UNSATISFIABLE,
glucose_run.sh+14pipe_q0_k.cnf+b8c84d72,0,1276.57,821920,14769,3338540,60543280,11001181716,UNSATISFIABLE,
glucose_run.sh+15pipe_q0_k.cnf+9aa61711,0,1922.63,1091848,19051,5027542,93493933,18808026602,UNSATISFIABLE,
glucose_run.sh+289-unsat-6x30.cnf+931eb91c,0,7.93,49672,3425,627584,2142036,10174732,SATISFIABLE,
glucose_run.sh+5-SATISFIABLE.cnf+eba7dfcc,0,220.18,214448,6034,1231223,2610021,912677621,SATISFIABLE,
glucose_run.sh+6s10.cnf+e46977d,0,228.95,89392,10071,2387325,6048938,536768318,UNSATISFIABLE,
glucose_run.sh+6s11-opt.cnf+7d77fee4,0,278.48,88944,10807,2879868,7242832,602332385,UNSATISFIABLE,
glucose_run.sh+6s12.cnf+e62c67f,0,281.85,88392,10991,2748106,6342495,618732728,UNSATISFIABLE,
glucose_run.sh+6s123.cnf+be243f4e,0,3257.91,484096,23704,3991600,1308640888,12484149753,UNSATISFIABLE,
glucose_run.sh+6s126-opt.cnf+5c343437,0,3698.5,360820
glucose_run.sh+6s13-opt.cnf+a600dce6,0,298.84,103048,11532,3090804,9276683,671704821,UNSATISFIABLE,
glucose_run.sh+6s130-opt.cnf+d6e30b50,0,267.41,108380,10517,3730005,14000230,645171430,UNSATISFIABLE,
glucose_run.sh+6s131-opt.cnf+6b277a51,0,281.84,104940,11500,3661737,14276905,645621162,UNSATISFIABLE,
glucose_run.sh+6s133.cnf+bfd917ed,0,226.79,112120,9489,3152388,11788355,543807847,UNSATISFIABLE,
glucose_run.sh+6s137.cnf+c01175f1,0,3698.56,450744
glucose_run.sh+6s151.cnf+c3269a29,0,3698.03,180716
glucose_run.sh+6s153.cnf+c342c92b,0,48.58,74712,4818,1120906,2783594,166463068,UNSATISFIABLE,
glucose_run.sh+6s16-opt.cnf+62ce29e9,0,304.49,94208,11662,3020197,6971252,582558715,UNSATISFIABLE,
glucose_run.sh+6s16.cnf+e9b2483,0,311.78,87564,11104,2964853,7604600,609692137,UNSATISFIABLE,
glucose_run.sh+6s165-nonopt.cnf+1e6e78e1,0,13.56,20812,938,436189,560866,27809772,UNSATISFIABLE,
glucose_run.sh+6s167-opt.cnf+c19e67b4,0,83.75,35692,2877,1306662,1581271,93900918,UNSATISFIABLE,
glucose_run.sh+6s168-opt.cnf+55e2d6b5,0,52.05,39120,2031,1130852,1376315,81897508,UNSATISFIABLE,
glucose_run.sh+6s169-opt.cnf+ea2745b6,0,155.03,58740,3742,2440444,2953480,234108545,UNSATISFIABLE,
glucose_run.sh+6s17-opt.cnf+f71298ea,0,376.64,100208,13383,3433125,9683031,736845522,UNSATISFIABLE,
glucose_run.sh+6s184.cnf+c86f6a89,0,298.09,84880,10768,2963913,6695681,587641222,UNSATISFIABLE,
glucose_run.sh+6s9.cnf+63ff4595,0,228.46,75292,9788,2468344,5765428,540480970,UNSATISFIABLE,
glucose_run.sh+7pipe_k.cnf+be83d94a,0,614.96,587572,5727,5281985,16664835,3263173787,UNSATISFIABLE,
glucose_run.sh+8pipe_k.cnf+53688c0b,0,130.57,221056,5179,1715443,10697194,1170152695,UNSATISFIABLE,
glucose_run.sh+9dlx_vliw_at_b_iq3.cnf+2e312116,0,97.35,158496,3788,891102,16973861,665903666,UNSATISFIABLE,
glucose_run.sh+9dlx_vliw_at_b_iq4.cnf+2e3f3897,0,191.26,197604,5851,1272915,33215148,1307191947,UNSATISFIABLE,
glucose_run.sh+9dlx_vliw_at_b_iq6.used-as.sat04-347.cnf+7e510512,0,398.87,421996,9607,1521900,60983647,2962692586,UNSATISFIABLE,
glucose_run.sh+9dlx_vliw_at_b_iq7.cnf+2e697f1a,0,622.02,619900,9861,1366626,70640655,4454566153,UNSATISFIABLE,
glucose_run.sh+9dlx_vliw_at_b_iq8.used-as.sat04-718.cnf+e13cb23c,0,1059.62,736132,16711,2257678,125402140,8401440355,UNSATISFIABLE,
glucose_run.sh+9dlx_vliw_at_b_iq9.cnf+2e85ae1c,0,1739.93,986532,22428,2871678,190568810,13960098069,UNSATISFIABLE,
glucose_run.sh+9vliw_m_9stages_iq3_C1_bug1.cnf+83b1760e,0,11.39,1279908,35,4566,1285032,76276260,SATISFIABLE,
glucose_run.sh+9vliw_m_9stages_iq3_C1_bug10.cnf+f2813b1c,0,16.77,1281192,24,6496,2482265,175861733,SATISFIABLE,
glucose_run.sh+9vliw_m_9stages_iq3_C1_bug3.cnf+83cda510,0,16.27,1277320,49,9071,2193796,127397994,SATISFIABLE,
glucose_run.sh+9vliw_m_9stages_iq3_C1_bug4.cnf+83dbbc91,0,21.89,1276084,95,14798,2413030,196474669,SATISFIABLE,
glucose_run.sh+9vliw_m_9stages_iq3_C1_bug7.cnf+84060314,0,27.16,1277240,102,21224,3357686,243467421,SATISFIABLE,
glucose_run.sh+9vliw_m_9stages_iq3_C1_bug8.cnf+84141a95,0,48.09,1276672,275,39695,3747467,483590701,SATISFIABLE,
glucose_run.sh+9vliw_m_9stages_iq3_C1_bug9.cnf+84223216,0,67.79,1277580,315,58727,4376867,710031182,SATISFIABLE,
glucose_run.sh+ACG-15-10p0.cnf+4bebd379,0,582.69,204512,293,306608,596562,2799527132,UNSATISFIABLE,
glucose_run.sh+ACG-15-10p1.cnf+4bf9eafa,0,900.96,193872,393,497350,895302,4366674292,SATISFIABLE,
glucose_run.sh+ACG-20-10p1.cnf+1b6f6820,0,1577.99,279712,1119,631364,1772224,7089977453,SATISFIABLE,
glucose_run.sh+ACG-20-5p0.cnf+d2d058af,0,211.88,216692,346,109010,494083,921421650,UNSATISFIABLE,
glucose_run.sh+ACG-20-5p1.cnf+d2de7030,0,648.3,230660,561,355030,939578,3134808715,SATISFIABLE,
glucose_run.sh+AProVE07-01.cnf+b9dc4ac5,0,3697.97,143648
glucose_run.sh+AProVE07-03.cnf+b9f879c7,0,162.23,49424,2522,1532340,1970666,225176946,UNSATISFIABLE,
glucose_run.sh+AProVE07-08.cnf+ba3eef4c,0,136.75,44432,2159,1268716,1745496,321656754,UNSATISFIABLE,
glucose_run.sh+AProVE07-27.cnf+bd9a8909,0,528.73,83472,9546,2777072,3531432,1057715857,UNSATISFIABLE,
glucose_run.sh+AProVE09-06.cnf+89e51a08,0,497.26,130244,2583,1146245,1743095,2719435239,SATISFIABLE,
glucose_run.sh+Chvatal-k5.cnf+d0972d4b,0,0.02,4712,1,44,966,8384,SATISFIABLE,
glucose_run.sh+Composite-024BitPrimes-1.used-as.sat04-861.cnf+4636f97a,0,220.95,47716,1273,1613603,1719642,371081817,SATISFIABLE,
glucose_run.sh+Composite-024BitPrimes-1.used-as.sat04-861.cnf+7140c672,0,240.86,46864,1273,1613603,1719642,371081817,SATISFIABLE,
glucose_run.sh+E02F20.cnf+10f522be,0,77.32,149060,3571,783164,1903980,230628195,SATISFIABLE,
glucose_run.sh+E02F22.cnf+111151c0,0,376.39,255200,6386,1382612,3540976,504093915,SATISFIABLE,
glucose_run.sh+EDP3-10000.cnf+7833c729,0,3698.65,189544
glucose_run.sh+EDP3-11000.cnf+e014f408,0,3697.84,207988
glucose_run.sh+EDP3-12000.cnf+47f620e7,0,3696.7,195328
glucose_run.sh+EDP3-13000.cnf+afd74dc6,0,3697.62,220792
glucose_run.sh+EDP3-14000.cnf+17b87aa5,0,3698.21,268392
glucose_run.sh+EDP3-15000.cnf+7f99a784,0,3697.56,244324
glucose_run.sh+EDP3-16000.cnf+e77ad463,0,3696.28,255944
glucose_run.sh+EDP3-17000.cnf+4f5c0142,0,3696.48,228224
glucose_run.sh+EDP3-18000.cnf+b73d2e21,0,3697.25,236992
glucose_run.sh+EDP3-19000.cnf+1f1e5b00,0,3697.62,246876
glucose_run.sh+EDP3-20000.cnf+c78362a,0,3698.18,249832
glucose_run.sh+EDP3-30000.cnf+a0bca52b,0,3697.45,336156
glucose_run.sh+EDP3-40000.cnf+3501142c,0,3700.68,426184
glucose_run.sh+EDP3-50000.cnf+c945832d,0,3697.54,511420
glucose_run.sh+EDP3-60000.cnf+5d89f22e,0,3697.3,593112
glucose_run.sh+EDP3-70000.cnf+f1ce612f,0,3697.58,703280
glucose_run.sh+EDP3-8000.cnf+f3ceee7a,0,41.7,87460,974,161208,2365091,188171216,SATISFIABLE,
glucose_run.sh+EDP3-80000.cnf+8612d030,0,3697.84,806584
glucose_run.sh+EDP3-9000.cnf+5bb01b59,0,382.77,138220,9257,1594733,20595661,1955867251,SATISFIABLE,
glucose_run.sh+EDP3-90000.cnf+1a573f31,0,3695.63,922152
glucose_run.sh+FlowerSnark-k6.cnf+4bdc4b77,0,317.14,87768,7549,2131898,4924916,821914380,UNSATISFIABLE,
glucose_run.sh+GreenTao_2-3-6_2071.cnf+3c99c1ed,0,3697.7,247944
glucose_run.sh+GreenTao_2-4-4_511.cnf+e62aed9,0,3697.8,181160
glucose_run.sh+Hidoku_enu_6.cnf+18dd3abd,0,3.9,17848,768,93986,351353,11653757,SATISFIABLE,
glucose_run.sh+Hidoku_enu_7.cnf+18eb523e,0,8.94,26060,1579,173063,916079,33649330,SATISFIABLE,
glucose_run.sh+IBM_FV_2004_rule_batch_1_31_1_SAT_dat.k40.debugged.cnf+f3744f1d,0,3698.51,170560
glucose_run.sh+LABS_n038_goal002.cnf+dfe60f57,0,2034.3,96860,3691,5190447,5705680,6395505195,UNSATISFIABLE,
glucose_run.sh+LABS_n044_goal003.cnf+7c5d673,0,3698.72,141728
glucose_run.sh+LABS_n045_goal003.cnf+f648dcf4,0,3179.65,149960,187,6142507,6623890,11057428372,SATISFIABLE,
glucose_run.sh+LABS_n051_goal004.cnf+1e28a410,0,3697.23,151604
glucose_run.sh+LABS_n052_goal004.cnf+cabaa91,0,3698.81,148740
glucose_run.sh+LABS_n066_goal005.cnf+a8a3a5b5,0,3699.37,196232
glucose_run.sh+LABS_n078_goal006.cnf+679593d7,0,3698.7,219300
glucose_run.sh+LABS_n081_goal007.cnf+c3ec4770,0,3698.66,251440
glucose_run.sh+LABS_n082_goal007.cnf+b26f4df1,0,3699.0,249044
glucose_run.sh+LABS_n088_goal008.cnf+498f8c78,0,1796.05,266684,2424,1685847,2130206,8245885663,SATISFIABLE,
glucose_run.sh+MD5-27-4.cnf+57b369bc,0,48.82,52512,5984,794741,9219477,136201128,SATISFIABLE,
glucose_run.sh+MD5-28-1.cnf+8c6f5e7a,0,3698.2,159492
glucose_run.sh+MD5-28-2.cnf+8c7d75fb,0,3696.32,148884
glucose_run.sh+MD5-28-3.cnf+8c8b8d7c,0,3698.37,147580
glucose_run.sh+MD5-28-4.cnf+8c99a4fd,0,3698.44,162308
glucose_run.sh+MD5-28-5.cnf+8ca7bc7e,0,3698.62,160040
glucose_run.sh+MD5-29-2.cnf+c163b13c,0,3698.46,158056
glucose_run.sh+MD5-29-3.cnf+c171c8bd,0,3698.12,161152
glucose_run.sh+MD5-29-4.cnf+c17fe03e,0,3698.64,152356
glucose_run.sh+MD5-29-5.cnf+c18df7bf,0,3698.65,161076
glucose_run.sh+MD5-30-1.cnf+4d1eb151,0,3698.23,154208
glucose_run.sh+MD5-30-2.cnf+4d2cc8d2,0,3698.3,159364
glucose_run.sh+MD5-30-4.cnf+4d48f7d4,0,3697.97,158000
glucose_run.sh+MD5-30-5.cnf+4d570f55,0,3697.72,162400
glucose_run.sh+MD5-31-4.cnf+822f3315,0,3697.93,178732
glucose_run.sh+MD5-31-5.cnf+823d4a96,0,3697.41,176032
glucose_run.sh+MD5-32-1.cnf+b6eb27d3,0,3697.57,181672
glucose_run.sh+MD5-32-2.cnf+b6f93f54,0,3697.37,174056
glucose_run.sh+MD5-32-3.cnf+b70756d5,0,3698.02,175496
glucose_run.sh+MD5-32-4.cnf+b7156e56,0,3698.43,183252
glucose_run.sh+MD5-32-5.cnf+b72385d7,0,3695.25,175176
glucose_run.sh+Q32inK09.cnf+a33d879b,0,15.53,19848,272,376574,400244,2578207,UNSATISFIABLE,
glucose_run.sh+Q32inK10.cnf+a4738cb1,0,15.19,29960,155,366767,388248,2506438,UNSATISFIABLE,
glucose_run.sh+Q32inK11.cnf+a481a432,0,35.52,41968,39,336758,354707,2273051,UNSATISFIABLE,
glucose_run.sh+Q3inK10.cnf+9847a5e1,0,5.35,17616,1,0,31,45,SATISFIABLE,
glucose_run.sh+Q3inK11.cnf+84b730fb,0,131.47,56420,1,24,61,193,SATISFIABLE,
glucose_run.sh+Robertson-k8.cnf+a4103a2d,0,522.93,120028,10031,3015221,6212645,998746136,UNSATISFIABLE,
glucose_run.sh+SAT_dat.k100-24_1_rule_1.cnf+8103cc23,0,3698.5,919512
glucose_run.sh+SAT_dat.k100-24_1_rule_2.cnf+8111e3a4,0,3697.15,908800
glucose_run.sh+SAT_dat.k100-24_1_rule_3.cnf+811ffb25,0,3698.42,919880
glucose_run.sh+SAT_dat.k30-30_rule.cnf+1beb3ec2,0,3021.97,231552,38911,5763588,11061035,7319015400,SATISFIABLE,
glucose_run.sh+SAT_dat.k35-31_2_rule_2.cnf+d3de5746,0,3492.7,193020,36715,9354671,13761269,6055583176,UNSATISFIABLE,
glucose_run.sh+SAT_dat.k70-24_1_rule_1.cnf+96d2bf79,0,2816.78,743840,17170,2327497,7970686,12768749221,UNSATISFIABLE,
glucose_run.sh+SAT_dat.k70-24_1_rule_3.cnf+96eeee7b,0,3054.26,741140,20292,2787938,9382253,14435235134,UNSATISFIABLE,
glucose_run.sh+SAT_dat.k75-24_1_rule_3.cnf+2a404480,0,3698.54,788728
glucose_run.sh+SAT_dat.k80-24_1_rule_1.cnf+5b64a198,0,3698.42,709720
glucose_run.sh+SAT_dat.k80-24_1_rule_2.cnf+5b72b919,0,3697.65,712120
glucose_run.sh+SAT_dat.k85-24_1_rule_1.cnf+eeb5f79d,0,3697.04,757144
glucose_run.sh+SAT_dat.k85-24_1_rule_2.cnf+eec40f1e,0,3698.66,758876
glucose_run.sh+SAT_dat.k85-24_1_rule_3.cnf+eed2269f,0,3698.44,759400
glucose_run.sh+SAT_dat.k90.debugged.cnf+9d388030,0,3698.22,829400
glucose_run.sh+SAT_dat.k95-24_1_rule_1.cnf+b347d9bc,0,3697.56,853816
glucose_run.sh+SAT_dat.k95-24_1_rule_2.cnf+b355f13d,0,3698.74,870620
glucose_run.sh+SAT_dat.k95-24_1_rule_3.cnf+b36408be,0,3698.72,868964
glucose_run.sh+SAT_instance_N=111.cnf+a70f6634,0,3698.71,251112
glucose_run.sh+SAT_instance_N=31.cnf+110ec4d5,0,3698.29,144756
glucose_run.sh+SAT_instance_N=33.cnf+112af3d7,0,3698.63,146884
glucose_run.sh+SAT_instance_N=43.cnf+12dfcc76,0,3698.77,175200
glucose_run.sh+SAT_instance_N=49.cnf+1334597c,0,3698.95,177976
glucose_run.sh+SAT_instance_N=55.cnf+14b0d417,0,3698.5,188332
glucose_run.sh+SAT_instance_N=63.cnf+16497db4,0,3698.46,181252
glucose_run.sh+SAT_instance_N=69.cnf+169e0aba,0,3699.07,182284
glucose_run.sh+SAT_instance_N=72.cnf+17f03ed2,0,3698.18,187364
glucose_run.sh+SAT_instance_N=75.cnf+181a8555,0,3698.21,199564
glucose_run.sh+SAT_instance_N=77.cnf+1836b457,0,3698.82,184484
glucose_run.sh+SAT_instance_N=85.cnf+19cf5df4,0,3698.36,200876
glucose_run.sh+SAT_instance_N=93.cnf+1b680791,0,3698.78,217716
glucose_run.sh+SAT_instance_N=99.cnf+1bbc9497,0,3698.56,229228
glucose_run.sh+UCG-15-10p0.cnf+5110208d,0,268.77,174492,258,214556,469547,1285287129,UNSATISFIABLE,
glucose_run.sh+UCG-15-10p1.cnf+511e380e,0,428.25,181148,346,321396,712917,1890674510,SATISFIABLE,
glucose_run.sh+UCG-20-10p0.cnf+20859db3,0,1281.61,240592,687,920895,1693189,6221381786,UNSATISFIABLE,
glucose_run.sh+UCG-20-10p1.cnf+2093b534,0,1683.93,258372,1044,1076475,2041014,7351481284,SATISFIABLE,
glucose_run.sh+UCG-20-5p0.cnf+7824191b,0,289.55,188940,348,276036,642546,1346158723,UNSATISFIABLE,
glucose_run.sh+UCG-20-5p1.cnf+7832309c,0,142.5,162072,422,134830,606957,611431064,SATISFIABLE,
glucose_run.sh+UR-15-10p0.cnf+b46e0b99,0,298.93,174660,582,176287,725285,1184827241,UNSATISFIABLE,
glucose_run.sh+UR-15-10p1.cnf+b47c231a,0,715.82,185228,889,417564,1246138,2988719861,SATISFIABLE,
glucose_run.sh+UR-20-10p0.cnf+83e388bf,0,2730.12,265036,2264,1171849,3157708,8903982874,UNSATISFIABLE,
glucose_run.sh+UR-20-10p1.cnf+83f1a040,0,1644.27,284488,2625,806061,3031476,5319321820,SATISFIABLE,
glucose_run.sh+UR-20-5p0.cnf+73169c8f,0,393.2,201444,1434,304622,1494043,1268791622,UNSATISFIABLE,
glucose_run.sh+UTI-20-10p0.cnf+fd460e44,0,403.93,253348,3284,609815,3216920,1197364199,UNSATISFIABLE,
glucose_run.sh+UTI-20-10p1.cnf+fd5425c5,0,833.03,297776,4491,915808,4532218,1908019762,SATISFIABLE,
glucose_run.sh+UTI-20-5p1.cnf+5e48e9eb,0,705.28,234392,4336,1033707,4206212,1762233272,SATISFIABLE,
glucose_run.sh+Urq3_5.cnf+d8249417,0,8.63,22004,110,648953,827165,2552476,UNSATISFIABLE,
glucose_run.sh+Urq4_5.cnf+d0acf58,0,387.43,140164,3908,11816647,13794070,40648315,UNSATISFIABLE,
glucose_run.sh+Urq5_5.cnf+41f10a99,0,3697.12,263672
glucose_run.sh+Urq6_5.cnf+76d745da,0,3697.84,264408
glucose_run.sh+Urq7_5.cnf+abbd811b,0,3697.93,269396
glucose_run.sh+Urq8_5.cnf+e0a3bc5c,0,3697.99,279352
glucose_run.sh+VanDerWaerden_pd_2-3-20_388.cnf+c16cb4d2,0,153.17,73488,3426,2617831,3162192,72081669,SATISFIABLE,
glucose_run.sh+aaai10-planning-ipc5-TPP-21-step11.cnf+28e459f8,0,786.44,237384,2737,887667,2378795,4886713934,UNSATISFIABLE,
glucose_run.sh+aaai10-planning-ipc5-TPP-30-step11.cnf+fb5bb1a,0,30.33,302192,163,32798,929783,288120152,SATISFIABLE,
glucose_run.sh+aaai10-planning-ipc5-pathways-13-step17.cnf+c3f785c,0,306.4,116148,8931,1522150,2857520,976870808,UNSATISFIABLE,
glucose_run.sh+aaai10-planning-ipc5-pathways-17-step20.cnf+2c5841f0,0,329.79,139352,6256,1401972,2398497,1563826323,UNSATISFIABLE,
glucose_run.sh+aaai10-planning-ipc5-pathways-17-step21.cnf+2c665971,0,925.53,206716,16424,3155971,6750188,2961832947,SATISFIABLE,
glucose_run.sh+aes_24_4_keyfind_4.cnf+cab54116,0,3697.97,127392
glucose_run.sh+aes_24_4_keyfind_5.cnf+cac35897,0,3698.04,107600
glucose_run.sh+aes_32_2_keyfind_1.cnf+3a124c2e,0,3698.4,137196
glucose_run.sh+aes_32_2_keyfind_3.cnf+3a2e7b30,0,3697.74,145732
glucose_run.sh+aes_32_3_keyfind_1.cnf+93edb66f,0,1244.88,129596,1993,7116697,7472264,486553086,SATISFIABLE,
glucose_run.sh+aes_64_1_keyfind_1.cnf+c12e1df6,0,3698.72,131504
glucose_run.sh+aes_64_1_keyfind_1.cnf+cf40444c,0,3698.83,130040
glucose_run.sh+atco_enc1_opt1_03_56.cnf+43aee6a5,0,11.06,52260,795,109641,658990,58516850,SATISFIABLE,
glucose_run.sh+atco_enc1_opt1_04_32.cnf+a7ee0442,0,3330.06,177124,31055,8868874,13575850,8991937576,SATISFIABLE,
glucose_run.sh+atco_enc1_opt1_05_21.cnf+e0c4101,0,39.08,100560,2102,244016,2007153,195318254,SATISFIABLE,
glucose_run.sh+atco_enc1_opt1_10_15.cnf+996e550c,0,319.29,110012,3227,1866281,2635894,1168784877,SATISFIABLE,
glucose_run.sh+atco_enc1_opt1_10_21.cnf+9aeacfa7,0,54.83,72472,792,823235,1208808,271429733,SATISFIABLE,
glucose_run.sh+atco_enc1_opt1_15_240.cnf+ace7c985,0,87.75,93152,3322,224664,4128286,338746486,SATISFIABLE,
glucose_run.sh+atco_enc1_opt1_18_18.cnf+d8a20287,0,184.15,130884,5430,1046729,2276876,884717548,SATISFIABLE,
glucose_run.sh+atco_enc1_opt2_05_4.cnf+d3d0cb4b,0,116.51,96212,3102,873827,1499820,259166841,UNSATISFIABLE,
glucose_run.sh+atco_enc1_opt2_10_12.cnf+2e28c14a,0,193.5,61884,2445,1854451,2349127,356145256,UNSATISFIABLE,
glucose_run.sh+atco_enc1_opt2_10_14.cnf+2e44f04c,0,226.68,93168,2474,1971367,2568552,434820023,UNSATISFIABLE,
glucose_run.sh+atco_enc1_opt2_10_15.cnf+2e5307cd,0,277.97,84000,2098,2464185,3051574,445743190,UNSATISFIABLE,
glucose_run.sh+atco_enc1_opt2_10_16.cnf+2e611f4e,0,3698.71,154688
glucose_run.sh+atco_enc1_opt2_20_12.cnf+c26d304b,0,1138.19,691196,12286,4128681,5330670,2554920429,UNSATISFIABLE,
glucose_run.sh+atco_enc2_opt1_05_21.cnf+ef9e1ee0,0,35.28,93664,2053,244836,1859985,153964755,SATISFIABLE,
glucose_run.sh+atco_enc2_opt1_10_21.cnf+7c7cad86,0,280.23,97832,6054,2895008,4345077,829178773,SATISFIABLE,
glucose_run.sh+atco_enc2_opt1_15_100.cnf+c1d809c9,0,109.41,92776,4987,480052,5267689,431110954,SATISFIABLE,
glucose_run.sh+atco_enc2_opt1_20_11.cnf+f0c43e8,0,404.94,1084700,4730,1314386,1718263,1794450872,UNSATISFIABLE,
glucose_run.sh+atco_enc2_opt2_05_4.cnf+2dac358c,0,121.13,104800,2288,981174,1551457,318456751,UNSATISFIABLE,
glucose_run.sh+atco_enc2_opt2_05_9.cnf+2df2ab11,0,2031.15,211004,25857,7250836,12616514,2038294441,SATISFIABLE,
glucose_run.sh+atco_enc2_opt2_10_21.cnf+11616047,0,1384.43,157656,37465,10176717,14805222,1816703269,SATISFIABLE,
glucose_run.sh+atco_enc2_opt2_20_11.cnf+a3f0f6a9,0,326.6,662912,4219,1295664,1724004,817168016,UNSATISFIABLE,
glucose_run.sh+atco_enc3_opt1_03_53.cnf+6a85be0,0,1008.36,655216,3401,489191,1776851,7562640109,SATISFIABLE,
glucose_run.sh+atco_enc3_opt1_04_50.cnf+6e5f423c,0,847.98,853000,2408,264955,3088141,6786022062,SATISFIABLE,
glucose_run.sh+atco_enc3_opt1_13_48.cnf+997e67c7,0,1113.51,916620,1722,221791,5744722,8157023827,SATISFIABLE,
glucose_run.sh+atco_enc3_opt2_05_21.cnf+6614af80,0,326.07,842216,759,116799,809383,2718692059,SATISFIABLE,
glucose_run.sh+atco_enc3_opt2_10_12.cnf+f14c7d08,0,840.65,642468,830,316090,442050,5004276981,UNSATISFIABLE,
glucose_run.sh+atco_enc3_opt2_10_14.cnf+f168ac0a,0,969.4,644184,627,444857,609310,6184920440,UNSATISFIABLE,
glucose_run.sh+atco_enc3_opt2_18_44.cnf+35909cdf,0,613.17,695272,1737,197143,1424802,5184922183,SATISFIABLE,
glucose_run.sh+beempgsol2b1.cnf+d9b28034,0,103.53,52776,1588,968872,1636499,316558378,UNSATISFIABLE,
glucose_run.sh+beempgsol5b1.cnf+786531f7,0,72.51,53124,1158,721189,1293368,242317123,UNSATISFIABLE,
glucose_run.sh+bjrb07amba10andenv.cnf+f1d80c20,0,722.95,131172,4161,1497984,2930577,3404225682,UNSATISFIABLE,
glucose_run.sh+blocks-blocks-36-0.120-NOTKNOWN.cnf+3810276f,0,648.43,714604,580,346935,1357228,2527549686,UNSATISFIABLE,
glucose_run.sh+blocks-blocks-36-0.130-NOTKNOWN.cnf+91eb91b0,0,154.23,778936,254,67013,912678,596691420,SATISFIABLE,
glucose_run.sh+blocks-blocks-37-1.130-NOTKNOWN.cnf+3e1f4a2e,0,676.78,833072,263,172062,958525,1501048109,UNSATISFIABLE,
glucose_run.sh+bob12m02-opt.cnf+52caebe0,0,653.12,160292,51382,8066520,17627605,1211512667,UNSATISFIABLE,
glucose_run.sh+bob12m02.cnf+6b3d79fa,0,535.96,185108,38575,8637467,16228898,963726090,UNSATISFIABLE,
glucose_run.sh+bob12m04.cnf+6b59a8fc,0,90.46,357984,263,92514,35837249,215779276,UNSATISFIABLE,
glucose_run.sh+bob12m09-opt.cnf+60a9f4e7,0,175.32,75156,4125,1258708,1964902,679976734,UNSATISFIABLE,
glucose_run.sh+bob12s02.cnf+a8a2dd80,0,380.37,154828,29018,6303175,12335309,739766957,UNSATISFIABLE,
glucose_run.sh+bob12s09-opt.cnf+de06256d,0,140.47,71192,3739,1074491,1726334,480658876,UNSATISFIABLE,
glucose_run.sh+bvadd_17322.cnf+192383b2,0,52.45,335952,2411,756369,101635590,230786985,UNSATISFIABLE,
glucose_run.sh+bvadd_27079.cnf+17a02092,0,122.42,513512,3804,1185928,269085588,564875752,UNSATISFIABLE,
glucose_run.sh+bvadd_27966.cnf+f1d916b9,0,165.58,552724,1478,1768985,328832507,734109801,UNSATISFIABLE,
glucose_run.sh+bvadd_29740.cnf+5410bbb1,0,164.89,560932,5267,1407133,354670247,756608973,UNSATISFIABLE,
glucose_run.sh+bvashr_0710.cnf+a07e020c,0,804.57,251060,1550,1233580,99524404,2869265431,UNSATISFIABLE,
glucose_run.sh+bvslt_13916.cnf+696853b,0,599.55,508764,2232,317931,303572677,2192096689,UNSATISFIABLE,
glucose_run.sh+bvslt_19860.cnf+492b0549,0,1729.63,991748,3370,470588,608130805,5533884855,UNSATISFIABLE,
glucose_run.sh+bvsub_06991.cnf+84802b0f,0,184.84,221808,4919,838114,51721842,1145373216,UNSATISFIABLE,
glucose_run.sh+bvult_16967.cnf+23d66b76,0,1154.05,849604,2796,381454,459059031,3667395409,UNSATISFIABLE,
glucose_run.sh+c10bi_i.cnf+59af4e6c,0,69.46,94332,2096,606569,3763264,257896053,UNSATISFIABLE,
glucose_run.sh+ccp-s10-facto1.cnf+f2526e89,0,3697.7,235532
glucose_run.sh+ccp-s10-facto2.cnf+f260860a,0,3695.86,354352
glucose_run.sh+ccp-s10-facto3.cnf+f26e9d8b,0,3696.46,421768
glucose_run.sh+ccp-s10-facto4.cnf+f27cb50c,0,3696.58,408584
glucose_run.sh+ccp-s5-facto2.cnf+80aa22f4,0,45.14,37264,2148,2150957,3378905,34638190,UNSATISFIABLE,
glucose_run.sh+ccp-s5-facto3.cnf+80b83a75,0,807.72,156776,30617,22210405,58774744,442655293,UNSATISFIABLE,
glucose_run.sh+ccp-s5-facto4.cnf+80c651f6,0,3697.11,192896
glucose_run.sh+ccp-s6-facto2.cnf+885bc853,0,3697.8,183568
glucose_run.sh+ccp-s6-facto3.cnf+8869dfd4,0,3695.48,257516
glucose_run.sh+ccp-s6-facto4.cnf+8877f755,0,3696.37,292972
glucose_run.sh+ccp-s7-facto2.cnf+900d6db2,0,3697.68,231484
glucose_run.sh+ccp-s7-facto3.cnf+901b8533,0,3697.12,270748
glucose_run.sh+ccp-s7-facto4.cnf+90299cb4,0,3697.51,339840
glucose_run.sh+ccp-s8-facto1.cnf+97b0fb90,0,19.95,29104,1723,463446,637636,4951296,UNSATISFIABLE,
glucose_run.sh+ccp-s8-facto2.cnf+97bf1311,0,3696.8,283588
glucose_run.sh+ccp-s8-facto3.cnf+97cd2a92,0,3696.18,326068
glucose_run.sh+ccp-s8-facto4.cnf+97db4213,0,3696.77,360180
glucose_run.sh+ccp-s9-facto1.cnf+9f62a0ef,0,201.41,82408,8485,2924777,3910766,35143510,UNSATISFIABLE,
glucose_run.sh+ccp-s9-facto2.cnf+9f70b870,0,3694.68,307256
glucose_run.sh+ccp-s9-facto3.cnf+9f7ecff1,0,3696.1,373316
glucose_run.sh+ccp-s9-facto4.cnf+9f8ce772,0,3696.72,390816
glucose_run.sh+chnl10_11.cnf+41c697dc,0,191.06,75540,7559,3187932,3822376,37943312,UNSATISFIABLE,
glucose_run.sh+chnl10_12.cnf+41d4af5d,0,281.57,81916,12030,4079483,5036866,50043221,UNSATISFIABLE,
glucose_run.sh+chnl10_13.cnf+41e2c6de,0,209.95,75776,10019,3270485,4126274,42463393,UNSATISFIABLE,
glucose_run.sh+chnl11_12.cnf+a9b5dc3c,0,3072.68,162844,63232,25040654,30723925,322648274,UNSATISFIABLE,
glucose_run.sh+chnl11_13.cnf+a9c3f3bd,0,3697.95,213892
glucose_run.sh+chnl11_20.cnf+ab4e85d9,0,3697.98,210936
glucose_run.sh+complete-300-0.1-18-98765432130018.cnf+e29a8a84,0,0.56,8300,1,0,9,600,SATISFIABLE,
glucose_run.sh+complete-300-0.1-4-9876543213004.cnf+f711756,0,0.6,7028,1,0,10,600,SATISFIABLE,
glucose_run.sh+complete-300-0.1-7-9876543213007.cnf+789a831c,0,0.58,7916,1,0,9,600,SATISFIABLE,
glucose_run.sh+complete-300-0.1-8-9876543213008.cnf+4652fc5e,0,0.57,8512,1,0,10,600,SATISFIABLE,
glucose_run.sh+complete-400-0.1-12-98765432140012.cnf+320f4ac6,0,2.54,13880,1,0,10,800,SATISFIABLE,
glucose_run.sh+complete-400-0.1-16-98765432140016.cnf+d0cf0246,0,2.34,13172,1,0,11,800,SATISFIABLE,
glucose_run.sh+complete-400-0.1-3-9876543214003.cnf+e2eadbb4,0,2.26,13828,1,0,12,800,SATISFIABLE,
glucose_run.sh+complete-400-0.1-7-9876543214007.cnf+19ccc0bc,0,2.66,13244,1,0,11,800,SATISFIABLE,
glucose_run.sh+complete-500-0.1-1-9876543215001.cnf+e8ac26d0,0,8.54,22204,1,0,11,1000,SATISFIABLE,
glucose_run.sh+complete-500-0.1-15-98765432150015.cnf+a6b367e8,0,8.36,23236,1,0,12,1000,SATISFIABLE,
glucose_run.sh+complete-500-0.1-17-98765432150017.cnf+761343a8,0,10.4,24216,1,0,13,1000,SATISFIABLE,
glucose_run.sh+complete-500-0.1-7-9876543215007.cnf+bafefe5c,0,9.15,23216,1,0,12,1000,SATISFIABLE,
glucose_run.sh+complete-500-0.1-8-9876543215008.cnf+88b7779e,0,9.28,23764,1,0,12,1000,SATISFIABLE,
glucose_run.sh+connm-ue-csp-sat-n1200-d0.02-s1099787414.sat05-542.reshuffled-07.cnf+bbffe7f5,0,3697.93,194908
glucose_run.sh+contest02-ezfact64_10.sat05-449.reshuffled-07.cnf+3da25f90,0,1693.45,81584,6793,5043288,5700254,2055026149,SATISFIABLE,
glucose_run.sh+countbitssrl032.cnf+48e61190,0,342.24,67768,4101,1311040,1854414,603057062,UNSATISFIABLE,
glucose_run.sh+crafted_n10_d6_c2_num13.cnf+62851f8a,0,564.16,284056,711,1127833,1242883,1416541084,UNSATISFIABLE,
glucose_run.sh+crafted_n10_d6_c2_num16.cnf+62af660d,0,515.68,301480,1397,1032978,1151343,1123235966,UNSATISFIABLE,
glucose_run.sh+crafted_n10_d6_c2_num17.cnf+62bd7d8e,0,941.55,321000,2266,1334761,1485214,1434498898,UNSATISFIABLE,
glucose_run.sh+crafted_n10_d6_c2_num2.cnf+6e950644,0,889.37,301356,1423,1350102,1483588,1599993706,UNSATISFIABLE,
glucose_run.sh+crafted_n10_d6_c2_num4.cnf+6eb13546,0,1036.63,327388,2839,1788897,2025853,2099016358,UNSATISFIABLE,
glucose_run.sh+crafted_n10_d6_c2_num5.cnf+6ebf4cc7,0,1815.01,371344,3582,2549044,2787530,2683982096,UNSATISFIABLE,
glucose_run.sh+crafted_n10_d6_c2_num6.cnf+6ecd6448,0,639.06,282520,1887,1108766,1266420,1049880858,UNSATISFIABLE,
glucose_run.sh+crafted_n10_d6_c2_num9.cnf+6ef7aacb,0,545.17,273800,1535,903924,1031427,1013425446,UNSATISFIABLE,
glucose_run.sh+crafted_n10_d6_c3_num1.cnf+62d05fe2,0,3697.14,765324
glucose_run.sh+crafted_n10_d6_c3_num18.cnf+f7b047d0,0,3696.99,794384
glucose_run.sh+crafted_n10_d6_c3_num5.cnf+6308bde6,0,1706.36,605972,2363,2122235,2334381,2983316064,UNSATISFIABLE,
glucose_run.sh+crafted_n10_d6_c4_num3.cnf+57360003,0,3696.74,1071716
glucose_run.sh+crafted_n10_d6_c4_num8.cnf+577c7588,0,1881.2,949588,1550,1832857,2147481,3354192972,UNSATISFIABLE,
glucose_run.sh+crafted_n10_d6_c4_num9.cnf+578a8d09,0,1363.75,902900,423,1393720,1701397,3262369128,UNSATISFIABLE,
glucose_run.sh+crafted_n11_d6_c3_num17.cnf+484c0e50,0,1511.11,650732,1306,1951391,2245466,2933595985,UNSATISFIABLE,
glucose_run.sh+crafted_n11_d6_c4_num1.cnf+38abaee0,0,3696.86,1158008
glucose_run.sh+crafted_n11_d6_c4_num18.cnf+dd3ed892,0,3696.06,1198468
glucose_run.sh+crafted_n11_d6_c4_num19.cnf+dd4cf013,0,2477.02,1104036,823,2345766,2755988,5122038550,UNSATISFIABLE,
glucose_run.sh+crafted_n11_d6_c4_num21.cnf+de910caa,0,3576.47,1085468,2338,3218411,3798570,5838509451,UNSATISFIABLE,
glucose_run.sh+crafted_n12_d5_c4_num6.cnf+2c00fbc3,0,446.36,403432,1897,569013,1145260,581950520,UNSATISFIABLE,
glucose_run.sh+crafted_n12_d6_c3_num10.cnf+989347ca,0,3695.74,1144200
glucose_run.sh+crafted_n12_d6_c3_num16.cnf+98e7d4d0,0,1465.38,793380,1953,1601433,1967521,2217721751,UNSATISFIABLE,
glucose_run.sh+crafted_n12_d6_c4_num11.cnf+2d86120c,0,3696.21,1507976
glucose_run.sh+crafted_n12_d6_c4_num18.cnf+2de8b693,0,3696.41,1669908
glucose_run.sh+crafted_n12_d6_c4_num20.cnf+2f2cd32a,0,3696.02,1519012
glucose_run.sh+crafted_n12_d6_c4_num22.cnf+2f49022c,0,3695.42,1546916
glucose_run.sh+crafted_n12_d6_c4_num23.cnf+2f5719ad,0,3696.9,1746376
glucose_run.sh+crafted_n12_d6_c4_num4.cnf+1a67d342,0,3696.54,1529632
glucose_run.sh+crafted_n12_d6_c4_num6.cnf+1a840244,0,3696.56,1415260
glucose_run.sh+crafted_n12_d6_c4_num9.cnf+1aae48c7,0,3696.39,1949264
glucose_run.sh+crn_20_361_s.cnf+65d23304,0,768.15,256564,12052,12051613,18406575,427231098,SATISFIABLE,
glucose_run.sh+ctl_3082_415_unsat_pre.cnf+c220acb1,0,494.13,93688,2562,4368831,4970751,1739657536,UNSATISFIABLE,
glucose_run.sh+ctl_3791_556_unsat_pre.cnf+365ea2ea,0,2002.01,256016,12671,25005050,29116529,2670652269,UNSATISFIABLE,
glucose_run.sh+ctl_4291_567_5_unsat_pre.cnf+eeafba1a,0,3697.95,269604
glucose_run.sh+dated-10-11-u.cnf+375d12d8,0,451.85,170676,4595,1190594,1738316,878300558,UNSATISFIABLE,
glucose_run.sh+dated-10-13-u.cnf+a129895a,0,439.05,134652,2354,876704,1163143,910126907,UNSATISFIABLE,
glucose_run.sh+dated-10-17-u.cnf+74c2765e,0,2592.19,246508,28793,7816645,10538403,4362102732,UNSATISFIABLE,
glucose_run.sh+dated-5-13-u.cnf+6f0b347a,0,3372.09,199220,29059,10180845,12260930,5292773392,UNSATISFIABLE,
glucose_run.sh+dimacs.cnf+8591c12a,0,3697.21,141092
glucose_run.sh+edges-024-4-10183999-1-00.cnf+467b1b69,0,3697.75,135084
glucose_run.sh+edges-024-4-1208111-1-00.cnf+50dd958f,0,3696.83,139580
glucose_run.sh+edges-024-4-5613555-1-00.cnf+bb608425,0,3698.16,138292
glucose_run.sh+edges-024-4-5667555-1-00.cnf+dec18e44,0,3697.86,158100
glucose_run.sh+edges-024-4-7787777-1-00.cnf+e13bd9ff,0,3699.15,168564
glucose_run.sh+edges-024-4-7880777-1-00.cnf+b58216b9,0,3698.35,140564
glucose_run.sh+edges-025-4-10062999-1-00.cnf+46fa0cea,0,3697.84,131436
glucose_run.sh+edges-025-4-10106999-1-00.cnf+faed775,0,3696.92,128668
glucose_run.sh+edges-025-4-10169999-1-00.cnf+266aa4b2,0,3698.57,134684
glucose_run.sh+edges-025-4-1237111-1-00.cnf+ef95c24a,0,3698.2,136032
glucose_run.sh+edges-025-4-3369333-1-00.cnf+b0f3e4a6,0,3696.48,151108
glucose_run.sh+edges-025-4-5714555-1-00.cnf+eb60cb46,0,3698.5,138640
glucose_run.sh+edges-025-4-7780777-1-00.cnf+434882d7,0,3698.56,129312
glucose_run.sh+edges-025-4-7932777-1-00.cnf+6ab07440,0,3698.72,134308
glucose_run.sh+edges-025-4-7957777-1-00.cnf+d6fb2803,0,3698.37,135532
glucose_run.sh+edges-070-3-10037999-34.cnf+59ce4eac,0,1692.0,136044,4680,11903512,13039330,198687955,UNSATISFIABLE,
glucose_run.sh+edges-070-3-10062999-36.cnf+8887f006,0,3698.62,158956
glucose_run.sh+edges-070-3-10122999-15.cnf+54cc984c,0,3698.78,148452
glucose_run.sh+edges-070-3-1226111-26.cnf+b9c383dd,0,2421.27,165040,5734,13959304,15537514,259037141,UNSATISFIABLE,
glucose_run.sh+edges-070-3-1250111-33.cnf+5506d590,0,995.31,103108,4556,8777060,10155210,152844035,UNSATISFIABLE,
glucose_run.sh+edges-070-3-3470333-15.cnf+e2bc5850,0,680.97,98944,1291,6819311,7617393,118422396,UNSATISFIABLE,
glucose_run.sh+edges-070-3-7857777-1.cnf+f6fc5ada,0,3698.27,166456
glucose_run.sh+edges-072-3-1124111-35.cnf+2c419d36,0,2949.44,166148,6752,17522452,19365598,303141785,UNSATISFIABLE,
glucose_run.sh+edges-072-3-1131111-37.cnf+75615954,0,3697.27,155180
glucose_run.sh+edges-072-3-1161111-15.cnf+88f06931,0,3284.01,164156,5649,17311812,19117330,304207382,UNSATISFIABLE,
glucose_run.sh+edges-072-3-5729555-15.cnf+f194eb3b,0,3698.23,154364
glucose_run.sh+edges-072-3-5749555-14.cnf+ea1e78,0,3696.7,155424
glucose_run.sh+edges-072-3-7902777-18.cnf+51babdf7,0,3698.45,161844
glucose_run.sh+edges-072-3-7923777-13.cnf+f5bc45f1,0,3698.16,162296
glucose_run.sh+edges-072-3-7925777-19.cnf+1fda3879,0,3698.29,157580
glucose_run.sh+em_14_7_3_cmp.cnf+6e4e7864,0,3696.67,954288
glucose_run.sh+em_7_3_6_cmp.cnf+ccabd295,0,3697.9,203416
glucose_run.sh+em_7_4_8_cmp.cnf+8a196358,0,1033.08,123972,6275,2903078,4173062,430610312,SATISFIABLE,
glucose_run.sh+em_7_4_8_fbc.cnf+154f94b9,0,420.78,95592,3245,1628072,2238992,266893126,SATISFIABLE,
glucose_run.sh+em_7_4_9_all.cnf+b2a42534,0,1.05,12052,130,33345,83918,3155255,SATISFIABLE,
glucose_run.sh+em_7_4_9_fbc.cnf+a99403ba,0,6.88,20344,387,105953,193658,14621018,SATISFIABLE,
glucose_run.sh+esawn_uw3.debugged.cnf+bf056c46,0,213.76,7073512,21,4262,18869020,1050501580,SATISFIABLE,
glucose_run.sh+ezfact64_3.sat05-450.reshuffled-07.cnf+d606381d,0,191.7,51440,1562,972054,1148784,398371867,SATISFIABLE,
glucose_run.sh+ezfact64_4.sat05-451.reshuffled-07.cnf+cd007e5f,0,798.37,66784,4258,2855595,3282896,1142011930,SATISFIABLE,
glucose_run.sh+ezfact64_5.sat05-452.reshuffled-07.cnf+c3fac4a1,0,1683.12,97412,6962,4964506,5619416,2115950451,SATISFIABLE,
glucose_run.sh+fpga10_11_uns_rcr.cnf+8ace9c19,0,104.14,52488,4161,2223578,2661897,26292754,UNSATISFIABLE,
glucose_run.sh+fpga10_12_uns_rcr.cnf+7951a29a,0,192.65,78376,7250,3258654,3970833,40628887,UNSATISFIABLE,
glucose_run.sh+fpga10_13_uns_rcr.cnf+67d4a91b,0,172.12,72324,4579,2891934,3491413,39051600,UNSATISFIABLE,
glucose_run.sh+fpga10_15_uns_rcr.cnf+44dab61d,0,294.36,81624,9410,3830128,4831216,56308043,UNSATISFIABLE,
glucose_run.sh+fpga10_20_uns_rcr.cnf+7e295f37,0,105.59,56708,1354,2012017,2374406,40733364,UNSATISFIABLE,
glucose_run.sh+fpga10_8_sat.cnf+b483553d,0,0.0,1400,2,1521,1874,12295,SATISFIABLE,
glucose_run.sh+fpga10_9_sat.cnf+48c7c43e,0,0.01,1400,6,3230,4346,27849,SATISFIABLE,
glucose_run.sh+fpga11_12_uns_rcr.cnf+5ae38079,0,2641.99,160136,52766,24062379,29426605,312187731,UNSATISFIABLE,
glucose_run.sh+fpga11_13_uns_rcr.cnf+496686fa,0,3698.61,219484
glucose_run.sh+fpga11_14_uns_rcr.cnf+37e98d7b,0,3698.0,216428
glucose_run.sh+fpga11_15_uns_rcr.cnf+266c93fc,0,3698.01,215624
glucose_run.sh+fpga11_20_uns_rcr.cnf+5fbb3d16,0,3698.0,183680
glucose_run.sh+fpga12_11_sat.cnf+16eb5621,0,0.01,1500,3,2432,3076,26445,SATISFIABLE,
glucose_run.sh+fpga12_12_sat.cnf+ab2fc522,0,0.0,1400,3,1014,1369,13031,SATISFIABLE,
glucose_run.sh+fpga12_8_sat.cnf+de4cbabf,0,0.03,1408,3,4473,5342,36841,SATISFIABLE,
glucose_run.sh+fpga12_9_sat.cnf+729129c0,0,0.01,1400,3,2138,2716,20046,SATISFIABLE,
glucose_run.sh+fpga13_10_sat.cnf+8a588c7f,0,0.02,1668,2,2976,3599,30625,SATISFIABLE,
glucose_run.sh+fpga13_12_sat.cnf+b2e16a81,0,0.01,1404,2,1845,2341,22950,SATISFIABLE,
glucose_run.sh+fpga13_9_sat.cnf+775dc81,0,0.01,1400,2,1639,2051,14684,SATISFIABLE,
glucose_run.sh+frb45-21-1.used-as.sat04-883.cnf+34d252,0,3696.87,179476
glucose_run.sh+frb80-14-2.used-as.sat04-880.cnf+c61e261d,0,3701.09,163732
glucose_run.sh+fsf-300-354-2-2-3-2.58.opt.cnf+97ce7e40,0,3698.27,161348
glucose_run.sh+fsf-300-354-2-2-3-2.89.opt.cnf+8ef409e,0,3698.47,164984
glucose_run.sh+fsf-300-354-2-2-3-2.94.opt.cnf+17e286b8,0,3697.71,192564
glucose_run.sh+fsf-300-354-2-2-3-2.95.opt.cnf+ac26f5b9,0,3697.82,183156
glucose_run.sh+grid-strips-grid-y-3.035-NOTKNOWN.cnf+2b4caa6f,0,180.37,327772,158,47826,425469,841737643,UNSATISFIABLE,
glucose_run.sh+grid-strips-grid-y-3.055-NOTKNOWN.cnf+df037ef1,0,307.04,553316,236,79033,935839,1301442756,SATISFIABLE,
glucose_run.sh+grid-strips-grid-y-3.065-SAT.cnf+a9714f9e,0,199.56,513964,143,46338,732662,769408979,SATISFIABLE,
glucose_run.sh+grieu-vmpc-31.cnf+c03e221b,0,2067.52,150032,63523,12177828,24959350,1747117826,SATISFIABLE,
glucose_run.sh+gss-18-s100.cnf+67327d77,0,459.17,44996,129,444237,480686,1952836849,SATISFIABLE,
glucose_run.sh+gss-19-s100.cnf+5b7bee96,0,525.45,44700,240,455226,484973,2541159851,SATISFIABLE,
glucose_run.sh+gss-20-s100.cnf+59cba740,0,1106.96,56548,332,914022,974532,4882069596,SATISFIABLE,
glucose_run.sh+gss-22-s100.cnf+425e897e,0,3698.33,91788
glucose_run.sh+gss-23-s100.cnf+36a7fa9d,0,3001.03,93512,840,2351957,2495913,11497131187,SATISFIABLE,
glucose_run.sh+gss-24-s100.cnf+2af16bbc,0,3698.86,131604
glucose_run.sh+gss-25-s100.cnf+1f3adcdb,0,3698.09,128280
glucose_run.sh+gus-md5-04.cnf+be0bf53f,0,1.61,49040,3,522,2718,3806732,UNSATISFIABLE,
glucose_run.sh+gus-md5-05.cnf+be1a0cc0,0,4.24,47796,2,1701,3717,11151443,UNSATISFIABLE,
glucose_run.sh+gus-md5-06.cnf+be282441,0,15.07,48700,7,5856,9402,41979458,UNSATISFIABLE,
glucose_run.sh+gus-md5-07.cnf+be363bc2,0,56.9,50812,24,25211,32561,147821686,UNSATISFIABLE,
glucose_run.sh+gus-md5-09.cnf+be526ac4,0,758.13,132256,704,369398,404433,2067513072,UNSATISFIABLE,
glucose_run.sh+gus-md5-10.cnf+bf886fda,0,2094.1,142600,2421,1341260,1510337,5256268190,UNSATISFIABLE,
glucose_run.sh+gus-md5-11.cnf+bf96875b,0,3698.33,197200
glucose_run.sh+gus-md5-12.cnf+bfa49edc,0,3698.94,209236
glucose_run.sh+gus-md5-14.cnf+bfc0cdde,0,3697.93,216228
glucose_run.sh+gus-md5-15.cnf+bfcee55f,0,3696.53,216992
glucose_run.sh+gus-md5-16.cnf+bfdcfce0,0,3697.48,184808
glucose_run.sh+hid-uns-enc-6-1-0-0-0-0-19851.cnf+4d43be4c,0,667.37,112712,15810,3204312,5682958,480381721,UNSATISFIABLE,
glucose_run.sh+hid-uns-enc-6-1-0-0-0-0-26462.cnf+d80ea9cc,0,1050.81,123404,26266,4051404,8623393,549652795,UNSATISFIABLE,
glucose_run.sh+hid-uns-enc-6-1-0-0-0-0-26808.cnf+a1bf101c,0,358.57,77632,9549,2184649,3848968,326040202,UNSATISFIABLE,
glucose_run.sh+hid-uns-enc-6-1-0-0-0-0-2907.cnf+4c4fef68,0,615.85,115628,14578,3328689,5891600,491527657,UNSATISFIABLE,
glucose_run.sh+hid-uns-enc-6-1-0-0-0-0-31380.cnf+33547f6d,0,628.22,111396,12425,2602809,4663538,408732154,UNSATISFIABLE,
glucose_run.sh+hid-uns-enc-6-1-0-0-0-0-3191.cnf+1c0652d0,0,735.93,121104,15970,3778872,6738387,544459682,UNSATISFIABLE,
glucose_run.sh+hid-uns-enc-6-1-0-0-0-0-3251.cnf+4a192b95,0,450.75,105196,12717,2514104,4682382,367127321,UNSATISFIABLE,
glucose_run.sh+hid-uns-enc-7-1-0-0-0-0-11545.cnf+7aa42077,0,3697.68,286076
glucose_run.sh+hid-uns-enc-7-1-0-0-0-0-3557.cnf+d0c240bd,0,3698.27,273144
glucose_run.sh+hid-uns-enc-9-1-0-0-0-0-24642.cnf+9479f5d5,0,3697.92,433536
glucose_run.sh+hitag2-10-60-0-0x0ffdbe60727f161-57.cnf+28a93b35,0,3495.01,153208,4039,10828217,11214805,2089569343,UNSATISFIABLE,
glucose_run.sh+hitag2-10-60-0-0x8edc44db7837bbf-65.cnf+e8fdfa2c,0,3692.12,157432,4033,11484696,11939714,2496147009,UNSATISFIABLE,
glucose_run.sh+hitag2-10-60-0-0xe14721bd199894a-99.cnf+4d7f7c95,0,3696.88,153668
glucose_run.sh+hitag2-10-60-0-0xe6754daf48162bf-46.cnf+59e9fbbd,0,3698.84,148504
glucose_run.sh+hitag2-10-60-0-0xfee9637399d85a2-78.cnf+7459579f,0,3697.39,157604
glucose_run.sh+hitag2-7-60-0-0xe8fa35372ed37e2-80.cnf+f08f8286,0,3697.37,142784
glucose_run.sh+hitag2-8-60-0-0x1eb82244d7f1c3c-47.cnf+821b62b5,0,3697.67,144060
glucose_run.sh+hitag2-8-60-0-0xdcdbc8bf368ee73-37.cnf+cc06cc86,0,3697.77,143464
glucose_run.sh+hitag2-8-60-0-0xfba1a41b5dfd7f7-52.cnf+ba2675cf,0,3698.75,141636
glucose_run.sh+hole002.cnf+8422a0a4,0,0.0,1404,0,0,0,0,UNSATISFIABLE,
glucose_run.sh+hole003.cnf+8430b825,0,0.0,1404,1,7,7,27,UNSATISFIABLE,
glucose_run.sh+hole004.cnf+843ecfa6,0,0.0,1400,1,30,34,133,UNSATISFIABLE,
glucose_run.sh+hole005.cnf+844ce727,0,0.0,1404,1,145,175,802,UNSATISFIABLE,
glucose_run.sh+hole006.cnf+845afea8,0,0.0,1400,2,939,1147,6670,UNSATISFIABLE,
glucose_run.sh+hole007.cnf+84691629,0,0.06,1412,28,7516,9061,60318,UNSATISFIABLE,
glucose_run.sh+hole008.cnf+84772daa,0,1.29,6412,193,60153,71697,537866,UNSATISFIABLE,
glucose_run.sh+hole009.cnf+8485452b,0,8.85,21460,802,310577,369785,3222363,UNSATISFIABLE,
glucose_run.sh+hole010.cnf+85bb4a41,0,159.96,55072,6767,2862545,3444113,34044727,UNSATISFIABLE,
glucose_run.sh+hole010_shuffled.cnf+99e40981,0,106.73,56204,3728,2347511,2785420,27666158,UNSATISFIABLE,
glucose_run.sh+hole011.cnf+85c961c2,0,3037.6,169856,57777,24606889,30037486,314836852,UNSATISFIABLE,
glucose_run.sh+hole011_shuffled.cnf+7bc1d320,0,3154.32,168804,64793,26551578,32587107,341834476,UNSATISFIABLE,
glucose_run.sh+hole012.cnf+85d77943,0,3697.35,237000
glucose_run.sh+hole012_shuffled.cnf+5d9f9cbf,0,3697.22,241528
glucose_run.sh+hole013.cnf+85e590c4,0,3698.16,271200
glucose_run.sh+hole013_shuffled.cnf+3f7d665e,0,3695.46,287232
glucose_run.sh+hole014.cnf+85f3a845,0,3697.77,313604
glucose_run.sh+hole014_shuffled.cnf+215b2ffd,0,3697.41,328760
glucose_run.sh+hole015.cnf+8601bfc6,0,3696.75,339712
glucose_run.sh+hole015_shuffled.cnf+338f99c,0,3697.5,362096
glucose_run.sh+hole016_shuffled.cnf+e516c33b,0,3696.43,378644
glucose_run.sh+hole017_shuffled.cnf+c6f48cda,0,3695.65,392896
glucose_run.sh+hole018_shuffled.cnf+a8d25679,0,3697.23,431164
glucose_run.sh+hole019_shuffled.cnf+8ab02018,0,3695.87,274692
glucose_run.sh+hole020.cnf+877022e0,0,3695.52,296560
glucose_run.sh+hole020_shuffled.cnf+f3bf73c2,0,3693.85,281908
glucose_run.sh+hole030.cnf+8924fb7f,0,3695.2,342664
glucose_run.sh+hole030_shuffled.cnf+4d9ade03,0,3693.14,345948
glucose_run.sh+hwmcc10-timeframe-expansion-k45-pdtpmsgoodbakery-tseitin.cnf+fc980229,0,182.99,108764,5061,816693,2224524,671182992,UNSATISFIABLE,
glucose_run.sh+hwmcc10-timeframe-expansion-k45-pdtvisns3p02-tseitin.cnf+d9724dfa,0,3698.46,264144
glucose_run.sh+hwmcc10-timeframe-expansion-k50-pdtpmsns2-tseitin.cnf+24bdb707,0,365.47,154028,7581,1290329,3468215,1117823201,UNSATISFIABLE,
glucose_run.sh+hwmcc10-timeframe-expansion-k50-pdtvisns3p00-tseitin.cnf+2c7eb21e,0,3697.64,271144
glucose_run.sh+instance_n8_i8_pp_ci_ce.cnf+de38e9b8,0,52.01,79512,2985,582245,1801406,206034137,SATISFIABLE,
glucose_run.sh+instance_n8_i9_pp.cnf+a469bdfb,0,214.74,131488,6832,1825111,4763822,615146571,SATISFIABLE,
glucose_run.sh+itox_vc1130.cnf+f2285b2e,0,1.09,85120,9,4678,66011,1412121,SATISFIABLE,
glucose_run.sh+jkkk-one-one-10-34-sat.cnf+c3ea2cf1,0,44.71,108892,1051,308951,867746,107936385,SATISFIABLE,
glucose_run.sh+jkkk-random-132906006148277-10-10-34-SUM-sat.cnf+4a752f82,0,1155.31,318464,4681,1623256,3365733,3206266454,SATISFIABLE,
glucose_run.sh+jkkk-random-132906006427000-10-10-35-OR-sat.cnf+e8ceff1,0,1405.13,358432,7098,2012143,5603864,3177136321,SATISFIABLE,
glucose_run.sh+jkkk-random-132906006427000-10-10-36-SUM-sat.cnf+9e8512aa,0,513.22,274912,3473,825664,2938841,1704837414,SATISFIABLE,
glucose_run.sh+jkkk-random-132906006493326-10-10-35-OR-sat.cnf+f30ed183,0,739.53,317768,3494,1246234,3223403,1740762113,SATISFIABLE,
glucose_run.sh+k2fix_gr_rcs_w9.shuffled.cnf+c36eb718,0,15.4,55232,276,319517,379967,25394887,UNSATISFIABLE,
glucose_run.sh+korf-17.cnf+4c9234b4,0,385.92,72704,6181,2469662,3398630,589018579,UNSATISFIABLE,
glucose_run.sh+korf-18.cnf+4ca04c35,0,3697.74,200424
glucose_run.sh+logistics.a.cnf+eedd305f,0,0.0,1400,1,62,494,2726,SATISFIABLE,
glucose_run.sh+logistics.b.cnf+eeeb47e0,0,0.0,1400,1,227,1319,9547,SATISFIABLE,
glucose_run.sh+logistics.c.cnf+eef95f61,0,0.0,3868,1,152,1142,7982,SATISFIABLE,
glucose_run.sh+logistics.d.cnf+ef0776e2,0,0.03,4660,1,33,457,12897,SATISFIABLE,
glucose_run.sh+manol-pipe-c10nid_i.cnf+69927b93,0,111.94,153824,3060,962568,7154187,448046243,UNSATISFIABLE,
glucose_run.sh+manol-pipe-c10nidw.cnf+910315a8,0,194.52,261500,4058,1109062,9161485,662562363,UNSATISFIABLE,
glucose_run.sh+manol-pipe-c10nidw_s.cnf+b0f624dc,0,7.88,240152,235,59879,533372,22479453,UNSATISFIABLE,
glucose_run.sh+manol-pipe-c8nidw.cnf+85d015e5,0,56.87,159280,1745,524731,3901875,227533031,UNSATISFIABLE,
glucose_run.sh+manol-pipe-g10bid_i.cnf+9523dd03,0,115.33,167524,2907,945605,7250014,422750169,UNSATISFIABLE,
glucose_run.sh+maxxor032.cnf+b9eb0871,0,106.06,74888,6090,1242169,2673805,210619955,UNSATISFIABLE,
glucose_run.sh+minandmaxor128.cnf+c11dff6,0,3697.36,388236
glucose_run.sh+minxor128.cnf+5a0f2787,0,143.2,144528,10230,1475479,9421453,255852907,UNSATISFIABLE,
glucose_run.sh+minxorminand064.cnf+72abd899,0,121.98,136260,4132,861200,3347072,162111034,UNSATISFIABLE,
glucose_run.sh+mod2-rand3bip-sat-230-2.sat05-2189.reshuffled-07.cnf+c4244c4e,0,406.43,75596,37,3133295,3253453,173434233,SATISFIABLE,
glucose_run.sh+mod2-rand3bip-sat-230-2.sat05-2189.reshuffled-07.cnf+f013d003,0,379.5,75588,37,3133295,3253453,173434233,SATISFIABLE,
glucose_run.sh+mod2-rand3bip-sat-270-1.sat05-2248.reshuffled-07.cnf+872d4eac,0,3698.25,180632
glucose_run.sh+mod2-rand3bip-sat-270-1.shuffled-as.sat05-2248.cnf+389bc4de,0,3698.64,194048
glucose_run.sh+mod2-rand3bip-sat-270-2.sat05-2249.reshuffled-07.cnf+55845c0c,0,3698.69,151076
glucose_run.sh+mod2-rand3bip-sat-280-1.sat05-2263.reshuffled-07.cnf+cff4cea6,0,3698.82,164132
glucose_run.sh+mod2c-rand3bip-sat-240-3.shuffled-as.sat05-2520.cnf+b83a88ad,0,422.25,83388,579,3365769,3495298,186273567,SATISFIABLE,
glucose_run.sh+mod2c-rand3bip-sat-240-3.shuffled-as.sat05-2520.cnf+c753d702,0,401.17,83476,579,3365769,3495298,186273567,SATISFIABLE,
glucose_run.sh+mod2c-rand3bip-sat-250-1.shuffled-as.sat05-2533.cnf+ed606152,0,1951.68,156964,1057,9712400,10055639,577314030,SATISFIABLE,
glucose_run.sh+mod2c-rand3bip-sat-250-3.shuffled-as.sat05-2535.cnf+cf1e9f12,0,1923.4,156716,774,8967246,9286471,435966946,SATISFIABLE,
glucose_run.sh+mrpp_4x4#4_24.cnf+80d64851,0,0.09,7896,14,4147,68023,332911,SATISFIABLE,
glucose_run.sh+mrpp_4x4#6_12.cnf+4ec79a6e,0,0.05,3076,11,4012,30692,176838,SATISFIABLE,
glucose_run.sh+mrpp_4x4#6_20.cnf+5060440b,0,0.18,6216,54,14538,146486,830517,SATISFIABLE,
glucose_run.sh+mrpp_4x4#6_6.cnf+3c9e7143,0,0.02,1712,8,2500,6763,65376,SATISFIABLE,
glucose_run.sh+mrpp_4x4#8_12.cnf+1e89f42c,0,0.2,4912,90,18235,81519,813578,SATISFIABLE,
glucose_run.sh+mrpp_4x4#8_16.cnf+1ec25230,0,0.24,5056,68,20218,127450,1029691,SATISFIABLE,
glucose_run.sh+mrpp_4x4#8_24.cnf+205afbcd,0,0.52,8268,142,37750,329084,2393616,SATISFIABLE,
glucose_run.sh+mrpp_4x4#8_7.cnf+a678ff46,0,0.05,2288,25,5187,11782,204917,SATISFIABLE,
glucose_run.sh+mrpp_6x6#10_10.cnf+18fb7a59,0,0.21,8156,62,15898,123692,827185,SATISFIABLE,
glucose_run.sh+mrpp_6x6#10_12.cnf+1917a95b,0,0.46,9764,101,33539,290592,1983717,SATISFIABLE,
glucose_run.sh+mrpp_6x6#10_20.cnf+1ab052f8,0,11.85,29364,2496,437890,5346443,42479810,SATISFIABLE,
glucose_run.sh+mrpp_6x6#12_20.cnf+ea72acb6,0,14.8,30272,3154,535906,5683445,47725790,SATISFIABLE,
glucose_run.sh+mrpp_6x6#12_9.cnf+41c10dbb,0,0.44,7552,168,30665,148340,1708168,SATISFIABLE,
glucose_run.sh+mrpp_6x6#14_12.cnf+b89c5cd7,0,1.17,11380,404,77964,444404,4121485,SATISFIABLE,
glucose_run.sh+mrpp_6x6#16_16.cnf+88971499,0,11.26,29376,2549,433009,2667460,32966260,SATISFIABLE,
glucose_run.sh+mrpp_6x6#18_12.cnf+58211053,0,10.26,30004,2560,360145,1453255,24352612,SATISFIABLE,
glucose_run.sh+mrpp_8x8#10_9.cnf+cfeac435,0,0.42,10892,135,24676,224690,1650056,SATISFIABLE,
glucose_run.sh+mrpp_8x8#16_10.cnf+8f11fa17,0,0.88,12552,269,46061,237215,2860685,SATISFIABLE,
glucose_run.sh+mrpp_8x8#16_11.cnf+8f201198,0,1.03,15508,282,50612,356064,3538740,SATISFIABLE,
glucose_run.sh+mrpp_8x8#16_12.cnf+8f2e2919,0,2.93,19060,774,138373,1009596,10524367,SATISFIABLE,
glucose_run.sh+mrpp_8x8#16_16.cnf+8f66871d,0,46.67,62184,7445,1297814,8922129,110844707,SATISFIABLE,
glucose_run.sh+mrpp_8x8#18_14.cnf+5f0cb1d9,0,25.51,49388,4793,766537,4256300,62511009,SATISFIABLE,
glucose_run.sh+mrpp_8x8#20_24.cnf+b5fc9281,0,2414.12,262188,132623,22389430,146056384,2264045807,SATISFIABLE,
glucose_run.sh+mrpp_8x8#22_11.cnf+83dfcd1d,0,25.45,37452,3362,494755,1376898,46761525,SATISFIABLE,
glucose_run.sh+mrpp_8x8#22_20.cnf+85868e3b,0,657.37,163544,51379,8915717,53037641,819666770,SATISFIABLE,
glucose_run.sh+mrpp_8x8#22_24.cnf+85beec3f,0,3697.32,279624
glucose_run.sh+mrpp_8x8#24_11.cnf+53a226db,0,23.36,46088,3630,491822,1382127,37852847,UNSATISFIABLE,
glucose_run.sh+mrpp_8x8#24_12.cnf+53b03e5c,0,73.9,65656,8814,1141509,3882263,103778403,SATISFIABLE,
glucose_run.sh+mrpp_8x8#24_14.cnf+53cc6d5e,0,190.42,125164,21295,2925715,12793780,256231501,SATISFIABLE,
glucose_run.sh+mrpp_8x8#24_20.cnf+5548e7f9,0,1586.06,222328,95006,14500278,82503834,1410879109,SATISFIABLE,
glucose_run.sh+ndist.b.20499.cnf+c35f59c7,0,1.18,124292,1,0,1,10,SATISFIABLE,
glucose_run.sh+ndist.b.20998.cnf+cbd06a8b,0,1.14,125876,1,0,1,7,SATISFIABLE,
glucose_run.sh+ndist.b.22495.cnf+92e95581,0,1.21,127636,1,0,1,10,SATISFIABLE,
glucose_run.sh+ndist.b.22994.cnf+9b5a6645,0,1.25,133168,1,0,1,10,SATISFIABLE,
glucose_run.sh+ndist.b.23992.cnf+31f6422,0,1.3,138228,1,0,1,7,SATISFIABLE,
glucose_run.sh+ndist.b.24491.cnf+6273513b,0,1.29,141276,1,0,1,10,SATISFIABLE,
glucose_run.sh+ndist.b.25489.cnf+c9106183,0,1.42,149604,1,0,1,10,SATISFIABLE,
glucose_run.sh+ndist.b.26487.cnf+30d55f60,0,1.56,155060,1,0,1,10,SATISFIABLE,
glucose_run.sh+ndist.b.27485.cnf+989a5d3d,0,1.6,161248,1,0,1,7,SATISFIABLE,
glucose_run.sh+ndist.b.29481.cnf+682458f7,0,1.59,174420,1,0,1,7,SATISFIABLE,
glucose_run.sh+openstacks-p30_3.085-SAT.cnf+3af91682,0,4.34,200448,6,3207,34541,1857333,SATISFIABLE,
glucose_run.sh+openstacks-sequencedstrips-nonadl-nonnegated-os-sequencedstrips-p30_1.025-NOTKNOWN.cnf+72a77f04,0,3697.11,794548
glucose_run.sh+openstacks-sequencedstrips-nonadl-nonnegated-os-sequencedstrips-p30_3.025-NOTKNOWN.cnf+fbcb4342,0,3697.75,726476
glucose_run.sh+openstacks-sequencedstrips-nonadl-nonnegated-os-sequencedstrips-p30_3.085-SAT.cnf+79519248,0,4.35,201152,6,3207,34541,1857333,SATISFIABLE,
glucose_run.sh+partial-10-11-s.cnf+31b04b61,0,722.23,304864,4649,597234,4489251,1317910080,SATISFIABLE,
glucose_run.sh+partial-10-17-s.cnf+6f15aee7,0,3697.62,529300
glucose_run.sh+partial-5-15-s.cnf+d04b770f,0,130.4,190468,1345,147817,1347221,348295715,SATISFIABLE,
glucose_run.sh+partial-5-17-s.cnf+3a17ed91,0,680.27,281932,7106,727150,6085929,1758481792,SATISFIABLE,
glucose_run.sh+pb_300_10_lb_07.cnf+9f260602,0,61.41,130732,2700,435478,1177810,255041318,UNSATISFIABLE,
glucose_run.sh+pb_300_10_lb_08.cnf+9f341d83,0,91.19,119064,3577,614051,1722391,355554374,UNSATISFIABLE,
glucose_run.sh+post-c32s-ss-8.cnf+f875d65b,0,91.97,56852,3960,981354,5546062,448268954,UNSATISFIABLE,
glucose_run.sh+post-cbmc-aes-d-r2-noholes.cnf+363b0958,0,74.04,182596,5101,1531400,3172374,77483249,UNSATISFIABLE,
glucose_run.sh+post-cbmc-aes-d-r2.cnf+73a9013,0,75.84,183516,5754,1636577,3406568,82325815,UNSATISFIABLE,
glucose_run.sh+post-cbmc-aes-ee-r2-noholes.cnf+ce792f02,0,76.95,191188,5613,1608993,3304440,66123039,UNSATISFIABLE,
glucose_run.sh+post-cbmc-zfcp-2.8-u2.cnf+b76f0630,0,21.78,4854800,1,65,3422042,76275664,SATISFIABLE,
glucose_run.sh+prime2209-98.cnf+a07a1187,0,0.7,69116,7,7224,29653,850575,SATISFIABLE,
glucose_run.sh+q_query_3_L100_coli.sat.cnf+b1dad223,0,55.94,204200,2456,554314,975762,263544481,UNSATISFIABLE,
glucose_run.sh+q_query_3_L150_coli.sat.cnf+7323e568,0,42.18,339996,1831,351270,716479,172004949,UNSATISFIABLE,
glucose_run.sh+q_query_3_L200_coli.sat.cnf+936cb002,0,66.42,470332,2391,518260,990216,264513950,UNSATISFIABLE,
glucose_run.sh+q_query_3_L80_coli.sat.cnf+5b170d0e,0,45.29,160312,1911,448734,770433,193843615,UNSATISFIABLE,
glucose_run.sh+q_query_3_L90_coli.sat.cnf+b4f2774f,0,30.89,185068,1445,299320,542746,138829720,UNSATISFIABLE,
glucose_run.sh+q_query_3_l45_lambda.cnf+f9fd4b2b,0,124.49,50832,4315,1185625,1727767,233246172,UNSATISFIABLE,
glucose_run.sh+q_query_3_l46_lambda.cnf+1aef08a,0,114.79,51832,4864,1215332,1781761,239882717,UNSATISFIABLE,
glucose_run.sh+q_query_3_l48_lambda.cnf+11123b48,0,99.23,52904,3810,1162147,1680463,232062096,UNSATISFIABLE,
glucose_run.sh+rbcl_xits_08_UNSAT.cnf+e9c459c0,0,1341.22,142480,25370,11853217,15198988,1044839435,UNSATISFIABLE,
glucose_run.sh+rbcl_xits_14_SAT.cnf+6c39a114,0,0.94,22180,36,20378,27810,1321956,SATISFIABLE,
glucose_run.sh+rbsat-v1150c84314gyes10.cnf+a2f3ea47,0,3697.94,233968
glucose_run.sh+rbsat-v1150c84314gyes4.cnf+9a10fc06,0,3698.32,239564
glucose_run.sh+rbsat-v1150c84314gyes5.cnf+9a1f1387,0,3698.12,254232
glucose_run.sh+rbsat-v1150c84314gyes7.cnf+9a3b4289,0,3698.57,237544
glucose_run.sh+rbsat-v945c61409g10.cnf+96924f03,0,3698.23,234412
glucose_run.sh+rbsat-v945c61409gyes5.cnf+d95291d2,0,3698.3,228340
glucose_run.sh+reg_s_2_unknown.cnf+ca6836ff,0,1375.05,293692,6252,3506493,4755531,4769043830,UNSATISFIABLE,
glucose_run.sh+rnd-v25-e13-k3.cnf+2801228a,0,0.43,50076,4,683,7223,247029,SATISFIABLE,
glucose_run.sh+rnd-v25-e178-k13.cnf+c88a5629,0,3129.26,283376,24826,6659933,21569865,3890041740,SATISFIABLE,
glucose_run.sh+rnd-v25-e212-k9.cnf+3b996e2b,0,680.45,221528,6746,2768555,7648184,1565889788,UNSATISFIABLE,
glucose_run.sh+rnd-v25-e81-k9.cnf+66725ed9,0,126.56,102280,1807,574326,2812196,354717431,SATISFIABLE,
glucose_run.sh+rook-40-0-0.cnf+7aefd1cd,0,124.83,94800,2808,1065255,6389445,599165607,UNSATISFIABLE,
glucose_run.sh+rook-40-0-1.cnf+7afde94e,0,888.53,182364,447,2975700,7496548,2108293785,UNSATISFIABLE,
glucose_run.sh+rook-42-0-0.cnf+a378afcf,0,410.06,166080,7008,2654639,12621381,1850945792,UNSATISFIABLE,
glucose_run.sh+rook-42-0-1.cnf+a386c750,0,412.39,167284,4714,2575563,10361192,1749306220,UNSATISFIABLE,
glucose_run.sh+rook-42-1-1.cnf+d86d0291,0,195.0,106276,4946,2079105,6146868,794314910,UNSATISFIABLE,
glucose_run.sh+rook-44-0-1.cnf+cc0fa552,0,392.67,175812,5453,2491208,12078348,1733971853,UNSATISFIABLE,
glucose_run.sh+rook-44-1-1.cnf+f5e093,0,172.13,106372,5177,1737871,5767396,620118915,UNSATISFIABLE,
glucose_run.sh+rook-46-1-1.cnf+297ebe95,0,410.32,180340,9513,3738827,11503197,1410099199,UNSATISFIABLE,
glucose_run.sh+rook-47-0-1.cnf+88dcf255,0,1393.37,281280,3078,5786190,19119127,4738615470,UNSATISFIABLE,
glucose_run.sh+rook-47-1-1.cnf+bdc32d96,0,260.65,157976,8290,2452333,8845067,918023437,UNSATISFIABLE,
glucose_run.sh+rook-48-0-1.cnf+1d216156,0,368.17,171228,5554,2345519,14201616,1593107480,UNSATISFIABLE,
glucose_run.sh+rook-49-1-1.cnf+e64c0b98,0,655.65,183652,12378,5084013,14897834,1983840643,UNSATISFIABLE,
glucose_run.sh+rook-50-0-0.cnf+6f3942ec,0,1214.98,252524,17379,5439501,28926874,4615503984,UNSATISFIABLE,
glucose_run.sh+rook-51-0-0.cnf+37db1ed,0,824.96,222736,14528,4612361,25913699,3351899379,UNSATISFIABLE,
glucose_run.sh+rook-52-0-1.cnf+97d0386f,0,1249.09,256500,13516,5465573,31106528,4710088541,UNSATISFIABLE,
glucose_run.sh+rook-54-0-0.cnf+c04afef0,0,1079.42,258108,18347,5732262,33961699,4748063316,UNSATISFIABLE,
glucose_run.sh+rook-54-1-1.cnf+f53f51b2,0,725.93,246592,16604,5129304,18025667,2238525068,UNSATISFIABLE,
glucose_run.sh+rook-55-0-1.cnf+549d8572,0,3698.82,490580
glucose_run.sh+rook-56-0-0.cnf+e8d3dcf2,0,2161.34,396080,27527,7516962,48813612,6844248385,UNSATISFIABLE,
glucose_run.sh+rook-56-1-1.cnf+1dc82fb4,0,442.61,197672,13513,3847115,15038889,1597015335,UNSATISFIABLE,
glucose_run.sh+rook-57-1-1.cnf+b20c9eb5,0,1178.9,298256,21228,7391226,24755344,3106108088,UNSATISFIABLE,
glucose_run.sh+rook-58-1-1.cnf+46510db6,0,1045.47,277808,21761,6252832,24442724,2818006548,UNSATISFIABLE,
glucose_run.sh+rook-59-1-1.cnf+da957cb7,0,1863.7,313756,28179,8301808,29505159,3970779151,UNSATISFIABLE,
glucose_run.sh+rook-60-0-1.cnf+6390cb8c,0,3229.99,377140,29326,11080480,72013681,11979191780,UNSATISFIABLE,
glucose_run.sh+rook-61-1-1.cnf+2cbb75ce,0,2092.14,327536,31955,9850387,36944530,5104603219,UNSATISFIABLE,
glucose_run.sh+rook-63-1-1.cnf+554453d0,0,1568.12,315652,25432,7917776,29717724,3882547607,UNSATISFIABLE,
glucose_run.sh+rook-65-1-1.cnf+7dcd31d2,0,1125.04,312628,21938,6760872,27095926,3407772072,UNSATISFIABLE,
glucose_run.sh+rook-68-1-1.cnf+3a9a7ed5,0,2561.94,395024,36077,11204805,42968149,6568887964,UNSATISFIABLE,
glucose_run.sh+rook-72-1-1.cnf+b54955ee,0,1671.8,397112,28111,8690517,37576091,4725065615,UNSATISFIABLE,
glucose_run.sh+rook-76-1-1.cnf+65b11f2,0,2841.17,488188,47457,12829559,59194298,7418035029,UNSATISFIABLE,
glucose_run.sh+rpoc_xits_15_SAT.cnf+64b97038,0,1.12,24964,28,17134,23284,854973,SATISFIABLE,
glucose_run.sh+rpoc_xits_15_SAT.cnf+a0ad340e,0,1.04,26024,28,17134,23284,854973,SATISFIABLE,
glucose_run.sh+sat-grid-pbl-0200.sat05-1339.reshuffled-07.cnf+b92b1d8e,0,0.16,19376,1,0,1,2,SATISFIABLE,
glucose_run.sh+sgen1-sat-230-100.cnf+f159c52a,0,3698.34,147020
glucose_run.sh+sgen1-sat-240-100.cnf+e5a33649,0,3697.52,135484
glucose_run.sh+sgen1-sat-250-100.cnf+d9eca768,0,3698.06,167228
glucose_run.sh+sgen1-sat-270-100.cnf+c27f89a6,0,3698.58,141968
glucose_run.sh+sgen3-n200-s39840374-sat.cnf+7cac851f,0,3697.85,127224
glucose_run.sh+sgen3-n220-s24359701-sat.cnf+5c458d9e,0,3698.9,143588
glucose_run.sh+sgen3-n240-s78945233-sat.cnf+55a70a12,0,3698.1,143988
glucose_run.sh+sgen4-sat-160-8.cnf+c838c550,0,3420.19,136252,12778,6410585,7528785,135508580,SATISFIABLE,
glucose_run.sh+sgen4-sat-200-8.cnf+ed362717,0,3697.26,141164
glucose_run.sh+sgen4-sat-220-8.cnf+bcf880d5,0,3697.58,132628
glucose_run.sh+sgen6-1080-5-1.cnf+32f09b5a,0,3699.12,135796
glucose_run.sh+sgen6-1200-5-1.cnf+ba6e77e4,0,3698.34,137632
glucose_run.sh+sgen6-1320-5-1.cnf+37e60ce3,0,3698.68,140764
glucose_run.sh+sgen6-1440-5-1.cnf+b55da1e2,0,3699.0,158724
glucose_run.sh+sgen6-840-5-1.cnf+6b38bde3,0,1093.08,75440,3899,3187320,3659198,60927343,UNSATISFIABLE,
glucose_run.sh+sgen6-960-5-1.cnf+e8b052e2,0,3699.33,120292
glucose_run.sh+shift1add.10000.cnf+4e7867ec,0,30.7,97692,470,60435,37963242,116548888,UNSATISFIABLE,
glucose_run.sh+shift1add.13988.cnf+704b84d2,0,93.72,137428,691,72547,210489288,416533995,UNSATISFIABLE,
glucose_run.sh+shift1add.15982.cnf+3fb9518a,0,138.84,154204,730,90912,330278593,596221449,UNSATISFIABLE,
glucose_run.sh+shift1add.18973.cnf+75b61709,0,92.08,193460,872,110240,128311949,394235850,UNSATISFIABLE,
glucose_run.sh+shift1add.21964.cnf+312b8ad3,0,191.3,222572,1163,128737,396838151,882386155,UNSATISFIABLE,
glucose_run.sh+shift1add.24955.cnf+67285052,0,323.33,238936,921,134300,688327938,1311138223,UNSATISFIABLE,
glucose_run.sh+shift1add.25952.cnf+cedf36ae,0,240.1,247164,1183,139981,570198484,1007403777,UNSATISFIABLE,
glucose_run.sh+shift1add.29940.cnf+6c92e289,0,332.37,281504,1375,163475,602134096,1231025220,UNSATISFIABLE,
glucose_run.sh+slp-synthesis-aes-top28.cnf+a9190907,0,3698.33,202740
glucose_run.sh+slp-synthesis-aes-top29.cnf+a9272088,0,3698.2,207480
glucose_run.sh+smtlib-qfbv-aigs-ext_con_032_008_0256-tseitin.cnf+a9835ace,0,3696.23,463584
glucose_run.sh+smtlib-qfbv-aigs-lfsr_004_127_112-tseitin.cnf+759573f1,0,4.15,175968,136,38761,224776,9820113,UNSATISFIABLE,
glucose_run.sh+stable-300-0.1-20-98765432130020.cnf+96e55126,0,442.23,121272,1105,1987350,2584178,47843055,SATISFIABLE,
glucose_run.sh+stable-400-0.1-11-98765432140011.cnf+2ddbc468,0,3697.83,236456
glucose_run.sh+stable-400-0.1-12-98765432140012.cnf+158bb248,0,3697.97,242544
glucose_run.sh+stable-400-0.1-2-9876543214002.cnf+6c46c274,0,3696.28,237872
glucose_run.sh+stable-400-0.1-4-9876543214004.cnf+7b7b4f8,0,3696.44,245872
glucose_run.sh+stable-400-0.1-5-9876543214005.cnf+d5702e3a,0,3697.51,236800
glucose_run.sh+stable-400-0.1-7-9876543214007.cnf+70e120be,0,2529.51,218244,15954,5382993,8634198,138140400,SATISFIABLE,
glucose_run.sh+total-10-13-u.cnf+ee629928,0,441.24,154788,3417,939598,1486231,950409092,UNSATISFIABLE,
glucose_run.sh+toughsat_factoring_155s.cnf+54a9cf59,0,34.17,27116,1158,340092,411680,77377543,SATISFIABLE,
glucose_run.sh+toughsat_factoring_426s.cnf+ef4f7cd2,0,191.93,56852,2286,1207586,1369841,330488330,SATISFIABLE,
glucose_run.sh+toughsat_factoring_958s.cnf+98d1c02e,0,311.14,67660,2935,1546254,1708875,409663272,SATISFIABLE,
glucose_run.sh+toughsat_factoring_inf.cnf+e86c22a4,0,3698.72,143760
glucose_run.sh+tph17.cnf+5f87ad69,0,3695.76,349300
glucose_run.sh+transport-transport-city-sequential-25nodes-1000size-3degree-100mindistance-3trucks-10packages-2008seed.020-NOTKNOWN.cnf+9bdabfbb,0,8.94,161516,26,9852,123384,28640248,SATISFIABLE,
glucose_run.sh+transport-transport-city-sequential-25nodes-1000size-3degree-100mindistance-3trucks-10packages-2008seed.030-NOTKNOWN.cnf+f5b629fc,0,41.18,297320,147,37749,737325,105172098,SATISFIABLE,
glucose_run.sh+transport-transport-city-sequential-25nodes-1000size-3degree-100mindistance-3trucks-10packages-2008seed.040-NOTKNOWN.cnf+4f91943d,0,58.9,379544,206,55167,1049829,133973893,SATISFIABLE,
glucose_run.sh+transport-transport-city-sequential-25nodes-1000size-3degree-100mindistance-3trucks-10packages-2008seed.050-NOTKNOWN.cnf+a96cfe7e,0,51.09,455816,83,40310,892795,89475995,SATISFIABLE,
glucose_run.sh+transport-transport-city-sequential-35nodes-1000size-4degree-100mindistance-4trucks-14packages-2008seed.040-NOTKNOWN.cnf+d1a1d6c0,0,1185.98,1444260,1065,398464,11955478,1825420150,SATISFIABLE,
glucose_run.sh+velev-vliw-uns-2.0-uq5.cnf+7ac68984,0,273.88,279664,7321,1378863,40558210,1921392157,UNSATISFIABLE,
glucose_run.sh+velev-vliw-uns-4.0-9-i1.cnf+e04db769,0,463.58,379608,11652,2263011,52329801,3455731327,UNSATISFIABLE,
glucose_run.sh+velev-vliw-uns-4.0-9.cnf+d6a89a26,0,87.78,202544,3099,556537,12141067,583937681,UNSATISFIABLE,
glucose_run.sh+vmpc_29.cnf+c06f3675,0,79.09,64516,5972,1270701,2728971,170168672,SATISFIABLE,
glucose_run.sh+vmpc_32.renamed-as.sat05-1919.cnf+ae5b8ba6,0,2712.04,161432,77649,14384875,30226108,2174644423,SATISFIABLE,
glucose_run.sh+vmpc_33.cnf+c1cf820e,0,89.05,76296,6645,1332818,3132395,219097444,SATISFIABLE,
glucose_run.sh+x1_40.shuffled.cnf+df08a26f,0,27.15,41956,269,1746879,2149862,6828706,UNSATISFIABLE,
glucose_run.sh+x1_80.shuffled.cnf+46764b73,0,3696.97,241092
glucose_run.sh+zfcp-2.8-u2-nh.cnf+810d2786,0,24.31,4815404,1,58,509532,87662012,SATISFIABLE,
